1491321281330|0|0|0|55.985241185|37.29062670333334
1491321281439|0|0|0|55.985241185|37.29062670333334
1491321281548|0|0|0|55.985241185|37.29062670333334
1491321281657|0|0|0|55.985241185|37.29062670333334
1491321281766|0|0|0|55.985241185|37.29062670333334
1491321281876|0|0|0|55.985241185|37.29062670333334
1491321281985|0|0|0|55.985241185|37.29062670333334
1491321282094|0|0|0|55.985241183333336|37.29062673333333
1491321282203|0|0|0|55.985241183333336|37.29062673333333
1491321282312|0|0|0|55.985241183333336|37.29062673333333
1491321282422|0|0|0|55.985241183333336|37.29062673333333
1491321282531|0|0|0|55.985241183333336|37.29062673333333
1491321282640|0|0|0|55.985241183333336|37.29062673333333
1491321282749|0|0|0|55.985241183333336|37.29062673333333
1491321282858|0|0|0|55.985241183333336|37.29062673333333
1491321282968|0|0|0|55.985241183333336|37.29062673333333
1491321283077|0|0|0|55.985241183333336|37.29062673333333
1491321283186|0|0|0|55.985241183333336|37.29062673333333
1491321283295|0|0|0|55.985241183333336|37.29062673333333
1491321283404|0|0|0|55.985241183333336|37.29062673333333
1491321283514|0|0|0|55.985241183333336|37.29062673333333
1491321283623|0|0|0|55.98524119|37.29062674166667
1491321283732|0|0|0|55.98524119|37.29062674166667
1491321283841|0|0|0|55.98524119|37.29062674166667
1491321283950|0|0|0|55.98524119|37.29062674166667
1491321284060|0|0|0|55.98524119|37.29062674166667
1491321284169|0|0|0|55.98524119|37.29062674166667
1491321284278|0|0|0|55.98524119|37.29062674166667
1491321284387|0|0|0|55.98524119|37.29062674166667
1491321284496|0|0|0|55.98524119|37.29062674166667
1491321284606|0|0|0|55.98524119|37.29062674166667
1491321284715|0|0|0|55.98524119|37.29062674166667
1491321284824|0|0|0|55.98524119|37.29062674166667
1491321284933|0|0|0|55.98524119|37.29062674166667
1491321285042|0|0|0|55.98524119|37.29062674166667
1491321285152|0|0|0|55.98524119|37.29062674166667
1491321285261|0|0|0|55.985241185|37.29062672333334
1491321285370|0|0|0|55.985241185|37.29062672333334
1491321285479|0|0|0|55.985241185|37.29062672333334
1491321285588|0|0|0|55.985241185|37.29062672333334
1491321285698|0|0|0|55.985241185|37.29062672333334
1491321285807|0|0|0|55.985241185|37.29062672333334
1491321285916|0|0|0|55.985241185|37.29062672333334
1491321286025|0|0|0|55.985241185|37.29062672333334
1491321286134|0|0|0|55.985241185|37.29062672333334
1491321286244|0|0|0|55.985241185|37.29062672333334
1491321286353|0|0|0|55.985241185|37.29062672333334
1491321286462|0|0|0|55.985241185|37.29062672333334
1491321286571|0|0|0|55.985241185|37.29062672333334
1491321286680|0|0|0|55.985241185|37.29062672333334
1491321286790|0|0|0|55.98524119|37.29062672
1491321286899|0|0|0|55.98524119|37.29062672
1491321287039|0|0|0|55.98524119|37.29062672
1491321287148|0|0|0|55.98524119|37.29062672
1491321287258|0|0|0|55.98524119|37.29062672
1491321287367|0|0|0|55.98524119|37.29062672
1491321287492|0|0|0|55.98524119|37.29062672
1491321287601|0|0|0|55.98524119|37.29062672
1491321287710|0|0|0|55.98524119|37.29062672
1491321287819|0|0|0|55.98524119|37.29062672
1491321287928|0|0|0|55.98524119|37.29062672
1491321288038|0|0|0|55.98524119|37.29062672
1491321288147|0|0|0|55.98524119|37.29062672
1491321288256|0|0|0|55.98524119|37.29062672
1491321288365|0|0|0|55.98524121166667|37.29062672333334
1491321288474|0|0|0|55.98524121166667|37.29062672333334
1491321288584|0|0|0|55.98524121166667|37.29062672333334
1491321288693|0|0|0|55.98524121166667|37.29062672333334
1491321288802|0|0|0|55.98524121166667|37.29062672333334
1491321288911|0|0|0|55.98524121166667|37.29062672333334
1491321289020|0|0|0|55.98524121166667|37.29062672333334
1491321289130|0|0|0|55.98524121166667|37.29062672333334
1491321289239|0|0|0|55.98524121166667|37.29062672333334
1491321289348|0|0|0|55.98524121166667|37.29062672333334
1491321289457|0|0|0|55.98524121166667|37.29062672333334
1491321289566|0|0|0|55.98524121166667|37.29062672333334
1491321289676|0|0|0|55.98524121166667|37.29062672333334
1491321289785|0|0|0|55.98524121166667|37.29062672333334
1491321289894|0|0|0|55.98524121166667|37.29062672333334
1491321290003|0|0|0|55.98524125166667|37.29062676666667
1491321290112|0|0|0|55.98524125166667|37.29062676666667
1491321290222|0|0|0|55.98524125166667|37.29062676666667
1491321290331|0|0|0|55.98524125166667|37.29062676666667
1491321290440|0|0|0|55.98524125166667|37.29062676666667
1491321290549|0|0|0|55.98524125166667|37.29062676666667
1491321290658|0|0|0|55.98524125166667|37.29062676666667
1491321290768|0|0|0|55.98524125166667|37.29062676666667
1491321290877|0|0|0|55.98524125166667|37.29062676666667
1491321290986|0|0|0|55.98524125166667|37.29062676666667
1491321291095|0|0|0|55.98524125166667|37.29062676666667
1491321291204|0|0|0|55.98524125166667|37.29062676666667
1491321291314|0|0|0|55.98524125166667|37.29062676666667
1491321291423|0|0|0|55.98524125166667|37.29062676666667
1491321291532|0|0|0|55.985241255000005|37.29062675
1491321291641|0|0|0|55.985241255000005|37.29062675
1491321291750|0|0|0|55.985241255000005|37.29062675
1491321291860|0|0|0|55.985241255000005|37.29062675
1491321291969|0|0|0|55.985241255000005|37.29062675
1491321292078|0|0|0|55.985241255000005|37.29062675
1491321292187|0|0|0|55.985241255000005|37.29062675
1491321292296|0|0|0|55.985241255000005|37.29062675
1491321292406|0|0|0|55.985241255000005|37.29062675
1491321292515|0|0|0|55.985241255000005|37.29062675
1491321292624|0|0|0|55.985241255000005|37.29062675
1491321292733|0|0|0|55.985241255000005|37.29062675
1491321292842|0|0|0|55.985241255000005|37.29062675
1491321292952|0|0|0|55.985241255000005|37.29062675
1491321293061|0|0|0|55.985241255000005|37.29062675
1491321293170|0|0|0|55.985241223333325|37.29062673833334
1491321293279|0|0|0|55.985241223333325|37.29062673833334
1491321293388|0|0|0|55.985241223333325|37.29062673833334
1491321293498|0|0|0|55.985241223333325|37.29062673833334
1491321293607|0|0|0|55.985241223333325|37.29062673833334
1491321293716|0|0|0|55.985241223333325|37.29062673833334
1491321293825|0|0|0|55.985241223333325|37.29062673833334
1491321293934|0|0|0|55.985241223333325|37.29062673833334
1491321294044|0|0|0|55.985241223333325|37.29062673833334
1491321294153|0|0|0|55.985241223333325|37.29062673833334
1491321294262|0|0|0|55.985241223333325|37.29062673833334
1491321294371|0|0|0|55.985241223333325|37.29062673833334
1491321294480|0|0|0|55.985241223333325|37.29062673833334
1491321294590|0|0|0|55.985241223333325|37.29062673833334
1491321294714|0|-4|0|55.985241186666656|37.29062673
1491321294824|0|-5|0|55.985241186666656|37.29062673
1491321294933|0|-6|0|55.985241186666656|37.29062673
1491321295042|0|-6|0|55.985241186666656|37.29062673
1491321295151|0|-7|0|55.985241186666656|37.29062673
1491321295260|0|-8|0|55.985241186666656|37.29062673
1491321295370|0|-8|0|55.985241186666656|37.29062673
1491321295479|0|-9|0|55.985241186666656|37.29062673
1491321295588|0|-9|0|55.985241186666656|37.29062673
1491321295697|0|-6|0|55.985241186666656|37.29062673
1491321295806|0|0|0|55.985241186666656|37.29062673
1491321295916|0|1|0|55.985241186666656|37.29062673
1491321296025|0|1|0|55.985241186666656|37.29062673
1491321296134|0|1|0|55.985241186666656|37.29062673
1491321296243|0|1|0|55.985241186666656|37.29062673
1491321296352|0|1|0|55.985241165|37.29062671166667
1491321296462|0|1|0|55.985241165|37.29062671166667
1491321296571|0|1|0|55.985241165|37.29062671166667
1491321296680|0|2|0|55.985241165|37.29062671166667
1491321296789|0|3|0|55.985241165|37.29062671166667
1491321296898|0|3|0|55.985241165|37.29062671166667
1491321297008|0|5|0|55.985241165|37.29062671166667
1491321297117|0|6|0|55.985241165|37.29062671166667
1491321297226|0|7|0|55.985241165|37.29062671166667
1491321297335|0|7|0|55.985241165|37.29062671166667
1491321297444|0|7|0|55.985241165|37.29062671166667
1491321297554|0|7|0|55.985241165|37.29062671166667
1491321297663|0|7|0|55.985241165|37.29062671166667
1491321297772|0|7|0|55.985241165|37.29062671166667
1491321297881|0|7|0|55.985241161666664|37.290626679999995
1491321297990|0|7|0|55.985241161666664|37.290626679999995
1491321298100|0|7|0|55.985241161666664|37.290626679999995
1491321298209|0|7|0|55.985241161666664|37.290626679999995
1491321298318|0|7|0|55.985241161666664|37.290626679999995
1491321298427|0|7|0|55.985241161666664|37.290626679999995
1491321298536|0|7|0|55.985241161666664|37.290626679999995
1491321298646|0|7|0|55.985241161666664|37.290626679999995
1491321298755|0|6|0|55.985241161666664|37.290626679999995
1491321298864|0|6|0|55.985241161666664|37.290626679999995
1491321298973|0|5|0|55.985241161666664|37.290626679999995
1491321299082|0|5|0|55.985241161666664|37.290626679999995
1491321299192|0|5|0|55.985241161666664|37.290626679999995
1491321299301|0|5|0|55.985241161666664|37.290626679999995
1491321299410|0|5|0|55.985241161666664|37.290626679999995
1491321299519|0|5|0|55.985241176666655|37.29062670333334
1491321299628|0|5|0|55.985241176666655|37.29062670333334
1491321299738|0|5|0|55.985241176666655|37.29062670333334
1491321299847|0|5|0|55.985241176666655|37.29062670333334
1491321299956|0|5|0|55.985241176666655|37.29062670333334
1491321300065|0|5|0|55.985241176666655|37.29062670333334
1491321300174|0|5|0|55.985241176666655|37.29062670333334
1491321300284|0|5|0|55.985241176666655|37.29062670333334
1491321300393|0|5|0|55.985241176666655|37.29062670333334
1491321300502|0|5|0|55.985241176666655|37.29062670333334
1491321300611|0|5|0|55.985241176666655|37.29062670333334
1491321300720|0|5|0|55.985241176666655|37.29062670333334
1491321300830|0|5|0|55.985241176666655|37.29062670333334
1491321300939|0|5|0|55.985241176666655|37.29062670333334
1491321301048|0|5|0|55.985241176666655|37.29062670333334
1491321301157|0|5|0|55.985241215|37.29062679833333
1491321301266|0|5|0|55.985241215|37.29062679833333
1491321301376|0|5|0|55.985241215|37.29062679833333
1491321301485|0|5|0|55.985241215|37.29062679833333
1491321301594|0|5|0|55.985241215|37.29062679833333
1491321301703|0|5|0|55.985241215|37.29062679833333
1491321301813|0|5|0|55.985241215|37.29062679833333
1491321301922|0|5|0|55.985241215|37.29062679833333
1491321302031|0|5|0|55.985241215|37.29062679833333
1491321302140|0|5|0|55.985241215|37.29062679833333
1491321302249|0|5|0|55.985241215|37.29062679833333
1491321302359|0|5|0|55.985241215|37.29062679833333
1491321302468|0|5|0|55.985241215|37.29062679833333
1491321302577|0|5|0|55.985241215|37.29062679833333
1491321302686|0|5|0|55.98524123833334|37.290626841666665
1491321302795|0|5|0|55.98524123833334|37.290626841666665
1491321302905|0|5|0|55.98524123833334|37.290626841666665
1491321303014|0|5|0|55.98524123833334|37.290626841666665
1491321303123|0|5|0|55.98524123833334|37.290626841666665
1491321303232|0|5|0|55.98524123833334|37.290626841666665
1491321303341|0|5|0|55.98524123833334|37.290626841666665
1491321303451|0|5|0|55.98524123833334|37.290626841666665
1491321303560|0|5|0|55.98524123833334|37.290626841666665
1491321303669|0|5|0|55.98524123833334|37.290626841666665
1491321303778|0|5|0|55.98524123833334|37.290626841666665
1491321303887|0|5|0|55.98524123833334|37.290626841666665
1491321303997|0|5|0|55.98524123833334|37.290626841666665
1491321304106|0|5|0|55.98524123833334|37.290626841666665
1491321304215|0|5|0|55.98524123833334|37.290626841666665
1491321304324|0|5|0|55.98524123833334|37.29062685333333
1491321304433|0|5|0|55.98524123833334|37.29062685333333
1491321304543|0|5|0|55.98524123833334|37.29062685333333
1491321304652|0|5|0|55.98524123833334|37.29062685333333
1491321304761|0|5|0|55.98524123833334|37.29062685333333
1491321304870|0|5|0|55.98524123833334|37.29062685333333
1491321304979|0|5|0|55.98524123833334|37.29062685333333
1491321305089|0|5|0|55.98524123833334|37.29062685333333
1491321305198|0|5|0|55.98524123833334|37.29062685333333
1491321305307|0|5|0|55.98524123833334|37.29062685333333
1491321305416|0|5|0|55.98524123833334|37.29062685333333
1491321305525|0|5|0|55.98524123833334|37.29062685333333
1491321305635|0|5|0|55.98524123833334|37.29062685333333
1491321305744|0|5|0|55.98524123833334|37.29062685333333
1491321305853|0|5|0|55.98524120833334|37.29062681666667
1491321305962|0|5|0|55.98524120833334|37.29062681666667
1491321306071|0|5|0|55.98524120833334|37.29062681666667
1491321306181|0|5|0|55.98524120833334|37.29062681666667
1491321306290|0|5|0|55.98524120833334|37.29062681666667
1491321306399|0|5|0|55.98524120833334|37.29062681666667
1491321306508|0|5|0|55.98524120833334|37.29062681666667
1491321306617|0|5|0|55.98524120833334|37.29062681666667
1491321306727|0|5|0|55.98524120833334|37.29062681666667
1491321306836|0|5|0|55.98524120833334|37.29062681666667
1491321306945|0|5|0|55.98524120833334|37.29062681666667
1491321307054|0|5|0|55.98524120833334|37.29062681666667
1491321307163|0|5|0|55.98524120833334|37.29062681666667
1491321307273|0|5|0|55.98524120833334|37.29062681666667
1491321307382|0|5|0|55.98524120833334|37.29062681666667
1491321307491|0|5|0|55.98524119|37.290626763333336
1491321307600|0|5|0|55.98524119|37.290626763333336
1491321307709|0|5|0|55.98524119|37.290626763333336
1491321307819|0|5|0|55.98524119|37.290626763333336
1491321307928|0|5|0|55.98524119|37.290626763333336
1491321308037|0|5|0|55.98524119|37.290626763333336
1491321308146|0|3|0|55.98524119|37.290626763333336
1491321308255|0|-6|0|55.98524119|37.290626763333336
1491321308365|0|-11|0|55.98524119|37.290626763333336
1491321308474|0|-12|0|55.98524119|37.290626763333336
1491321308583|0|-6|0|55.98524119|37.290626763333336
1491321308692|0|2|0|55.98524119|37.290626763333336
1491321308801|0|12|0|55.98524119|37.290626763333336
1491321308911|0|15|0|55.98524119|37.290626763333336
1491321309020|0|15|0|55.985241203333324|37.29062678500001
1491321309129|0|14|0|55.985241203333324|37.29062678500001
1491321309238|0|5|0|55.985241203333324|37.29062678500001
1491321309347|0|-3|0|55.985241203333324|37.29062678500001
1491321309457|0|-10|0|55.985241203333324|37.29062678500001
1491321309566|0|-10|0|55.985241203333324|37.29062678500001
1491321309675|0|-10|0|55.985241203333324|37.29062678500001
1491321309784|0|0|0|55.985241203333324|37.29062678500001
1491321309893|0|10|0|55.985241203333324|37.29062678500001
1491321310003|0|13|0|55.985241203333324|37.29062678500001
1491321310112|0|13|0|55.985241203333324|37.29062678500001
1491321310221|0|13|0|55.985241203333324|37.29062678500001
1491321310330|0|5|0|55.985241203333324|37.29062678500001
1491321310439|0|-1|0|55.985241203333324|37.29062678500001
1491321310549|0|-5|0|55.985241203333324|37.29062678500001
1491321310658|0|-5|0|55.98524120833334|37.290626768333325
1491321310767|0|-2|0|55.98524120833334|37.290626768333325
1491321310876|0|0|0|55.98524120833334|37.290626768333325
1491321310985|0|0|0|55.98524120833334|37.290626768333325
1491321311095|0|1|0|55.98524120833334|37.290626768333325
1491321311204|0|7|0|55.98524120833334|37.290626768333325
1491321311313|0|11|0|55.98524120833334|37.290626768333325
1491321311422|0|13|0|55.98524120833334|37.290626768333325
1491321311531|0|15|0|55.98524120833334|37.290626768333325
1491321311641|0|16|0|55.98524120833334|37.290626768333325
1491321311750|0|17|0|55.98524120833334|37.290626768333325
1491321311859|0|17|0|55.98524120833334|37.290626768333325
1491321311968|0|17|0|55.98524120833334|37.290626768333325
1491321312077|0|17|0|55.98524120833334|37.290626768333325
1491321312187|0|15|0|55.985241205|37.290626743333334
1491321312296|0|13|0|55.985241205|37.290626743333334
1491321312405|0|10|0|55.985241205|37.290626743333334
1491321312514|0|8|0|55.985241205|37.290626743333334
1491321312623|0|5|0|55.985241205|37.290626743333334
1491321312733|0|2|0|55.985241205|37.290626743333334
1491321312842|0|1|0|55.985241205|37.290626743333334
1491321312951|0|0|0|55.985241205|37.290626743333334
1491321313060|0|0|0|55.985241205|37.290626743333334
1491321313169|0|0|0|55.985241205|37.290626743333334
1491321313279|0|3|0|55.985241205|37.290626743333334
1491321313388|0|4|0|55.985241205|37.290626743333334
1491321313497|0|5|0|55.985241205|37.290626743333334
1491321313606|0|5|0|55.985241205|37.290626743333334
1491321313715|0|5|0|55.985241205|37.290626743333334
1491321313825|0|5|0|55.98524119833334|37.290626755000005
1491321313934|0|5|0|55.98524119833334|37.290626755000005
1491321314043|0|5|0|55.98524119833334|37.290626755000005
1491321314152|0|5|0|55.98524119833334|37.290626755000005
1491321314261|0|5|0|55.98524119833334|37.290626755000005
1491321314371|0|5|0|55.98524119833334|37.290626755000005
1491321314480|0|5|0|55.98524119833334|37.290626755000005
1491321314589|0|5|0|55.98524119833334|37.290626755000005
1491321314698|0|5|0|55.98524119833334|37.290626755000005
1491321314807|0|5|0|55.98524119833334|37.290626755000005
1491321314917|0|5|0|55.98524119833334|37.290626755000005
1491321315026|0|9|0|55.98524119833334|37.290626755000005
1491321315135|0|34|0|55.98524119833334|37.290626755000005
1491321315244|0|37|0|55.98524119833334|37.290626755000005
1491321315353|0|37|0|55.98524119666666|37.29062678833333
1491321315463|0|36|0|55.98524119666666|37.29062678833333
1491321315572|0|36|0|55.98524119666666|37.29062678833333
1491321315681|0|36|0|55.98524119666666|37.29062678833333
1491321315790|0|35|0|55.98524119666666|37.29062678833333
1491321315899|0|2|0|55.98524119666666|37.29062678833333
1491321316009|0|-13|0|55.98524119666666|37.29062678833333
1491321316118|0|-13|0|55.98524119666666|37.29062678833333
1491321316227|0|-13|0|55.98524119666666|37.29062678833333
1491321316336|0|-11|0|55.98524119666666|37.29062678833333
1491321316445|0|-9|0|55.98524119666666|37.29062678833333
1491321316555|0|0|0|55.98524119666666|37.29062678833333
1491321316664|0|4|0|55.98524119666666|37.29062678833333
1491321316773|0|4|0|55.98524119666666|37.29062678833333
1491321316882|0|4|0|55.98524119666666|37.29062678833333
1491321316991|0|4|0|55.98524121666666|37.29062681833333
1491321317101|0|5|0|55.98524121666666|37.29062681833333
1491321317210|0|10|0|55.98524121666666|37.29062681833333
1491321317319|0|12|0|55.98524121666666|37.29062681833333
1491321317428|0|12|0|55.98524121666666|37.29062681833333
1491321317537|0|12|0|55.98524121666666|37.29062681833333
1491321317647|0|12|0|55.98524121666666|37.29062681833333
1491321317756|0|11|0|55.98524121666666|37.29062681833333
1491321317865|0|10|0|55.98524121666666|37.29062681833333
1491321317974|0|10|0|55.98524121666666|37.29062681833333
1491321318083|0|10|0|55.98524121666666|37.29062681833333
1491321318193|0|10|0|55.98524121666666|37.29062681833333
1491321318302|0|10|0|55.98524121666666|37.29062681833333
1491321318411|0|10|0|55.98524121666666|37.29062681833333
1491321318520|0|10|0|55.98524124166667|37.290626831666664
1491321318629|0|10|0|55.98524124166667|37.290626831666664
1491321318739|0|10|0|55.98524124166667|37.290626831666664
1491321318848|0|10|0|55.98524124166667|37.290626831666664
1491321318957|0|10|0|55.98524124166667|37.290626831666664
1491321319066|0|10|0|55.98524124166667|37.290626831666664
1491321319175|0|10|0|55.98524124166667|37.290626831666664
1491321319285|0|10|0|55.98524124166667|37.290626831666664
1491321319394|0|10|0|55.98524124166667|37.290626831666664
1491321319503|0|10|0|55.98524124166667|37.290626831666664
1491321319612|0|10|0|55.98524124166667|37.290626831666664
1491321319721|0|10|0|55.98524124166667|37.290626831666664
1491321319831|0|10|0|55.98524124166667|37.290626831666664
1491321319940|0|10|0|55.98524124166667|37.290626831666664
1491321320049|0|10|0|55.98524124166667|37.290626831666664
1491321320158|0|10|0|55.98524121166667|37.290626836666675
1491321320267|0|10|0|55.98524121166667|37.290626836666675
1491321320377|0|10|0|55.98524121166667|37.290626836666675
1491321320486|0|10|0|55.98524121166667|37.290626836666675
1491321320595|0|10|0|55.98524121166667|37.290626836666675
1491321320704|0|10|0|55.98524121166667|37.290626836666675
1491321320813|0|10|0|55.98524121166667|37.290626836666675
1491321320923|0|10|0|55.98524121166667|37.290626836666675
1491321321032|0|10|0|55.98524121166667|37.290626836666675
1491321321141|0|10|0|55.98524121166667|37.290626836666675
1491321321250|0|10|0|55.98524121166667|37.290626836666675
1491321321359|0|10|0|55.98524121166667|37.290626836666675
1491321321469|0|10|0|55.98524121166667|37.290626836666675
1491321321578|0|10|0|55.98524121166667|37.290626836666675
1491321321687|0|10|0|55.98524119166667|37.290626855
1491321321796|0|10|0|55.98524119166667|37.290626855
1491321321905|0|10|0|55.98524119166667|37.290626855
1491321322015|0|10|0|55.98524119166667|37.290626855
1491321322124|0|10|0|55.98524119166667|37.290626855
1491321322233|0|3|0|55.98524119166667|37.290626855
1491321322342|0|-1|0|55.98524119166667|37.290626855
1491321322451|0|-3|0|55.98524119166667|37.290626855
1491321322561|1|-3|0|55.98524119166667|37.290626855
1491321322670|1|-4|0|55.98524119166667|37.290626855
1491321322779|1|-4|0|55.98524119166667|37.290626855
1491321322888|1|-1|0|55.98524119166667|37.290626855
1491321322997|1|2|0|55.98524119166667|37.290626855
1491321323107|1|4|0|55.98524119166667|37.290626855
1491321323216|1|5|0|55.98524119166667|37.290626855
1491321323325|1|6|0|55.985241181666666|37.290626855
1491321323434|1|6|0|55.985241181666666|37.290626855
1491321323543|1|7|0|55.985241181666666|37.290626855
1491321323653|2|9|0|55.985241181666666|37.290626855
1491321323762|2|11|0|55.985241181666666|37.290626855
1491321323871|2|11|0|55.985241181666666|37.290626855
1491321323980|2|11|0|55.985241181666666|37.290626855
1491321324089|2|11|0|55.985241181666666|37.290626855
1491321324199|2|11|0|55.985241181666666|37.290626855
1491321324308|2|11|0|55.985241181666666|37.290626855
1491321324417|2|14|0|55.985241181666666|37.290626855
1491321324526|2|20|0|55.985241181666666|37.290626855
1491321324635|2|22|0|55.985241181666666|37.290626855
1491321324745|2|22|0|55.985241181666666|37.290626855
1491321324854|2|22|0|55.985241176666655|37.290626831666664
1491321324963|2|22|0|55.985241176666655|37.290626831666664
1491321325072|2|22|0|55.985241176666655|37.290626831666664
1491321325181|2|22|0|55.985241176666655|37.290626831666664
1491321325291|2|22|0|55.985241176666655|37.290626831666664
1491321325400|3|22|0|55.985241176666655|37.290626831666664
1491321325509|3|22|0|55.985241176666655|37.290626831666664
1491321325618|3|22|0|55.985241176666655|37.290626831666664
1491321325727|3|22|0|55.985241176666655|37.290626831666664
1491321325837|3|22|0|55.985241176666655|37.290626831666664
1491321325946|3|22|0|55.985241176666655|37.290626831666664
1491321326055|3|22|0|55.985241176666655|37.290626831666664
1491321326164|3|22|0|55.985241176666655|37.290626831666664
1491321326273|3|22|0|55.985241176666655|37.290626831666664
1491321326383|3|22|0|55.985241176666655|37.290626831666664
1491321326492|3|22|0|55.98524115666668|37.29062680333334
1491321326601|3|22|0|55.98524115666668|37.29062680333334
1491321326710|3|22|0|55.98524115666668|37.29062680333334
1491321326819|3|22|0|55.98524115666668|37.29062680333334
1491321326929|3|38|0|55.98524115666668|37.29062680333334
1491321327038|3|38|0|55.98524115666668|37.29062680333334
1491321327147|3|38|0|55.98524115666668|37.29062680333334
1491321327256|3|38|0|55.98524115666668|37.29062680333334
1491321327365|3|38|0|55.98524115666668|37.29062680333334
1491321327475|3|38|0|55.98524115666668|37.29062680333334
1491321327584|3|35|0|55.98524115666668|37.29062680333334
1491321327693|3|28|0|55.98524115666668|37.29062680333334
1491321327802|3|23|0|55.98524115666668|37.29062680333334
1491321327911|4|18|0|55.98524115666668|37.29062680333334
1491321328021|4|15|0|55.985241138333336|37.29062681333334
1491321328130|4|14|0|55.985241138333336|37.29062681333334
1491321328239|4|14|0|55.985241138333336|37.29062681333334
1491321328348|4|14|0|55.985241138333336|37.29062681333334
1491321328457|4|14|0|55.985241138333336|37.29062681333334
1491321328567|4|17|0|55.985241138333336|37.29062681333334
1491321328676|4|21|0|55.985241138333336|37.29062681333334
1491321328785|4|23|0|55.985241138333336|37.29062681333334
1491321328894|4|26|0|55.985241138333336|37.29062681333334
1491321329003|4|29|0|55.985241138333336|37.29062681333334
1491321329113|4|30|0|55.985241138333336|37.29062681333334
1491321329222|4|32|0|55.985241138333336|37.29062681333334
1491321329331|4|35|0|55.985241138333336|37.29062681333334
1491321329440|4|35|0|55.985241138333336|37.29062681333334
1491321329549|4|35|0|55.985241138333336|37.29062681333334
1491321329659|4|35|0|55.98524114666668|37.29062681833333
1491321329768|4|34|0|55.98524114666668|37.29062681833333
1491321329877|4|34|0|55.98524114666668|37.29062681833333
1491321329986|4|34|0|55.98524114666668|37.29062681833333
1491321330095|4|33|0|55.98524114666668|37.29062681833333
1491321330205|4|33|0|55.98524114666668|37.29062681833333
1491321330314|4|28|0|55.98524114666668|37.29062681833333
1491321330423|4|28|0|55.98524114666668|37.29062681833333
1491321330532|4|27|0|55.98524114666668|37.29062681833333
1491321330641|4|26|0|55.98524114666668|37.29062681833333
1491321330751|4|26|0|55.98524114666668|37.29062681833333
1491321330860|4|27|0|55.98524114666668|37.29062681833333
1491321330969|4|29|0|55.98524114666668|37.29062681833333
1491321331078|5|29|0|55.98524114666668|37.29062681833333
1491321331187|5|29|0|55.985241124999995|37.29062681166666
1491321331297|5|29|0|55.985241124999995|37.29062681166666
1491321331406|5|29|2|55.985241124999995|37.29062681166666
1491321331515|5|28|8|55.985241124999995|37.29062681166666
1491321331624|5|28|12|55.985241124999995|37.29062681166666
1491321331733|5|29|16|55.985241124999995|37.29062681166666
1491321331843|5|29|18|55.985241124999995|37.29062681166666
1491321331952|5|29|18|55.985241124999995|37.29062681166666
1491321332061|5|29|18|55.985241124999995|37.29062681166666
1491321332170|5|29|18|55.985241124999995|37.29062681166666
1491321332279|5|29|18|55.985241124999995|37.29062681166666
1491321332389|5|29|18|55.985241124999995|37.29062681166666
1491321332498|5|29|18|55.985241124999995|37.29062681166666
1491321332607|6|29|18|55.985241124999995|37.29062681166666
1491321332716|7|29|18|55.985241124999995|37.29062681166666
1491321332825|7|29|18|55.985241124999995|37.29062680333334
1491321332935|7|29|18|55.985241124999995|37.29062680333334
1491321333044|7|29|16|55.985241124999995|37.29062680333334
1491321333153|7|29|14|55.985241124999995|37.29062680333334
1491321333262|8|29|12|55.985241124999995|37.29062680333334
1491321333371|8|29|12|55.985241124999995|37.29062680333334
1491321333481|8|29|12|55.985241124999995|37.29062680333334
1491321333590|8|29|18|55.985241124999995|37.29062680333334
1491321333699|8|29|20|55.985241124999995|37.29062680333334
1491321333808|8|29|20|55.985241124999995|37.29062680333334
1491321333917|8|29|20|55.985241124999995|37.29062680333334
1491321334027|9|29|20|55.985241124999995|37.29062680333334
1491321334136|9|29|20|55.985241124999995|37.29062680333334
1491321334245|9|29|20|55.985241124999995|37.29062680333334
1491321334354|9|29|20|55.985241128333335|37.29062682166666
1491321334463|9|29|20|55.985241128333335|37.29062682166666
1491321334573|9|29|20|55.985241128333335|37.29062682166666
1491321334682|10|29|20|55.985241128333335|37.29062682166666
1491321334791|10|29|20|55.985241128333335|37.29062682166666
1491321334900|10|28|16|55.985241128333335|37.29062682166666
1491321335009|10|27|14|55.985241128333335|37.29062682166666
1491321335119|10|25|12|55.985241128333335|37.29062682166666
1491321335228|10|24|12|55.985241128333335|37.29062682166666
1491321335337|10|23|12|55.985241128333335|37.29062682166666
1491321335446|10|19|12|55.985241128333335|37.29062682166666
1491321335555|11|16|12|55.985241128333335|37.29062682166666
1491321335665|11|12|12|55.985241128333335|37.29062682166666
1491321335774|11|11|12|55.985241128333335|37.29062682166666
1491321335883|11|10|12|55.985241128333335|37.29062682166666
1491321335992|11|10|12|55.985241118333334|37.29062688166667
1491321336101|11|10|12|55.985241118333334|37.29062688166667
1491321336211|11|10|12|55.985241118333334|37.29062688166667
1491321336320|11|13|12|55.985241118333334|37.29062688166667
1491321336429|11|16|12|55.985241118333334|37.29062688166667
1491321336538|11|16|12|55.985241118333334|37.29062688166667
1491321336647|11|16|12|55.985241118333334|37.29062688166667
1491321336757|11|16|14|55.985241118333334|37.29062688166667
1491321336866|11|11|14|55.985241118333334|37.29062688166667
1491321336975|11|8|18|55.985241118333334|37.29062688166667
1491321337084|11|7|18|55.985241118333334|37.29062688166667
1491321337193|11|7|22|55.985241118333334|37.29062688166667
1491321337303|11|6|22|55.985241118333334|37.29062688166667
1491321337412|11|6|24|55.985241118333334|37.29062688166667
1491321337521|11|6|26|55.98524112|37.290626935
1491321337630|11|6|26|55.98524112|37.290626935
1491321337739|11|5|26|55.98524112|37.290626935
1491321337849|11|5|28|55.98524112|37.290626935
1491321337958|11|1|28|55.98524112|37.290626935
1491321338067|12|0|28|55.98524112|37.290626935
1491321338176|12|-2|28|55.98524112|37.290626935
1491321338285|12|-3|28|55.98524112|37.290626935
1491321338395|12|-5|26|55.98524112|37.290626935
1491321338504|12|-8|26|55.98524112|37.290626935
1491321338613|12|-11|24|55.98524112|37.290626935
1491321338722|12|-12|24|55.98524112|37.290626935
1491321338831|12|-13|24|55.98524112|37.290626935
1491321338941|12|-14|24|55.98524112|37.290626935
1491321339050|13|-15|24|55.98524112|37.290626935
1491321339159|13|-16|24|55.98524112333333|37.290626931666665
1491321339268|13|-16|24|55.98524112333333|37.290626931666665
1491321339377|13|-16|22|55.98524112333333|37.290626931666665
1491321339487|13|-16|22|55.98524112333333|37.290626931666665
1491321339596|13|-17|22|55.98524112333333|37.290626931666665
1491321339705|13|-17|20|55.98524112333333|37.290626931666665
1491321339814|13|-17|18|55.98524112333333|37.290626931666665
1491321339923|13|-17|16|55.98524112333333|37.290626931666665
1491321340033|13|-17|16|55.98524112333333|37.290626931666665
1491321340142|13|-14|14|55.98524112333333|37.290626931666665
1491321340251|13|-9|14|55.98524112333333|37.290626931666665
1491321340360|13|-9|14|55.98524112333333|37.290626931666665
1491321340469|13|-8|14|55.98524112333333|37.290626931666665
1491321340579|13|-8|14|55.98524112333333|37.290626931666665
1491321340688|13|-8|14|55.98524114166666|37.29062688333333
1491321340797|13|-8|14|55.98524114166666|37.29062688333333
1491321340906|13|-8|14|55.98524114166666|37.29062688333333
1491321341015|13|-8|14|55.98524114166666|37.29062688333333
1491321341125|13|-8|14|55.98524114166666|37.29062688333333
1491321341234|13|-8|14|55.98524114166666|37.29062688333333
1491321341343|13|-8|14|55.98524114166666|37.29062688333333
1491321341452|13|-8|14|55.98524114166666|37.29062688333333
1491321341561|13|-8|14|55.98524114166666|37.29062688333333
1491321341671|13|-8|14|55.98524114166666|37.29062688333333
1491321341780|13|-12|14|55.98524114166666|37.29062688333333
1491321341889|13|-13|12|55.98524114166666|37.29062688333333
1491321341998|12|-17|12|55.98524114166666|37.29062688333333
1491321342107|12|-19|12|55.98524114166666|37.29062688333333
1491321342217|12|-25|12|55.98524114166666|37.29062688333333
1491321342326|12|-27|10|55.985241176666655|37.29062686333333
1491321342435|12|-27|10|55.985241176666655|37.29062686333333
1491321342544|12|-27|10|55.985241176666655|37.29062686333333
1491321342653|12|-27|10|55.985241176666655|37.29062686333333
1491321342763|12|-22|10|55.985241176666655|37.29062686333333
1491321342872|12|-17|10|55.985241176666655|37.29062686333333
1491321342981|12|-15|10|55.985241176666655|37.29062686333333
1491321343090|12|-13|12|55.985241176666655|37.29062686333333
1491321343199|12|-13|12|55.985241176666655|37.29062686333333
1491321343309|12|-13|12|55.985241176666655|37.29062686333333
1491321343418|12|-13|12|55.985241176666655|37.29062686333333
1491321343527|11|-13|12|55.985241176666655|37.29062686333333
1491321343636|11|-13|12|55.985241176666655|37.29062686333333
1491321343745|11|-13|12|55.985241176666655|37.29062686333333
1491321343855|11|-13|12|55.98524118833334|37.290626868333334
1491321343964|11|-14|12|55.98524118833334|37.290626868333334
1491321344073|11|-15|12|55.98524118833334|37.290626868333334
1491321344182|11|-17|12|55.98524118833334|37.290626868333334
1491321344291|11|-18|12|55.98524118833334|37.290626868333334
1491321344401|11|-18|12|55.98524118833334|37.290626868333334
1491321344510|11|-18|12|55.98524118833334|37.290626868333334
1491321344619|11|-15|12|55.98524118833334|37.290626868333334
1491321344728|11|-14|12|55.98524118833334|37.290626868333334
1491321344837|11|-14|12|55.98524118833334|37.290626868333334
1491321344947|10|-14|12|55.98524118833334|37.290626868333334
1491321345056|10|-14|12|55.98524118833334|37.290626868333334
1491321345165|10|-13|12|55.98524118833334|37.290626868333334
1491321345274|10|-9|12|55.98524118833334|37.290626868333334
1491321345383|10|-5|12|55.98524118833334|37.290626868333334
1491321345493|10|-4|12|55.98524119333334|37.29062685666668
1491321345602|10|-4|12|55.98524119333334|37.29062685666668
1491321345711|10|-4|12|55.98524119333334|37.29062685666668
1491321345820|10|-4|12|55.98524119333334|37.29062685666668
1491321345929|10|-4|12|55.98524119333334|37.29062685666668
1491321346039|9|-4|12|55.98524119333334|37.29062685666668
1491321346148|9|-4|14|55.98524119333334|37.29062685666668
1491321346257|9|-4|14|55.98524119333334|37.29062685666668
1491321346366|9|-5|16|55.98524119333334|37.29062685666668
1491321346475|9|-6|18|55.98524119333334|37.29062685666668
1491321346585|9|-6|22|55.98524119333334|37.29062685666668
1491321346694|9|-6|26|55.98524119333334|37.29062685666668
1491321346803|9|-6|28|55.98524119333334|37.29062685666668
1491321346912|9|-6|32|55.98524119333334|37.29062685666668
1491321347021|9|-6|34|55.98524119833334|37.290626875
1491321347131|9|-6|38|55.98524119833334|37.290626875
1491321347240|9|-6|40|55.98524119833334|37.290626875
1491321347349|9|-4|42|55.98524119833334|37.290626875
1491321347458|10|-2|42|55.98524119833334|37.290626875
1491321347567|10|0|42|55.98524119833334|37.290626875
1491321347677|10|2|42|55.98524119833334|37.290626875
1491321347786|11|4|44|55.98524119833334|37.290626875
1491321347895|11|4|44|55.98524119833334|37.290626875
1491321348020|11|4|44|55.98524119833334|37.290626875
1491321348145|12|4|44|55.98524119833334|37.290626875
1491321348254|12|5|46|55.98524119833334|37.290626875
1491321348363|12|5|46|55.98524119833334|37.290626875
1491321348472|13|5|46|55.98524119833334|37.290626875
1491321348581|13|5|46|55.98524119833334|37.290626875
1491321348691|13|6|46|55.98524120166667|37.290626898333336
1491321348800|13|6|46|55.98524120166667|37.290626898333336
1491321348909|13|6|46|55.98524120166667|37.290626898333336
1491321349018|14|6|46|55.98524120166667|37.290626898333336
1491321349127|14|6|46|55.98524120166667|37.290626898333336
1491321349237|14|6|46|55.98524120166667|37.290626898333336
1491321349346|14|5|46|55.98524120166667|37.290626898333336
1491321349455|14|4|46|55.98524120166667|37.290626898333336
1491321349564|14|4|46|55.98524120166667|37.290626898333336
1491321349673|14|3|46|55.98524120166667|37.290626898333336
1491321349783|15|2|46|55.98524120166667|37.290626898333336
1491321349892|15|2|46|55.98524120166667|37.290626898333336
1491321350001|15|2|46|55.98524120166667|37.290626898333336
1491321350110|16|2|46|55.98524120166667|37.290626898333336
1491321350219|16|2|46|55.98524133166668|37.29062631666667
1491321350329|16|2|46|55.98524133166668|37.29062631666667
1491321350438|16|2|46|55.98524133166668|37.29062631666667
1491321350547|16|3|46|55.98524133166668|37.29062631666667
1491321350656|17|3|46|55.98524133166668|37.29062631666667
1491321350765|17|4|46|55.98524133166668|37.29062631666667
1491321350875|17|5|46|55.98524133166668|37.29062631666667
1491321350984|17|8|46|55.98524133166668|37.29062631666667
1491321351093|17|8|48|55.98524133166668|37.29062631666667
1491321351202|17|8|48|55.98524133166668|37.29062631666667
1491321351311|17|8|48|55.98524133166668|37.29062631666667
1491321351421|18|8|48|55.98524133166668|37.29062631666667
1491321351530|18|8|48|55.98524133166668|37.29062631666667
1491321351639|18|8|48|55.98524133166668|37.29062631666667
1491321351748|18|7|48|55.98524133166668|37.29062631666667
1491321351857|18|7|48|55.98524217166668|37.290622285000005
1491321351967|18|6|48|55.98524217166668|37.290622285000005
1491321352076|18|6|48|55.98524217166668|37.290622285000005
1491321352185|18|6|48|55.98524217166668|37.290622285000005
1491321352294|18|6|46|55.98524217166668|37.290622285000005
1491321352403|19|6|46|55.98524217166668|37.290622285000005
1491321352513|19|6|46|55.98524217166668|37.290622285000005
1491321352622|19|6|46|55.98524217166668|37.290622285000005
1491321352731|19|6|46|55.98524217166668|37.290622285000005
1491321352840|19|6|46|55.98524217166668|37.290622285000005
1491321352949|19|7|48|55.98524217166668|37.290622285000005
1491321353059|19|7|48|55.98524217166668|37.290622285000005
1491321353168|19|7|48|55.98524217166668|37.290622285000005
1491321353277|20|7|48|55.98524217166668|37.290622285000005
1491321353386|20|8|48|55.98524374|37.29061454833334
1491321353495|20|8|46|55.98524374|37.29061454833334
1491321353605|20|9|46|55.98524374|37.29061454833334
1491321353714|20|10|42|55.98524374|37.29061454833334
1491321353823|20|10|40|55.98524374|37.29061454833334
1491321353932|20|12|38|55.98524374|37.29061454833334
1491321354041|21|11|36|55.98524374|37.29061454833334
1491321354151|21|12|32|55.98524374|37.29061454833334
1491321354260|21|12|30|55.98524374|37.29061454833334
1491321354369|21|12|28|55.98524374|37.29061454833334
1491321354478|21|12|26|55.98524374|37.29061454833334
1491321354587|21|12|24|55.98524374|37.29061454833334
1491321354697|21|12|24|55.98524374|37.29061454833334
1491321354806|21|13|22|55.98524374|37.29061454833334
1491321354915|21|13|20|55.98524374|37.29061454833334
1491321355024|21|14|20|55.98524576500001|37.29060437
1491321355133|21|14|20|55.98524576500001|37.29060437
1491321355243|21|14|20|55.98524576500001|37.29060437
1491321355352|21|13|20|55.98524576500001|37.29060437
1491321355461|21|13|20|55.98524576500001|37.29060437
1491321355570|21|10|20|55.98524576500001|37.29060437
1491321355679|21|9|20|55.98524576500001|37.29060437
1491321355789|21|8|20|55.98524576500001|37.29060437
1491321355898|20|7|20|55.98524576500001|37.29060437
1491321356007|20|6|20|55.98524576500001|37.29060437
1491321356116|20|5|20|55.98524576500001|37.29060437
1491321356225|20|5|20|55.98524576500001|37.29060437
1491321356335|20|5|20|55.98524576500001|37.29060437
1491321356444|20|5|20|55.98524576500001|37.29060437
1491321356553|20|4|20|55.985248386666676|37.29059198166666
1491321356662|20|4|20|55.985248386666676|37.29059198166666
1491321356771|20|4|20|55.985248386666676|37.29059198166666
1491321356881|20|4|20|55.985248386666676|37.29059198166666
1491321356990|20|4|20|55.985248386666676|37.29059198166666
1491321357099|20|4|20|55.985248386666676|37.29059198166666
1491321357208|20|4|20|55.985248386666676|37.29059198166666
1491321357317|20|6|20|55.985248386666676|37.29059198166666
1491321357427|20|7|20|55.985248386666676|37.29059198166666
1491321357536|20|7|20|55.985248386666676|37.29059198166666
1491321357645|20|7|20|55.985248386666676|37.29059198166666
1491321357754|20|8|20|55.985248386666676|37.29059198166666
1491321357863|20|9|20|55.985248386666676|37.29059198166666
1491321357973|19|10|20|55.985248386666676|37.29059198166666
1491321358082|19|11|20|55.985248386666676|37.29059198166666
1491321358191|19|12|20|55.985251481666666|37.290577778333336
1491321358300|19|15|20|55.985251481666666|37.290577778333336
1491321358409|19|17|20|55.985251481666666|37.290577778333336
1491321358519|19|17|20|55.985251481666666|37.290577778333336
1491321358628|19|17|20|55.985251481666666|37.290577778333336
1491321358737|19|17|20|55.985251481666666|37.290577778333336
1491321358846|19|16|20|55.985251481666666|37.290577778333336
1491321358955|19|15|20|55.985251481666666|37.290577778333336
1491321359065|19|13|20|55.985251481666666|37.290577778333336
1491321359174|19|11|20|55.985251481666666|37.290577778333336
1491321359283|19|9|20|55.985251481666666|37.290577778333336
1491321359392|19|9|20|55.985251481666666|37.290577778333336
1491321359501|19|7|20|55.985251481666666|37.290577778333336
1491321359611|19|7|20|55.985251481666666|37.290577778333336
1491321359720|19|6|20|55.985254906666654|37.29056200333334
1491321359829|19|6|20|55.985254906666654|37.29056200333334
1491321359938|18|6|20|55.985254906666654|37.29056200333334
1491321360047|18|6|20|55.985254906666654|37.29056200333334
1491321360157|19|6|20|55.985254906666654|37.29056200333334
1491321360266|19|6|20|55.985254906666654|37.29056200333334
1491321360375|18|6|20|55.985254906666654|37.29056200333334
1491321360484|18|7|20|55.985254906666654|37.29056200333334
1491321360593|18|8|20|55.985254906666654|37.29056200333334
1491321360703|18|8|20|55.985254906666654|37.29056200333334
1491321360812|18|9|20|55.985254906666654|37.29056200333334
1491321360921|18|10|20|55.985254906666654|37.29056200333334
1491321361030|18|10|20|55.985254906666654|37.29056200333334
1491321361139|18|12|20|55.985254906666654|37.29056200333334
1491321361249|18|12|20|55.985254906666654|37.29056200333334
1491321361358|18|12|20|55.985258755|37.29054495166667
1491321361467|18|13|20|55.985258755|37.29054495166667
1491321361576|18|14|20|55.985258755|37.29054495166667
1491321361685|18|14|20|55.985258755|37.29054495166667
1491321361795|18|16|20|55.985258755|37.29054495166667
1491321361904|18|16|20|55.985258755|37.29054495166667
1491321362013|18|17|20|55.985258755|37.29054495166667
1491321362122|18|17|20|55.985258755|37.29054495166667
1491321362231|18|17|20|55.985258755|37.29054495166667
1491321362341|18|17|20|55.985258755|37.29054495166667
1491321362450|18|17|20|55.985258755|37.29054495166667
1491321362559|18|17|20|55.985258755|37.29054495166667
1491321362668|18|16|20|55.985258755|37.29054495166667
1491321362777|18|15|20|55.985258755|37.29054495166667
1491321362887|18|12|20|55.98526294500001|37.29052649166667
1491321362996|18|11|20|55.98526294500001|37.29052649166667
1491321363105|18|10|20|55.98526294500001|37.29052649166667
1491321363214|18|8|20|55.98526294500001|37.29052649166667
1491321363323|18|8|20|55.98526294500001|37.29052649166667
1491321363433|18|8|20|55.98526294500001|37.29052649166667
1491321363542|18|8|20|55.98526294500001|37.29052649166667
1491321363651|18|8|20|55.98526294500001|37.29052649166667
1491321363760|18|9|20|55.98526294500001|37.29052649166667
1491321363869|18|10|20|55.98526294500001|37.29052649166667
1491321363979|18|10|20|55.98526294500001|37.29052649166667
1491321364088|17|11|20|55.98526294500001|37.29052649166667
1491321364197|17|11|20|55.98526294500001|37.29052649166667
1491321364306|17|12|20|55.98526294500001|37.29052649166667
1491321364415|17|12|20|55.98526294500001|37.29052649166667
1491321364525|17|13|20|55.985267523333334|37.29050721833334
1491321364634|17|13|20|55.985267523333334|37.29050721833334
1491321364743|17|13|20|55.985267523333334|37.29050721833334
1491321364852|17|13|20|55.985267523333334|37.29050721833334
1491321364961|17|13|20|55.985267523333334|37.29050721833334
1491321365071|17|14|20|55.985267523333334|37.29050721833334
1491321365180|17|14|20|55.985267523333334|37.29050721833334
1491321365289|17|14|20|55.985267523333334|37.29050721833334
1491321365398|17|14|20|55.985267523333334|37.29050721833334
1491321365507|17|14|20|55.985267523333334|37.29050721833334
1491321365617|17|14|20|55.985267523333334|37.29050721833334
1491321365726|17|14|20|55.985267523333334|37.29050721833334
1491321365835|17|14|20|55.985267523333334|37.29050721833334
1491321365944|17|14|20|55.985267523333334|37.29050721833334
1491321366053|17|14|20|55.9852725|37.29048704666666
1491321366163|17|14|20|55.9852725|37.29048704666666
1491321366272|17|14|20|55.9852725|37.29048704666666
1491321366381|17|14|20|55.9852725|37.29048704666666
1491321366490|17|14|20|55.9852725|37.29048704666666
1491321366599|17|14|20|55.9852725|37.29048704666666
1491321366709|17|14|20|55.9852725|37.29048704666666
1491321366818|17|14|20|55.9852725|37.29048704666666
1491321366927|17|14|20|55.9852725|37.29048704666666
1491321367036|17|14|20|55.9852725|37.29048704666666
1491321367145|17|14|20|55.9852725|37.29048704666666
1491321367255|17|14|20|55.9852725|37.29048704666666
1491321367364|17|14|20|55.9852725|37.29048704666666
1491321367473|17|14|20|55.9852725|37.29048704666666
1491321367582|17|14|20|55.9852725|37.29048704666666
1491321367691|17|14|20|55.98527852|37.290463665
1491321367801|16|14|20|55.98527852|37.290463665
1491321367910|16|14|20|55.98527852|37.290463665
1491321368019|16|14|20|55.98527852|37.290463665
1491321368128|16|14|20|55.98527852|37.290463665
1491321368237|16|14|20|55.98527852|37.290463665
1491321368347|16|14|20|55.98527852|37.290463665
1491321368456|16|14|20|55.98527852|37.290463665
1491321368565|16|14|20|55.98527852|37.290463665
1491321368674|16|14|20|55.98527852|37.290463665
1491321368783|16|14|20|55.98527852|37.290463665
1491321368893|16|14|20|55.98527852|37.290463665
1491321369002|16|14|20|55.98527852|37.290463665
1491321369111|16|14|20|55.98527852|37.290463665
1491321369220|16|14|20|55.985287126666655|37.29043126333333
1491321369329|16|16|20|55.985287126666655|37.29043126333333
1491321369439|16|17|20|55.985287126666655|37.29043126333333
1491321369548|16|18|20|55.985287126666655|37.29043126333333
1491321369657|16|20|20|55.985287126666655|37.29043126333333
1491321369766|16|20|20|55.985287126666655|37.29043126333333
1491321369875|16|21|20|55.985287126666655|37.29043126333333
1491321369985|16|22|20|55.985287126666655|37.29043126333333
1491321370094|16|25|20|55.985287126666655|37.29043126333333
1491321370203|16|25|20|55.985287126666655|37.29043126333333
1491321370312|16|26|20|55.985287126666655|37.29043126333333
1491321370421|16|27|20|55.985287126666655|37.29043126333333
1491321370531|16|27|20|55.985287126666655|37.29043126333333
1491321370640|16|28|20|55.985287126666655|37.29043126333333
1491321370749|16|28|20|55.985287126666655|37.29043126333333
1491321370858|16|28|20|55.985297489999994|37.29039381333334
1491321370967|16|28|20|55.985297489999994|37.29039381333334
1491321371077|16|28|20|55.985297489999994|37.29039381333334
1491321371186|16|28|20|55.985297489999994|37.29039381333334
1491321371295|16|28|20|55.985297489999994|37.29039381333334
1491321371404|16|28|20|55.985297489999994|37.29039381333334
1491321371513|16|28|20|55.985297489999994|37.29039381333334
1491321371623|16|29|20|55.985297489999994|37.29039381333334
1491321371732|16|30|20|55.985297489999994|37.29039381333334
1491321371841|16|31|20|55.985297489999994|37.29039381333334
1491321371950|16|32|20|55.985297489999994|37.29039381333334
1491321372059|16|33|20|55.985297489999994|37.29039381333334
1491321372169|16|34|20|55.985297489999994|37.29039381333334
1491321372278|16|35|18|55.985297489999994|37.29039381333334
1491321372387|16|36|18|55.98530974666666|37.29035188333333
1491321372496|16|37|18|55.98530974666666|37.29035188333333
1491321372605|16|39|18|55.98530974666666|37.29035188333333
1491321372715|16|39|18|55.98530974666666|37.29035188333333
1491321372824|16|39|18|55.98530974666666|37.29035188333333
1491321372933|16|39|18|55.98530974666666|37.29035188333333
1491321373042|16|39|18|55.98530974666666|37.29035188333333
1491321373151|16|39|18|55.98530974666666|37.29035188333333
1491321373261|16|40|18|55.98530974666666|37.29035188333333
1491321373370|16|42|18|55.98530974666666|37.29035188333333
1491321373479|16|44|18|55.98530974666666|37.29035188333333
1491321373588|16|45|18|55.98530974666666|37.29035188333333
1491321373697|16|45|16|55.98530974666666|37.29035188333333
1491321373807|16|46|18|55.98530974666666|37.29035188333333
1491321373916|16|46|16|55.98530974666666|37.29035188333333
1491321374025|16|46|16|55.98532286166666|37.290307955
1491321374134|16|47|14|55.98532286166666|37.290307955
1491321374243|16|47|14|55.98532286166666|37.290307955
1491321374353|16|47|12|55.98532286166666|37.290307955
1491321374462|16|47|8|55.98532286166666|37.290307955
1491321374571|16|47|6|55.98532286166666|37.290307955
1491321374680|16|47|4|55.98532286166666|37.290307955
1491321374789|16|47|2|55.98532286166666|37.290307955
1491321374899|16|47|2|55.98532286166666|37.290307955
1491321375008|16|47|0|55.98532286166666|37.290307955
1491321375117|16|47|-2|55.98532286166666|37.290307955
1491321375226|16|46|-4|55.98532286166666|37.290307955
1491321375335|16|40|-6|55.98532286166666|37.290307955
1491321375445|16|39|-6|55.98532286166666|37.290307955
1491321375554|16|39|-8|55.98533618500001|37.290263626666665
1491321375663|16|38|-10|55.98533618500001|37.290263626666665
1491321375772|15|38|-10|55.98533618500001|37.290263626666665
1491321375881|15|37|-12|55.98533618500001|37.290263626666665
1491321375991|15|31|-12|55.98533618500001|37.290263626666665
1491321376100|15|24|-14|55.98533618500001|37.290263626666665
1491321376209|15|17|-14|55.98533618500001|37.290263626666665
1491321376318|15|16|-16|55.98533618500001|37.290263626666665
1491321376427|15|10|-16|55.98533618500001|37.290263626666665
1491321376537|15|3|-16|55.98533618500001|37.290263626666665
1491321376646|15|-3|-16|55.98533618500001|37.290263626666665
1491321376755|14|-13|-16|55.98533618500001|37.290263626666665
1491321376864|14|-24|-16|55.98533618500001|37.290263626666665
1491321376973|14|-40|-18|55.98533618500001|37.290263626666665
1491321377083|14|-55|-18|55.98533618500001|37.290263626666665
1491321377192|14|-70|-18|55.98535045166667|37.290216314999995
1491321377301|14|-82|-20|55.98535045166667|37.290216314999995
1491321377410|14|-100|-22|55.98535045166667|37.290216314999995
1491321377519|14|-115|-22|55.98535045166667|37.290216314999995
1491321377629|14|-129|-24|55.98535045166667|37.290216314999995
1491321377738|14|-142|-24|55.98535045166667|37.290216314999995
1491321377847|14|-161|-24|55.98535045166667|37.290216314999995
1491321377956|14|-176|-26|55.98535045166667|37.290216314999995
1491321378065|14|-186|-28|55.98535045166667|37.290216314999995
1491321378175|14|-195|-30|55.98535045166667|37.290216314999995
1491321378284|14|-214|-30|55.98535045166667|37.290216314999995
1491321378393|13|-238|-32|55.98535045166667|37.290216314999995
1491321378502|13|-259|-32|55.98535045166667|37.290216314999995
1491321378611|13|-283|-34|55.98535045166667|37.290216314999995
1491321378721|13|-315|-34|55.98536581833334|37.290163598333336
1491321378830|13|-340|-34|55.98536581833334|37.290163598333336
1491321378939|13|-353|-34|55.98536581833334|37.290163598333336
1491321379048|13|-359|-34|55.98536581833334|37.290163598333336
1491321379157|13|-367|-34|55.98536581833334|37.290163598333336
1491321379267|13|-382|-32|55.98536581833334|37.290163598333336
1491321379376|13|-389|-32|55.98536581833334|37.290163598333336
1491321379485|13|-410|-32|55.98536581833334|37.290163598333336
1491321379594|13|-427|-32|55.98536581833334|37.290163598333336
1491321379703|13|-436|-32|55.98536581833334|37.290163598333336
1491321379813|13|-445|-32|55.98536581833334|37.290163598333336
1491321379922|13|-453|-32|55.98536581833334|37.290163598333336
1491321380031|13|-457|-32|55.98536581833334|37.290163598333336
1491321380140|13|-458|-32|55.98536581833334|37.290163598333336
1491321380249|13|-461|-32|55.98536581833334|37.290163598333336
1491321380359|13|-461|-32|55.98538082333333|37.29010788166667
1491321380468|13|-461|-32|55.98538082333333|37.29010788166667
1491321380577|12|-461|-32|55.98538082333333|37.29010788166667
1491321380686|12|-461|-32|55.98538082333333|37.29010788166667
1491321380795|12|-461|-32|55.98538082333333|37.29010788166667
1491321380905|12|-461|-32|55.98538082333333|37.29010788166667
1491321381014|12|-461|-32|55.98538082333333|37.29010788166667
1491321381123|12|-461|-32|55.98538082333333|37.29010788166667
1491321381232|12|-461|-32|55.98538082333333|37.29010788166667
1491321381341|12|-461|-32|55.98538082333333|37.29010788166667
1491321381451|12|-458|-32|55.98538082333333|37.29010788166667
1491321381560|12|-448|-32|55.98538082333333|37.29010788166667
1491321381669|12|-438|-32|55.98538082333333|37.29010788166667
1491321381778|12|-429|-32|55.98538082333333|37.29010788166667
1491321381887|12|-422|-32|55.985394324999994|37.290053580000006
1491321381997|12|-415|-32|55.985394324999994|37.290053580000006
1491321382106|12|-414|-32|55.985394324999994|37.290053580000006
1491321382215|11|-411|-32|55.985394324999994|37.290053580000006
1491321382324|11|-407|-32|55.985394324999994|37.290053580000006
1491321382433|11|-402|-32|55.985394324999994|37.290053580000006
1491321382543|11|-397|-32|55.985394324999994|37.290053580000006
1491321382652|11|-391|-32|55.985394324999994|37.290053580000006
1491321382761|11|-391|-32|55.985394324999994|37.290053580000006
1491321382870|11|-391|-32|55.985394324999994|37.290053580000006
1491321382979|11|-391|-32|55.985394324999994|37.290053580000006
1491321383089|11|-391|-32|55.985394324999994|37.290053580000006
1491321383198|11|-337|-32|55.985394324999994|37.290053580000006
1491321383307|11|-329|-32|55.985394324999994|37.290053580000006
1491321383416|11|-329|-32|55.985394324999994|37.290053580000006
1491321383525|11|-304|-32|55.98540661666666|37.290001525
1491321383635|11|-286|-32|55.98540661666666|37.290001525
1491321383744|10|-284|-32|55.98540661666666|37.290001525
1491321383853|10|-284|-32|55.98540661666666|37.290001525
1491321383962|10|-260|-32|55.98540661666666|37.290001525
1491321384071|10|-260|-32|55.98540661666666|37.290001525
1491321384181|10|-223|-32|55.98540661666666|37.290001525
1491321384290|10|-199|-32|55.98540661666666|37.290001525
1491321384399|10|-185|-32|55.98540661666666|37.290001525
1491321384508|10|-185|-32|55.98540661666666|37.290001525
1491321384617|10|-154|-32|55.98540661666666|37.290001525
1491321384727|10|-136|-32|55.98540661666666|37.290001525
1491321384836|10|-126|-32|55.98540661666666|37.290001525
1491321384945|10|-126|-32|55.98540661666666|37.290001525
1491321385054|10|-90|-32|55.985417240000004|37.289951251666665
1491321385163|10|-72|-32|55.985417240000004|37.289951251666665
1491321385273|10|-57|-32|55.985417240000004|37.289951251666665
1491321385382|10|-46|-32|55.985417240000004|37.289951251666665
1491321385491|10|-39|18|55.985417240000004|37.289951251666665
1491321385600|10|-31|18|55.985417240000004|37.289951251666665
1491321385709|10|-26|18|55.985417240000004|37.289951251666665
1491321385819|10|-26|18|55.985417240000004|37.289951251666665
1491321385928|10|-23|18|55.985417240000004|37.289951251666665
1491321386037|10|-15|18|55.985417240000004|37.289951251666665
1491321386146|10|-3|18|55.985417240000004|37.289951251666665
1491321386255|10|5|18|55.985417240000004|37.289951251666665
1491321386365|10|11|18|55.985417240000004|37.289951251666665
1491321386474|10|13|18|55.985417240000004|37.289951251666665
1491321386583|10|15|18|55.985417240000004|37.289951251666665
1491321386692|10|19|18|55.98542653666667|37.28990374833333
1491321386801|10|22|18|55.98542653666667|37.28990374833333
1491321386911|10|26|18|55.98542653666667|37.28990374833333
1491321387020|10|31|18|55.98542653666667|37.28990374833333
1491321387129|10|37|18|55.98542653666667|37.28990374833333
1491321387238|10|43|18|55.98542653666667|37.28990374833333
1491321387347|11|48|18|55.98542653666667|37.28990374833333
1491321387457|11|49|18|55.98542653666667|37.28990374833333
1491321387566|11|49|18|55.98542653666667|37.28990374833333
1491321387675|11|49|18|55.98542653666667|37.28990374833333
1491321387784|11|49|18|55.98542653666667|37.28990374833333
1491321387893|11|49|18|55.98542653666667|37.28990374833333
1491321388003|11|49|18|55.98542653666667|37.28990374833333
1491321388112|11|49|18|55.98542653666667|37.28990374833333
1491321388221|11|49|30|55.98543467500001|37.28985917666667
1491321388330|11|48|30|55.98543467500001|37.28985917666667
1491321388439|11|45|30|55.98543467500001|37.28985917666667
1491321388549|11|39|30|55.98543467500001|37.28985917666667
1491321388658|11|36|30|55.98543467500001|37.28985917666667
1491321388767|11|33|30|55.98543467500001|37.28985917666667
1491321388876|11|30|30|55.98543467500001|37.28985917666667
1491321388985|12|25|30|55.98543467500001|37.28985917666667
1491321389095|12|23|30|55.98543467500001|37.28985917666667
1491321389204|12|22|30|55.98543467500001|37.28985917666667
1491321389313|12|21|30|55.98543467500001|37.28985917666667
1491321389422|12|20|30|55.98543467500001|37.28985917666667
1491321389531|13|21|30|55.98543467500001|37.28985917666667
1491321389641|13|30|30|55.98543467500001|37.28985917666667
1491321389750|13|41|30|55.98543467500001|37.28985917666667
1491321389859|13|49|30|55.98544183166668|37.289817475
1491321389968|13|51|30|55.98544183166668|37.289817475
1491321390077|14|51|30|55.98544183166668|37.289817475
1491321390187|14|51|30|55.98544183166668|37.289817475
1491321390296|14|51|30|55.98544183166668|37.289817475
1491321390405|14|51|30|55.98544183166668|37.289817475
1491321390514|14|51|30|55.98544183166668|37.289817475
1491321390623|15|50|30|55.98544183166668|37.289817475
1491321390733|15|47|30|55.98544183166668|37.289817475
1491321390842|15|43|30|55.98544183166668|37.289817475
1491321390951|15|39|30|55.98544183166668|37.289817475
1491321391060|15|38|30|55.98544183166668|37.289817475
1491321391169|16|35|30|55.98544183166668|37.289817475
1491321391279|16|31|30|55.98544183166668|37.289817475
1491321391388|16|27|30|55.985448883333326|37.28977521833333
1491321391497|16|19|30|55.985448883333326|37.28977521833333
1491321391606|16|13|30|55.985448883333326|37.28977521833333
1491321391715|16|10|30|55.985448883333326|37.28977521833333
1491321391825|17|5|30|55.985448883333326|37.28977521833333
1491321391934|17|2|30|55.985448883333326|37.28977521833333
1491321392043|17|1|30|55.985448883333326|37.28977521833333
1491321392152|17|0|30|55.985448883333326|37.28977521833333
1491321392261|17|0|30|55.985448883333326|37.28977521833333
1491321392371|17|-1|30|55.985448883333326|37.28977521833333
1491321392480|17|-2|30|55.985448883333326|37.28977521833333
1491321392589|17|-4|30|55.985448883333326|37.28977521833333
1491321392698|18|-7|30|55.985448883333326|37.28977521833333
1491321392807|18|-9|30|55.985448883333326|37.28977521833333
1491321392917|18|-10|30|55.985448883333326|37.28977521833333
1491321393026|18|-12|30|55.985457440000005|37.289722561666665
1491321393135|18|-15|30|55.985457440000005|37.289722561666665
1491321393244|19|-18|30|55.985457440000005|37.289722561666665
1491321393353|19|-19|30|55.985457440000005|37.289722561666665
1491321393463|19|-19|30|55.985457440000005|37.289722561666665
1491321393572|19|-19|30|55.985457440000005|37.289722561666665
1491321393681|19|-18|30|55.985457440000005|37.289722561666665
1491321393790|19|-17|30|55.985457440000005|37.289722561666665
1491321393899|19|-11|30|55.985457440000005|37.289722561666665
1491321394009|19|-7|30|55.985457440000005|37.289722561666665
1491321394118|20|-7|18|55.985457440000005|37.289722561666665
1491321394227|20|-5|8|55.985457440000005|37.289722561666665
1491321394336|20|-1|-2|55.985457440000005|37.289722561666665
1491321394445|20|3|-14|55.985457440000005|37.289722561666665
1491321394555|20|3|-22|55.98546736833333|37.289660993333335
1491321394664|20|3|-32|55.98546736833333|37.289660993333335
1491321394773|20|4|-38|55.98546736833333|37.289660993333335
1491321394882|20|4|-40|55.98546736833333|37.289660993333335
1491321394991|20|1|-42|55.98546736833333|37.289660993333335
1491321395101|20|-1|-50|55.98546736833333|37.289660993333335
1491321395210|20|-2|-56|55.98546736833333|37.289660993333335
1491321395319|20|-3|-64|55.98546736833333|37.289660993333335
1491321395428|19|-4|-68|55.98546736833333|37.289660993333335
1491321395537|19|-5|-70|55.98546736833333|37.289660993333335
1491321395647|18|-5|-72|55.98546736833333|37.289660993333335
1491321395756|17|-6|-72|55.98546736833333|37.289660993333335
1491321395865|17|-7|-72|55.98546736833333|37.289660993333335
1491321395974|16|-9|-72|55.98546736833333|37.289660993333335
1491321396083|16|-10|-72|55.98546736833333|37.289660993333335
1491321396193|15|-10|-72|55.98547845|37.289591994999995
1491321396302|14|-10|-72|55.98547845|37.289591994999995
1491321396411|14|-10|-72|55.98547845|37.289591994999995
1491321396520|13|-4|-72|55.98547845|37.289591994999995
1491321396629|12|0|-72|55.98547845|37.289591994999995
1491321396739|12|0|-72|55.98547845|37.289591994999995
1491321396848|11|1|-72|55.98547845|37.289591994999995
1491321396957|11|3|-72|55.98547845|37.289591994999995
1491321397066|10|6|-72|55.98547845|37.289591994999995
1491321397175|9|6|-72|55.98547845|37.289591994999995
1491321397285|9|6|-72|55.98547845|37.289591994999995
1491321397394|8|6|-72|55.98547845|37.289591994999995
1491321397503|8|6|-72|55.98547845|37.289591994999995
1491321397612|7|6|-72|55.98547845|37.289591994999995
1491321397721|6|6|-72|55.98549070166667|37.289516244999994
1491321397831|6|4|-72|55.98549070166667|37.289516244999994
1491321397940|5|3|-72|55.98549070166667|37.289516244999994
1491321398049|5|2|-72|55.98549070166667|37.289516244999994
1491321398158|4|1|-68|55.98549070166667|37.289516244999994
1491321398267|3|0|-64|55.98549070166667|37.289516244999994
1491321398377|3|0|-56|55.98549070166667|37.289516244999994
1491321398486|2|0|-50|55.98549070166667|37.289516244999994
1491321398595|2|0|-46|55.98549070166667|37.289516244999994
1491321398704|1|0|-44|55.98549070166667|37.289516244999994
1491321398813|1|0|-42|55.98549070166667|37.289516244999994
1491321398923|1|-1|-38|55.98549070166667|37.289516244999994
1491321399032|0|-1|-34|55.98549070166667|37.289516244999994
1491321399141|0|-3|-26|55.98549070166667|37.289516244999994
1491321399250|0|-4|-20|55.98549070166667|37.289516244999994
1491321399359|0|-6|-18|55.98550359166667|37.289435270000006
1491321399469|0|-6|-18|55.98550359166667|37.289435270000006
1491321399578|0|-6|-18|55.98550359166667|37.289435270000006
1491321399687|0|-6|-14|55.98550359166667|37.289435270000006
1491321399796|0|-6|-14|55.98550359166667|37.289435270000006
