1491319190466|0|0|0|55.985237659999996|37.29066546999999
1491319190575|0|0|0|55.985237659999996|37.29066546999999
1491319190685|0|0|0|55.985237659999996|37.29066546999999
1491319190794|0|0|0|55.985237659999996|37.29066546999999
1491319190903|0|0|0|55.985237659999996|37.29066546999999
1491319191012|0|0|0|55.985237659999996|37.29066546999999
1491319191121|0|0|0|55.985237659999996|37.29066546999999
1491319191231|0|0|0|55.985237659999996|37.29066546999999
1491319191340|0|0|0|55.985237659999996|37.29066546999999
1491319191449|0|0|0|55.985237659999996|37.29066544333334
1491319191558|0|0|0|55.98523761666667|37.29066544333334
1491319191667|0|0|0|55.98523761666667|37.29066544333334
1491319191777|0|0|0|55.98523761666667|37.29066544333334
1491319191886|0|0|0|55.98523761666667|37.29066544333334
1491319191995|0|0|0|55.98523761666667|37.29066544333334
1491319192104|0|0|0|55.98523761666667|37.29066544333334
1491319192213|0|0|0|55.98523761666667|37.29066544333334
1491319192323|0|0|0|55.98523761666667|37.29066544333334
1491319192432|0|0|0|55.98523761666667|37.29066544333334
1491319192541|0|0|0|55.98523761666667|37.29066544333334
1491319192650|0|0|0|55.98523761666667|37.29066544333334
1491319192759|0|0|0|55.98523761666667|37.29066544333334
1491319192869|0|0|0|55.98523761666667|37.29066544333334
1491319192978|0|0|0|55.98523761666667|37.29066544333334
1491319193087|0|0|0|55.98523762166666|37.29066541666667
1491319193196|0|0|0|55.98523762166666|37.29066541666667
1491319193305|0|0|0|55.98523762166666|37.29066541666667
1491319193415|0|0|0|55.98523762166666|37.29066541666667
1491319193524|0|0|0|55.98523762166666|37.29066541666667
1491319193633|0|0|0|55.98523762166666|37.29066541666667
1491319193742|0|0|0|55.98523762166666|37.29066541666667
1491319193851|0|0|0|55.98523762166666|37.29066541666667
1491319193961|0|0|0|55.98523762166666|37.29066541666667
1491319194070|0|0|0|55.98523762166666|37.29066541666667
1491319194179|0|0|0|55.98523762166666|37.29066541666667
1491319194288|0|0|0|55.98523762166666|37.29066541666667
1491319194397|0|0|0|55.98523762166666|37.29066541666667
1491319194507|0|0|0|55.98523762166666|37.29066541666667
1491319194616|0|0|0|55.985237639999994|37.290665434999994
1491319194725|0|0|0|55.985237639999994|37.290665434999994
1491319194834|0|0|0|55.985237639999994|37.290665434999994
1491319194943|0|0|0|55.985237639999994|37.290665434999994
1491319195053|0|0|0|55.985237639999994|37.290665434999994
1491319195162|0|0|0|55.985237639999994|37.290665434999994
1491319195271|0|0|0|55.985237639999994|37.290665434999994
1491319195380|0|0|0|55.985237639999994|37.290665434999994
1491319195489|0|0|0|55.985237639999994|37.290665434999994
1491319195599|0|0|0|55.985237639999994|37.290665434999994
1491319195708|0|0|0|55.985237639999994|37.290665434999994
1491319195817|0|0|0|55.985237639999994|37.290665434999994
1491319195926|0|0|0|55.985237639999994|37.290665434999994
1491319196035|0|0|0|55.985237639999994|37.290665434999994
1491319196145|0|0|0|55.985237639999994|37.290665434999994
1491319196254|0|0|0|55.98523767|37.29066541166667
1491319196363|0|0|0|55.98523767|37.29066541166667
1491319196472|0|0|0|55.98523767|37.29066541166667
1491319196581|0|0|0|55.98523767|37.29066541166667
1491319196691|0|0|0|55.98523767|37.29066541166667
1491319196800|0|0|0|55.98523767|37.29066541166667
1491319196909|0|0|0|55.98523767|37.29066541166667
1491319197018|0|0|0|55.98523767|37.29066541166667
1491319197127|0|0|0|55.98523767|37.29066541166667
1491319197237|0|0|0|55.98523767|37.29066541166667
1491319197346|0|0|0|55.98523767|37.29066541166667
1491319197455|0|0|0|55.98523767|37.29066541166667
1491319197564|0|0|0|55.98523767|37.29066541166667
1491319197673|0|0|0|55.98523767|37.29066541166667
1491319197783|0|0|0|55.98523767|37.29066541166667
1491319197892|0|0|0|55.985237678333334|37.29066542333334
1491319198001|0|0|0|55.985237678333334|37.29066542333334
1491319198110|0|0|0|55.985237678333334|37.29066542333334
1491319198219|0|0|0|55.985237678333334|37.29066542333334
1491319198329|0|0|0|55.985237678333334|37.29066542333334
1491319198438|0|0|0|55.985237678333334|37.29066542333334
1491319198547|0|0|0|55.985237678333334|37.29066542333334
1491319198656|0|0|0|55.985237678333334|37.29066542333334
1491319198765|0|0|0|55.985237678333334|37.29066542333334
1491319198875|0|0|0|55.985237678333334|37.29066542333334
1491319198984|0|0|0|55.985237678333334|37.29066542333334
1491319199093|0|0|0|55.985237678333334|37.29066542333334
1491319199202|0|0|0|55.985237678333334|37.29066542333334
1491319199311|0|0|0|55.985237678333334|37.29066542333334
1491319199421|0|0|0|55.98523767499999|37.29066545333334
1491319199530|0|0|0|55.98523767499999|37.29066545333334
1491319199639|0|0|0|55.98523767499999|37.29066545333334
1491319199748|0|0|0|55.98523767499999|37.29066545333334
1491319199857|0|0|0|55.98523767499999|37.29066545333334
1491319199967|0|0|0|55.98523767499999|37.29066545333334
1491319200076|0|0|0|55.98523767499999|37.29066545333334
1491319200185|0|0|0|55.98523767499999|37.29066545333334
1491319200294|0|0|0|55.98523767499999|37.29066545333334
1491319200403|0|0|0|55.98523767499999|37.29066545333334
1491319200513|0|0|0|55.98523767499999|37.29066545333334
1491319200622|0|0|0|55.98523767499999|37.29066545333334
1491319200731|0|0|0|55.98523767499999|37.29066545333334
1491319200840|0|0|0|55.98523767499999|37.29066545333334
1491319200949|0|0|0|55.98523767499999|37.29066545333334
1491319201059|0|0|0|55.985237656666676|37.29066546166666
1491319201168|0|0|0|55.985237656666676|37.29066546166666
1491319201277|0|0|0|55.985237656666676|37.29066546166666
1491319201386|0|0|0|55.985237656666676|37.29066546166666
1491319201495|0|0|0|55.985237656666676|37.29066546166666
1491319201605|0|0|0|55.985237656666676|37.29066546166666
1491319201714|0|0|0|55.985237656666676|37.29066546166666
1491319201823|0|0|0|55.985237656666676|37.29066546166666
1491319201932|0|0|0|55.985237656666676|37.29066546166666
1491319202041|0|0|0|55.985237656666676|37.29066546166666
1491319202151|0|0|0|55.985237656666676|37.29066546166666
1491319202260|0|0|0|55.985237656666676|37.29066546166666
1491319202369|0|0|0|55.985237656666676|37.29066546166666
1491319202478|0|0|0|55.985237656666676|37.29066546166666
1491319202587|0|0|0|55.98523762999999|37.29066545166666
1491319202697|0|0|0|55.98523762999999|37.29066545166666
1491319202806|0|0|0|55.98523762999999|37.29066545166666
1491319202915|0|0|0|55.98523762999999|37.29066545166666
1491319203024|0|0|0|55.98523762999999|37.29066545166666
1491319203133|0|0|0|55.98523762999999|37.29066545166666
1491319203243|0|0|0|55.98523762999999|37.29066545166666
1491319203352|0|0|0|55.98523762999999|37.29066545166666
1491319203461|0|0|0|55.98523762999999|37.29066545166666
1491319203570|0|0|0|55.98523762999999|37.29066545166666
1491319203679|0|0|0|55.98523762999999|37.29066545166666
1491319203789|0|0|0|55.98523762999999|37.29066545166666
1491319203898|0|0|0|55.98523762999999|37.29066545166666
1491319204007|0|0|0|55.98523762999999|37.29066545166666
1491319204116|0|0|0|55.98523762999999|37.29066545166666
1491319204225|0|0|0|55.985237626666674|37.29066541499999
1491319204335|0|0|0|55.985237626666674|37.29066541499999
1491319204444|0|0|0|55.985237626666674|37.29066541499999
1491319204553|0|0|0|55.985237626666674|37.29066541499999
1491319204662|0|0|0|55.985237626666674|37.29066541499999
1491319204771|0|0|0|55.985237626666674|37.29066541499999
1491319204881|0|0|0|55.985237626666674|37.29066541499999
1491319204990|0|0|0|55.985237626666674|37.29066541499999
1491319205099|0|0|0|55.985237626666674|37.29066541499999
1491319205208|0|0|0|55.985237626666674|37.29066541499999
1491319205317|0|0|0|55.985237626666674|37.29066541499999
1491319205427|0|0|0|55.985237626666674|37.29066541499999
1491319205536|0|0|0|55.985237626666674|37.29066541499999
1491319205645|0|0|0|55.985237626666674|37.29066541499999
1491319205754|0|0|0|55.985237636666675|37.29066539499999
1491319205863|0|0|0|55.985237636666675|37.29066539499999
1491319205973|0|0|0|55.985237636666675|37.29066539499999
1491319206082|0|0|0|55.985237636666675|37.29066539499999
1491319206191|0|0|0|55.985237636666675|37.29066539499999
1491319206300|0|0|0|55.985237636666675|37.29066539499999
1491319206409|0|0|