1491319041920|0|0|0|55.98523771333333|37.29066544333334
1491319042029|0|0|0|55.98523771333333|37.29066544333334
1491319042138|0|0|0|55.98523771333333|37.29066544333334
1491319042248|0|0|0|55.98523771333333|37.29066544333334
1491319042357|0|0|0|55.98523771333333|37.29066544333334
1491319042466|0|0|0|55.98523771333333|37.29066544333334
1491319042575|0|0|0|55.98523771333333|37.29066544333334
1491319042684|0|0|0|55.98523771333333|37.29066544333334
1491319042794|0|0|0|55.98523771333333|37.29066544333334
1491319042903|0|0|0|55.98523771666668|37.290665403333335
1491319043012|0|0|0|55.98523771666668|37.290665403333335
1491319043121|0|0|0|55.98523771666668|37.290665403333335
1491319043230|0|0|0|55.98523771666668|37.290665403333335
1491319043340|0|0|0|55.98523771666668|37.290665403333335
1491319043449|0|0|0|55.98523771666668|37.290665403333335
1491319043558|0|0|0|55.98523771666668|37.290665403333335
1491319043667|0|0|0|55.98523771666668|37.290665403333335
1491319043776|0|0|0|55.98523771666668|37.290665403333335
1491319043886|0|0|0|55.98523771666668|37.290665403333335
1491319043995|0|0|0|55.98523771666668|37.290665403333335
1491319044104|0|0|0|55.98523771666668|37.290665403333335
1491319044213|0|0|0|55.98523771666668|37.290665403333335
1491319044322|0|0|0|55.98523771666668|37.290665403333335
1491319044432|0|0|0|55.98523771666668|37.290665403333335
1491319044541|0|0|0|55.98523770333333|37.29066539666667
1491319044650|0|0|0|55.98523770333333|37.29066539666667
1491319044759|0|0|0|55.98523770333333|37.29066539666667
1491319044868|0|0|0|55.98523770333333|37.29066539666667
1491319044978|0|0|0|55.98523770333333|37.29066539666667
1491319045087|0|0|0|55.98523770333333|37.29066539666667
1491319045196|0|0|0|55.98523770333333|37.29066539666667
1491319045305|0|0|0|55.98523770333333|37.29066539666667
1491319045414|0|0|0|55.98523770333333|37.29066539666667
1491319045524|0|0|0|55.98523770333333|37.29066539666667
1491319045633|0|0|0|55.98523770333333|37.29066539666667
1491319045742|0|0|0|55.98523770333333|37.29066539666667
1491319045851|0|0|0|55.98523770333333|37.29066539666667
1491319045960|0|0|0|55.98523770333333|37.29066539666667
1491319046070|0|0|0|55.98523769|37.29066539166667
1491319046179|0|0|0|55.98523769|37.29066539166667
1491319046288|0|0|0|55.98523769|37.29066539166667
1491319046397|0|0|0|55.98523769|37.29066539166667
1491319046506|0|0|0|55.98523769|37.29066539166667
1491319046616|0|0|0|55.98523769|37.29066539166667
1491319046725|0|0|0|55.98523769|37.29066539166667
1491319046834|0|0|0|55.98523769|37.29066539166667
1491319046943|0|0|0|55.98523769|37.29066539166667
1491319047052|0|0|0|55.98523769|37.29066539166667
1491319047162|0|0|0|55.98523769|37.29066539166667
1491319047271|0|0|0|55.98523769|37.29066539166667
1491319047380|0|0|0|55.98523769|37.29066539166667
1491319047489|0|0|0|55.98523769|37.29066539166667
1491319047598|0|0|0|55.98523769|37.29066539166667
1491319047708|0|0|0|55.985237688333335|37.290665408333325
1491319047817|0|0|0|55.985237688333335|37.290665408333325
1491319047926|0|0|0|55.985237688333335|37.290665408333325
1491319048035|0|0|0|55.985237688333335|37.290665408333325
1491319048144|0|0|0|55.985237688333335|37.290665408333325
1491319048254|0|0|0|55.985237688333335|37.290665408333325
1491319048363|0|0|0|55.985237688333335|37.290665408333325
1491319048472|0|0|0|55.985237688333335|37.290665408333325
1491319048581|0|0|0|55.985237688333335|37.290665408333325
1491319048690|0|0|0|55.985237688333335|37.290665408333325
1491319048800|0|0|0|55.985237688333335|37.290665408333325
1491319048909|0|0|0|55.985237688333335|37.290665408333325
1491319049018|0|0|0|55.985237688333335|37.290665408333325
1491319049127|0|0|0|55.985237688333335|37.290665408333325
1491319049236|0|0|0|55.985237655|37.29066542333334
1491319049346|0|0|0|55.985237655|37.29066542333334
1491319049455|0|0|0|55.985237655|37.29066542333334
1491319049564|0|0|0|55.985237655|37.29066542333334
1491319049673|0|0|0|55.985237655|37.29066542333334
1491319049782|0|0|0|55.985237655|37.29066542333334
1491319049892|0|0|0|55.985237655|37.29066542333334
1491319050001|0|0|0|55.985237655|37.29066542333334
1491319050110|0|0|0|55.985237655|37.29066542333334
1491319050219|0|0|0|55.985237655|37.29066542333334
1491319050328|0|0|0|55.985237655|37.29066542333334
1491319050438|0|0|0|55.985237655|37.29066542333334
1491319050547|0|0|0|55.985237655|37.29066542333334
1491319050656|0|0|0|55.985237655|37.29066542333334
1491319050765|0|0|0|55.985237655|37.29066542333334
1491319050874|0|0|0|55.98523762833333|37.29066543333334
1491319050984|0|0|0|55.98523762833333|37.29066543333334
1491319051093|0|0|0|55.98523762833333|37.29066543333334
1491319051202|0|0|0|55.98523762833333|37.29066543333334
1491319051311|0|0|0|55.98523762833333|37.29066543333334
1491319051420|0|0|0|55.98523762833333|37.29066543333334
1491319051530|0|0|0|55.98523762833333|37.29066543333334
1491319051639|0|0|0|55.98523762833333|37.29066543333334
1491319051748|0|0|0|55.98523762833333|37.29066543333334
1491319051857|0|0|0|55.98523762833333|37.29066543333334
1491319051966|0|0|0|55.98523762833333|37.29066543333334
1491319052076|0|0|0|55.98523762833333|37.29066543333334
1491319052185|0|0|0|55.98523762833333|37.29066543333334
1491319052294|0|0|0|55.98523762833333|37.29066543333334
1491319052403|0|0|0|55.98523762833333|37.29066543333334
1491319052512|0|0|0|55.98523762999999|37.290665434999994
1491319052622|0|0|0|55.98523762999999|37.290665434999994
1491319052731|0|0|0|55.98523762999999|37.290665434999994
1491319052840|0|0|0|55.98523762999999|37.290665434999994
1491319052949|0|0|0|55.98523762999999|37.290665434999994
1491319053058|0|0|0|55.98523762999999|37.290665434999994
1491319053168|0|0|0|55.98523762999999|37.290665434999994
1491319053277|0|0|0|55.98523762999999|37.290665434999994
1491319053386|0|0|0|55.98523762999999|37.290665434999994
1491319053495|0|0|0|55.98523762999999|37.290665434999994
1491319053604|0|0|0|55.98523762999999|37.290665434999994
1491319053714|0|0|0|55.98523762999999|37.290665434999994
1491319053823|0|0|0|55.98523762999999|37.290665434999994
1491319053932|0|0|0|55.98523762999999|37.290665434999994
1491319054041|0|0|0|55.98523764333333|37.290665454999996
1491319054150|0|0|0|55.98523764333333|37.290665454999996
1491319054260|0|0|0|55.98523764333333|37.290665454999996
1491319054369|0|0|0|55.98523764333333|37.290665454999996
1491319054478|0|0|0|55.98523764333333|37.290665454999996
1491319054587|0|0|0|55.98523764333333|37.290665454999996
1491319054696|0|0|0|55.98523764333333|37.290665454999996
1491319054806|0|0|0|55.98523764333333|37.290665454999996
1491319054915|0|0|0|55.98523764333333|37.290665454999996
1491319055024|0|0|0|55.98523764333333|37.290665454999996
1491319055133|0|0|0|55.98523764333333|37.290665454999996
1491319055242|0|0|0|55.98523764333333|37.290665454999996
1491319055352|0|0|0|55.98523764333333|37.290665454999996
1491319055461|0|0|0|55.98523764333333|37.290665454999996
1491319055570|0|0|0|55.98523764333333|37.290665454999996
1491319055679|0|0|0|55.98523766666668|37.290665450000006
1491319055788|0|0|0|55.98523766666668|37.290665450000006
1491319055898|0|0|0|55.98523766666668|37.290665450000006
1491319056007|0|0|0|55.98523766666668|37.290665450000006
1491319056116|0|0|0|55.98523766666668|37.290665450000006
1491319056225|0|0|0|55.98523766666668|37.290665450000006
1491319056334|0|0|0|55.98523766666668|37.290665450000006
1491319056444|0|0|0|55.98523766666668|37.290665450000006
1491319056553|0|0|0|55.98523766666668|37.290665450000006
1491319056662|0|0|0|55.98523766666668|37.290665450000006
1491319056771|0|0|0|55.98523766666668|37.290665450000006
1491319056880|0|0|0|55.98523766666668|37.290665450000006
1491319056990|0|0|0|55.98523766666668|37.290665450000006
1491319057099|0|0|0|55.98523766666668|37.290665450000006
1491319057208|0|0|0|55.98523769|37.29066546000001
1491319057317|0|0|0|55.98523769|37.29066546000001
1491319057426|0|0|0|55.98523769|37.29066546000001
1491319057536|0|0|0|55.98523769|37.29066546000001
1491319057645|0|0|0|55.98523769|37.29066546000001
1491319057754|0|0|0|55.98523769|37.29066546000001
1491319057863|0|0|0|55.98523769|37.29066546000001
1491319057972|0|0|0|55.98523769|37.29066546000001
1491319058082|0|0|0|55.98523769|37.29066546000001
1491319058191|0|0|0|55.98523769|37.29066546000001
1491319058300|0|0|0|55.98523769|37.29066546000001
1491319058409|0|0|0|55.98523769|37.29066546000001
1491319058518|0|0|0|55.98523769|37.29066546000001
1491319058628|0|0|0|55.98523769|37.29066546000001
1491319058737|0|0|0|55.98523769|37.29066546000001
1491319058846|0|0|0|55.98523768166667|37.29066545666667
1491319058955|0|0|0|55.98523768166667|37.29066545666667
1491319059064|0|0|0|55.98523768166667|37.29066545666667
1491319059174|0|0|0|55.98523768166667|37.29066545666667
1491319059283|0|0|0|55.98523768166667|37.29066545666667
1491319059392|0|0|0|55.98523768166667|37.29066545666667
1491319059501|0|0|0|55.98523768166667|37.29066545666667
1491319059610|0|0|0|55.98523768166667|37.29066545666667
1491319059720|0|0|0|55.98523768166667|37.29066545666667
1491319059829|0|0|0|55.98523768166667|37.29066545666667
1491319059938|0|0|0|55.98523768166667|37.29066545666667
1491319060047|0|0|0|55.98523768166667|37.29066545666667
1491319060156|0|0|0|55.98523768166667|37.29066545666667
1491319060266|0|0|0|55.98523768166667|37.29066545666667
1491319060375|0|0|0|55.985237659999996|37.290665431666675
1491319060484|0|0|0|55.985237659999996|37.290665431666675
1491319060593|0|0|0|55.985237659999996|37.290665431666675
1491319060702|0|0|0|55.985237659999996|37.290665431666675
1491319060812|0|0|0|55.985237659999996|37.290665431666675
1491319060921|0|0|0|55.985237659999996|37.290665431666675
1491319061030|0|0|0|55.985237659999996|37.290665431666675
1491319061139|0|0|0|55.985237659999996|37.290665431666675
1491319061248|0|0|0|55.985237659999996|37.290665431666675
1491319061358|0|0|0|55.985237659999996|37.290665431666675
1491319061467|0|0|0|55.985237659999996|37.290665431666675
1491319061576|0|0|0|55.985237659999996|37.290665431666675
1491319061685|0|0|0|55.985237659999996|37.290665431666675
1491319061794|0|0|0|55.985237659999996|37.290665431666675
1491319061904|0|0|0|55.985237659999996|37.290665431666675
1491319062013|0|0|0|55.98523763333333|37.29066541166667
1491319062122|0|0|0|55.98523763333333|37.29066541166667
1491319062231|0|0|0|55.98523763333333|37.29066541166667
1491319062340|0|0|0|55.98523763333333|37.29066541166667
1491319062450|0|0|0|55.98523763333333|37.29066541166667
1491319062559|0|0|0|55.98523763333333|37.29066541166667
1491319062668|0|0|0|55.98523763333333|37.29066541166667
1491319062777|0|0|0|55.98523763333333|37.29066541166667
1491319062886|0|0|0|55.98523763333333|37.29066541166667
1491319062996|0|0|0|55.98523763333333|37.29066541166667
1491319063105|0|0|0|55.98523763333333|37.29066541166667
1491319063214|0|0|0|55.98523763333333|37.29066541166667
1491319063323|0|0|0|55.98523763333333|37.29066541166667
1491319063432|0|0|0|55.98523763333333|37.29066541166667
1491319063542|0|0|0|55.985237656666676|37.29066542499999
1491319063651|0|0|0|55.985237656666676|37.29066542499999
1491319063760|0|0|0|55.985237656666676|37.29066542499999
1491319063869|0|0|0|55.985237656666676|37.29066542499999
1491319063978|0|0|0|55.985237656666676|37.29066542499999
1491319064088|0|0|0|55.985237656666676|37.29066542499999
1491319064197|0|0|0|55.985237656666676|37.29066542499999
1491319064306|0|0|0|55.985237656666676|37.29066542499999
1491319064415|0|0|0|55.985237656666676|37.29066542499999
1491319064524|0|0|0|55.985237656666676|37.29066542499999
1491319064634|0|0|0|55.985237656666676|37.29066542499999
1491319064743|0|0|0|55.985237656666676|37.29066542499999
1491319064852|0|0|0|55.985237656666676|37.29066542499999
1491319064961|0|0|0|55.985237656666676|37.29066542499999
1491319065070|0|0|0|55.985237656666676|37.29066542499999
1491319065180|0|0|0|55.98523768|37.29066542499999
1491319065289|0|0|0|55.98523768|37.29066542499999
1491319065398|0|0|0|55.98523768|37.29066542499999
1491319065507|0|0|0|55.98523768|37.29066542499999
1491319065616|0|0|0|55.98523768|37.29066542499999
1491319065726|0|0|0|55.98523768|37.29066542499999
1491319065835|0|0|0|55.98523768|37.29066542499999
1491319065944|0|0|0|55.98523768|37.29066542499999
1491319066053|0|0|0|55.98523768|37.29066542499999
1491319066162|0|0|0|55.98523768|37.29066542499999
1491319066272|0|0|0|55.98523768|37.29066542499999
1491319066381|0|0|0|55.98523768|37.29066542499999
1491319066490|0|0|0|55.98523768|37.29066542499999
1491319066599|0|0|0|55.98523768|37.29066542499999
1491319066708|0|0|0|55.985237704999996|37.290665441666675
1491319066818|0|0|0|55.985237704999996|37.290665441666675
1491319066927|0|0|0|55.985237704999996|37.290665441666675
1491319067036|0|0|0|55.985237704999996|37.290665441666675
1491319067145|0|0|0|55.985237704999996|37.290665441666675
1491319067254|0|0|0|55.985237704999996|37.290665441666675
1491319067364|0|0|0|55.985237704999996|37.290665441666675
1491319067473|0|0|0|55.985237704999996|37.290665441666675
1491319067582|0|0|0|55.985237704999996|37.290665441666675
1491319067691|0|0|0|55.985237704999996|37.290665441666675
1491319067800|0|0|0|55.985237704999996|37.290665441666675
1491319067910|0|0|0|55.985237704999996|37.290665441666675
1491319068019|0|0|0|55.985237704999996|37.290665441666675
1491319068128|0|0|0|55.985237704999996|37.290665441666675
1491319068237|0|0|0|55.985237704999996|37.290665441666675
1491319068346|0|0|0|55.98523774833334|37.29066543833333
1491319068456|0|0|0|55.98523774833334|37.29066543833333
1491319068565|0|0|0|55.98523774833334|37.29066543833333
1491319068674|0|0|0|55.98523774833334|37.29066543833333
1491319068783|0|0|0|55.98523774833334|37.29066543833333
1491319068892|0|0|0|55.98523774833334|37.29066543833333
1491319069002|0|0|0|55.98523774833334|37.29066543833333
1491319069111|0|0|0|55.98523774833334|37.29066543833333
1491319069220|0|0|0|55.98523774833334|37.29066543833333
1491319069329|0|0|0|55.98523774833334|37.29066543833333
1491319069439|0|0|0|55.98523774833334|37.29066543833333
1491319069548|0|0|0|55.98523774833334|37.29066543833333
1491319069657|0|0|0|55.98523774833334|37.29066543833333
1491319069766|0|0|0|55.98523774833334|37.29066543833333
1491319069875|0|0|0|55.985237756666656|37.290665440000005
1491319069985|0|0|0|55.985237756666656|37.290665440000005
1491319070094|0|0|0|55.985237756666656|37.290665440000005
1491319070203|0|0|0|55.985237756666656|37.290665440000005
1491319070312|0|0|0|55.985237756666656|37.290665440000005
1491319070421|0|0|0|55.985237756666656|37.290665440000005
1491319070531|0|0|0|55.985237756666656|37.290665440000005
1491319070640|0|0|0|55.985237756666656|37.290665440000005
1491319070749|0|0|0|55.985237756666656|37.290665440000005
1491319070858|0|0|0|55.985237756666656|37.290665440000005
1491319070967|0|0|0|55.985237756666656|37.290665440000005
1491319071077|0|0|0|55.985237756666656|37.290665440000005
1491319071186|0|0|0|55.985237756666656|37.290665440000005
1491319071295|0|0|0|55.985237756666656|37.290665440000005
1491319071404|0|0|0|55.985237756666656|37.290665440000005
1491319071513|0|0|0|55.985237723333334|37.29066542499999
1491319071623|0|0|0|55.985237723333334|37.29066542499999
1491319071732|0|0|0|55.985237723333334|37.29066542499999
1491319071841|0|0|0|55.985237723333334|37.29066542499999
1491319071950|0|0|0|55.985237723333334|37.29066542499999
1491319072059|0|0|0|55.985237723333334|37.29066542499999
1491319072169|0|0|0|55.985237723333334|37.29066542499999
1491319072278|0|0|0|55.985237723333334|37.29066542499999
1491319072387|0|0|0|55.985237723333334|37.29066542499999
1491319072496|0|0|0|55.985237723333334|37.29066542499999
1491319072605|0|0|0|55.985237723333334|37.29066542499999
1491319072715|0|0|0|55.985237723333334|37.29066542499999
1491319072824|0|0|0|55.985237723333334|37.29066542499999
1491319072933|0|0|0|55.985237723333334|37.29066542499999
1491319073042|0|0|0|55.98523768333333|37.29066542666667
1491319073151|0|0|0|55.98523768333333|37.29066542666667
1491319073261|0|0|0|55.98523768333333|37.29066542666667
1491319073370|0|0|0|55.98523768333333|37.29066542666667
1491319073479|0|0|0|55.98523768333333|37.29066542666667
1491319073588|0|0|0|55.98523768333333|37.29066542666667
1491319073697|0|0|0|55.98523768333333|37.29066542666667
1491319073807|0|0|0|55.98523768333333|37.29066542666667
1491319073916|0|0|0|55.98523768333333|37.29066542666667
1491319074025|0|0|0|55.98523768333333|37.29066542666667
1491319074134|0|0|0|55.98523768333333|37.29066542666667
1491319074243|0|0|0|55.98523768333333|37.29066542666667
1491319074353|0|0|0|55.98523768333333|37.29066542666667
1491319074462|0|0|0|55.98523768333333|37.29066542666667
1491319074571|0|0|0|55.98523768333333|37.29066542666667
1491319074680|0|0|0|55.98523768|37.29066541
1491319074789|0|0|0|55.98523768|37.29066541
1491319074899|0|0|0|55.98523768|37.29066541
1491319075008|0|0|0|55.98523768|37.29066541
1491319075117|0|0|0|55.98523768|37.29066541
1491319075226|0|0|0|55.98523768|37.29066541
1491319075335|0|0|0|55.98523768|37.29066541
1491319075445|0|0|0|55.98523768|37.29066541
1491319075554|0|0|0|55.98523768|37.29066541
1491319075663|0|0|0|55.98523768|37.29066541
1491319075772|0|0|0|55.98523768|37.29066541
1491319075881|0|0|0|55.98523768|37.29066541
1491319075991|0|0|0|55.98523768|37.29066541
1491319076100|0|0|0|55.98523768|37.29066541
1491319076209|0|0|0|55.98523768166667|37.290665393333335
1491319076318|0|0|0|55.98523768166667|37.290665393333335
1491319076427|0|0|0|55.98523768166667|37.290665393333335
1491319076537|0|0|0|55.98523768166667|37.290665393333335
1491319076646|0|0|0|55.98523768166667|37.290665393333335
1491319076755|0|0|0|55.98523768166667|37.290665393333335
1491319076864|0|0|0|55.98523768166667|37.290665393333335
1491319076973|0|0|0|55.98523768166667|37.290665393333335
1491319077083|0|0|0|55.98523768166667|37.290665393333335
1491319077192|0|0|0|55.98523768166667|37.290665393333335
1491319077301|0|0|0|55.98523768166667|37.290665393333335
1491319077410|0|0|0|55.98523768166667|37.290665393333335
1491319077519|0|0|0|55.98523768166667|37.290665393333335
1491319077629|0|0|0|55.98523768166667|37.290665393333335
1491319077738|0|0|0|55.98523768166667|37.290665393333335
1491319077847|0|0|0|55.985237659999996|37.2906654
1491319077956|0|0|0|55.985237659999996|37.2906654
1491319078065|0|0|0|55.985237659999996|37.2906654
1491319078175|0|0|0|55.985237659999996|37.2906654
1491319078284|0|0|0|55.985237659999996|37.2906654
1491319078393|0|0|0|55.985237659999996|37.2906654
1491319078502|0|0|0|55.985237659999996|37.2906654
1491319078611|0|0|0|55.985237659999996|37.2906654
1491319078721|0|0|0|55.985237659999996|37.2906654
1491319078830|0|0|0|55.985237659999996|37.2906654
1491319078939|0|0|0|55.985237659999996|37.2906654
1491319079048|0|0|0|55.985237659999996|37.2906654
1491319079157|0|0|0|55.985237659999996|37.2906654
1491319079267|0|0|0|55.985237659999996|37.2906654
1491319079376|0|0|0|55.98523763833333|37.290665413333336
1491319079485|0|0|0|55.98523763833333|37.290665413333336
1491319079594|0|0|0|55.98523763833333|37.290665413333336
1491319079703|0|0|0|55.98523763833333|37.290665413333336
1491319079813|0|0|0|55.98523763833333|37.290665413333336
1491319079922|0|0|0|55.98523763833333|37.290665413333336
1491319080031|0|0|0|55.98523763833333|37.290665413333336
1491319080140|0|0|0|55.98523763833333|37.290665413333336
1491319080249|0|0|0|55.98523763833333|37.290665413333336
1491319080359|0|0|0|55.98523763833333|37.290665413333336
1491319080468|0|0|0|55.98523763833333|37.290665413333336
1491319080577|0|0|0|55.98523763833333|37.290665413333336
1491319080686|0|0|0|55.98523763833333|37.290665413333336
1491319080795|0|0|0|55.98523763833333|37.290665413333336
1491319080905|0|0|0|55.98523763833333|37.290665413333336
1491319081014|0|0|0|55.98523763500001|37.290665408333325
1491319081123|0|0|0|55.98523763500001|37.290665408333325
1491319081232|0|0|0|55.98523763500001|37.290665408333325
1491319081341|0|0|0|55.98523763500001|37.290665408333325
1491319081451|0|0|0|55.98523763500001|37.290665408333325
1491319081560|0|0|0|55.98523763500001|37.290665408333325
1491319081669|0|0|0|55.98523763500001|37.290665408333325
1491319081778|0|0|0|55.98523763500001|37.290665408333325
1491319081887|0|0|0|55.98523763500001|37.290665408333325
1491319081997|0|0|0|55.98523763500001|37.290665408333325
1491319082106|0|0|0|55.98523763500001|37.290665408333325
1491319082215|0|0|0|55.98523763500001|37.290665408333325
1491319082324|0|0|0|55.98523763500001|37.290665408333325
1491319082433|0|0|0|55.98523763500001|37.290665408333325
1491319082543|0|0|0|55.98523764333333|37.290665393333335
1491319082652|0|0|0|55.98523764333333|37.290665393333335
1491319082761|0|0|0|55.98523764333333|37.290665393333335
1491319082870|0|0|0|55.98523764333333|37.290665393333335
1491319082979|0|0|0|55.98523764333333|37.290665393333335
1491319083089|0|0|0|55.98523764333333|37.290665393333335
1491319083198|0|0|0|55.98523764333333|37.290665393333335
1491319083307|0|0|0|55.98523764333333|37.290665393333335
1491319083416|0|0|0|55.98523764333333|37.290665393333335
1491319083525|0|0|0|55.98523764333333|37.290665393333335
1491319083635|0|0|0|55.98523764333333|37.290665393333335
1491319083744|0|0|0|55.98523764333333|37.290665393333335
1491319083853|0|0|0|55.98523764333333|37.290665393333335
1491319083962|0|0|0|55.98523764333333|37.290665393333335
1491319084071|0|0|0|55.98523764333333|37.290665393333335
1491319084181|0|0|0|55.98523767166667|37.29066537833334
1491319084290|0|0|0|55.98523767166667|37.29066537833334
1491319084399|0|0|0|55.98523767166667|37.29066537833334
1491319084508|0|0|0|55.98523767166667|37.29066537833334
1491319084617|0|0|0|55.98523767166667|37.29066537833334
1491319084727|0|0|0|55.98523767166667|37.29066537833334
1491319084836|0|0|0|55.98523767166667|37.29066537833334
1491319084945|0|0|0|55.98523767166667|37.29066537833334
1491319085054|0|0|0|55.98523767166667|37.29066537833334
1491319085163|0|0|0|55.98523767166667|37.29066537833334
1491319085273|0|0|0|55.98523767166667|37.29066537833334
1491319085382|0|0|0|55.98523767166667|37.29066537833334
1491319085491|0|0|0|55.98523767166667|37.29066537833334
1491319085600|0|0|0|55.98523767166667|37.29066537833334
1491319085709|0|0|0|55.98523767166667|37.29066537833334
1491319085819|0|0|0|55.985237698333336|37.29066537333333
1491319085928|0|0|0|55.985237698333336|37.29066537333333
1491319086037|0|0|0|55.985237698333336|37.29066537333333
1491319086146|0|0|0|55.985237698333336|37.29066537333333
1491319086255|0|0|0|55.985237698333336|37.29066537333333
1491319086365|0|0|0|55.985237698333336|37.29066537333333
1491319086474|0|0|0|55.985237698333336|37.29066537333333
1491319086583|0|0|0|55.985237698333336|37.29066537333333
1491319086692|0|0|0|55.985237698333336|37.29066537333333
1491319086801|0|0|0|55.985237698333336|37.29066537333333
1491319086911|0|0|0|55.985237698333336|37.29066537333333
1491319087020|0|0|0|55.985237698333336|37.29066537333333
1491319087129|0|0|0|55.985237698333336|37.29066537333333
1491319087238|0|0|0|55.985237698333336|37.29066537333333
1491319087347|0|0|0|55.985237684999994|37.290665360000006
1491319087457|0|0|0|55.985237684999994|37.290665360000006
1491319087566|0|0|0|55.985237684999994|37.290665360000006
1491319087675|0|0|0|55.985237684999994|37.290665360000006
1491319087784|0|0|0|55.985237684999994|37.290665360000006
1491319087893|0|0|0|55.985237684999994|37.290665360000006
1491319088003|0|0|0|55.985237684999994|37.290665360000006
1491319088112|0|0|0|55.985237684999994|37.290665360000006
1491319088221|0|0|0|55.985237684999994|37.290665360000006
1491319088330|0|0|0|55.985237684999994|37.290665360000006
1491319088439|0|0|0|55.985237684999994|37.290665360000006
1491319088549|0|0|0|55.985237684999994|37.290665360000006
1491319088658|0|0|0|55.985237684999994|37.290665360000006
1491319088767|0|0|0|55.985237684999994|37.290665360000006
1491319088876|0|0|0|55.985237684999994|37.290665360000006
1491319088985|0|0|0|55.985237656666676|37.290665358333335
1491319089095|0|0|0|55.985237656666676|37.290665358333335
1491319089204|0|0|0|55.985237656666676|37.290665358333335
1491319089313|0|0|0|55.985237656666676|37.290665358333335
1491319089422|0|0|0|55.985237656666676|37.290665358333335
1491319089531|0|0|0|55.985237656666676|37.290665358333335
1491319089641|0|0|0|55.985237656666676|37.290665358333335
1491319089750|0|0|0|55.985237656666676|37.290665358333335
1491319089859|0|0|0|55.985237656666676|37.290665358333335
1491319089968|0|0|0|55.985237656666676|37.290665358333335
1491319090077|0|0|0|55.985237656666676|37.290665358333335
1491319090187|0|0|0|55.985237656666676|37.290665358333335
1491319090296|0|0|0|55.985237656666676|37.290665358333335
1491319090405|0|0|0|55.985237656666676|37.290665358333335
1491319090514|0|0|0|55.985237631666664|37.290665365
1491319090623|0|0|0|55.985237631666664|37.290665365
1491319090733|0|0|0|55.985237631666664|37.290665365
1491319090842|0|0|0|55.985237631666664|37.290665365
1491319090951|0|0|0|55.985237631666664|37.290665365
1491319091060|0|0|0|55.985237631666664|37.290665365
1491319091169|0|0|0|55.985237631666664|37.290665365
1491319091279|0|0|0|55.985237631666664|37.290665365
1491319091388|0|0|0|55.985237631666664|37.290665365
1491319091497|0|0|0|55.985237631666664|37.290665365
1491319091606|0|0|0|55.985237631666664|37.290665365
1491319091715|0|0|0|55.985237631666664|37.290665365
1491319091825|0|0|0|55.985237631666664|37.290665365
1491319091934|0|0|0|55.985237631666664|37.290665365
1491319092043|0|0|0|55.985237631666664|37.290665365
1491319092152|0|0|0|55.985237639999994|37.29066539
1491319092261|0|0|0|55.985237639999994|37.29066539
1491319092371|0|0|0|55.985237639999994|37.29066539
1491319092480|0|0|0|55.985237639999994|37.29066539
1491319092589|0|0|0|55.985237639999994|37.29066539
1491319092698|0|0|0|55.985237639999994|37.29066539
1491319092807|0|0|0|55.985237639999994|37.29066539
1491319092917|0|0|0|55.985237639999994|37.29066539
1491319093026|0|0|0|55.985237639999994|37.29066539
1491319093135|0|0|0|55.985237639999994|37.29066539
1491319093244|0|0|0|55.985237639999994|37.29066539
1491319093353|0|0|0|55.985237639999994|37.29066539
1491319093463|0|0|0|55.985237639999994|37.29066539
1491319093572|0|0|0|55.985237639999994|37.29066539
1491319093681|0|0|0|55.98523766833333|37.290665383333334
1491319093790|0|0|0|55.98523766833333|37.290665383333334
1491319093899|0|0|0|55.98523766833333|37.290665383333334
1491319094009|0|0|0|55.98523766833333|37.290665383333334
1491319094118|0|0|0|55.98523766833333|37.290665383333334
1491319094227|0|0|0|55.98523766833333|37.290665383333334
1491319094336|0|0|0|55.98523766833333|37.290665383333334
1491319094445|0|0|0|55.98523766833333|37.290665383333334
1491319094555|0|0|0|55.98523766833333|37.290665383333334
1491319094664|0|0|0|55.98523766833333|37.290665383333334
1491319094773|0|0|0|55.98523766833333|37.290665383333334
1491319094882|0|0|0|55.98523766833333|37.290665383333334
1491319094991|0|0|0|55.98523766833333|37.290665383333334
1491319095101|0|0|0|55.98523766833333|37.290665383333334
1491319095210|0|0|0|55.98523766833333|37.290665383333334
1491319095319|0|0|0|55.98523770166666|37.29066539
1491319095428|0|0|0|55.98523770166666|37.29066539
1491319095537|0|0|0|55.98523770166666|37.29066539
1491319095647|0|0|0|55.98523770166666|37.29066539
1491319095756|0|0|0|55.98523770166666|37.29066539
1491319095865|0|0|0|55.98523770166666|37.29066539
1491319095974|0|0|0|55.98523770166666|37.29066539
1491319096083|0|0|0|55.98523770166666|37.29066539
1491319096193|0|0|0|55.98523770166666|37.29066539
1491319096302|0|0|0|55.98523770166666|37.29066539
1491319096411|0|0|0|55.98523770166666|37.29066539
1491319096520|0|0|0|55.98523770166666|37.29066539
1491319096629|0|0|0|55.98523770166666|37.29066539
1491319096739|0|0|0|55.98523770166666|37.29066539
1491319096848|0|0|0|55.98523773|37.29066539
1491319096957|0|0|0|55.98523773|37.29066539
1491319097066|0|0|0|55.98523773|37.29066539
1491319097175|0|0|0|55.98523773|37.29066539
1491319097285|0|0|0|55.98523773|37.29066539
1491319097394|0|0|0|55.98523773|37.29066539
1491319097503|0|0|0|55.98523773|37.29066539
1491319097612|0|0|0|55.98523773|37.29066539
1491319097721|0|0|0|55.98523773|37.29066539
1491319097831|0|0|0|55.98523773|37.29066539
1491319097940|0|0|0|55.98523773|37.29066539
1491319098049|0|0|0|55.98523773|37.29066539
1491319098158|0|0|0|55.98523773|37.29066539
1491319098267|0|0|0|55.98523773|37.29066539
1491319098377|0|0|0|55.98523773|37.29066539
1491319098486|0|0|0|55.985237731666665|37.29066541499999
1491319098595|0|0|0|55.985237731666665|37.29066541499999
1491319098704|0|0|0|55.985237731666665|37.29066541499999
1491319098813|0|0|0|55.985237731666665|37.29066541499999
1491319098923|0|0|0|55.985237731666665|37.29066541499999
1491319099032|0|0|0|55.985237731666665|37.29066541499999
1491319099141|0|0|0|55.985237731666665|37.29066541499999
1491319099250|0|0|0|55.985237731666665|37.29066541499999
1491319099359|0|0|0|55.985237731666665|37.29066541499999
1491319099469|0|0|0|55.985237731666665|37.29066541499999
1491319099578|0|-15|0|55.985237731666665|37.29066541499999
1491319099687|0|-20|0|55.985237731666665|37.29066541499999
1491319099796|0|-20|0|55.985237731666665|37.29066541499999
1491319099905|0|-20|0|55.985237731666665|37.29066541499999
1491319100015|0|-20|0|55.985237733333335|37.290665430000004
1491319100124|0|-20|0|55.985237733333335|37.290665430000004
1491319100233|0|-20|0|55.985237733333335|37.290665430000004
1491319100342|0|-20|0|55.985237733333335|37.290665430000004
1491319100451|0|-20|0|55.985237733333335|37.290665430000004
1491319100561|0|-20|0|55.985237733333335|37.290665430000004
1491319100670|0|-20|0|55.985237733333335|37.290665430000004
1491319100779|0|-20|0|55.985237733333335|37.290665430000004
1491319100888|0|-20|0|55.985237733333335|37.290665430000004
1491319100997|0|-20|0|55.985237733333335|37.290665430000004
1491319101107|0|-20|0|55.985237733333335|37.290665430000004
1491319101216|0|-20|0|55.985237733333335|37.290665430000004
1491319101325|0|-20|0|55.985237733333335|37.290665430000004
1491319101434|0|-20|0|55.985237733333335|37.290665430000004
1491319101543|0|-20|0|55.985237733333335|37.290665430000004
1491319101653|0|-20|0|55.98523772|37.290665454999996
1491319101762|0|-20|0|55.98523772|37.290665454999996
1491319101871|0|-20|0|55.98523772|37.290665454999996
1491319101980|0|-20|0|55.98523772|37.290665454999996
1491319102089|0|-20|0|55.98523772|37.290665454999996
1491319102199|0|-20|0|55.98523772|37.290665454999996
1491319102308|0|-20|0|55.98523772|37.290665454999996
1491319102417|0|-20|0|55.98523772|37.290665454999996
1491319102526|0|-20|0|55.98523772|37.290665454999996
1491319102635|0|-20|0|55.98523772|37.290665454999996
1491319102745|0|-20|0|55.98523772|37.290665454999996
1491319102854|0|-20|0|55.98523772|37.290665454999996
1491319102963|0|-20|0|55.98523772|37.290665454999996
1491319103072|0|-20|0|55.98523772|37.290665454999996
1491319103181|0|-20|0|55.9852377|37.29066547333334
1491319103291|0|-20|0|55.9852377|37.29066547333334
1491319103400|0|-20|0|55.9852377|37.29066547333334
1491319103509|0|-20|0|55.9852377|37.29066547333334
1491319103618|0|-20|0|55.9852377|37.29066547333334
1491319103727|0|-20|0|55.9852377|37.29066547333334
1491319103837|0|-20|0|55.9852377|37.29066547333334
1491319103946|0|-20|0|55.9852377|37.29066547333334
1491319104055|0|-19|0|55.9852377|37.29066547333334
1491319104164|0|-17|0|55.9852377|37.29066547333334
1491319104273|0|-16|0|55.9852377|37.29066547333334
1491319104383|0|-16|0|55.9852377|37.29066547333334
1491319104492|0|-16|0|55.9852377|37.29066547333334
1491319104601|0|-8|0|55.9852377|37.29066547333334
1491319104710|0|-6|0|55.9852377|37.29066547333334
1491319104819|0|-6|0|55.98523768666668|37.29066546666666
1491319104929|0|-6|0|55.98523768666668|37.29066546666666
1491319105038|0|-3|0|55.98523768666668|37.29066546666666
1491319105147|0|-2|0|55.98523768666668|37.29066546666666
1491319105256|0|-2|0|55.98523768666668|37.29066546666666
1491319105365|0|-2|0|55.98523768666668|37.29066546666666
1491319105475|0|-1|0|55.98523768666668|37.29066546666666
1491319105584|0|-1|0|55.98523768666668|37.29066546666666
1491319105693|0|0|0|55.98523768666668|37.29066546666666
1491319105802|0|1|0|55.98523768666668|37.29066546666666
1491319105911|0|2|0|55.98523768666668|37.29066546666666
1491319106021|0|2|0|55.98523768666668|37.29066546666666
1491319106130|0|2|0|55.98523768666668|37.29066546666666
1491319106239|0|2|0|55.98523768666668|37.29066546666666
1491319106348|0|2|0|55.98523767666668|37.290665431666675
1491319106457|0|2|0|55.98523767666668|37.290665431666675
1491319106567|0|0|0|55.98523767666668|37.290665431666675
1491319106676|0|0|0|55.98523767666668|37.290665431666675
1491319106785|0|0|0|55.98523767666668|37.290665431666675
1491319106894|0|0|0|55.98523767666668|37.290665431666675
1491319107003|0|0|0|55.98523767666668|37.29066543