1501235324261|0|462|0|55.98506756833334|37.29152190166668
1501235324371|0|462|0|55.985067584999996|37.291521891666676
1501235324480|0|462|0|55.985067574999995|37.291521810000006
1501235324589|0|462|0|55.98506762833333|37.29152155333334
1501235324699|0|462|0|55.98506766|37.29152135166667
1501235324808|0|462|0|55.985067695|37.29152113
1501235324918|0|462|0|55.98506771833333|37.29152086
1501235325027|0|462|0|55.98506776333334|37.291520569999996
1501235325136|0|462|0|55.98506781|37.29152022833333
1501235325237|0|462|0|55.98506785833333|37.291519805
1501235325337|0|462|0|55.985067936666674|37.29151931
1501235325437|1|462|0|55.98506801833333|37.291518726666666
1501235325537|1|462|0|55.98506811166667|37.291518065
1501235325638|1|462|0|55.98506822166667|37.29151732500001
1501235325738|1|462|0|55.98506837|37.29151649999999
1501235325852|2|462|0|55.98506853333333|37.291515646666674
1501235325961|2|462|0|55.985068686666665|37.291514705000004
1501235326071|2|462|0|55.985068905|37.29151370166667
1501235326180|2|462|0|55.985069085000006|37.29151262666667
1501235326289|2|462|0|55.985069519999996|37.29151021166667
1501235326399|3|330|0|55.98506976333333|37.291508834999995
1501235326508|3|330|0|55.98506999999999|37.29150743333334
1501235326617|3|329|0|55.98507030666666|37.29150586
1501235326727|4|249|0|55.985070631666666|37.291504205
1501235326836|4|244|0|55.985070994999994|37.29150240333333
1501235326946|4|243|0|55.98507138833334|37.29150053833334
1501235327055|4|244|0|55.985071749999996|37.29149863833334
1501235327164|5|197|0|55.98507218333333|37.291496645
1501235327289|5|199|0|55.98507266|37.29149448333333
1501235327399|5|195|0|55.98507358666667|37.29149010333333
1501235327508|5|200|0|55.985074161666674|37.29148778166667
1501235327617|5|203|0|55.98507468500001|37.291485433333335
1501235327727|5|202|0|55.98507528333334|37.29148294833334
1501235327836|6|157|0|55.985075958333326|37.29148054833333
1501235327946|6|157|0|55.98507656333334|37.291477955
1501235328055|6|158|0|55.98507727|37.29147536666667
1501235328164|6|157|0|55.98507800666667|37.29147266833334
1501235328274|6|150|0|55.98507877000001|37.291469946666666
1501235328383|7|128|0|55.985079546666675|37.29146729333334
1501235328492|7|126|0|55.985081179999995|37.291461688333335
1501235328602|7|-72|0|55.985082075|37.29145893666666
1501235328711|7|-76|0|55.98508299166666|37.29145606833333
1501235328821|7|-100|0|55.985083956666664|37.29145322333333
1501235328930|7|-106|0|55.985084968333325|37.29145030499999
1501235329039|7|-120|0|55.98508591666667|37.291447395
1501235329149|7|-123|0|55.98508693666666|37.291444436666666
1501235329258|7|-133|0|55.98508794166667|37.29144140166667
1501235329367|8|-154|0|55.98508890500001|37.29143828
1501235329477|8|-133|0|55.98508992666666|37.291435265000004
1501235329586|8|-397|0|55.98509195666667|37.29142889333334
1501235329696|8|-131|0|55.98509296666666|37.29142571333333
1501235329805|8|-115|0|55.98509388833333|37.291422555000004
1501235329914|8|-119|0|55.98509483833334|37.29141933166667
1501235330024|8|-112|0|55.985095789999995|37.29141608166666
1501235330133|8|-113|0|55.9850967|37.29141295666667
1501235330242|8|-110|0|55.985097614999994|37.291409693333335
1501235330352|8|-109|0|55.985098480000005|37.291406435
1501235330461|8|-98|0|55.98509936000001|37.291403214999995
1501235330571|8|-80|0|55.98510020833334|37.291400028333335
1501235330680|8|-71|0|55.98510176|37.29139342666666
1501235330789|8|-51|0|55.98510252999999|37.29139014
1501235330899|8|-53|0|55.985103173333336|37.291386743333334
1501235331008|8|-31|0|55.98510395666667|37.291383446666664
1501235331117|8|-27|0|55.98510464666667|37.29138007833333
1501235331227|8|-28|0|55.985105385|37.291376783333334
1501235331336|8|-26|0|55.985106153333334|37.29137345
1501235331446|8|-24|0|55.985106869999996|37.291370138333335
1501235331555|7|-18|0|55.985107595|37.29136688333333
1501235331664|7|-19|0|55.98510837333334|37.291363675
1501235331774|7|-10|0|55.98510917833334|37.29136044
1501235331883|7|-22|0|55.98510992500001|37.29135729
1501235331992|7|2|0|55.985111350000004|37.29135085666667
1501235332102|7|-462|0|55.98511210833333|37.29134771833333
1501235332211|7|-24|0|55.985112865000005|37.29134452500001
1501235332321|7|-66|0|55.985113606666665|37.29134126666667
1501235332430|7|-20|0|55.98511438666666|37.291338015
1501235332539|7|-326|0|55.98511514333333|37.29133469
1501235332649|8|-2|0|55.985115838333336|37.291331335
1501235332758|8|0|0|55.985116545|37.291327915000004
1501235332868|8|1|0|55.98511728666667|37.29132451166667
1501235332977|8|1|0|55.98511797666667|37.29132104166667
1501235333089|8|5|0|55.985119428333334|37.291313951666666
1501235333214|8|0|0|55.98512022500001|37.291310458333335
1501235333323|8|0|0|55.985120975|37.29130698333333
1501235333433|8|-1|0|55.98512175000001|37.29130348166666
1501235333542|8|-1|0|55.98512252166666|37.29129989833333
1501235333652|8|4|0|55.98512324333333|37.29129630833334
1501235333761|8|5|0|55.985124035000005|37.29129271666667
1501235333870|8|2|0|55.985124815|37.29128907666666
1501235333980|8|1|0|55.985126485|37.291281790000006
1501235334089|8|-7|0|55.98512725833333|37.29127802
1501235334198|9|0|0|55.98512809333334|37.29127422333333
1501235334308|9|0|0|55.98512890166667|37.291270565
1501235334433|9|-3|0|55.985129724999986|37.29126673166667
1501235334542|9|-4|0|55.98513058166667|37.29126291833334
1501235334652|9|-9|0|55.98513143|37.291259079999996
1501235334792|9|-10|0|55.98513223166666|37.29125521500001
1501235334902|9|-9|0|55.985133919999996|37.29124735333333
1501235335011|9|-11|0|55.98513478166666|37.291243425
1501235335120|9|-12|0|55.985135698333345|37.291239473333334
1501235335230|9|-16|0|55.98513656833333|37.291235496666665
1501235335339|9|-16|0|55.98513744833333|37.2912315
1501235335448|9|-13|0|55.98513830833333|37.29122748499999
1501235335605|9|-19|0|55.98513920333333|37.291223426666676
1501235335730|9|-19|0|55.98514092166667|37.291215265000005
1501235335839|9|-16|0|55.98514182166667|37.29121112
1501235335948|10|-21|0|55.98514268166667|37.29120696333333
1501235336073|10|-22|0|55.985143543333336|37.29120287833333
1501235336183|10|-21|0|55.98514527833333|37.291194518333334
1501235336292|10|-15|0|55.98514612|37.291190310000005
1501235336402|10|1|0|55.985147010000006|37.29118605833334
1501235336511|10|-13|0|55.98514785833333|37.29118173166667
1501235336636|10|-10|0|55.985148711666675|37.29117743333334
1501235336745|10|-1|0|55.98514955499999|37.29117302666668
1501235336855|10|0|0|55.98515038166667|37.29116865666667
1501235336995|10|-15|0|55.985151310000006|37.291164335000005
1501235337105|10|-7|0|55.98515303833333|37.29115549166667
1501235337205|10|-4|0|55.985153870000005|37.29115103166666
1501235337315|10|22|0|55.985154638333334|37.29114649666667
1501235337424|10|6|0|55.98515547333333|37.29114204333334
1501235337533|10|-14|0|55.98515638000001|37.29113759500001
1501235337658|10|10|0|55.985157220000005|37.29113308833333
1501235337768|10|0|0|55.985158098333336|37.29112857166666
1501235337877|10|-18|0|55.98515907666666|37.29112405666666
1501235337986|10|9|0|55.98515995166667|37.29111954833334
1501235338096|10|3|0|55.985161751666666|37.29111052166666
1501235338205|10|11|0|55.98516264166667|37.29110593666667
1501235338315|10|-2|0|55.98516356666668|37.291101445
1501235338424|10|3|0|55.98516446666666|37.29109688333333
1501235338533|10|0|0|55.985165376666664|37.29109234
1501235338643|10|-1|0|55.98516629666667|37.29108777833334
1501235338752|10|3|0|55.985167191666676|37.29108323833333
1501235338862|10|6|0|55.98516808833333|37.291078614999996
1501235338971|10|-4|0|55.98516901333335|37.291074046666665
1501235339080|10|-7|0|55.98517085166667|37.29106484333333
1501235339190|11|-20|0|55.985171835|37.291060233333326
1501235339299|11|-11|0|55.98517274999999|37.29105567
1501235339408|10|-13|0|55.9851737|37.29105099666667
1501235339518|10|-15|0|55.98517465166667|37.29104632166666
1501235339627|11|1|0|55.98517553166667|37.29104166333333
1501235339737|11|11|0|55.98517638500001|37.291036954999996
1501235339846|11|-21|0|55.98517730499999|37.291032376666664
1501235339955|11|-10|0|55.985178215|37.29102775
1501235340065|11|-18|0|55.985179120000005|37.29102309666667
1501235340174|11|-14|0|55.98518000000001|37.29101847333333
1501235340283|11|-29|0|55.98518176999999|37.29100922666667
1501235340393|11|-12|0|55.98518176999999|37.29100922666667
1501235340502|11|0|0|55.98518345666667|37.290999911666674
1501235340611|11|-17|0|55.98518435333334|37.29099519833333
1501235340721|11|-21|0|55.98518528166666|37.29099045
1501235340830|11|18|0|55.98518613333334|37.29098576333334
1501235340940|11|10|0|55.98518696166668|37.29098109666666
1501235341051|11|7|0|55.98518781333334|37.290976396666665
1501235341160|11|23|0|55.98518862666667|37.29097171
1501235341270|11|14|0|55.98518950999999|37.290967015
1501235341379|11|42|0|55.985190290000006|37.29096235000001
1501235341488|11|10|0|55.98519198833332|37.290953028333334
1501235341598|11|-11|0|55.98519290166667|37.29094838166666
1501235341707|11|-12|0|55.98519381999999|37.290943756666664
1501235341816|11|-13|0|55.98519473166666|37.290939189999996
1501235341926|11|-23|0|55.98519570499999|37.290934578333335
1501235342035|10|-6|0|55.98519661666666|37.290930028333335
1501235342145|10|4|0|55.98519749333333|37.290925398333336
1501235342254|11|5|0|55.98519836833334|37.29092074500001
1501235342363|11|47|0|55.98519915000001|37.29091608666667
1501235342473|11|47|0|55.98519993833334|37.290911406666666
1501235342582|11|22|0|55.98520077333333|37.29090674666667
1501235342691|11|-11|0|55.98520260666666|37.290897519999994
1501235342801|11|-14|0|55.985203555|37.290892846666665
1501235342910|11|-11|0|55.98520447166667|37.29088826499999
1501235343020|11|-20|0|55.98520542166666|37.290883715
1501235343129|11|-8|0|55.98520633166666|37.29087909333333
1501235343238|11|-9|0|55.985207251666665|37.290874425
1501235343348|11|0|0|55.98520812333332|37.290869824999994
1501235343457|11|0|0|55.98520899166667|37.29086525
1501235343567|11|-12|0|55.98520991333333|37.29086061166667
1501235343676|11|-18|0|55.985210853333335|37.29085598166667
1501235343785|11|-8|0|55.98521264|37.290846795
1501235343895|11|-9|0|55.98521354333334|37.29084218
1501235344004|11|0|0|55.98521442333334|37.290837501666665
1501235344113|11|14|0|55.98521525833333|37.29083287833334
1501235344223|11|-3|0|55.98521614833333|37.29082820166666
1501235344332|11|-2|0|55.985217026666675|37.29082356
1501235344441|11|-11|0|55.98521793333333|37.290818918333336
1501235344551|11|-8|0|55.98521882833334|37.29081427833333
1501235344660|11|-4|0|55.98521970833334|37.29080964
1501235344770|11|-5|0|55.98522059166667|37.290804980000004
1501235344879|11|-8|0|55.98522149000001|37.29080028833333
1501235344988|11|-4|0|55.98522324499999|37.290790845
1501235345098|11|0|0|55.98522412333333|37.290786080000004
1501235345207|11|-4|0|55.985225023333335|37.29078126833333
1501235345316|11|7|0|55.98522588833333|37.29077647166666
1501235345426|11|-3|0|55.985226795|37.290771563333344
1501235345535|11|6|0|55.98522767333334|37.29076667333333
1501235345645|11|2|0|55.98522855666667|37.290761803333325
1501235345754|11|10|0|55.98522944166666|37.29075679
1501235345879|11|-18|0|55.985230394999995|37.290751863333334
1501235345988|11|3|0|55.985232258333326|37.290741733333334
1501235346098|12|-5|0|55.98523319166668|37.290736648333336
1501235346207|12|-2|0|55.98523412166666|37.29073153666667
1501235346316|12|-21|0|55.98523511666668|37.290726365000005
1501235346426|12|10|0|55.98523602|37.290721165
1501235346535|12|-19|0|55.985237014999996|37.29071594500001
1501235346660|12|-3|0|55.98523797333334|37.29071069333334
1501235346770|12|-14|0|55.985238951666666|37.29070548
1501235346879|12|4|0|55.985240871666676|37.29069491833333
1501235346988|12|-4|0|55.98524184666667|37.29068958166667
1501235347098|12|2|0|55.985242806666676|37.29068426
1501235347207|12|19|0|55.98524373|37.290678871666664
1501235347316|12|11|0|55.98524467333333|37.29067346
1501235347426|12|-6|0|55.985245688333336|37.29066800333334
1501235347535|12|1|0|55.98524668499999|37.29066253333333
1501235347645|12|-7|0|55.98524769666666|37.290657124999996
1501235347785|13|-7|0|55.985248725000005|37.29065163
1501235347895|13|-1|0|55.98525072833333|37.29064054333334
1501235348004|13|-5|0|55.98525175833333|37.290634986666674
1501235348113|13|-9|0|55.98525279833334|37.290629455
1501235348223|13|0|0|55.985253828333335|37.29062380333334
1501235348332|13|-9|0|55.98525488833334|37.29061816
1501235348442|13|2|0|55.985255925|37.29061244500001
1501235348551|13|-2|0|55.985256979999996|37.29060668166667
1501235348676|13|-10|0|55.985258075|37.29060088500001
1501235348785|13|3|0|55.98526020166668|37.290589185
1501235348895|13|9|0|55.985261246666674|37.29058328
1501235349004|13|-4|0|55.98526233333333|37.29057738
1501235349113|14|-7|0|55.98526343666668|37.290571465
1501235349238|14|-4|0|55.98526455166665|37.29056543333334
1501235349348|14|7|0|55.98526561333333|37.29055947
1501235349457|14|5|0|55.985266689999996|37.29055345333333
1501235349567|14|-2|0|55.985267793333335|37.290547438333334
1501235349676|14|6|0|55.985268871666655|37.290541399999995
1501235349785|14|5|0|55.98527102|37.290529366666675
1501235349895|14|0|0|55.985272106666656|37.290523366666676
1501235350004|14|20|0|55.98527312833333|37.29051736333333
1501235350176|14|-8|0|55.985274236666655|37.29051143
1501235350285|14|-4|0|55.98527637166667|37.290499458333336
1501235350395|14|18|0|55.98527747666667|37.29049350833333
1501235350504|14|-12|0|55.98527859833332|37.290487615
1501235350613|14|-7|0|55.985279706666674|37.29048167333334
1501235350738|14|6|0|55.98528076166667|37.29047576
1501235350848|14|-1|0|55.985281840000006|37.290469849999994
1501235350957|14|-18|0|55.985282993333335|37.290463921666664
1501235351098|14|-20|0|55.985284138333334|37.29045809833333
1501235351207|13|-7|0|55.98528635500001|37.29044634666666
1501235351316|14|3|0|55.985287404999994|37.290440515
1501235351426|14|-8|0|55.98528851|37.290434615
1501235351535|13|12|0|55.98528953499999|37.290428768333335
1501235351645|13|-10|0|55.985290638333325|37.290422905
1501235351770|13|0|0|55.985291713333325|37.290417005
1501235351879|13|21|0|55.985293735|37.290405218333326
1501235352004|13|0|0|55.985294786666664|37.29039937666667
1501235352113|13|5|0|55.98529584833333|37.290393448333326
1501235352238|13|0|0|55.98529692000001|37.290387556666666
1501235352348|13|1|0|55.985297976666665|37.290381704999994
1501235352457|13|-3|0|55.98529904333333|37.290375903333334
1501235352566|13|4|0|55.98530009666666|37.29037004333334
1501235352676|13|-1|0|55.985301163333325|37.29036420333334
1501235352785|13|-8|0|55.98530224666666|37.290358420000004
1501235352895|13|-3|0|55.985304365000005|37.29034674166667
1501235353004|13|-6|0|55.985305450000006|37.290340915
1501235353113|13|-8|0|55.985306553333345|37.29033501833334
1501235353223|13|-5|0|55.985307631666664|37.290329193333335
1501235353332|13|-1|0|55.985308703333345|37.29032332333333
1501235353442|13|-4|0|55.985309785|37.290317461666675
1501235353551|13|11|0|55.985310805000005|37.29031164999999
1501235353660|13|3|0|55.985311846666676|37.29030582333333
1501235353770|13|-9|0|55.98531295166667|37.290299945
1501235353879|13|-1|0|55.985314020000004|37.29029409166667
1501235353988|13|-12|0|55.98531619166666|37.290282371666656
1501235354098|13|4|0|55.98531723999999|37.29027653333333
1501235354207|13|-6|0|55.98531832833334|37.290270666666665
1501235354316|13|0|0|55.98531938833334|37.29026480499999
1501235354426|13|0|0|55.98532045166666|37.29025893
1501235354535|13|-8|0|55.98532154166666|37.29025311333333
1501235354645|13|8|0|55.98532258166666|37.29024724000001
1501235354754|13|8|0|55.985323625|37.290241341666665
1501235354863|13|3|0|55.98532467333333|37.290235476666666
1501235354973|13|-9|0|55.985325775|37.290229601666674
1501235355082|13|8|0|55.98532784833333|37.29021799666667
1501235355191|13|15|0|55.98532885833334|37.290212161666666
1501235355301|13|16|0|55.98532885833334|37.290212161666666
1501235355410|13|-3|0|55.98533096333334|37.290200424999995
1501235355520|13|-7|0|55.98533205499999|37.290194570000004
1501235355629|13|8|0|55.98533308666667|37.290188745
1501235355738|13|-17|0|55.98533420666666|37.29018293166666
1501235355848|13|-11|0|55.98533531833334|37.290177071666676
1501235355957|13|10|0|55.98533632499999|37.290171361666665
1501235356067|13|7|0|55.98533736999999|37.29016547500001
1501235356176|13|-17|0|55.98533848333334|37.290159685
1501235356285|13|-1|0|55.98534061833334|37.290148065
1501235356395|13|-4|0|55.98534061833334|37.290148065
1501235356504|13|-7|0|55.98534273499999|37.29013654333333
1501235356613|13|5|0|55.98534377666667|37.29013070833333
1501235356723|13|6|0|55.98534481666667|37.290124860000006
1501235356832|13|6|0|55.985345851666665|37.290119045000004
1501235356942|13|13|0|55.98534685666667|37.290113264999995
1501235357051|13|-2|0|55.98534792|37.290107455000005
1501235357160|13|-11|0|55.985349016666675|37.29010166666667
1501235357270|13|13|0|55.98535003|37.29009584999999
1501235357379|13|8|0|55.98535106166667|37.29009000666667
1501235357488|13|-6|0|55.98535321833333|37.29007842666667
1501235357598|13|11|0|55.985354233333325|37.29007264166667
1501235357707|13|-27|0|55.98535538999999|37.290066870000004
1501235357816|13|0|0|55.98535643833333|37.290061060000006
1501235357926|13|9|0|55.985357465|37.290055245000005
1501235358035|13|-9|0|55.985358555|37.290049426666656
1501235358145|13|-6|0|55.98535964333333|37.290043563333334
1501235358254|13|12|0|55.985360666666665|37.29003771166666
1501235358363|14|10|0|55.98536169666666|37.29003183666667
1501235358473|14|-1|0|55.98536278666666|37.29002586166667
1501235358582|14|6|0|55.98536496333333|37.290013846666675
1501235358691|14|-7|0|55.98536608333333|37.290007825
1501235358801|14|-8|0|55.98536721833334|37.29000175833333
1501235358910|14|-5|0|55.98536836166666|37.289995590000004
1501235359020|14|7|0|55.98536945833333|37.289989414999994
1501235359129|14|0|0|55.985370595|37.28998313833333
1501235359238|14|-2|0|55.98537173500001|37.289976895
1501235359348|15|-7|0|55.98537292166667|37.28997051666666
1501235359457|15|-5|0|55.98537410000001|37.289964145
1501235359566|15|-1|0|55.98537525833334|37.289957793333336
1501235359707|15|-15|0|55.98537762333334|37.28994485333333
1501235359816|15|-3|0|55.98537881166667|37.289938389999996
1501235359926|15|1|0|55.98537998333333|37.28993189166666
1501235360051|15|0|0|55.98538116500001|37.28992536333334
1501235360160|15|-9|0|55.98538239166666|37.28991878000001
1501235360270|15|0|0|55.98538357666667|37.28991224499999
1501235360379|15|7|0|55.985384741666664|37.28990566666666
1501235360504|15|4|0|55.98538706666666|37.28989248166667
1501235360613|15|1|0|55.985388245|37.28988593166666
1501235360723|15|17|0|55.98538936833334|37.28987937833333
1501235360832|15|-4|0|55.98539057166666|37.28987278166667
1501235360942|15|0|0|55.985391751666675|37.289866285
1501235361051|15|8|0|55.985392913333335|37.28985972166667
1501235361160|15|21|0|55.985394021666664|37.289853165
1501235361285|15|-6|0|55.985396386666665|37.289840170000005
1501235361395|15|7|0|55.98539756666668|37.28983374666667
1501235361504|15|-8|0|55.98539875666667|37.28982734666666
1501235361613|14|15|0|55.98539985000001|37.28982101666666
1501235361738|14|-12|0|55.98540103333333|37.28981473666667
1501235361848|14|13|0|55.98540209833333|37.289808619999995
1501235361957|13|-19|0|55.985403245|37.28980270833333
1501235362067|12|-1|0|55.98540429|37.28979704166666
1501235362207|11|-2|0|55.98540529166667|37.28979156333333
1501235362317|11|-8|0|55.98540710666666|37.289781485000006
1501235362426|11|-2|0|55.98540795|37.28977687333333
1501235362535|9|0|0|55.98540878|37.289772549999995
1501235362645|8|0|0|55.98540947666667|37.289768484999996
1501235362754|8|0|0|55.98541016166667|37.28976486333333
1501235362863|7|-11|0|55.98541080166667|37.289761525
1501235362973|6|-11|0|55.98541127499999|37.289758548333324
1501235363082|6|23|0|55.98541175|37.28975589
1501235363191|5|-6|0|55.985412601666674|37.28975134833333
1501235363301|4|1|0|55.98541290166666|37.28974959333334
1501235363410|3|3|0|55.985413163333334|37.28974801333332
1501235363520|3|7|0|55.98541344166667|37.289746616666676
1501235363629|2|9|0|55.985413631666674|37.289745541666676
1501235363738|2|9|0|55.98541381499999|37.28974451
1501235363848|2|9|0|55.985413951666665|37.28974375833334
1501235363957|1|14|0|55.985414115|37.289743011666665
1501235364062|1|13|0|55.98541425666667|37.28974238
1501235364171|1|1|0|55.98541433833334|37.28974183166666
1501235364327|0|1|0|55.98541441833332|37.28974137
1501235364437|0|1|0|55.98541452833333|37.289740779999995
1501235364546|0|1|0|55.98541455333334|37.28974061833333
1501235364656|0|1|0|55.985414585|37.289740495000004
1501235364765|0|1|0|55.98541461|37.28974036499999
1501235364874|0|1|0|55.98541465666667|37.28974012333334
1501235364984|0|1|0|55.98541471833334|37.289739811666664
1501235365093|0|1|0|55.98541487166667|37.28973897833334
1501235365202|0|1|0|55.98541495999999|37.289738495
1501235365312|1|0|0|55.985415071666665|37.28973793666667
1501235365421|1|-11|0|55.98541523833333|37.28973725
1501235365531|1|-11|0|55.98541538999999|37.289736501666674
1501235365640|1|-11|0|55.98541555166667|37.289735638333326
1501235365749|2|-15|0|55.985415768333326|37.28973464833334
1501235365859|3|-17|0|55.98541599833334|37.289733381666665
1501235365968|3|-5|0|55.985416214999994|37.289732046666664
1501235366077|3|-5|0|55.985416484999995|37.28973052
1501235366187|4|-8|0|55.985417195000004|37.289726558333335
1501235366296|5|4|0|55.985417605|37.289724158333335
1501235366406|5|7|0|55.98541810166667|37.28972143333334
1501235366515|6|6|0|55.985418558333336|37.28971836166667
1501235366624|7|7|0|55.985419221666675|37.289715083333334
1501235366734|8|9|0|55.98541982166667|37.28971154166667
1501235366843|8|34|0|55.985420401666666|37.28970775
1501235366953|9|33|0|55.98542114000001|37.28970372
1501235367062|10|11|0|55.98542185166666|37.28969949166667
1501235367171|11|12|0|55.98542268166666|37.28969515666667
1501235367281|11|-2|0|55.98542348|37.28969057500001
1501235367390|11|-29|0|55.985424439999996|37.289685805000005
1501235367499|12|-25|0|55.98542632499999|37.28967599166666
1501235367609|12|-21|0|55.98542734|37.289670799999996
1501235367718|12|-6|0|55.98542838333332|37.289665301666666
1501235367828|13|0|0|55.98542940833333|37.28965964833334
1501235367937|13|15|0|55.98543042333334|37.289653765000004
1501235368046|13|17|0|55.98543144833334|37.289647765000005
1501235368156|13|13|0|55.98543248833332|37.28964175166667
1501235368265|13|27|0|55.985433485|37.289635696666664
1501235368372|13|9|0|55.98543454166668|37.28962971833334
1501235368481|14|-1|0|55.985435618333334|37.289623809999995
1501235368590|14|5|0|55.985437805000004|37.28961204666667
1501235368700|14|-3|0|55.985438915|37.28960600166666
1501235368809|14|0|0|55.985440033333326|37.28959985
1501235368918|14|-26|0|55.98544125|37.28959374666666
1501235369028|14|-10|0|55.98544239333334|37.28958762833334
1501235369137|14|-28|0|55.98544359833333|37.28958162166667
1501235369247|14|-20|0|55.985444765000004|37.28957561499999
1501235369356|14|0|0|55.98544587500001|37.289569576666665
1501235369465|14|-7|0|55.98544702166668|37.28956341833334
1501235369575|14|2|0|55.98544811166666|37.28955733833333
1501235369684|14|10|0|55.98544919|37.28955118499999
1501235369793|14|-4|0|55.98545141833333|37.289538865000004
1501235369903|14|20|0|55.985452473333325|37.28953262666666
1501235370012|14|-3|0|55.98545359666667|37.28952643
1501235370122|14|3|0|55.98545471|37.289520205
1501235370231|14|-29|0|55.985455910000006|37.289514260000004
1501235370340|14|22|0|55.98545694|37.289508094999995
1501235370450|14|9|0|55.98545803833334|37.28950186333333
1501235370559|14|-4|0|55.98545916666667|37.28949573333333
1501235370668|14|-4|0|55.98546031166668|37.289489515
1501235370778|14|-12|0|55.98546147166667|37.28948336833333
1501235370880|14|-22|0|55.98546267666668|37.28947720833333
1501235370990|14|9|0|55.98546475500001|37.289464648333336
1501235371099|14|5|0|55.985465854999994|37.28945844333334
1501235371206|14|-8|0|55.98546699666668|37.289452335
1501235371318|14|-18|0|55.98546817833333|37.289446196666674
1501235371427|14|-24|0|55.985469386666665|37.289440065
1501235371537|14|6|0|55.98547047833334|37.28943383833333
1501235371646|14|10|0|55.98547155666667|37.28942767
1501235371755|14|38|0|55.98547253333333|37.28942140666666
1501235371865|14|7|0|55.98547362166668|37.28941526166667
1501235371974|14|-4|0|55.98547474|37.289409185
1501235372077|14|37|0|55.98547572000001|37.289402904999996
1501235372186|14|-25|0|55.985477949999996|37.28939078333334
1501235372295|14|18|0|55.98547899666668|37.289384594999994
1501235372