1501240595105|0|462|0|55.98509142500001|37.291474568333335
1501240595215|0|462|0|55.98509141500001|37.29147454333334
1501240595324|0|462|0|55.98509143166666|37.29147455333334
1501240595496|0|462|0|55.98509142833333|37.29147454333334
1501240595605|0|462|0|55.98509141666666|37.29147453
1501240595714|0|462|0|55.98509142666666|37.29147451833333
1501240595824|0|462|0|55.98509142666666|37.29147451
1501240595949|0|462|0|55.98509143|37.291474515
1501240596058|0|462|0|55.985091433333345|37.291474525
1501240596168|0|462|0|55.985091433333345|37.29147450166667
1501240596277|0|462|0|55.98509141500001|37.291474496666666
1501240596386|0|462|0|55.98509142833333|37.291474495
1501240596496|0|462|0|55.98509142166666|37.29147448833333
1501240596605|0|462|0|55.98509142833333|37.29147446666666
1501240596714|0|462|0|55.985091436666664|37.29147441833333
1501240596824|0|462|0|55.98509143|37.29147432166667
1501240596933|0|462|0|55.98509144833333|37.29147417333334
1501240597043|0|462|0|55.98509148|37.29147399000001
1501240597152|0|462|0|55.98509162666666|37.29147338500001
1501240597261|0|462|0|55.985091733333334|37.29147296166666
1501240597371|1|462|0|55.985091848333326|37.29147244666666
1501240597480|1|462|0|55.98509196666667|37.291471793333336
1501240597589|1|462|0|55.98509214833333|37.291470913333335
1501240597699|2|300|0|55.98509238666667|37.29146984999999
1501240597808|3|205|0|55.98509261833333|37.291468595000005
1501240597916|3|204|0|55.98509297166667|37.29146718
1501240598026|3|202|0|55.98509332666666|37.29146564166666
1501240598135|4|168|0|55.98509376166666|37.29146394
1501240598244|4|166|0|55.98509418166666|37.29146212666667
1501240598354|5|165|0|55.98509467000001|37.29146022666666
1501240598463|5|101|0|55.985095866666676|37.291456135000004
1501240598573|5|110|0|55.98509647833333|37.29145397999999
1501240598682|5|102|0|55.98509709666667|37.291451703333344
1501240598791|5|93|0|55.98509774833333|37.291449348333344
1501240598901|6|75|0|55.98509846499999|37.29144693833333
1501240599010|6|74|0|55.98509911333334|37.29144442833333
1501240599120|6|70|0|55.98509987166667|37.291441903333336
1501240599244|6|85|0|55.98510064333334|37.291439325000006
1501240599354|6|83|0|55.98510135833333|37.29143661166666
1501240599463|7|49|0|55.98510286833333|37.29143107333334
1501240599573|7|58|0|55.985103763333335|37.29142817666667
1501240599682|7|55|0|55.985104658333334|37.29142523666666
1501240599791|7|49|0|55.98510546666667|37.29142221166667
1501240599901|7|46|0|55.985106405|37.291419106666666
1501240600010|7|50|0|55.98510731833334|37.291415943333334
1501240600120|8|46|0|55.98510829166667|37.291412728333334
1501240600229|8|31|0|55.98510919|37.291409406666666
1501240600338|8|26|0|55.98511016833333|37.29140608666667
1501240600448|8|41|0|55.98511122|37.29140270166666
1501240600557|8|37|0|55.98511219833334|37.29139928833333
1501240600698|8|28|0|55.98511427333333|37.291392288333334
1501240600807|9|23|0|55.98511537666667|37.291388745000006
1501240600916|9|3|0|55.98511647|37.29138516
1501240601026|9|18|0|55.98511765166666|37.291381505
1501240601135|9|12|0|55.985118736666664|37.29137790166667
1501240601244|9|14|0|55.98511989833334|37.29137418
1501240601354|9|11|0|55.985121056666664|37.291370371666666
1501240601463|9|0|0|55.985123366666656|37.29136259833333
1501240601573|10|0|0|55.98512455833333|37.291358635
1501240601698|10|-1|0|55.98512577666666|37.29135451166667
1501240601807|10|-11|0|55.98512698166667|37.29135042166667
1501240601916|10|-12|0|55.98512822833333|37.291346315
1501240602026|10|-30|0|55.985129431666664|37.291342065
1501240602135|11|-21|0|55.98513070166666|37.29133771666667
1501240602244|11|-39|0|55.98513200666666|37.29133338833334
1501240602354|11|-48|0|55.98513321|37.29132899166667
1501240602463|11|-33|0|55.985135725|37.29132018166667
1501240602573|11|-54|0|55.985136919999995|37.29131562166666
1501240602698|11|-57|0|55.985138121666665|37.291311054999994
1501240602807|11|-24|0|55.98513924|37.29130637833333
1501240602916|11|-56|0|55.985140413333326|37.29130168
1501240603057|11|-28|0|55.98514147666666|37.29129697333334
1501240603166|11|-61|0|55.985143561666675|37.29128725666666
1501240603276|11|-80|0|55.98514469166666|37.291282343333336
1501240603385|11|-56|0|55.985145711666675|37.29127742166667
1501240603495|11|-41|0|55.98514681166666|37.29127240333333
1501240603604|12|-43|0|55.98514788833333|37.29126738166666
1501240603713|12|-63|0|55.98514889666667|37.29126226333334
1501240603823|12|-59|0|55.985149905|37.29125710499999
1501240603932|12|-55|0|55.98515088166668|37.291251898333336
1501240604057|12|-37|0|55.98515184|37.291246615000006
1501240604166|12|-10|0|55.985153786666665|37.29123592833334
1501240604276|13|-31|0|55.98515477333334|37.29123045499999
1501240604401|13|12|0|55.985155653333344|37.291224911666674
1501240604510|13|-2|0|55.98515660500001|37.291219260000005
1501240604619|13|-24|0|55.98515762333333|37.29121351666667
1501240604729|13|-9|0|55.98515858833333|37.29120774833333
1501240604838|13|1|0|55.98515957|37.29120188333332
1501240604948|14|-20|0|55.98516062333333|37.29119593333333
1501240605057|14|-2|0|55.985161655|37.29118995666666
1501240605166|14|9|0|55.985163764999996|37.29117774833333
1501240605276|14|-5|0|55.985164829999995|37.29117153166666
1501240605401|14|-31|0|55.98516595833333|37.291165318333334
1501240605510|14|-5|0|55.985167038333344|37.29115900333334
1501240605619|15|4|0|55.98516812|37.29115264666667
1501240605729|15|4|0|55.985169215|37.291146186666666
1501240605838|15|0|0|55.98517032333332|37.29113971166666
1501240605948|15|-1|0|55.98517145000001|37.29113317666667
1501240606057|15|24|0|55.98517249333332|37.291126528333336
1501240606166|15|7|0|55.98517472499999|37.291113188333334
1501240606291|15|5|0|55.98517587166666|37.29110643333334
1501240606401|16|19|0|55.98517698166667|37.29109965333333
1501240606510|16|9|0|55.985178108333336|37.291092838333334
1501240606619|16|14|0|55.985179249999995|37.29108598166667
1501240606729|16|0|0|55.985180425|37.29107914000001
1501240606838|16|0|0|55.98518163166666|37.29107217166666
1501240606948|16|8|0|55.985183956666674|37.29105823333334
1501240607057|16|21|0|55.985185088333346|37.291051116666665
1501240607166|16|-28|0|55.98518636166666|37.29104398333333
1501240607276|16|-37|0|55.98518756333333|37.29103693166667
1501240607385|16|7|0|55.98518881500001|37.291029855
1501240607494|16|-9|0|55.98519006333332|37.291022795
1501240607604|17|20|0|55.98519124666667|37.29101565833334
1501240607713|17|36|0|55.985192341666675|37.291008520000005
1501240607823|17|30|0|55.98519348166666|37.291001279999996
1501240607932|17|29|0|55.98519460166667|37.29099396833333
1501240608041|17|29|0|55.98519573499999|37.29098661666667
1501240608151|17|8|0|55.98519699666667|37.290979351666664
1501240608260|17|14|0|55.98519823|37.290972059999994
1501240608369|17|-7|0|55.98520083333332|37.290957603333325
1501240608479|17|-36|0|55.985202211666675|37.29095032333333
1501240608604|17|-50|0|55.9852035|37.29094297333334
1501240608713|17|-17|0|55.98520484|37.290935596666664
1501240608823|17|0|0|55.98520616333334|37.29092812166667
1501240608932|17|13|0|55.98520744333334|37.290920568333334
1501240609041|17|34|0|55.98520862833334|37.29091294333334
1501240609151|17|23|0|55.985209878333336|37.29090535666667
1501240609260|18|12|0|55.98521221666667|37.290889928333335
1501240609369|18|39|0|55.98521339833333|37.29088213166666
1501240609479|18|35|0|55.98521464000001|37.29087431999999
1501240609588|18|13|0|55.98521597666666|37.29086654166667
1501240609698|18|0|0|55.98521734166667|37.290858691666664
1501240609807|18|2|0|55.98521872333334|37.29085078333333
1501240609916|18|-17|0|55.985220160000004|37.29084285
1501240610026|18|-28|0|55.98522165333334|37.29083490666667
1501240610135|18|-11|0|55.985223065|37.29082689666667
1501240610244|19|-12|0|55.98522452166667|37.29081883166667
1501240610354|19|0|0|55.98522595666667|37.290810705
1501240610463|19|22|0|55.98522866166666|37.29079423
1501240610573|19|8|0|55.985229958333335|37.29078589833334
1501240610682|19|31|0|55.985231320000004|37.29077750333334
1501240610791|19|33|0|55.98523264666666|37.290769053333335
1501240610901|20|34|0|55.985233994999994|37.290760581666675
1501240611010|20|36|0|55.98523534166668|37.29075203833333
1501240611120|20|22|0|55.985236781666664|37.29074354166667
1501240611229|20|-3|0|55.98523824666666|37.29073498500001
1501240611338|20|10|0|55.98523974166666|37.29072639166666
1501240611448|20|-28|0|55.98524133666667|37.29071785000001
1501240611557|20|-27|0|55.98524454333333|37.29070062
1501240611666|20|-28|0|55.98524615333334|37.29069193833333
1501240611776|20|-13|0|55.98524772333333|37.29068323666667
1501240611885|20|25|0|55.98524923333333|37.290674355
1501240611995|21|28|0|55.98525071666666|37.29066545666667
1501240612104|21|35|0|55.98525218|37.29065647333334
1501240612213|21|43|0|55.98525355333333|37.29064746333333
1501240612323|21|46|0|55.98525495666666|37.290638390000005
1501240612432|21|36|0|55.98525644666667|37.290629448333334
1501240612541|21|9|0|55.985258044999995|37.29062052166667
1501240612651|21|-12|0|55.98525970166667|37.29061161833333
1501240612760|20|-2|0|55.985263105|37.290594088333336
1501240612869|20|-26|0|55.985264801666666|37.29058534166667
1501240612979|20|-26|0|55.98526654333334|37.29057673999999
1501240613088|20|-22|0|55.98526819833334|37.29056808833333
1501240613198|20|-9|0|55.985269755000004|37.29055953666667
1501240613307|20|32|0|55.985271241666666|37.290550931666665
1501240613416|20|46|0|55.985272673333334|37.29054231833334
1501240613526|20|56|0|55.985274053333335|37.290533715
1501240613635|19|62|0|55.985275380000004|37.29052516833334
1501240613745|19|48|0|55.98527676333333|37.29051673833333
1501240613854|19|61|0|55.98527962|37.290500216666665
1501240613963|19|-11|0|55.98528105333333|37.29049209666667
1501240614073|18|-17|0|55.985282569999995|37.29048423833334
1501240614182|18|-16|0|55.985284064999995|37.29047653666666
1501240614291|18|-36|0|55.985285665000006|37.29046904
1501240614401|17|-27|0|55.98528721666666|37.29046165666667
1501240614510|17|-22|0|55.985288655000005|37.290454386666674
1501240614620|17|31|0|55.98528993|37.29044728
1501240614729|16|12|0|55.98529121|37.29044025666666
1501240614838|16|28|0|55.98529241500001|37.290433359999994
1501240614948|16|47|0|55.985293566666655|37.29042658833333
1501240615057|15|56|0|55.985294673333335|37.290419916666664
1501240615166|15|15|0|55.98529696|37.29040682833333
1501240615291|14|5|0|55.985298150000006|37.29040043
1501240615401|14|5|0|55.985299319999996|37.290394168333336
1501240615510|14|-4|0|55.98530050166667|37.29038800833334
1501240615620|14|-18|0|55.985301765|37.29038183666666
1501240615729|14|17|0|55.985302915|37.29037564333333
1501240615838|14|-9|0|55.98530413|37.290369505
1501240615948|14|20|0|55.98530649166667|37.290357226666664
1501240616057|14|6|0|55.985307590000005|37.29035110666667
1501240616166|14|-8|0|55.98530881499999|37.290344995
1501240616276|14|21|0|55.98530995333334|37.29033886999999
1501240616432|14|21|0|55.98531115|37.290332785000004
1501240616557|14|18|0|55.985312273333335|37.29032669666666
1501240616666|14|11|0|55.98531453333333|37.29031452666666
1501240616776|14|33|0|55.98531562333333|37.29030854
1501240616916|14|5|0|55.98531680833334|37.290302503333336
1501240617041|14|10|0|55.985317975|37.290296473333335
1501240617151|14|11|0|55.98532031500001|37.290284469999996
1501240617260|14|7|0|55.985321531666656|37.29027859833333
1501240617385|14|1|0|55.98532279666666|37.290272705
1501240617494|14|32|0|55.985323904999994|37.290266685
1501240617604|14|0|0|55.98532511|37.29026081166666
1501240617713|14|14|0|55.985326245|37.29025491666667
1501240617823|14|2|0|55.98532744833333|37.290249035
1501240617932|14|3|0|55.985328634999995|37.29024312166667
1501240618041|14|0|0|55.98532990499999|37.29023722333333
1501240618151|14|5|0|55.985332285000005|37.290225445000004
1501240618276|14|-12|0|55.98533345166667|37.29021953666666
1501240618385|14|0|0|55.985334626666656|37.29021365166667
1501240618510|14|-2|0|55.98533584333333|37.29020775333334
1501240618620|14|9|0|55.98533699166666|37.290201815
1501240618729|14|-1|0|55.98533828666666|37.29019595
1501240618838|14|0|0|55.985339479999986|37.29018997666667
1501240618979|14|34|0|55.98534181666667|37.29017801333334
1501240619088|14|2|0|55.98534299999999|37.29017200333333
1501240619198|14|16|0|55.985344131666665|37.29016601
1501240619307|14|3|0|55.98534532666667|37.29015997
1501240619416|14|-1|0|55.985346535|37.290153958333335
1501240619526|14|-3|0|55.98534775833334|37.29014792833333
1501240619635|14|0|0|55.98534895666667|37.29014187666667
1501240619791|14|-4|0|55.98535133666667|37.29012972833333
1501240619901|14|0|0|55.98535254666667|37.29012360333334
1501240620010|14|3|0|55.98535372999999|37.29011748833334
1501240620120|14|-6|0|55.98535497999999|37.29011134666666
1501240620276|14|13|0|55.985357343333334|37.29009904166667
1501240620385|14|0|0|55.985358538333344|37.290092916666666
1501240620495|14|-2|0|55.985359746666674|37.29008671333333
1501240620604|14|-3|0|55.98536096999999|37.290080456666665
1501240620713|14|-9|0|55.985362216666665|37.29007424666668
1501240620823|14|-8|0|55.98536344333334|37.290068016666666
1501240620932|15|21|0|55.98536458833333|37.29006173833333
1501240621041|15|18|0|55.985365834999996|37.290055436666655
1501240621151|15|-9|0|55.98536828500001|37.29004277333333
1501240621276|15|-10|0|55.985369516666665|37.29003638666667
1501240621385|15|-5|0|55.985370745|37.290029960000005
1501240621494|15|3|0|55.98537196|37.290023463333334
1501240621604|15|-9|0|55.98537322666667|37.29001686666666
1501240621713|15|-4|0|55.98537448333333|37.29001026666666
1501240621823|16|18|0|55.98537570166666|37.290003555000006
1501240621932|16|-12|0|55.985377015|37.289996815
1501240622041|16|18|0|55.98537825|37.28999003666667
1501240622151|16|11|0|55.98537948666667|37.289983201666665
1501240622260|16|-8|0|55.985380805000005|37.289976336666676
1501240622370|16|33|0|55.98538203500001|37.28996939333334
1501240622479|16|0|0|55.98538469333333|37.289955338333336
1501240622588|17|15|0|55.985386004999995|37.289948159999994
1501240622698|17|43|0|55.98538725499999|37.28994084833334
1501240622807|17|-12|0|55.98538869499999|37.28993347833333
1501240622916|18|-16|0|55.98539016833333|37.28992597166667
1501240623026|18|5|0|55.98539161666666|37.28991827833334
1501240623135|19|-14|0|55.985393133333346|37.289910481666666
1501240623245|19|-22|0|55.98539472000001|37.28990256999999
1501240623354|19|16|0|55.98539625333333|37.289894476666674
1501240623463|20|0|0|55.985399335|37.28987779333333
1501240623573|20|10|0|55.98540091500001|37.28986919833334
1501240623682|20|33|0|55.98540244666667|37.28986044333333
1501240623791|21|29|0|55.985404044999996|37.28985148833333
1501240623901|21|37|0|55.98540564500001|37.28984243666667
1501240624010|21|24|0|55.9854073|37.28983325
1501240624120|22|44|0|55.98540897333334|37.28982389833333
1501240624229|22|-12|0|55.98541080166667|37.289814485
1501240624338|23|-23|0|55.985412735000004|37.28980498166666
1501240624448|23|-3|0|55.98541472166667|37.28979536166666
1501240624557|23|-21|0|55.98541670833333|37.289785560000006
1501240624666|24|15|0|55.985420850000004|37.28976555
1501240624776|24|-12|0|55.98542282333332|37.28975536666666
1501240624885|24|-17|0|55.985424845|37.28974514
1501240624995|25|26|0|55.98542674833334|37.289734691666666
1501240625104|25|23|0|55.98542869666667|37.28972412833333
1501240625213|25|20|0|55.985430726666664|37.28971347
1501240625323|25|7|0|55.98543266333332|37.289702665
1501240625432|25|9|0|55.98543465|37.289691856666664
1501240625541|26|-7|0|55.985436695|37.28968117333333
1501240625651|26|-2|0|55.98543874833334|37.289670335000004
1501240625760|26|-13|0|55.98544090166667|37.289659234999995
1501240625869|26|-14|0|55.98544531833333|37.289636535
1501240625979|26|8|0|55.98544743|37.289625233333325
1501240626088|27|-14|0|55.98544960666666|37.289614036666656
1501240626198|27|0|0|55.985451768333334|37.28960266333333
1501240626307|27|16|0|55.985453899999996|37.28959092166667
1501240626416|27|-2|0|55.98545610333334|37.28957906499999
1501240626530|28|20|0|55.98545822166667|37.28956731666666
1501240626639|28|7|0|55.98546033833333|37.28955549333334
1501240626749|28|0|0|55.985462558333325|37.28954364666667
1501240626858|28|27|0|55.98546472166666|37.28953150666668
1501240626968|29|3|0|55.98546926000001|37.28950681833333
1501240627077|29|34|0|55.98547144000001|37.289494445
1501240627186|29|47|0|55.98547363166668|37.28948182833334
1501240627296|30|30|0|55.98547588|37.28946915666667
1501240627405|30|3|0|55.98547829833333|37.289456431666665
1501240627514|30|-12|0|55.98548080833332|37.28944353666667
1501240627624|30|-13|0|55.985483336666654|37.28943062166666
1501240627733|31|-28|0|55.985486054999996|37.28941766333334
1501240627843|31|-20|0|55.985488955|37.289404841666666
1501240627952|31|-45|0|55.98549177833334|37.289391815
1501240628061|32|-27|0|55.98549449|37.289378485
1501240628171|32|-18|0|55.98549971166667|37.28935114666666
1501240628280|33|30|0|55.98550217000001|37.28933731
1501240628389|33|46|0|55.985504496666664|37.28932330666667
1501240628499|33|54|0|55.98550674333333|37.28930916666667
1501240628608|33|56|0|55.98550898166666|37.28929505666666
1501240628749|33|66|0|55.985511120000005|37.289280931666674
1501240628858|32|33|0|55.98551580166666|37.289252893333334
1501240628968|32|9|0|55.985518375000005|37.28923895333333
1501240629077|32|-16|0|55.98552108166667|37.28922528333334
1501240629186|32|-26|0|55.98552391666667|37.28921177833334
1501240629296|32|-5|0|55.985526836666665|37.28919846833334
1501240629405|32|-13|0|55.98552987500001|37.289185123333326
1501240629514|32|-19|0|55.98553276333334|37.28917175
1501240629624|32|-10|0|55.98553550666667|37.28915836666666
1501240629733|32|-7|0|55.98553817833334|37.289145010000006
1501240629858|31|19|0|55.98554318833333|37.289118394999996
1501240629968|31|15|0|55.98554563666667|37.289105175
1501240630077|31|21|0|55.98554805666666|37.289091901666666
1501240630186|31|61|0|55.98555038333334|37.28907863166667
1501240630296|31|9|0|55.985552870000014|37.289065435
1501240630421|31|32|0|55.985555234999985|37.289052301666665
1501240630639|30|-8|0|55.98556025333334|37.28902656166667
1501240630827|30|-8|0|55.98556534833333|37.289001035
1501240630968|30|-8|0|55.98557078833334|37.288975745
1501240631077|30|-10|0|55.985573384999995|37.28896323166668
1501240631186|30|-10|0|55.985575913333335|37.28895078833333
1501240631296|29|-11|0|55.98557843166667|37.28893833666667
1501240631405|29|-13|0|55.98558096333333|37.28892592333333
1501240631546|29|-14|0|55.98558348166666|37.28891355833333
1501240631655|29|-13|0|55.98558844333334|37.28888895666667
1501240631764|29|-8|0|55.98559086666667|37.288876718333334
1501240631874|29|1|0|55.98559322166667|37.28886444333333
1501240631983|29|10|0|55.985595509999996|37.28885219166666
1501240632093|28|9|0|55.98559778833334|37.28883996500001
1501240632218|28|18|0|55.98560002999999|37.28882771166666
1501240632327|28|19|0|55.98560219833333|37.28881557333333
1501240632452|28|13|0|55.985604373333345|37.28880348833333
1501240632561|28|27|0|55.985608705000004|37.28877949666666
1501240632671|28|31|0|55.985610890000004|37.28876763833333
1501240632780|28|9|0|55.98561314166666|37.28875576666666
1501240632905|27|2|0|55.98561539000001|37.28874390166667
1501240633015|27|0|0|55.98561765166668|37.288732100000004
1501240633124|27|-10|0|55.98561997166667|37.288720395
1501240633233|27|-16|0|55.985622331666676|37.288708825
1501240633343|27|-20|0|55.98562470166667|37.28869730833333
1501240633452|27|6|0|55.98562930833334|37.288674390000004
1501240633561|27|5|0|55.98563156166667|37.28866291333333
1501240633671|27|0|0|55.98563374333333|37.28865136833333
1501240633780|27|10|0|55.98563588|37.28863984666666
1501240633889|27|2|0|55.985638031666674|37.288628378333335
1501240633999|27|12|0|55.98564012833334|37.28861702666666
1501240634108|27|15|0|55.98564219166666|37.28860569333334
1501240634218|26|21|0|55.98564421666667|37.28859439500001
1501240634327|26|44|0|55.98564626333334|37.288583105
1501240634436|26|21|0|55.98564832666666|37.28857181666666
1501240634546|26|48|0|55.985650328333335|37.28856058499999
1501240634655|26|9|0|55.98565454833333|37.28853843333332
1501240634764|26|-6|0|55.985656726666676|37.28852749666667
1501240634874|26|-11|0|55.98565899666667|37.28851660833334
1501240634983|26|-13|0|55.98566126|37.288505754999996
1501240635093|25|-10|0|55.98566364166666|37.288494985
1501240635202|25|-10|0|55.98566593499999|37.28848419333334
1501240635311|25|-11|0|55.98566819|37.28847342666667
1501240635421|25|-3|0|55.98567031166667|37.288462698333326
1501240635530|25|-7|0|55.98567246166667|37.288451981666675
1501240635639|25|1|0|55.98567453833333|37.28844126666667
1501240635749|25|-8|0|55.98567668833333|37.288430571666666
1501240635858|25|0|0|55.98568078333333|37.28840925833334
1501240635968|25|15|0|55.98568276666666|37.288398648333335
1501240636077|25|27|0|55.985684668333334|37.288388088333335
1501240636186|25|43|0|55.985686571666676|37.288377536666665
1501240636296|24|30|0|55.98568847999999|37.28836704
1501240636405|24|39|0|55.985690375000004|37.28835655333333
1501240636515|24|12|0|55.985692333333326|37.28834616666666
1501240636624|24|-5|0|55.98569439333334|37.28833592666667
1501240636733|24|-12|0|55.985696508333334|37.28832580833333
1501240636843|24|-16|0|55.98569866|37.28831565333333
1501240636952|24|-19|0|55.98570075833333|37.28830545666666
1501240637061|24|-31|0|55.98570506833333|37.28828531833334
1501240637171|24|-14|0|55.98570708833332|37.28827534333333
1501240637280|24|7|0|55.98570895666667|37.28826540833334
1501240637389|23|0|0|55.985710839999996|37.28825542833333
1501240637499|23|17|0|55.98571266166667|37.28824543833333
1501240637624|23|2|0|55.985714481666676|37.288235435
1501240637733|23|20|0|55.98571627333334|37.28822553833334
1501240637843|23|11|0|55.985718015|37.28821567333333
1501240637952|23|41|0|55.98571972333334|37.288205784999995
1501240638061|23|-9|0|55.985723395|37.288186350000004
1501240638171|22|28|0|55.985725135|37.288176685
1501240638280|22|27|0|55.98572688666666|37.288167098333325
1501240638389|22|-11|0|55.98572874333333|37.288157625000004
1501240638499|22|-11|0|55.985730565|37.28814823333333
1501240638608|22|-23|0|55.98573243333334|37.288138964999995
1501240638718|21|9|0|55.985734283333336|37.28812977333333
1501240638827|21|-21|0|55.98573610166666|37.288120685
1501240638936|21|17|0|55.98573784666667|37.288111673333326
1501240639046|21|-5|0|55.98573951666667|37.28810269333333
1501240639155|21|-13|0|55.98574287833333|37.288084915
1501240639264|21|10|0|55.98574450666666|37.28807606833334
1501240639374|20|-1|0|55.985746158333335|37.288067285
1501240639483|20|20|0|55.985747735|37.288058565
1501240639593|20|0|0|55.98574934333333|37.288049949999994
1501240639702|20|30|0|55.98575087333334|37.28804143333333
1501240639811|20|34|0|55.98575240666667|37.28803292666666
1501240639921|20|43|0|55.98575391999999|37.28802447999999
1501240640030|20|32|0|55.98575544166666|37.28801605833333
1501240640139|19|5|0|55.98575705333333|37.28800767333333
1501240640249|19|6|0|55.98575863666666|37.28799935833334
1501240640358|19|-8|0|55.985760321666675|37.287991123333335
1501240640468|19|-20|0|55.98576368166667|37.28797487166667
1501240640577|19|-24|0|55.985765355|37.28796684333333
1501240640686|19|6|0|55.98576702333334|37.28795885166667
1501240640796|19|-15|0|55.98576867499999|37.28795094000001
1501240640905|18|1|0|55.98577023333334|37.287943065
1501240641015|18|51|0|55.985771696666674|37.28793520166667
1501240641124|18|65|0|55.98577311333333|37.28792738166667
1501240641233|18|71|0|55.985774555000006|37.28791967166667
1501240641343|18|79|0|55.985776040000005|37.28791206333333
1501240641452|17|95|0|55.985777465|37.28790448666667
1501240641561|17|74|0|55.98577896166667|37.28789705
1501240641671|17|115|0|55.98578193|37.287882501666665
1501240641780|17|151|0|55.98578348166667|37.287875381666666
1501240641889|17|189|0|55.98578512333333|37.28786838
1501240641999|17|176|0|55.985786805|37.287861516666666
1501240642108|16|156|0|55.985788531666664|37.287854749999994
1501240642218|16|187|0|55.9857903|37.28784808333333
1501240642327|16|159|0|55.98579211666667|37.28784153666667
1501240642436|16|154|0|55.98579400166667|37.287835103333336
1501240642546|16|183|0|55.98579599333334|37.287828825
1501240642655|16|146|0|55.98579804833333|37.28782270833334
1501240642764|15|121|0|55.98580240166667|37.287810835
1501240642874|15|143|0|55.98580459833334|37.28780504833333
1501240642983|15|138|0|55.985806933333336|37.287799453333335
1501240643093|15|85|0|55.985809411666665|37.287794023333326
1501240643202|15|88|0|55.98581191333333|37.28778873666667
1501240643343|15|92|0|55.985814466666675|37.287783551666664
1501240643468|15|94|0|55.98581707500001|37.287778465
1501240643577|15|141|0|55.98582222666668|37.28776839333334
1501240643686|15|103|0|55.98582488833335|37.287763430000005
1501240643796|15|144|0|55.98582753499999|37.28775855333334
1501240643905|15|127|0|55.985830225|37.28775381999999
1501240644015|15|127|0|55.98583298166666|37.28774913833333
1501240644124|15|133|0|55.98583572666667|37.287744548333336
1501240644233|15|151|0|55.98583855333333|37.28774013333333
1501240644421|15|101|0|55.98584142833333|37.287735864999995
1501240644546|15|95|0|55.98584734999999|37.287727861666674
1501240644655|15|91|0|55.98585338333334|37.28772032666667
1501240644764|14|51|0|55.98585643333332|37.2877166
1501240644874|14|29|0|55.985859513333324|37.28771295
1501240644983|14|7|0|55.985862601666675|37.28770943500001
1501240645093|14|-4|0|55.98586575999999|37.28770603666667
1501240645202|14|-36|0|55.98586884333334|37.28770259833333
1501240645311|14|-26|0|55.98587192833334|37.28769905833334
1501240645421|14|-67|0|55.98587500666666|37.28769548166667
1501240645530|14|-59|0|55.98587802666666|37.28769188333333
1501240645639|14|-83|0|55.985881066666664|37.28768833666666
1501240645749|14|-73|0|55.98588408333333|37.28768473833333
1501240645858|14|-80|0|55.98589007833333|37.28767761166666
1501240645968|14|-68|0|55.98589297833334|37.287674075000005
1501240646077|14|-66|0|55.98589589333333|37.28767044833334
1501240646186|14|-9|0|55.98589872666666|37.28766651
1501240646296|14|-33|0|55.98590145500001|37.28766250166667
1501240646405|14|-32|0|55.985904155|37.28765851166666
1501240646515|14|-2|0|55.98590680666666|37.28765443499999
1501240646624|14|-84|0|55.98590954|37.28765052166667
1501240646733|14|-91|0|55.98591226333333|37.28764671
1501240646843|13|-85|0|55.985914981666674|37.28764279166667
1501240646952|13|-118|0|55.985917655|37.28763881333333
1501240647061|13|-57|0|55.985922695000006|37.287630658333335
1501240647171|13|-65|0|55.985925186666655|37.28762649000001
1501240647280|13|-88|0|55.985927704999995|37.28762228666667
1501240647389|13|-138|0|55.985930075|37.287617993333335
1501240647499|13|-146|0|55.98593246|37.287613713333336
1501240647608|13|-239|0|55.985934818333334|37.28760945166667
1501240647718|13|-189|0|55.98593708833333|37.28760505333333
1501240647827|13|-281|0|55.98593931166667|37.287600635
1501240647936|13|-274|0|55.98594147666665|37.28759612333333
1501240648046|13|-280|0|55.98594362666665|37.287591596666665
1501240648155|13|-370|0|55.985945685|37.28758695666667
1501240648264|13|-307|0|55.98594951666667|37.28757741833333
1501240648374|13|-309|0|55.985951336666666|37.28757259499999
1501240648483|13|-390|0|55.98595306|37.28756769333333
1501240648593|13|-378|0|55.98595470000001|37.287562754999996
1501240648702|13|-405|0|55.98595621833333|37.287557776666674
1501240648811|13|-398|0|55.98595757666667|37.28755268166666
1501240648921|13|-376|0|55.985958865|37.28754748833334
1501240649030|13|-326|0|55.98596000333334|37.28754224666667
1501240649139|12|-412|0|55.98596106|37.287537015
1501240649249|12|-362|0|55.98596196166666|37.28753173166667
1501240649358|12|-344|0|55.98596280166666|37.28752636
1501240649468|12|-409|0|55.98596402333333|37.28751555333333
1501240649577|12|-380|0|55.98596439|37.28751012333333
1501240649686|12|-458|0|55.98596461499999|37.28750474166666
1501240649796|12|-424|0|55.985964638333336|37.287499345
1501240649905|12|-462|0|55.98596454666667|37.28749405000001
1501240650015|12|-462|0|55.98596430999999|37.28748870500001
1501240650124|12|-454|0|55.98596394166666|37.28748353333333
1501240650233|12|-462|0|55.98596349166667|37.28747837666666
1501240650343|12|-462|0|55.98596279499999|37.28747336
1501240650452|12|-462|0|55.985962038333334|37.28746841
1501240650561|12|-436|0|55.98596105|37.28746358000001
1501240650671|12|-458|0|55.985958675|37.287454319999995
1501240650780|12|-423|0|55.985957230000004|37.28745002333333
1501240650889|12|-462|0|55.985955663333336|37.287445858333335
1501240650999|12|-402|0|55.985953916666666|37.28744183166667
1501240651108|11|-357|0|55.985952114999996|37.287438103333336
1501240651218|11|-402|0|55.98595021999999|37.287434635
1501240651327|11|-349|0|55.98594825833333|37.287431405
1501240651436|11|-329|0|55.98594612000001|37.28742835666667
1501240651546|11|-288|0|55.98594397000001|37.287425405
1501240651655|11|-339|0|55.98594175333332|37.287422643333336
1501240651764|11|-345|0|55.985937230000005|37.287417505
1501240651874|11|-405|0|55.98593497333333|37.28741514
1501240651983|11|-372|0|55.98593261833333|37.28741283
1501240652093|11|-388|0|55.985930325|37.287410771666664
1501240652202|11|-462|0|55.98592791666667|37.28740887666667
1501240652311|11|-395|0|55.98592542166666|37.287407243333334
1501240652421|11|-369|0|55.985922949999996|37.28740588
1501240652530|11|-373|0|55.98592044833334|37.287404766666675
1501240652639|11|-440|0|55.98591794333333|37.287403788333336
1501240652749|10|-402|0|55.98591544999999|37.28740303000001
1501240652858|10|-369|0|55.985912925|37.287402461666666
1501240652968|10|-303|0|55.98590791833333|37.28740209833334
1501240653077|10|-375|0|55.98590547833334|37.287402310000004
1501240653186|10|-286|0|55.985903065|37.28740280166667
1501240653296|10|-333|0|55.98590068666667|37.28740342333334
1501240653405|10|-322|0|55.98589823333333|37.28740401333334
1501240653515|10|-307|0|55.98589578833332|37.287404683333335
1501240653624|10|-314|0|55.98589338|37.28740556500001
1501240653733|10|-295|0|55.98589102333334|37.287406571666665
1501240653843|10|-302|0|55.98588866833334|37.28740781166667
1501240653952|10|-228|0|55.985886378333326|37.28740914833334
1501240654061|10|-240|0|55.98588193333333|37.28741212
1501240654171|10|-239|0|55.98587971666667|37.28741370166666
1501240654280|9|-204|0|55.98587751|37.287415286666665
1501240654389|9|-238|0|55.98587533833334|37.28741695666666
1501240654499|9|-242|0|55.98587313166666|37.28741868833334
1501240654608|9|-257|0|55.985870986666676|37.28742046833333
1501240654718|9|-245|0|55.985868836666675|37.287422371666665
1501240654827|9|-253|0|55.985866736666665|37.28742434833333
1501240654936|9|-212|0|55.98586465333332|37.28742647333333
1501240655046|9|-221|0|55.98586257166667|37.28742867333334
1501240655155|9|-217|0|55.98586061333334|37.28743092166666
1501240655264|9|-197|0|55.98585676333334|37.28743587666666
1501240655374|9|-221|0|55.985854918333345|37.287438466666664
1501240655483|9|-205|0|55.98585306333332|37.28744106166666
1501240655593|9|-280|0|55.985851225|37.28744375166667
1501240655702|9|-251|0|55.985849415000004|37.287446485000004
1501240655811|9|-259|0|55.98584757666666|37.28744929166667
1501240655921|9|-231|0|55.98584580499999|37.28745218166666
1501240656046|9|-240|0|55.98584409499999|37.287455155
1501240656155|10|-257|0|55.985840945|37.287461596666674
1501240656264|10|-234|0|55.98583939833334|37.28746502666667
1501240656389|10|-273|0|55.98583784666667|37.287468555
1501240656499|10|-215|0|55.98583640666668|37.28747222333333
1501240656608|10|-222|0|55.98583499|37.28747598666667
1501240656718|10|-201|0|55.985833625|37.287479901666664
1501240656827|10|-212|0|55.985832294999994|37.28748393666666
1501240656936|10|-140|0|55.985831069999996|37.28748813333333
1501240657046|11|-154|0|55.98582983666667|37.28749230833334
1501240657155|11|-132|0|55.985827349999994|37.287501033333335
1501240657264|11|-96|0|55.985826206666665|37.28750553333334
1501240657374|11|-106|0|55.98582503666666|37.287510090000005
1501240657483|11|-84|0|55.985823893333325|37.287514734999995
1501240657593|11|-73|0|55.985822711666664|37.287519435
1501240657702|11|-48|0|55.985821595|37.287524263333324
1501240657811|11|-48|0|55.98582041833333|37.28752909
1501240657921|12|-51|0|55.98581922499999|37.287534046666664
1501240658030|12|-57|0|55.985818|37.28753908166667
1501240658140|12|-56|0|55.98581677666667|37.287544185
1501240658249|12|-72|0|55.98581548166667|37.28754936333333
1501240658349|13|-70|0|55.985814176666665|37.287554713333336
1501240658463|13|-58|0|55.98581164|37.28756566333333
1501240658572|13|-68|0|55.98581035833334|37.28757132666666
1501240658682|13|-53|0|55.98580908499999|37.28757712166666
1501240658791|14|-39|0|55.98580792833333|37.28758304
1501240658904|14|-49|0|55.98580672999999|37.287589045
1501240659013|14|-41|0|55.98580553666667|37.28759513333334
1501240659123|14|-13|0|55.985804380000005|37.28760139833333
1501240659232|15|-15|0|55.98580319333333|37.287607715
1501240659341|15|14|0|55.985802073333325|37.287614165
1501240659451|15|18|0|55.98580094333334|37.28762076333333
1501240659560|15|-2|0|55.98579856333334|37.287634095
1501240659669|15|2|0|55.98579733500001|37.28764087666667
1501240659779|16|4|0|55.98579609833333|37.28764776333334
1501240659888|16|-28|0|55.985794763333324|37.287654705
1501240659998|16|-26|0|55.985793435000005|37.28766170833334
1501240660107|16|-47|0|55.985792039999986|37.28766877
1501240660216|17|-7|0|55.985790705|37.28767591333333
1501240660326|17|-16|0|55.98578932833334|37.287683135
1501240660435|17|15|0|55.98578801833334|37.28769046666666
1501240660545|17|31|0|55.985786753333336|37.28769783833333
1501240660654|17|34|0|55.98578428833333|37.28771294333333
1501240660763|17|41|0|55.985783025|37.287720538333325
1501240660873|17|32|0|55.98578167666666|37.287728185
1501240660982|18|11|0|55.985780240000004|37.28773583666668
1501240661091|18|13|0|55.985778825000004|37.28774349833333
1501240661201|18|-27|0|55.985777296666654|37.287751183333334
1501240661310|18|-21|0|55.985775781666675|37.28775896166666
1501240661420|18|5|0|55.98577419833333|37.28776683
1501240661529|19|-36|0|55.98577258499999|37.28777477166667
1501240661638|19|-12|0|55.985771033333336|37.28778283166666
1501240661748|19|6|0|55.985769518333335|37.28779093833334
1501240661857|19|-1|0|55.98576798000001|37.28779914166666
1501240661966|19|24|0|55.985765023333336|37.28781579333334
1501240662076|19|14|0|55.985763594999995|37.287824265
1501240662185|19|35|0|55.98576216166666|37.28783285000001
1501240662295|20|31|0|55.985760710000015|37.28784149
1501240662404|20|23|0|55.98575921|37.28785010166666
1501240662513|20|-10|0|55.98575767333333|37.287858755
1501240662623|20|3|0|55.98575607666666|37.287867426666665
1501240662732|20|-32|0|55.98575437333334|37.28787613666667
1501240662841|20|-24|0|55.98575270166666|37.287884868333336
1501240662951|20|-31|0|55.98575104|37.28789366833333
1501240663060|20|-11|0|55.98574774000001|37.287911404999996
1501240663169|21|22|0|55.98574616666666|37.287920281666665
1501240663279|21|10|0|55.98574466833334|37.287929205000005
1501240663388|21|5|0|55.985743279999994|37.287938133333334
1501240663498|20|41|0|55.98574187166667|37.287947056666674
1501240663607|20|41|0|55.98574041833334|37.28795596
1501240663716|20|41|0|55.98573890333334|37.28796484666666
1501240663826|20|43|0|55.98573742000001|37.287973711666666
1501240663935|20|47|0|55.98573595500001|37.287982545
1501240664045|20|34|0|55.98573439666667|37.287991315
1501240664154|20|25|0|55.98573281166667|37.28799998666667
1501240664263|20|-42|0|55.98572932333333|37.28801719666667
1501240664373|20|-59|0|55.98572932333333|37.28801719666667
1501240664482|20|-48|0|55.98572562500001|37.288034108333335
1501240664591|20|-45|0|55.98572381|37.28804251166667
1501240664701|20|-38|0|55.98572207166667|37.288050966666674
1501240664810|20|-36|0|55.98572035|37.288059405
1501240664920|20|-37|0|55.98571862833334|37.28806784666666
1501240665029|20|-11|0|55.98571700000001|37.288076311666664
1501240665138|19|13|0|55.98571543833334|37.28808472
1501240665248|19|29|0|55.98571394333334|37.28809316666667
1501240665357|19|39|0|55.98571258|37.28810162166666
1501240665466|19|46|0|55.98570985833334|37.288118533333325
1501240665576|19|48|0|55.98570853666667|37.28812688166667
1501240665685|19|31|0|55.98570704833334|37.288135195
1501240665795|19|35|0|55.98570557|37.28814348666666
1501240665904|19|30|0|55.98570408333334|37.28815172833333
1501240666013|19|10|0|55.985702535|37.288159935
1501240666123|19|-38|0|55.985700865000005|37.288168015
1501240666232|19|-30|0|55.98569923333333|37.28817611166667
1501240666341|19|-30|0|55.985697635|37.288184095
1501240666451|19|-41|0|55.985695925|37.28819208666666
1501240666560|19|-35|0|55.98569429333333|37.28820014000001
1501240666669|19|-34|0|55.98569110666668|37.28821619
1501240666779|19|-4|0|55.985689586666666|37.28822425166666
1501240666888|19|39|0|55.985688215|37.28823233166667
1501240666998|18|42|0|55.985686861666665|37.28824039833333
1501240667107|18|43|0|55.985685563333334|37.28824845166666
1501240667216|18|44|0|55.98568428833334|37.28825636999999
1501240667326|18|45|0|55.98568299|37.288264211666664
1501240667435|18|37|0|55.98568165|37.28827189833333
1501240667545|17|23|0|55.98568027833333|37.28827946333333
1501240667654|17|12|0|55.985678863333334|37.28828695666667
1501240667763|17|-4|0|55.98567602833333|37.288301835
1501240667873|17|-36|0|55.98567452499999|37.28830915666667
1501240667982|17|-43|0|55.985672968333326|37.288316415000004
1501240668091|17|-37|0|55.985671473333326|37.288323649999995
1501240668201|17|-43|0|55.985669935000004|37.28833084
1501240668310|17|6|0|55.98566856666666|37.28833813333333
1501240668420|17|11|0|55.98566721666666|37.28834541166667
1501240668529|17|13|0|55.98566588166667|37.28835264
1501240668638|17|47|0|55.98566467|37.28835986833334
1501240668748|17|47|0|55.98566345166667|37.28836712333334
1501240668857|17|39|0|55.9856622|37.28837428166666
1501240668966|17|37|0|55.98565968666667|37.28838854333333
1501240669076|16|-9|0|55.9856583|37.288395621666666
1501240669185|16|38|0|55.985657026666665|37.288402765
1501240669295|16|-16|0|55.98565562833334|37.288409805
1501240669404|16|-33|0|55.98565418|37.28841676666667
1501240669513|16|-26|0|55.985652755000004|37.28842380333332
1501240669623|16|-28|0|55.98565133166667|37.28843079833333
1501240669732|16|-28|0|55.98564990333333|37.28843781166666
1501240669841|16|-18|0|55.98564852166666|37.288444815000005
1501240669951|16|16|0|55.98564719166667|37.28845183666667
1501240670060|16|3|0|55.98564587333333|37.288458831666674
1501240670169|16|42|0|55.98564346333333|37.288472973333334
1501240670279|16|54|0|55.98564230666666|37.288480025
1501240670404|16|67|0|55.98564110833332|37.28848705666667
1501240670513|16|22|0|55.985639908333326|37.28849412333333
1501240670623|16|14|0|55.98563863333334|37.28850114333333
1501240670732|16|21|0|55.985637344999994|37.28850811666667
1501240670841|16|0|0|55.985636038333325|37.28851510166666
1501240670951|16|-29|0|55.985634604999994|37.28852198333334
1501240671060|16|-14|0|55.98563324166667|37.288528864999996
1501240671169|16|-36|0|55.98563042666667|37.28854256499999
1501240671279|16|-10|0|55.985629071666665|37.288549441666675
1501240671388|16|22|0|55.985627781666665|37.288556355
1501240671498|16|1|0|55.985626495|37.28856324666666
1501240671607|16|36|0|55.985625250000005|37.28857014166667
1501240671716|16|44|0|55.985624013333336|37.28857710166667
1501240671826|16|48|0|55.98562279333334|37.28858405166666
1501240671935|16|54|0|55.98562159666667|37.288590991666666
1501240672045|16|38|0|55.98562034666667|37.288597933333335
1501240672154|16|20|0|55.98561906166667|37.28860476666667
1501240672263|16|-14|0|55.98561636666666|37.288618424999996
1501240672373|16|-33|0|55.98561491666666|37.28862516666667
1501240672482|16|-29|0|55.98561347500001|37.28863187166666
1501240672591|16|-26|0|55.985611998333326|37.28863858333333
1501240672701|16|-24|0|55.98561056333333|37.28864535
1501240672810|16|-15|0|55.985609153333336|37.28865206666667
1501240672920|16|6|0|55.98560783166666|37.288658885000004
1501240673029|16|-1|0|55.985606515|37.28866565333333
1501240673138|16|21|0|55.98560524|37.288672469999995
1501240673248|16|21|0|55.98560405666667|37.28867928666667
1501240673357|16|19|0|55.985602865|37.288686105000004
1501240673466|16|28|0|55.985600481666665|37.28869976333334
1501240673576|16|24|0|55.98559919666666|37.28870657166666
1501240673685|16|36|0|55.98559792833333|37.28871333833333
1501240673795|16|13|0|55.985596629999996|37.28872013333333
1501240673919|16|-9|0|55.98559529333334|37.28872688
1501240674029|16|9|0|55.98559399833333|37.28873360166666
1501240674138|16|-23|0|55.985592608333334|37.28874032333333
1501240674248|16|4|0|55.98559126666667|37.28874700333333
1501240674357|16|-25|0|55.98558987666667|37.28875369166668
1501240674466|16|-16|0|55.98558722|37.28876711166667
1501240674576|16|0|0|55.985585898333326|37.28877382166667
1501240674685|16|-14|0|55.985584550000006|37.28878055833333
1501240674795|16|17|0|55.98558327666666|37.28878726333333
1501240674904|16|54|0|55.98558211333334|37.28879404333333
1501240675013|16|42|0|55.98558089833334|37.28880084833334
1501240675123|16|19|0|55.98557963|37.288807596666665
1501240675232|16|25|0|55.985578401666665|37.28881437666667
1501240675341|16|49|0|55.98557722499999|37.28882115333333
1501240675451|16|-29|0|55.98557579833334|37.288827846666656
1501240675560|16|-14|0|55.985574459999995|37.28883456166666
1501240675669|16|-30|0|55.98557169000001|37.288847976666666
1501240675779|16|-27|0|55.9855703|37.28885465166667
1501240675888|16|-26|0|55.98556890500001|37.288861311666665
1501240675998|16|-19|0|55.98556755999999|37.28886803500001
1501240676107|16|-9|0|55.98556620666667|37.288874756666665
1501240676216|16|48|0|55.98556501833334|37.28888157333333
1501240676326|16|20|0|55.98556376500001|37.288888351666664
1501240676435|16|21|0|55.985562550000004|37.28889518166667
1501240676545|16|33|0|55.98556141333333|37.288901980000006
1501240676654|16|25|0|55.98555894333334|37.28891558666667
1501240676763|16|12|0|55.985557658333335|37.288922318333334
1501240676873|16|-7|0|55.985556368333334|37.288929040000006
1501240676982|16|-32|0|55.98555500333333|37.28893574333333
1501240677091|16|-49|0|55.985553538333335|37.28894238000001
1501240677201|16|-24|0|55.98555219166666|37.28894911333334
1501240677310|16|-20|0|55.98555087833333|37.2889559
1501240677420|16|-4|0|55.985549539999994|37.288962643333335
1501240677529|16|26|0|55.985548293333345|37.288969458333334
1501240677638|16|42|0|55.9855471|37.28897625666667
1501240677748|16|45|0|55.985545910000006|37.28898310333334
1501240677857|16|54|0|55.985543658333334|37.28899682
1501240677966|16|42|0|55.98554244|37.28900358666667
1501240678076|16|31|0|55.98554114666668|37.28901042166666
1501240678185|16|30|0|55.985539856666676|37.289017183333335
1501240678295|16|27|0|55.985538573333336|37.28902391166666
1501240678404|16|-18|0|55.98553716833333|37.28903057333333
1501240678513|16|-11|0|55.98553577999999|37.28903726833333
1501240678623|16|-20|0|55.98553435333333|37.28904395333333
1501240678732|16|-28|0|55.98553293|37.289050628333335
1501240678841|16|-24|0|55.98553149333334|37.28905731666667
1501240678951|16|-14|0|55.98553013|37.28906402333334
1501240679060|16|-10|0|55.98552876666666|37.289070761666665
1501240679169|16|36|0|55.985526236666665|37.28908426333333
1501240679279|16|62|0|55.985525003333336|37.28909103666667
1501240679388|16|100|0|55.98552379333334|37.28909786166666
1501240679498|16|119|0|55.985522641666655|37.289104666666674
1501240679607|16|110|0|55.985521430000006|37.28911147166667
1501240679716|16|98|0|55.98552018000001|37.28911821
1501240679826|16|118|0|55.98551888333333|37.289124906666665
1501240679935|16|156|0|55.985517540000004|37.28913161
1501240680045|16|160|0|55.98551616666667|37.28913828833333
1501240680154|15|133|0|55.98551473666666|37.28914492166667
1501240680263|15|176|0|55.985511693333336|37.28915799
1501240680373|15|179|0|55.98551011333333|37.28916441166667
1501240680482|15|161|0|55.98550839833333|37.289170815
1501240680591|15|152|0|55.98550667833333|37.28917706833333
1501240680701|15|152|0|55.98550485166667|37.289183275
1501240680810|15|153|0|55.98550288333333|37.289189355
1501240680920|15|116|0|55.985500856666675|37.28919535666667
1501240681029|15|145|0|55.98549884333334|37.289201254999995
1501240681138|15|91|0|55.985496618333336|37.28920699666667
1501240681248|15|128|0|55.985494335000006|37.28921265499999
1501240681357|15|117|0|55.98549201166667|37.28921817666667
1501240681466|15|106|0|55.98548725833332|37.28922876333334
1501240681576|15|101|0|55.98548489333332|37.289233935
1501240681685|15|173|0|55.98548256666666|37.289239135
1501240681795|14|148|0|55.98548018333332|37.289244133333334
1501240681904|14|150|0|55.98547773833334|37.289248900000004
1501240682013|14|142|0|55.98547531833333|37.28925351333333
1501240682123|14|-300|0|55.98547290666667|37.28925788499999
1501240682238|13|462|0|55.98547045|37.28926215666667
1501240682347|13|462|0|55.985468001666675|37.28926627666666
1501240682456|13|462|0|55.98546301500001|37.28927407500001
1501240682566|12|462|0|55.985460765|37.289277985
1501240682675|12|462|0|55.98545841333333|37.289281530000004
1501240682785|12|462|0|55.98545615666667|37.28928483333333
1501240682894|11|462|0|55.98545387|37.28928761833333
1501240683003|11|462|0|55.98545157833334|37.289290349999995
1501240683113|10|462|0|55.98544931166666|37.28929308
1501240683222|10|462|0|55.98544714333334|37.28929556833333
1501240683378|9|462|0|55.98544505833333|37.28929787833333
1501240683488|9|462|0|55.98544098333333|37.28930226666667
1501240683597|9|462|0|55.98543900999999|37.28930414833333
1501240683706|8|462|0|55.98543707333333|37.28930590833333
1501240683816|8|462|0|55.985435149999994|37.28930723333334
1501240683925|7|462|0|55.98543336666667|37.289308453333334
1501240684035|7|462|0|55.98543175333333|37.289309618333334
1501240684144|6|462|0|55.9854301|37.28931066833332
1501240684253|6|462|0|55.985428541666664|37.289311706666666
1501240684363|6|462|0|55.98542703333333|37.28931252666666
1501240684472|5|462|0|55.98542418166667|37.28931366166667
1501240684581|5|462|0|55.98542285833334|37.289314096666665
1501240684691|5|462|0|55.98542176166667|37.2893145
1501240684800|4|462|0|55.985420685|37.28931482333333
1501240684910|3|462|0|55.985419748333335|37.28931515166666
1501240685019|3|462|0|55.985418863333344|37.289315335
1501240685128|2|462|0|55.98541814833334|37.289315376666664
1501240685238|1|462|0|55.98541767333332|37.28931549333334
1501240685347|1|462|0|55.98541729833334|37.28931550833333
1501240685456|1|462|0|55.985417106666674|37.289315448333326
1501240685566|0|462|0|55.985417250000005|37.289315538333334
1501240685675|0|462|0|55.985417373333334|37.289315593333335
1501240685785|0|462|0|55.98541740833332|37.289315525
1501240685894|0|462|0|55.98541733833334|37.28931546333334
1501240686003|0|462|0|55.98541731499999|37.289315460000005
1501240686113|0|462|0|55.985417334999994|37.28931546666667
1501240686222|0|462|0|55.985417354999996|37.28931547333334
1501240686331|0|462|0|55.98541736|37.28931549833333
1501240686441|0|462|0|55.98541735666666|37.28931548999999
1501240686550|0|462|0|55.98541735666666|37.28931546333334
1501240686660|0|462|0|55.985417354999996|37.28931547333334
1501240686769|0|462|0|55.985417375|37.28931548333334
1501240686878|0|462|0|55.98541730499999|37.289315496666674
1501240686988|0|462|0|55.98541730333333|37.289315496666674
1501240687097|0|462|0|55.98541730333333|37.28931548166666
1501240687206|0|462|0|55.985417319999996|37.289315501666664
1501240687316|0|462|0|55.98541732499999|37.28931548833333
1501240687425|0|462|0|55.985417319999996|37.289315501666664
1501240687535|0|462|0|55.98541734|37.289315519999995
1501240687644|0|462|0|55.98541737|37.289315501666664
