1493717569668|0|3|0|55.985435|37.28927833333333
1493717569768|0|33|0|55.98541666666667|37.28939
1493717569868|0|36|0|55.98541666666667|37.28939
1493717569968|0|36|0|55.98541666666667|37.28939
1493717570068|0|35|0|55.98540166666666|37.289525000000005
1493717570168|0|34|0|55.98540166666666|37.289525000000005
1493717570268|0|34|0|55.98540166666666|37.289525000000005
1493717570368|0|34|0|55.985381666666676|37.28967
1493717570468|1|34|0|55.985381666666676|37.28967
1493717570568|1|34|0|55.985381666666676|37.28967
1493717570668|1|31|0|55.98536000000001|37.289836666666666
1493717570768|1|31|0|55.98536000000001|37.289836666666666
1493717570868|1|31|0|55.98536000000001|37.289836666666666
1493717570968|1|7|0|55.98533166666666|37.290015
1493717571068|1|7|0|55.98533166666666|37.290015
1493717571168|1|7|0|55.98533166666666|37.290015
1493717571268|1|1|0|55.98530833333333|37.290225
1493717571368|2|1|0|55.98530833333333|37.290225
1493717571468|2|0|0|55.98530833333333|37.290225
1493717571568|2|0|0|55.98527000000001|37.290420000000005
1493717571668|2|0|0|55.98527000000001|37.290420000000005
1493717571768|2|0|0|55.98527000000001|37.290420000000005
1493717571868|2|3|0|55.985236666666665|37.290618333333335
1493717571968|2|12|0|55.985236666666665|37.290618333333335
1493717572068|2|24|0|55.985236666666665|37.290618333333335
1493717572168|2|28|0|55.98520166666667|37.29081166666666
1493717572268|2|28|0|55.98520166666667|37.29081166666666
1493717572368|2|20|0|55.98520166666667|37.29081166666666
1493717572468|2|7|0|55.98516166666666|37.291
1493717572569|3|-1|0|55.98516166666666|37.291
1493717572669|3|-2|0|55.98516166666666|37.291
1493717572769|3|-2|0|55.98516166666666|37.291
1493717572869|3|4|-54|55.985123333333334|37.291185000000006
1493717572969|3|7|-56|55.985123333333334|37.291185000000006
1493717573069|3|7|-56|55.985123333333334|37.291185000000006
1493717573169|3|7|-56|55.985085|37.29137
1493717573269|3|7|6|55.985085|37.29137
1493717573369|3|18|-22|55.985085|37.29137
1493717573469|3|19|-34|55.98504833333333|37.29155166666667
1493717573569|3|22|-18|55.98504833333333|37.29155166666667
1493717573669|3|22|-18|55.98504833333333|37.29155166666667
1493717573769|3|7|4|55.985013333333335|37.29172833333334
1493717573869|3|22|-14|55.985013333333335|37.29172833333334
1493717573969|3|28|-20|55.985013333333335|37.29172833333334
1493717574069|4|22|-6|55.98496333333332|37.29192
1493717574169|4|21|-4|55.98496333333332|37.29192
1493717574269|4|21|-4|55.98496333333332|37.29192
1493717574369|4|21|-4|55.98494833333332|37.292100000000005
1493717574469|4|21|-4|55.98494833333332|37.292100000000005
1493717574569|4|21|-4|55.98494833333332|37.292100000000005
1493717574669|4|21|-4|55.984915|37.29224833333334
1493717574769|4|21|-4|55.984915|37.29224833333334
1493717574869|4|21|-4|55.984915|37.29224833333334
1493717574969|4|21|-4|55.98488999999999|37.292406666666665
1493717575069|4|21|-4|55.98488999999999|37.292406666666665
1493717575169|4|21|-4|55.98488999999999|37.292406666666665
1493717575269|4|21|-4|55.98486833333334|37.29254333333333
1493717575369|4|21|-4|55.98486833333334|37.29254333333333
1493717575469|4|21|-4|55.98486833333334|37.29254333333333
1493717575569|4|21|-4|55.98486166666666|37.292638333333336
1493717575669|4|17|-4|55.98486166666666|37.292638333333336
1493717575769|4|5|-4|55.98486166666666|37.292638333333336
1493717575869|4|5|-4|55.984836666666666|37.292745
1493717575969|5|5|-4|55.984836666666666|37.292745
1493717576069|5|-4|-4|55.984836666666666|37.292745
1493717576169|5|-4|-4|55.98481833333333|37.29283166666667
1493717576269|5|-6|-4|55.98481833333333|37.29283166666667
1493717576369|5|-10|-4|55.98481833333333|37.29283166666667
1493717576469|5|-20|-4|55.98481833333333|37.29283166666667
1493717576569|5|-23|-4|55.98481166666667|37.29292
1493717576669|5|-18|-4|55.98481166666667|37.29292
1493717576769|5|-12|-4|55.98481166666667|37.29292
1493717576869|5|-12|-4|55.98482500000001|37.29300166666667
1493717576969|5|-12|-4|55.98482500000001|37.29300166666667
1493717577069|5|-11|-4|55.98482500000001|37.29300166666667
1493717577169|5|-11|-4|55.98485|37.29304333333334
1493717577269|5|6|-4|55.98485|37.29304333333334
1493717577369|5|15|-4|55.98485|37.29304333333334
1493717577469|5|15|-4|55.98487|37.29306
1493717577569|5|15|-4|55.98487|37.29306
1493717577669|5|16|-4|55.98487|37.29306
1493717577769|5|16|-4|55.984878333333334|37.29306666666667
1493717577869|5|16|-4|55.984878333333334|37.29306666666667
1493717577969|5|16|-4|55.984878333333334|37.29306666666667
1493717578069|5|16|-4|55.984888333333345|37.29306999999999
1493717578169|5|16|-4|55.984888333333345|37.29306999999999
1493717578269|5|16|-4|55.984888333333345|37.29306999999999
1493717578369|5|16|-4|55.984901666666666|37.29308833333334
1493717578469|5|19|-4|55.984901666666666|37.29308833333334
1493717578569|5|19|-4|55.984901666666666|37.29308833333334
1493717578669|5|19|-4|55.98488666666667|37.29308833333334
1493717578769|5|20|-4|55.98488666666667|37.29308833333334
1493717578869|5|20|-4|55.98488666666667|37.29308833333334
1493717578969|5|20|-4|55.984885|37.29309
1493717579069|6|21|-4|55.984885|37.29309
1493717579169|6|23|-4|55.984885|37.29309
1493717579269|6|23|-4|55.98488666666667|37.29309166666666
1493717579369|6|26|-4|55.98488666666667|37.29309166666666
1493717579469|7|27|-4|55.98488666666667|37.29309166666666
1493717579569|7|30|-4|55.984851666666664|37.293106666666674
1493717579669|7|31|-4|55.984851666666664|37.293106666666674
1493717579769|8|31|-4|55.984851666666664|37.293106666666674
1493717579869|8|31|-4|55.98489166666667|37.29307166666667
1493717579969|8|31|-4|55.98489166666667|37.29307166666667
1493717580069|8|31|-4|55.98489166666667|37.29307166666667
1493717580169|8|31|-4|55.98489166666667|37.29307166666667
1493717580270|8|31|-4|55.98489333333333|37.29306833333333
1493717580371|9|31|-4|55.98489333333333|37.29306833333333
1493717580471|9|30|-4|55.98489333333333|37.29306833333333
1493717580571|9|27|-4|55.98490666666667|37.29302666666666
1493717580671|9|24|-4|55.98490666666667|37.29302666666666
1493717580771|9|16|-4|55.98490666666667|37.29302666666666
1493717580871|10|13|-4|55.984901666666666|37.29304666666667
1493717580971|10|9|-4|55.984901666666666|37.29304666666667
1493717581071|10|8|-4|55.984901666666666|37.29304666666667
1493717581171|10|8|-4|55.98488166666666|37.293049999999994
1493717581271|10|8|-4|55.98488166666666|37.293049999999994
1493717581371|11|8|-4|55.98488166666666|37.293049999999994
1493717581471|11|8|-4|55.984885|37.29304833333333
1493717581571|11|7|-4|55.984885|37.29304833333333
1493717581671|11|5|-4|55.984885|37.29304833333333
1493717581771|11|5|-4|55.98488166666666|37.29304666666667
1493717581871|11|5|-4|55.98488166666666|37.29304666666667
1493717581971|11|4|-4|55.98488166666666|37.29304666666667
1493717582071|12|3|-4|55.98488166666666|37.29304
1493717582171|12|2|-4|55.98488166666666|37.29304
1493717582271|12|2|-4|55.98488166666666|37.29304
1493717582371|12|0|-4|55.984883333333336|37.293049999999994
1493717582471|12|0|-4|55.984883333333336|37.293049999999994
1493717582571|12|0|-4|55.984883333333336|37.293049999999994
1493717582671|13|-1|-4|55.984883333333336|37.293049999999994
1493717582771|13|-1|-4|55.984883333333336|37.293049999999994
1493717582871|13|-1|-4|55.984883333333336|37.293049999999994
1493717582971|13|-1|-4|55.984883333333336|37.293049999999994
1493717583071|13|-1|-4|55.984883333333336|37.293049999999994
1493717583171|14|-2|-4|55.984883333333336|37.293049999999994
1493717583271|14|-4|-4|55.98488166666666|37.29304833333333
1493717583371|14|-4|-4|55.98488166666666|37.29304833333333
1493717583472|14|-4|-4|55.98488166666666|37.29304833333333
1493717583572|14|-5|-4|55.98487333333333|37.293034999999996
1493717583672|14|-5|-4|55.98487333333333|37.293034999999996
1493717583772|15|-6|-4|55.98487333333333|37.293034999999996
1493717583872|15|-6|-4|55.98487333333333|37.293034999999996
1493717583972|15|-6|-4|55.98486833333334|37.29303666666666
1493717584072|15|-6|-4|55.98486833333334|37.29303666666666
1493717584172|15|-7|-4|55.98486833333334|37.29303666666666
1493717584272|16|-7|-4|55.98486166666666|37.29304
1493717584372|16|-7|-4|55.98486166666666|37.29304
1493717584472|16|-5|-4|55.98486166666666|37.29304
1493717584572|16|0|-4|55.98484833333334|37.29301833333333
1493717584672|16|5|-4|55.98484833333334|37.29301833333333
1493717584772|16|6|-4|55.98484833333334|37.29301833333333
1493717584872|16|10|-4|55.98482666666667|37.293005
1493717584972|17|10|-4|55.98482666666667|37.293005
1493717585072|17|10|-4|55.98482666666667|37.293005
1493717585172|17|11|-4|55.984820000000006|37.29301666666667
1493717585272|17|11|-4|55.984820000000006|37.29301666666667
1493717585372|17|11|-4|55.984820000000006|37.29301666666667
1493717585472|17|11|-4|55.98481333333334|37.29302833333334
1493717585572|17|11|-4|55.98481333333334|37.29302833333334
1493717585672|17|11|-4|55.98481333333334|37.29302833333334
1493717585772|17|11|-4|55.98480833333333|37.293033333333334
1493717585872|17|11|-4|55.98480833333333|37.293033333333334
1493717585972|17|11|-4|55.98480833333333|37.293033333333334
1493717586072|18|11|-4|55.98480833333333|37.293034999999996
1493717586172|18|11|-4|55.98480833333333|37.293034999999996
1493717586272|18|11|-4|55.98480833333333|37.293034999999996
1493717586372|18|11|-4|55.984809999999996|37.293033333333334
1493717586472|18|10|-4|55.984809999999996|37.293033333333334
1493717586572|18|9|-4|55.984809999999996|37.293033333333334
1493717586672|18|9|-4|55.98481333333334|37.29302166666666
1493717586772|19|9|-4|55.98481333333334|37.29302166666666
1493717586872|19|9|-4|55.98481333333334|37.29302166666666
1493717586972|19|9|-4|55.98481666666667|37.292988333333334
1493717587072|19|9|-4|55.98481666666667|37.292988333333334
1493717587172|19|9|-4|55.98481666666667|37.292988333333334
1493717587272|19|9|-4|55.984840000000005|37.29296
1493717587372|19|9|-4|55.984840000000005|37.29296
1493717587472|19|9|-4|55.984840000000005|37.29296
1493717587572|19|9|-4|55.984840000000005|37.29296
1493717587672|19|9|-4|55.984851666666664|37.29289833333333
1493717587772|19|10|-4|55.984851666666664|37.29289833333333
1493717587872|20|12|-4|55.984851666666664|37.29289833333333
1493717587972|20|14|-4|55.98486666666666|37.29281166666666
1493717588072|20|14|-4|55.98486666666666|37.29281166666666
1493717588172|20|14|-4|55.98486666666666|37.29281166666666
1493717588272|20|19|-4|55.98486333333334|37.29269000000001
1493717588372|20|20|-4|55.98486333333334|37.29269000000001
1493717588472|20|20|-4|55.98486333333334|37.29269000000001
1493717588572|20|28|-4|55.98489166666667|37.292575
1493717588672|20|31|-4|55.98489166666667|37.292575
1493717588772|20|33|-4|55.98489166666667|37.292575
1493717588872|21|34|-4|55.98491166666667|37.292436666666674
1493717588972|21|35|-4|55.98491166666667|37.292436666666674
1493717589072|21|35|-4|55.98491166666667|37.292436666666674
1493717589172|21|35|-4|55.98491666666666|37.292345
1493717589272|21|35|-4|55.98491666666666|37.292345
1493717589372|21|35|-4|55.98491666666666|37.292345
1493717589472|21|35|-4|55.98494000000001|37.29221
1493717589572|21|34|-4|55.98494000000001|37.29221
1493717589672|21|34|-4|55.98494000000001|37.29221
1493717589772|20|34|-4|55.98495833333333|37.29210666666666
1493717589872|20|34|-4|55.98495833333333|37.29210666666666
1493717589972|21|34|-4|55.98495833333333|37.29210666666666
1493717590072|21|33|-4|55.98498166666667|37.291999999999994
1493717590172|21|33|-4|55.98498166666667|37.291999999999994
1493717590272|21|29|-4|55.98498166666667|37.291999999999994
1493717590372|21|29|-4|55.98499333333333|37.291895
1493717590472|21|28|-4|55.98499333333333|37.291895
1493717590572|21|27|-4|55.98499333333333|37.291895
1493717590672|21|27|-4|55.98501500000001|37.291801666666665
1493717590772|21|26|-4|55.98501500000001|37.291801666666665
1493717590872|21|25|-4|55.98501500000001|37.291801666666665
1493717590972|21|25|-4|55.985033333333334|37.29169999999999
1493717591072|21|25|-4|55.985033333333334|37.29169999999999
1493717591172|21|20|-4|55.985033333333334|37.29169999999999
1493717591272|21|19|-4|55.985033333333334|37.29169999999999
1493717591372|21|18|-4|55.985054999999996|37.29159666666667
1493717591472|21|18|-4|55.985054999999996|37.29159666666667
1493717591572|21|18|-4|55.985054999999996|37.29159666666667
1493717591672|21|14|-4|55.98506999999999|37.291505
1493717591772|21|12|-4|55.98506999999999|37.291505
1493717591872|21|12|-4|55.98506999999999|37.291505
1493717591972|21|10|-4|55.98508833333334|37.29140999999999
1493717592072|21|10|-4|55.98508833333334|37.29140999999999
1493717592172|20|6|-4|55.98508833333334|37.29140999999999
1493717592272|20|2|-4|55.985108333333336|37.291320000000006
1493717592372|20|-2|-4|55.985108333333336|37.291320000000006
1493717592472|20|-6|-4|55.985108333333336|37.291320000000006
1493717592572|20|-8|-4|55.98512166666666|37.291243333333334
1493717592672|20|-11|-4|55.98512166666666|37.291243333333334
1493717592772|20|-11|-4|55.98512166666666|37.291243333333334
1493717592872|20|-12|-4|55.98512833333333|37.29118166666667
1493717592972|20|-12|-4|55.98512833333333|37.29118166666667
1493717593072|20|-12|-4|55.98512833333333|37.29118166666667
1493717593172|20|-13|-4|55.98513833333333|37.29115500000001
1493717593272|20|-13|-4|55.98513833333333|37.29115500000001
1493717593372|20|-13|-4|55.98513833333333|37.29115500000001
1493717593472|20|-16|-4|55.985141666666664|37.29114166666666
1493717593572|20|-16|-4|55.985141666666664|37.29114166666666
1493717593672|20|-24|-4|55.985141666666664|37.29114166666666
1493717593772|20|-26|-4|55.985141666666664|37.291138333333336
1493717593872|20|-27|-4|55.985141666666664|37.291138333333336
1493717593972|20|-28|-4|55.985141666666664|37.291138333333336
1493717594072|20|-28|-4|55.985141666666664|37.291138333333336
1493717594172|20|-28|-4|55.985141666666664|37.291138333333336
1493717594272|20|-28|-4|55.985141666666664|37.291138333333336
1493717594387|20|-28|-4|55.985143333333326|37.29114166666666
1493717594488|20|-20|-4|55.985143333333326|37.29114166666666
1493717594588|20|-16|-4|55.985143333333326|37.29114166666666
1493717594688|20|-12|-4|55.985143333333326|37.29114333333334
1493717594788|20|-11|-4|55.985143333333326|37.29114333333334
1493717594888|20|-7|-4|55.985143333333326|37.29114333333334
1493717594988|20|-6|-4|55.985143333333326|37.29114333333334
1493717595088|20|-4|-4|55.985143333333326|37.29114166666666
1493717595188|20|-4|-4|55.985143333333326|37.29114166666666
1493717595288|20|-4|-4|55.985143333333326|37.29114166666666
1493717595388|20|-3|-4|55.98511|37.29114666666667
1493717595488|20|-3|-4|55.98511|37.29114666666667
1493717595588|20|-3|-4|55.98511|37.29114666666667
1493717595688|21|-8|-4|55.985123333333334|37.29114166666666
1493717595788|21|-9|-4|55.985123333333334|37.29114166666666
1493717595888|21|-10|-4|55.985123333333334|37.29114166666666
1493717595988|21|-10|-4|55.98514499999999|37.29113666666666
1493717596088|21|-15|-4|55.98514499999999|37.29113666666666
1493717596188|21|-15|-4|55.98514499999999|37.29113666666666
1493717596288|21|-15|-4|55.98513666666667|37.29111833333333
1493717596388|21|-14|-4|55.98513666666667|37.29111833333333
1493717596488|21|-11|-4|55.98513666666667|37.29111833333333
1493717596588|21|-9|-4|55.98513666666667|37.291125
1493717596688|21|-3|-4|55.98513666666667|37.291125
1493717596788|21|1|-4|55.98513666666667|37.291125
1493717596888|21|2|-4|55.985141666666664|37.29112833333334
1493717596988|21|5|-4|55.985141666666664|37.29112833333334
1493717597088|21|7|-4|55.985141666666664|37.29112833333334
1493717597188|21|9|-4|55.98513666666667|37.29112166666666
1493717597288|21|12|-4|55.98513666666667|37.29112166666666
1493717597388|21|13|-4|55.98513666666667|37.29112166666666
1493717597488|21|13|-4|55.98513166666667|37.291115000000005
1493717597588|21|13|-4|55.98513166666667|37.291115000000005
1493717597688|21|13|-4|55.98513166666667|37.291115000000005
1493717597788|21|14|-4|55.98513166666667|37.291115000000005
1493717597888|21|14|-4|55.98513166666667|37.291115000000005
1493717597988|21|14|-4|55.98513166666667|37.291115000000005
1493717598088|21|14|-4|55.98513500000001|37.29112333333334
1493717598188|21|14|-4|55.98513500000001|37.29112333333334
1493717598288|21|14|-4|55.98513500000001|37.29112333333334
1493717598388|21|8|-4|55.98513500000001|37.29112333333334
1493717598488|21|8|-4|55.98513500000001|37.29112333333334
1493717598588|21|8|-4|55.98513500000001|37.29112333333334
1493717598688|21|8|-4|55.98513500000001|37.29112333333334
1493717598788|21|9|-4|55.98513500000001|37.29112333333334
1493717598888|21|9|-4|55.98513500000001|37.29112333333334
1493717598988|21|9|-4|55.98513500000001|37.29112333333334
1493717599088|21|9|-4|55.98513500000001|37.29112166666666
1493717599188|21|9|-4|55.98513500000001|37.29112166666666
1493717599288|21|7|-4|55.98513500000001|37.29112166666666
1493717599388|21|6|-4|55.985141666666664|37.29113
1493717599488|21|6|-4|55.985141666666664|37.29113
1493717599588|21|5|-4|55.985141666666664|37.29113
1493717599688|21|2|-4|55.98514|37.291125
1493717599788|21|0|-4|55.98514|37.291125
1493717599888|20|0|-4|55.98514|37.291125
1493717599988|20|0|-4|55.98514|37.291125
1493717600088|20|-1|-4|55.98514|37.291125
1493717600188|20|-1|-4|55.98514|37.291125
1493717600288|20|-1|-4|55.985141666666664|37.29113
1493717600388|20|-1|-4|55.985141666666664|37.29113
1493717600488|20|0|-4|55.985141666666664|37.29113
1493717600588|20|5|-4|55.98514|37.291125
1493717600688|20|8|-4|55.98514|37.291125
1493717600788|20|8|-4|55.98514|37.291125
1493717600888|20|8|-4|55.98514|37.291125
1493717600989|20|9|-4|55.98514|37.291125
1493717601089|20|9|-4|55.98514|37.291125
1493717601189|20|9|-4|55.985125000000004|37.291111666666666
1493717601289|20|9|-4|55.985125000000004|37.291111666666666
1493717601389|20|11|-4|55.985125000000004|37.291111666666666
1493717601489|20|11|-4|55.985126666666666|37.291111666666666
1493717601589|20|11|-4|55.985126666666666|37.291111666666666
1493717601689|20|11|-4|55.985126666666666|37.291111666666666
1493717601789|20|15|-4|55.985126666666666|37.291111666666666
1493717601889|20|15|-4|55.985126666666666|37.291111666666666
1493717601989|20|15|-4|55.985126666666666|37.291111666666666
1493717602089|20|15|-4|55.98514|37.29112666666666
1493717602189|20|15|-4|55.98514|37.29112666666666
1493717602289|20|15|-4|55.98514|37.29112666666666
1493717602389|20|15|-4|55.98514|37.29112666666666
1493717602489|20|13|-4|55.985141666666664|37.29113
1493717602589|20|12|-4|55.985141666666664|37.29113
1493717602689|20|7|-4|55.985141666666664|37.29113
1493717602789|20|4|-4|55.985141666666664|37.29113
1493717602889|20|4|-4|55.985141666666664|37.29113
1493717602989|20|4|-4|55.985141666666664|37.29113
1493717603089|20|2|-4|55.985141666666664|37.29113
1493717603189|20|0|-4|55.985141666666664|37.29113
1493717603289|20|-1|-4|55.985141666666664|37.29113
1493717603389|20|-3|-4|55.98514|37.29112833333334
1493717603489|20|-4|-4|55.98514|37.29112833333334
1493717603589|20|-4|-4|55.98514|37.29112833333334
1493717603689|20|-4|-4|55.98514|37.29112833333334
1493717603789|20|-5|-4|55.98514|37.29112833333334
1493717603889|20|-5|-4|55.98514|37.29112833333334
1493717603989|20|-5|-4|55.98513833333333|37.291125
1493717604089|20|-2|-4|55.98513833333333|37.291125
1493717604189|20|-2|-4|55.98513833333333|37.291125
1493717604289|20|-2|-4|55.98513833333333|37.291125
1493717604389|20|3|-4|55.98513833333333|37.291125
1493717604489|20|3|-4|55.98513833333333|37.291125
1493717604589|20|3|-4|55.98513833333333|37.291125
1493717604689|20|5|-4|55.98513833333333|37.291125
1493717604789|20|6|-4|55.98513833333333|37.291125
1493717604889|20|10|-4|55.98513833333333|37.291125
1493717604989|20|12|-4|55.98513833333333|37.291125
1493717605089|20|12|-4|55.98513833333333|37.291125
1493717605189|20|14|-4|55.98513833333333|37.291125
1493717605289|20|12|-4|55.98513833333333|37.291125
1493717605389|21|6|-4|55.98513833333333|37.291125
1493717605489|21|6|-4|55.98513833333333|37.29112166666666
1493717605589|21|5|-4|55.98513833333333|37.29112166666666
1493717605689|21|4|-4|55.98513833333333|37.29112166666666
1493717605789|21|4|-4|55.98513833333333|37.29112166666666
1493717605889|21|4|-4|55.98513833333333|37.29112166666666
1493717605989|21|4|-4|55.98513833333333|37.29112166666666
1493717606089|21|4|-4|55.98513833333333|37.29112166666666
1493717606189|21|3|-4|55.98513833333333|37.29112166666666
1493717606289|21|3|-4|55.98513833333333|37.29112166666666
1493717606389|21|3|-4|55.98513833333333|37.29112166666666
1493717606489|21|2|-4|55.98513833333333|37.29112333333334
1493717606590|21|2|-4|55.98513833333333|37.29112333333334
1493717606690|21|2|-4|55.98513833333333|37.29112333333334
1493717606790|21|2|-4|55.98513833333333|37.29112333333334
1493717606890|21|1|-4|55.98513833333333|37.29112333333334
1493717606990|21|1|-4|55.98513833333333|37.29112333333334
1493717607090|21|1|-4|55.98514499999999|37.29111333333334
1493717607190|21|1|-4|55.98514499999999|37.29111333333334
1493717607290|21|1|-4|55.98514499999999|37.29111333333334
1493717607390|20|1|-4|55.98514499999999|37.29111333333334
1493717607490|20|3|-4|55.98514499999999|37.29111333333334
1493717607590|20|3|-4|55.98514499999999|37.29111333333334
1493717607690|20|3|-4|55.985143333333326|37.291111666666666
1493717607790|20|4|-4|55.985143333333326|37.291111666666666
1493717607890|20|5|-4|55.985143333333326|37.291111666666666
1493717607990|20|6|-4|55.985150000000004|37.29112
1493717608090|20|6|-4|55.985150000000004|37.29112
1493717608190|20|9|-4|55.985150000000004|37.29112
1493717608290|20|9|-4|55.985150000000004|37.29112
1493717608393|20|10|-4|55.985150000000004|37.29112
1493717608493|20|11|-4|55.985150000000004|37.29112
1493717608593|20|11|-4|55.985150000000004|37.29112
1493717608693|20|12|-4|55.985150000000004|37.29112
1493717608793|20|12|-4|55.985150000000004|37.29112
1493717608893|20|12|-4|55.985143333333326|37.291111666666666
1493717608993|20|12|-4|55.985143333333326|37.291111666666666
1493717609093|20|12|-4|55.985143333333326|37.291111666666666
1493717609193|20|12|-4|55.985143333333326|37.29111333333334
1493717609293|20|12|-4|55.985143333333326|37.29111333333334
1493717609393|20|12|-4|55.985143333333326|37.29111333333334
1493717609493|21|12|-4|55.985150000000004|37.29112
1493717609593|21|3|-4|55.985150000000004|37.29112
1493717609693|21|1|-4|55.985150000000004|37.29112
1493717609793|21|0|-4|55.985150000000004|37.29112
1493717609893|21|0|-4|55.985150000000004|37.29112
1493717609993|21|0|-4|55.985150000000004|37.29112
1493717610093|21|0|-4|55.985150000000004|37.29112
1493717610193|21|-1|-4|55.98514833333334|37.29111833333333
1493717610293|21|-1|-4|55.98514833333334|37.29111833333333
1493717610393|22|-1|-4|55.98514833333334|37.29111833333333
1493717610493|22|-1|-4|55.98514833333334|37.29111833333333
1493717610593|22|-2|-4|55.98514833333334|37.29111833333333
1493717610693|22|-3|-4|55.98514833333334|37.29111833333333
1493717610793|22|-3|-4|55.98514833333334|37.29111833333333
1493717610893|22|-3|-4|55.98514833333334|37.29111833333333
1493717610993|22|-3|-4|55.98514833333334|37.29111833333333
1493717611093|23|-3|-4|55.98514833333334|37.29111833333333
1493717611193|23|-3|-4|55.98514833333334|37.29111833333333
1493717611293|23|-3|-4|55.98514833333334|37.29111833333333
1493717611393|23|0|-4|55.98514833333334|37.29111833333333
1493717611493|23|0|-4|55.98514833333334|37.29111833333333
1493717611593|23|2|-4|55.98514833333334|37.29111833333333
1493717611693|23|3|-4|55.98514833333334|37.291138333333336
1493717611793|23|5|-4|55.98514833333334|37.291138333333336
1493717611893|23|7|-4|55.98514833333334|37.291138333333336
1493717611993|23|8|-4|55.985143333333326|37.29113
1493717612093|23|10|-4|55.985143333333326|37.29113
1493717612193|23|10|-4|55.985143333333326|37.29113
1493717612293|23|10|-4|55.98514|37.29112333333334
1493717612393|23|12|-4|55.98514|37.29112333333334
1493717612493|23|13|-4|55.98514|37.29112333333334
1493717612593|24|13|-4|55.98514|37.29112166666666
1493717612693|24|13|-4|55.98514|37.29112166666666
1493717612793|24|14|-4|55.98514|37.29112166666666
1493717612893|24|14|-4|55.985143333333326|37.29112833333334
1493717612993|24|15|-4|55.985143333333326|37.29112833333334
1493717613093|24|15|-4|55.985143333333326|37.29112833333334
1493717613193|24|15|-4|55.985143333333326|37.29112833333334
1493717613293|24|17|-4|55.985143333333326|37.29112833333334
1493717613393|24|17|-4|55.985143333333326|37.29112833333334
1493717613493|24|17|-4|55.985143333333326|37.29112833333334
1493717613593|24|17|-4|55.985143333333326|37.29112833333334
1493717613693|24|17|-4|55.985143333333326|37.29112833333334
1493717613793|24|17|-4|55.985143333333326|37.29112833333334
1493717613893|24|17|-4|55.985143333333326|37.29112833333334
1493717613994|24|18|-4|55.985143333333326|37.29112833333334
1493717614094|24|18|-4|55.985143333333326|37.29112833333334
1493717614194|25|19|-4|55.985143333333326|37.291131666666665
1493717614294|25|19|-4|55.985143333333326|37.291131666666665
1493717614394|25|20|-4|55.985143333333326|37.291131666666665
1493717614494|25|20|-4|55.98513833333333|37.29111833333333
1493717614594|25|21|-4|55.98513833333333|37.29111833333333
1493717614694|25|21|-4|55.98513833333333|37.29111833333333
1493717614794|25|23|-4|55.98513833333333|37.29111833333333
1493717614894|25|29|-4|55.98513833333333|37.29111833333333
1493717614994|25|35|-4|55.98513833333333|37.29111833333333
1493717615094|25|35|-4|55.98513833333333|37.29111833333333
1493717615194|25|35|-4|55.98513833333333|37.29111833333333
1493717615294|25|35|-4|55.98513833333333|37.29111833333333
1493717615394|24|37|-4|55.98513833333333|37.29111833333333
1493717615494|24|39|-4|55.98513833333333|37.29111833333333
1493717615594|25|40|-4|55.98513833333333|37.29111833333333
1493717615694|25|41|-4|55.98513833333333|37.29111833333333
1493717615794|24|42|-4|55.98513833333333|37.29111833333333
1493717615894|24|43|-4|55.98513833333333|37.29111833333333
1493717615994|24|43|-4|55.98513833333333|37.29111833333333
1493717616094|24|43|-4|55.98513833333333|37.29111833333333
1493717616194|24|43|-4|55.98513833333333|37.29111833333333
1493717616294|24|44|-4|55.98513666666667|37.29111833333333
1493717616394|24|44|-4|55.98513666666667|37.29111833333333
1493717616494|24|44|-4|55.98513666666667|37.29111833333333
1493717616594|24|45|-4|55.98513666666667|37.29111833333333
1493717616694|24|45|-4|55.98513666666667|37.29111833333333
1493717616794|24|45|-4|55.98513666666667|37.29111833333333
1493717616894|24|60|-4|55.98513666666667|37.29111833333333
1493717616994|24|61|-4|55.98513666666667|37.29111833333333
1493717617094|24|61|-4|55.98513666666667|37.29111833333333
1493717617194|24|61|-4|55.98513666666667|37.29111833333333
1493717617294|24|62|-4|55.98513666666667|37.29111833333333
1493717617394|24|62|-4|55.98513666666667|37.29111833333333
1493717617494|24|62|-4|55.98513666666667|37.29111833333333
1493717617594|24|62|-4|55.98513666666667|37.29111833333333
1493717617694|24|62|-4|55.98513666666667|37.29111833333333
1493717617794|24|60|-4|55.98513666666667|37.29111833333333
1493717617894|25|54|-4|55.98513666666667|37.29111833333333
1493717617994|25|51|-4|55.98513666666667|37.29111833333333
1493717618094|25|49|-4|55.98513666666667|37.29111833333333
1493717618194|25|48|-4|55.98513666666667|37.29111833333333
1493717618294|25|48|-4|55.98513666666667|37.29111833333333
1493717618395|25|50|-4|55.98513666666667|37.29111833333333
1493717618495|25|52|-4|55.98513666666667|37.29111833333333
1493717618595|25|61|-4|55.98513666666667|37.29111833333333
1493717618695|25|66|-4|55.98513666666667|37.29111833333333
1493717618795|25|66|-4|55.98513666666667|37.29111833333333
1493717618895|25|68|-4|55.98513666666667|37.29111833333333
1493717618995|25|73|-4|55.98513666666667|37.29111833333333
1493717619095|25|73|-4|55.98513666666667|37.29111833333333
1493717619195|25|73|-4|55.98513666666667|37.29111833333333
1493717619295|25|73|-4|55.98513666666667|37.29111833333333
1493717619395|25|73|-4|55.98513666666667|37.29111833333333
1493717619498|25|70|-4|55.98513666666667|37.29111833333333
1493717619598|25|68|-4|55.98513666666667|37.29111833333333
1493717619698|25|68|-4|55.98513666666667|37.29111833333333
1493717619798|25|64|-4|55.98513666666667|37.29111833333333
1493717619898|25|62|-4|55.98513666666667|37.29111833333333
1493717619998|25|61|-4|55.98513666666667|37.29111833333333
1493717620098|25|59|-4|55.98513666666667|37.29111833333333
1493717620198|25|58|-4|55.98513666666667|37.29111833333333
1493717620298|25|58|-4|55.98513666666667|37.29111833333333
1493717620398|24|58|-4|55.98513666666667|37.29111833333333
1493717620498|24|58|-4|55.98513666666667|37.29111833333333
1493717620598|24|59|-4|55.98513666666667|37.29111833333333
1493717620698|24|60|-4|55.98513666666667|37.29111833333333
1493717620798|24|61|-4|55.98513666666667|37.29111833333333
1493717620898|24|63|-4|55.98513666666667|37.29111833333333
1493717620998|24|64|-4|55.98513666666667|37.29111833333333
1493717621098|24|65|-4|55.98513666666667|37.29111833333333
1493717621198|24|66|-4|55.98513666666667|37.29111833333333
1493717621298|24|67|-4|55.98513666666667|37.29111833333333
1493717621398|24|67|-4|55.98513666666667|37.29111833333333
1493717621498|24|69|-4|55.98513666666667|37.29111833333333
1493717621598|24|70|-4|55.98513666666667|37.29111833333333
1493717621698|23|72|-4|55.98513666666667|37.29111833333333
1493717621798|23|72|-4|55.98513666666667|37.29111833333333
1493717621898|23|72|-4|55.98513666666667|37.29111833333333
1493717621998|23|72|-4|55.98513666666667|37.29111833333333
1493717622098|23|72|-4|55.98513666666667|37.29111833333333
1493717622198|23|72|-4|55.98513666666667|37.29111833333333
1493717622298|23|70|-4|55.98513666666667|37.29111833333333
1493717622398|23|64|-4|55.98513666666667|37.29111833333333
1493717622498|23|62|-4|55.98513666666667|37.29112
1493717622598|23|62|-4|55.98513666666667|37.29112
1493717622698|23|62|-4|55.98513666666667|37.29112
1493717622798|22|56|-4|55.98513666666667|37.29111833333333
1493717622898|22|54|-4|55.98513666666667|37.29111833333333
1493717622998|22|49|-4|55.98513666666667|37.29111833333333
1493717623098|22|44|-4|55.985143333333326|37.29111833333333
1493717623198|22|42|-4|55.985143333333326|37.29111833333333
1493717623298|22|36|-4|55.985143333333326|37.29111833333333
1493717623398|22|34|-4|55.985143333333326|37.29111833333333
1493717623498|22|34|-4|55.985143333333326|37.29111833333333
1493717623598|22|33|-4|55.985143333333326|37.29111833333333
1493717623698|22|33|-4|55.985143333333326|37.29111833333333
1493717623798|21|33|-4|55.985143333333326|37.29111833333333
1493717623898|21|58|-4|55.985143333333326|37.29111833333333
1493717623998|21|61|-4|55.985143333333326|37.29111833333333
1493717624098|21|66|-4|55.985143333333326|37.29111833333333
1493717624198|21|70|-4|55.985143333333326|37.29111833333333
1493717624298|21|75|-4|55.98514|37.29112166666666
1493717624398|21|82|-4|55.98514|37.29112166666666
1493717624498|21|87|-4|55.98514|37.29112166666666
1493717624598|21|87|-4|55.98514|37.29112166666666
1493717624698|21|87|-4|55.985141666666664|37.29112166666666
1493717624798|21|97|-4|55.985141666666664|37.29112166666666
1493717624898|20|99|-4|55.985141666666664|37.29112166666666
1493717624998|20|99|-4|55.98514|37.29112166666666
1493717625098|20|99|-4|55.98514|37.29112166666666
1493717625198|20|101|-4|55.98514|37.29112166666666
1493717625298|20|101|-4|55.98513833333333|37.29112166666666
1493717625398|20|97|-4|55.98513833333333|37.29112166666666
1493717625498|20|96|-4|55.98513833333333|37.29112166666666
1493717625598|20|96|-4|55.98513833333333|37.29112333333334
1493717625698|20|62|-4|55.98513833333333|37.29112333333334
1493717625798|20|51|-4|55.98513833333333|37.29112333333334
1493717625898|20|44|-4|55.98513833333333|37.29112333333334
1493717625998|20|38|-4|55.98513833333333|37.29112333333334
1493717626098|20|33|-4|55.98513833333333|37.29112333333334
1493717626198|20|33|-4|55.98513833333333|37.29112333333334
1493717626298|20|32|-4|55.98513833333333|37.29112333333334
1493717626398|19|30|-4|55.98513833333333|37.29112333333334
1493717626498|19|29|-4|55.98513833333333|37.29112333333334
1493717626598|19|28|-4|55.98513833333333|37.29112333333334
1493717626698|18|28|-4|55.98513833333333|37.29112333333334
1493717626798|18|25|-4|55.98513833333333|37.29112333333334
1493717626898|17|23|-4|55.98513833333333|37.29112333333334
1493717626998|17|23|-4|55.98513833333333|37.29112333333334
1493717627098|16|23|-4|55.98513833333333|37.29112333333334
1493717627198|15|23|-4|55.98513833333333|37.29112333333334
1493717627298|15|23|-4|55.98513833333333|37.29112333333334
1493717627398|14|23|-4|55.98513833333333|37.29112333333334
1493717627498|14|23|-4|55.98513833333333|37.29112333333334
1493717627598|13|23|-4|55.98513833333333|37.29112333333334
1493717627698|13|22|-4|55.98514|37.29112333333334
1493717627798|12|22|-4|55.98514|37.29112333333334
1493717627898|12|18|-4|55.98514|37.29112333333334
1493717627998|11|17|-4|55.98514|37.29112333333334
1493717628098|10|16|-4|55.98514|37.29112333333334
1493717628198|10|16|-4|55.98514|37.29112333333334
1493717628298|9|16|-4|55.98514|37.29112333333334
1493717628398|9|11|-4|55.98514|37.29112333333334
1493717628498|8|6|-4|55.98514|37.29112333333334
1493717628598|8|0|-4|55.98514|37.29112333333334
1493717628698|7|-1|-4|55.98514|37.29112333333334
1493717628798|7|-2|-4|55.98514|37.29112333333334
1493717628898|6|-2|-4|55.98514|37.29112333333334
1493717628998|5|0|-4|55.98513666666667|37.29112333333334
1493717629098|5|2|-4|55.98513666666667|37.29112333333334
1493717629198|4|2|-4|55.98513666666667|37.29112333333334
1493717629298|4|2|-4|55.98513666666667|37.29112333333334
1493717629398|3|2|-4|55.98513666666667|37.29112333333334
1493717629498|3|2|-4|55.98513666666667|37.29112333333334
1493717629598|2|2|-4|55.98513666666667|37.29112333333334
1493717629698|2|2|-4|55.98513666666667|37.29112333333334
1493717629798|2|2|-4|55.98513666666667|37.29112333333334
1493717629898|1|2|-4|55.98513666666667|37.29112333333334
1493717629998|1|2|-4|55.98513666666667|37.29112333333334
1493717630098|1|2|-4|55.98513666666667|37.29112333333334
1493717630198|1|2|-4|55.98513666666667|37.29112333333334
1493717630298|0|2|-4|55.98513666666667|37.29112333333334
