1501234999276|0|462|0|55.985073355000004|37.29154752666667
1501234999387|0|462|0|55.98507335166667|37.29154751666667
1501234999505|0|462|0|55.985073365000005|37.291547521666665
1501234999606|0|462|0|55.98507334999999|37.291547535
1501234999710|0|462|0|55.985073355000004|37.29154753833333
1501234999812|0|462|0|55.985073359999994|37.29154753666667
1501234999925|0|462|0|55.985073355000004|37.29154751833333
1501235000028|0|462|0|55.985073355000004|37.29154752666667
1501235000132|0|462|0|55.985073359999994|37.29154753
1501235000240|0|462|0|55.98507335333334|37.29154751833333
1501235000345|0|462|0|55.985073345|37.29154751
1501235000446|0|462|0|55.98507335333334|37.29154754333334
1501235000547|0|462|0|55.98507336166667|37.291547533333336
1501235000648|0|462|0|55.985073375000006|37.29154755166667
1501235000748|0|462|0|55.98507336333334|37.291547545
1501235000866|0|462|0|55.985073365000005|37.291547545
1501235000987|0|462|0|55.985073379999996|37.29154755166667
1501235001088|0|462|0|55.985073368333325|37.291547565
1501235001191|0|462|0|55.98507337166667|37.291547558333335
1501235001295|0|462|0|55.985073369999995|37.29154751
1501235001396|0|462|0|55.98507337166667|37.291547515000005
1501235001504|0|462|0|55.98507336166667|37.29154751666667
1501235001613|0|462|0|55.98507335333334|37.29154751
1501235001723|0|462|0|55.98507334166667|37.291547515000005
1501235001832|0|462|0|55.98507333999999|37.291547525000006
1501235001942|0|462|0|55.98507335166667|37.29154753666667
1501235002082|0|462|0|55.98507336166667|37.29154753
1501235002192|0|462|0|55.98507334833334|37.291547465
1501235002301|0|462|0|55.985073338333336|37.291547488333336
1501235002410|0|462|0|55.98507334999999|37.29154748166666
1501235002520|0|462|0|55.98507335333334|37.29154746333333
1501235002645|0|462|0|55.98507335333334|37.29154741166666
1501235002754|0|462|0|55.98507337333334|37.291547271666666
1501235002864|0|462|0|55.98507340333333|37.29154708666667
1501235003004|0|462|0|55.98507355666667|37.291546488333324
1501235003129|0|462|0|55.98507363833333|37.29154613833333
1501235003270|0|462|0|55.98507371|37.29154569166666
1501235003395|1|462|0|55.985073795000005|37.29154519166667
1501235003504|1|462|0|55.985074013333325|37.291543991666664
1501235003613|1|462|0|55.98507412666667|37.291543344999994
1501235003723|1|462|0|55.98507425|37.291542633333336
1501235003832|1|462|0|55.98507440666667|37.291541851666665
1501235003942|1|462|0|55.98507458166667|37.29154104333333
1501235004082|2|462|0|55.98507476166667|37.29154010333334
1501235004207|2|336|0|55.98507513500001|37.29153822833333
1501235004314|2|335|0|55.98507535666666|37.29153715166667
1501235004423|2|334|0|55.98507558500001|37.291536093333335
1501235004532|2|333|0|55.98507580333333|37.29153494833333
1501235004677|2|332|0|55.985076055|37.29153377666667
1501235004801|2|333|0|55.985076505|37.291531418333335
1501235004912|2|330|0|55.98507678333334|37.291530046666665
1501235005021|3|226|0|55.985077024999995|37.29152877333333
1501235005131|3|226|0|55.985077286666666|37.29152735833333
1501235005240|3|225|0|55.98507755333333|37.291525959999994
1501235005349|3|224|0|55.98507787833334|37.291524495
1501235005459|3|224|0|55.985078161666664|37.29152291166666
1501235005568|3|222|0|55.98507853333334|37.29152136166667
1501235005678|3|221|0|55.98507922000001|37.29151801333333
1501235005787|4|163|0|55.98507958666667|37.29151634
1501235005896|4|162|0|55.985079948333336|37.29151457
1501235006006|4|161|0|55.98508025666666|37.29151272666667
1501235006115|4|160|0|55.98508073666667|37.29151086166666
1501235006224|4|159|0|55.98508112|37.291508905
1501235006334|4|157|0|55.98508149999999|37.29150693333334
1501235006443|4|156|0|55.98508197500001|37.29150492000001
1501235006553|5|123|0|55.98508241833333|37.29150276333333
1501235006663|5|127|0|55.98508292166667|37.291500495
1501235006772|5|126|0|55.985083395000004|37.291498168333334
1501235006882|5|119|0|55.985084425|37.291493335
1501235006991|6|106|0|55.985084968333325|37.291490761666665
1501235007100|6|106|0|55.98508552666667|37.29148816166666
1501235007210|6|99|0|55.98508607833333|37.2914854
1501235007319|6|98|0|55.98508670500001|37.29148263333333
1501235007429|6|104|0|55.98508737000001|37.29147983833333
1501235007538|7|88|0|55.98508798666666|37.29147688333333
1501235007663|7|87|0|55.98508870166667|37.29147397666667
1501235007772|7|86|0|55.985089398333336|37.29147097833333
1501235007882|7|82|0|55.985090760000006|37.29146473666666
1501235007991|7|82|0|55.98509150833333|37.29146154000001
1501235008100|7|81|0|55.985092293333345|37.291458275000004
1501235008210|7|80|0|55.98509304666667|37.29145497333333
1501235008319|8|73|0|55.985093815|37.29145162833333
1501235008428|8|71|0|55.985094573333335|37.291448265
1501235008538|8|69|0|55.98509535833333|37.29144491500001
1501235008647|8|69|0|55.98509618|37.291441515
1501235008757|8|69|0|55.985096969999994|37.291438109999994
1501235008866|8|67|0|55.98509777166667|37.291434755
1501235008975|8|61|0|55.985098661666676|37.291431321666664
1501235009085|8|55|0|55.98510032166667|37.291424434999996
1501235009194|8|-64|0|55.98510116166667|37.29142093833334
1501235009319|8|-64|0|55.98510198666666|37.291417509999995
1501235009429|8|-76|0|55.985102855|37.29141414833333
1501235009538|8|-72|0|55.98510373000001|37.29141080166667
1501235009667|8|-99|0|55.98510457000001|37.291407388333326
1501235009778|8|-106|0|55.98510540000001|37.29140396833333
1501235009887|8|-95|0|55.98510703|37.29139714833333
1501235009996|8|-63|0|55.98510776|37.29139377833334
1501235010106|8|-67|0|55.985108603333344|37.29139038
1501235010231|8|-93|0|55.98510934833333|37.291387061666676
1501235010340|8|-109|0|55.98511001833334|37.291383569999994
1501235010450|8|-68|0|55.98511076833333|37.29138027
1501235010559|8|-53|0|55.98511153999999|37.29137699000001
1501235010668|8|-72|0|55.98511221833334|37.29137364
1501235010778|7|-68|0|55.98511362666667|37.29136701499999
1501235010887|8|-65|0|55.98511428166667|37.29136365666666
1501235010996|8|-78|0|55.98511499666666|37.29136034166667
1501235011106|8|-60|0|55.98511574333333|37.29135711499999
1501235011215|8|-72|0|55.985116418333334|37.29135384833333
1501235011325|8|-68|0|55.98511705833333|37.29135044833333
1501235011434|8|-61|0|55.98511772666667|37.29134714166666
1501235011543|8|-69|0|55.985118445000005|37.29134379833334
1501235011653|8|-72|0|55.98511911166666|37.29134043666666
1501235011762|8|-73|0|55.98511985333333|37.29133708833333
1501235011872|8|-62|0|55.98512055666667|37.291333738333336
1501235011981|8|-76|0|55.98512195666667|37.29132692333333
1501235012106|8|-57|0|55.985122629999985|37.291323455000004
1501235012215|8|-31|0|55.985123284999986|37.29131995
1501235012325|8|-20|0|55.98512398999999|37.29131642833333
1501235012434|8|-17|0|55.985124664999994|37.291312868333335
1501235012543|8|0|0|55.98512538666667|37.29130920666667
1501235012668|8|-14|0|55.98512612666667|37.291305565
1501235012778|8|-12|0|55.985126885|37.291301913333335
1501235012887|9|-18|0|55.98512847499999|37.29129446
1501235012996|9|-40|0|55.98512932166667|37.291290745
1501235013106|9|-37|0|55.98513017499999|37.291286935
1501235013215|9|-43|0|55.98513108833334|37.29128304166667
1501235013325|9|-43|0|55.985131923333334|37.29127911166667
1501235013434|9|-30|0|55.98513280499999|37.291275068333334
1501235013543|9|-29|0|55.985133741666665|37.291271048333336
1501235013653|9|-34|0|55.985134613333344|37.29126695
1501235013762|9|-35|0|55.985135458333325|37.29126284833333
1501235013872|9|-26|0|55.985136355|37.291258725
1501235013981|10|-24|0|55.98513726666667|37.291254654999996
1501235014090|10|-36|0|55.98513915333333|37.29124632833334
1501235014200|10|-39|0|55.98514011333334|37.29124225166667
1501235014309|10|-39|0|55.98514094|37.29123813166667
1501235014418|10|-24|0|55.98514188333334|37.291234015
1501235014528|10|-22|0|55.985142845000006|37.291229808333334
1501235014637|10|-41|0|55.985143775000004|37.291225648333345
1501235014747|10|-462|0|55.98514477333333|37.29122144
1501235014856|10|-36|0|55.98514565833334|37.29121718833333
1501235014965|10|-51|0|55.98514665166667|37.29121298333333
1501235015075|10|-53|0|55.98514758666667|37.29120876166667
1501235015184|10|-38|0|55.98514950499999|37.291200193333324
1501235015293|10|-30|0|55.98515038499999|37.29119584
1501235015403|10|-40|0|55.985151349999995|37.29119149666668
1501235015512|10|-27|0|55.98515226|37.29118713500001
1501235015622|10|-27|0|55.98515317999999|37.29118275166667
1501235015731|10|-34|0|55.98515411666668|37.291178411666664
1501235015840|10|-37|0|55.985155028333345|37.291174013333325
1501235015950|10|-38|0|55.985156031666676|37.291169628333336
1501235016059|10|-50|0|55.98515702666667|37.29116526000001
1501235016168|10|-46|0|55.985158023333334|37.291160821666665
1501235016278|10|-51|0|55.985159024999994|37.291156429999994
1501235016387|10|-51|0|55.98516000666667|37.29115205166667
1501235016496|10|-58|0|55.98516202833333|37.29114308999999
1501235016606|10|-54|0|55.98516304333332|37.29113857166667
1501235016715|10|-21|0|55.98516392166667|37.29113408166667
1501235016825|10|-60|0|55.98516496333333|37.29112958666667
1501235016934|10|-48|0|55.985165965|37.29112504166667
1501235017043|10|-40|0|55.98516692666667|37.29112049333333
1501235017153|10|-60|0|55.985167965|37.291116028333334
1501235017262|10|-55|0|55.98516899166666|37.291111538333325
1501235017372|10|-59|0|55.985170045|37.291107010000005
1501235017481|10|-42|0|55.985171986666664|37.29109797
1501235017590|10|-41|0|55.98517295166667|37.291093458333336
1501235017700|10|-32|0|55.985173874999994|37.29108896
1501235017809|10|-34|0|55.985174830000005|37.29108445166667
1501235017918|10|-31|0|55.985175855|37.29108000833334
1501235018028|10|-36|0|55.98517682499999|37.29107549166666
1501235018137|10|-32|0|55.98517781333333|37.291071036666665
1501235018247|10|-23|0|55.98517876999999|37.29106653833333
1501235018356|10|-34|0|55.985179755000004|37.29106212666667
1501235018465|10|-32|0|55.98518068999999|37.29105764333334
1501235018575|10|-34|0|55.985181675|37.291053125000005
1501235018684|10|-37|0|55.98518371166667|37.291044211666666
1501235018793|10|-77|0|55.98518479666667|37.29103987833333
1501235018903|10|-36|0|55.985185755|37.29103548166667
1501235019012|10|-39|0|55.98518673499999|37.291031096666664
1501235019121|10|-63|0|55.98518782333334|37.29102679166666
1501235019231|10|-47|0|55.98518877|37.291022489999996
1501235019340|10|-47|0|55.985189739999996|37.291018083333334
1501235019450|10|-48|0|55.985190668333345|37.29101384333334
1501235019559|10|-59|0|55.98519164666667|37.29100954999999
1501235019668|10|-63|0|55.98519263333332|37.29100525333334
1501235019778|10|-65|0|55.98519361833334|37.29100094666667
1501235019887|10|-75|0|55.98519552666667|37.29099237166667
1501235019996|10|-63|0|55.98519646333333|37.29098817
1501235020106|10|-74|0|55.985197375000006|37.29098394166667
1501235020215|10|-75|0|55.98519829833334|37.290979693333334
1501235020325|10|-78|0|55.985199204999994|37.29097552166666
1501235020434|10|-72|0|55.98520006|37.29097136666666
1501235020543|10|-71|0|55.98520092333333|37.29096727333334
1501235020653|10|-70|0|55.98520177666666|37.29096313666667
1501235020762|9|-72|0|55.98520262499999|37.29095901
1501235020872|9|-64|0|55.98520345166667|37.29095483833333
1501235020981|9|-67|0|55.98520507166666|37.290946585
1501235021090|9|-51|0|55.98520583999999|37.290942545
1501235021200|9|-39|0|55.98520658833332|37.290938458333336
1501235021325|9|-37|0|55.985207371666675|37.290934373333336
1501235021434|9|-32|0|55.98520808|37.29093033833334
1501235021543|9|-32|0|55.98520882333334|37.290926309999996
1501235021653|9|-46|0|55.98520963166667|37.290922306666666
1501235021762|9|-46|0|55.98521038333333|37.290918418333334
1501235021872|9|-54|0|55.98521119333333|37.29091455
1501235021981|9|-53|0|55.985212020000006|37.29091060499999
1501235022090|9|-59|0|55.985213635|37.29090274666667
1501235022200|9|-59|0|55.98521441833333|37.29089882166666
1501235022309|9|-55|0|55.98521523|37.29089495833334
1501235022418|9|-57|0|55.98521601|37.290891063333326
1501235022528|9|-56|0|55.985216728333334|37.29088725833334
1501235022637|9|-48|0|55.985217515|37.290883418333344
1501235022747|9|-46|0|55.98521827333334|37.290879595
1501235022856|9|-53|0|55.985219056666665|37.29087577
1501235022965|9|-54|0|55.98521981833334|37.29087201833333
1501235023075|9|-48|0|55.98522053333333|37.29086823
1501235023184|9|-48|0|55.98522199333333|37.29086070333334
1501235023293|8|-52|0|55.98522270666667|37.29085698833333
1501235023403|8|-53|0|55.98522345166666|37.290853205
1501235023512|8|-53|0|55.9852242|37.29084948
1501235023621|8|-57|0|55.98522490666666|37.29084579666667
1501235023731|8|-56|0|55.985225626666676|37.29084208333334
1501235023840|8|-53|0|55.985226348333335|37.290838345
1501235023950|8|-52|0|55.98522706666666|37.290834651666664
1501235024059|8|-32|0|55.98522769166666|37.29083095833334
1501235024168|8|-32|0|55.98522834666666|37.290827265000004
1501235024278|8|-34|0|55.98522904333333|37.29082356
1501235024387|8|-36|0|55.98522974833333|37.290819935
1501235024496|8|-43|0|55.98523116666667|37.290812455
1501235024606|8|-63|0|55.985231909999996|37.29080879
1501235024715|8|-64|0|55.98523256|37.29080509833333
1501235024825|8|-52|0|55.985233351666665|37.29080136333333
1501235024934|9|-39|0|55.98523406166668|37.29079762833334
1501235025043|9|-50|0|55.985234818333325|37.29079381666667
1501235025153|9|-51|0|55.98523555|37.29078998666666
1501235025262|9|-34|0|55.98523624333334|37.29078611333334
1501235025377|9|-34|0|55.98523700000001|37.29078219666667
1501235025486|9|-48|0|55.985237746666655|37.29077832499999
1501235025596|9|-51|0|55.985239275000005|37.29077047166666
1501235025697|9|-50|0|55.98524003166668|37.29076650666667
1501235025814|9|-48|0|55.98524081333333|37.29076248333334
1501235025923|9|-47|0|55.985241585|37.29075848833333
1501235026032|9|-39|0|55.98524231833333|37.290754453333335
1501235026142|9|-39|0|55.985243125000004|37.290750365
1501235026251|9|-48|0|55.98524389666667|37.290746255
1501235026360|9|-49|0|55.98524473833333|37.29074216833333
1501235026470|9|-52|0|55.98524549833334|37.290738061666666
1501235026579|9|-52|0|55.98524628|37.29073390833334
1501235026689|9|-38|0|55.985247765|37.29072552666667
1501235026798|9|-29|0|55.98524857500001|37.290721375
1501235026907|10|-27|0|55.98524937666666|37.29071717333334
1501235027017|10|-34|0|55.98525014|37.29071295833333
1501235027126|10|-37|0|55.985250920000006|37.29070875
1501235027236|10|-49|0|55.98525179166666|37.29070452333334
1501235027345|10|-49|0|55.98525260666667|37.29070031166667
1501235027454|10|-34|0|55.98525337833333|37.29069603666667
1501235027564|10|-35|0|55.9852543|37.29069174666667
1501235027673|10|-61|0|55.98525516666667|37.290687436666666
1501235027782|10|-27|0|55.985255949999996|37.29068316
1501235027892|10|-25|0|55.98525678166668|37.29067880666666
1501235028001|10|-56|0|55.985258519999995|37.29067016666667
1501235028110|10|-43|0|55.985259369999994|37.29066582499999
1501235028220|10|-41|0|55.985260196666665|37.290661455
1501235028329|10|-41|0|55.985261028333326|37.29065711
1501235028439|10|-42|0|55.98526188166667|37.29065283166666
1501235028548|10|-48|0|55.98526271166667|37.29064845666667
1501235028657|10|-58|0|55.98526359333333|37.29064412333332
1501235028767|10|-46|0|55.985264445000006|37.290639706666674
1501235028876|10|-44|0|55.985265295000005|37.29063535666667
1501235028985|10|-52|0|55.985267025000006|37.29062658666666
1501235029095|10|-52|0|55.985267901666674|37.290622166666665
1501235029204|10|-52|0|55.98526878833333|37.290617829999995
1501235029314|10|-57|0|55.98526965833333|37.29061342666667
1501235029423|10|-57|0|55.98527051166668|37.29060900333333
1501235029532|10|-45|0|55.98527136333333|37.29060453000001
1501235029642|10|-53|0|55.98527223999999|37.290600088333335
1501235029751|10|-33|0|55.98527306500001|37.290595618333334
1501235029860|10|-43|0|55.98527390166667|37.29059121833333
1501235029970|10|-44|0|55.98527476666666|37.29058674833333
1501235030079|10|-53|0|55.98527565333333|37.29058232666666
1501235030189|10|-45|0|55.98527734500001|37.29057339166666
1501235030298|10|-52|0|55.985278216666664|37.29056894166667
1501235030407|10|-22|0|55.98527902000001|37.290564446666664
1501235030517|10|-17|0|55.98527985166667|37.290560006666674
1501235030626|10|-31|0|55.985280666666654|37.29055549499999
1501235030735|10|-43|0|55.98528152166667|37.290550995000004
1501235030845|10|-39|0|55.98528237166667|37.29054647166667
1501235030954|10|-58|0|55.985283280000004|37.29054196166667
1501235031064|10|-59|0|55.98528420666666|37.290537395
1501235031173|10|-58|0|55.98528510333333|37.290532885
1501235031282|11|-55|0|55.98528602166667|37.29052826166667
1501235031392|11|-52|0|55.98528693666667|37.29052359
1501235031501|11|-38|0|55.985288714999996|37.29051406666666
1501235031610|11|-41|0|55.98528962000001|37.290509285
1501235031720|11|-30|0|55.98529052666667|37.290504346666665
1501235031829|11|-49|0|55.98529147666666|37.29049945166667
1501235031939|11|-52|0|55.985292443333336|37.29049452666667
1501235032048|11|-39|0|55.985293383333335|37.29048953
1501235032157|12|-55|0|55.985294403333334|37.29048449
1501235032267|12|-35|0|55.985295373333344|37.29047933333333
1501235032376|12|-33|0|55.98529634166667|37.29047413833334
1501235032485|12|-29|0|55.985297303333326|37.29046891166667
1501235032595|12|-45|0|55.985299311666665|37.29045843
1501235032704|12|-34|0|55.985300318333344|37.29045305333334
1501235032814|12|-54|0|55.98530140333333|37.290447658333335
1501235032923|13|-52|0|55.98530248000001|37.290442303333336
1501235033032|13|-48|0|55.98530357166666|37.29043676999999
1501235033142|13|-44|0|55.98530464000001|37.29043127166666
1501235033251|13|-52|0|55.985305759999996|37.290425684999995
1501235033360|13|-31|0|55.98530681166667|37.29042005333333
1501235033470|13|-51|0|55.98530795166667|37.290414373333334
1501235033579|13|-53|0|55.985309108333325|37.290408623333335
1501235033689|14|-53|0|55.98531138166667|37.29039702666667
1501235033814|14|-33|0|55.985312505|37.29039106666667
1501235033923|14|-39|0|55.985313641666664|37.290385144999995
1501235034064|14|-39|0|55.985314805|37.290379095
1501235034173|14|-38|0|55.98531717|37.29036687333333
1501235034314|14|-46|0|55.985318415|37.290360641666666
1501235034423|15|-41|0|55.98531962166666|37.29035441
1501235034532|15|-47|0|55.98532088333334|37.290348038333335
1501235034657|15|-39|0|55.98532211|37.290341643333335
1501235034782|15|-36|0|55.98532333|37.29033521
1501235034892|15|-44|0|55.98532589500001|37.290322081666666
1501235035001|15|-53|0|55.98532719500001|37.29031545
1501235035110|16|-40|0|55.98532849666667|37.29030873166666
1501235035220|16|-24|0|55.985329743333324|37.290301975000006
1501235035329|16|-34|0|55.985331036666665|37.29029514333333
1501235035439|16|-43|0|55.985332371666665|37.29028831833333
1501235035548|16|-47|0|55.985333766666656|37.29028130333334
1501235035657|16|-47|0|55.985335175|37.29027422666667
1501235035767|16|-51|0|55.985336613333324|37.29026711833333
1501235035876|17|-40|0|55.985337988333335|37.290260063333335
1501235035985|17|-49|0|55.98533945000001|37.290252824999996
1501235036095|17|-45|0|55.98534240000001|37.29023818
1501235036204|17|-47|0|55.985343879999995|37.29023077666667
1501235036314|17|-55|0|55.985345456666664|37.290223231666666
1501235036423|18|-55|0|55.98534702|37.290215696666664
1501235036532|18|-49|0|55.98534853999999|37.290208118333325
1501235036642|18|-56|0|55.98535013666666|37.29020050333333
1501235036751|18|-46|0|55.98535166500001|37.29019275666668
1501235036860|18|-45|0|55.985353195|37.29018498999999
1501235036970|18|-50|0|55.98535478499999|37.290177076666666
1501235037079|19|-50|0|55.98535638166666|37.290169168333335
1501235037189|19|-46|0|55.985359554999995|37.290153118333336
1501235037298|19|-44|0|55.985361170000004|37.290144903333335
1501235037407|19|-53|0|55.985362751666656|37.29013659999999
1501235037517|19|-37|0|55.98536434166667|37.29012832333334
1501235037626|20|-36|0|55.98536595166667|37.29011993166666
1501235037735|20|-34|0|55.98536757333333|37.29011142666666
1501235037845|20|-44|0|55.98536923666666|37.29010302166667
1501235037954|20|-48|0|55.98537094333333|37.290094528333334
1501235038064|20|-25|0|55.98537255666667|37.290085858333335
1501235038173|20|-36|0|55.985374213333344|37.290077255
1501235038282|20|-51|0|55.98537769|37.29005999666667
1501235038392|20|-44|0|55.98537769|37.29005999666667
1501235038501|20|-45|0|55.98538115|37.29004262666666
1501235038610|20|-53|0|55.98538291999999|37.290034066666664
1501235038735|20|-56|0|55.985384738333345|37.290025291666666
1501235038845|20|-56|0|55.98538654166667|37.290016628333326
1501235038954|20|-56|0|55.98538833999999|37.290007965
1501235039064|20|-55|0|55.985390125|37.289999269999996
1501235039173|20|-55|0|55.98539191500001|37.28999055333333
1501235039282|20|-55|0|55.985393699999996|37.28998187833333
1501235039392|20|-54|0|55.98539547166666|37.28997318
1501235039501|20|-47|0|55.985398970000006|37.289955690000006
1501235039605|20|-51|0|55.985400725000005|37.28994698666667
1501235039714|20|-36|0|55.985402395|37.289938213333336
1501235039823|20|-48|0|55.985404136666666|37.289929423333334
1501235039933|20|-51|0|55.985405888333325|37.28992066333334
1501235040042|20|-35|0|55.985407555|37.28991186166666
1501235040151|20|-46|0|55.985409260000004|37.289903165
1501235040261|20|-36|0|55.98541092166666|37.28989438833333
1501235040370|20|-38|0|55.985412589999996|37.289885635000005
1501235040480|20|-41|0|55.985414276666674|37.28987686833334
1501235040589|20|-37|0|55.98541765833333|37.28985930666666
1501235040698|20|-37|0|55.98541931|37.28985058666667
1501235040808|20|-43|0|55.985420995|37.28984187500001
1501235040917|20|-49|0|55.985422716666676|37.28983318833333
1501235041026|20|-38|0|55.985424361666674|37.28982455500001
1501235041136|20|-45|0|55.985426068333325|37.28981579166667
1501235041245|20|-42|0|55.985427763333334|37.28980699
1501235041355|20|-50|0|55.98542951166667|37.28979818833333
1501235041464|20|-39|0|55.98543119|37.289789415
1501235041573|21|-54|0|55.98543298833333|37.289780640000004
1501235041683|21|-20|0|55.98543459833332|37.289771816666665
1501235041792|21|-37|0|55.985438075000005|37.289754255000005
1501235041901|21|-57|0|55.985439935|37.28974541666667
1501235042011|21|-51|0|55.985441720000004|37.289736475000005
1501235042120|21|-49|0|55.98544351166667|37.289727428333336
1501235042230|21|-43|0|55.98544527833333|37.28971831
1501235042339|22|-53|0|55.98544712333334|37.28970921166666
1501235042448|22|-62|0|55.985449065000005|37.28970012833334
1501235042558|22|-66|0|55.98545099833333|37.28969100333333
1501235042667|22|-34|0|55.98545280166666|37.28968176666666
1501235042776|22|-43|0|55.98545465333333|37.289672143333334
1501235042886|23|-36|0|55.98545849833334|37.28965236833334
1501235042995|23|-52|0|55.98546053166667|37.28964229166667
1501235043105|24|-35|0|55.98546246666667|37.289632125000004
1501235043214|25|-24|0|55.985464375|37.289621753333336
1501235043323|25|-33|0|55.98546644833333|37.28961109666666
1501235043433|25|-45|0|55.985468623333325|37.28960008333333
1501235043542|26|-47|0|55.98547086333333|37.28958881
1501235043652|27|-48|0|55.98547312333333|37.289577523333335
1501235043761|27|-52|0|55.98547543333334|37.28956625666666
1501235043870|28|-54|0|55.98547783000001|37.28955472166667
1501235043980|29|-56|0|55.98548271833334|37.28953069666667
1501235044089|29|-44|0|55.98548271833334|37.28953069666667
1501235044198|29|-54|0|55.98548776333333|37.289505993333336
1501235044308|30|-57|0|55.98549041166665|37.28949344333334
1501235044417|31|-44|0|55.98549297166665|37.289480565000005
1501235044527|31|-46|0|55.985495603333334|37.28946740666667
1501235044636|31|-39|0|55.98549821666667|37.28945394333333
1501235044745|32|-48|0|55.985500956666655|37.289440495
1501235044855|33|-44|0|55.98550365333333|37.28942692333333
1501235044964|33|-26|0|55.98550623833333|37.28941311666666
1501235045073|33|-35|0|55.985508980000006|37.289399168333325
1501235045183|34|-32|0|55.98551453666667|37.28937039833334
1501235045292|35|-37|0|55.985517359999996|37.289355844999996
1501235045401|35|-39|0|55.98552024333333|37.28934113166667
1501235045511|35|-46|0|55.985523246666666|37.28932627166667
1501235045620|36|-46|0|55.985526265|37.289311239999996
1501235045730|36|-52|0|55.985529406666664|37.28929625333333
1501235045839|37|-55|0|55.98553259333334|37.289281216666666
1501235045948|37|-48|0|55.98553571666667|37.2892658
1501235046058|37|-52|0|55.98553898833334|37.289250105
1501235046167|37|-56|0|55.985542351666666|37.289234301666674
1501235046276|38|-52|0|55.98554562333334|37.28921842333334
1501235046386|38|-53|0|55.98555227|37.28918615833334
1501235046511|39|-55|0|55.985555698333336|37.28916985
1501235046620|39|-51|0|55.985559091666666|37.28915329666667
1501235046730|40|-48|0|55.98556246333332|37.28913660666666
1501235046839|40|-51|0|55.98556592166666|37.28911980833333
1501235046948|40|-48|0|55.98556935833334|37.289102744999994
1501235047058|41|-43|0|55.98557276833334|37.289085480000004
1501235047167|41|-42|0|55.98557621166666|37.28906802833333
1501235047276|42|-39|0|55.98557963333333|37.289050503333335
1501235047386|42|-34|0|55.985582995|37.28903293666667
1501235047495|43|-40|0|55.985589998333346|37.288997290000005
1501235047605|43|-37|0|55.98559351166667|37.288979185
1501235047714|43|-36|0|55.98559703333334|37.288960973333324
1501235047823|43|-35|0|55.98560055833333|37.28894261833333
1501235047933|44|-38|0|55.98560414166666|37.28892415833333
1501235048042|44|-38|0|55.98560774999999|37.28890556999999
1501235048151|44|-40|0|55.98561138499999|37.288886999999995
1501235048261|44|-42|0|55.98561507666666|37.28886831
1501235048401|44|-45|0|55.985618835000004|37.28884954166666
1501235048511|44|-47|0|55.98562632333332|37.28881204666666
1501235048620|44|-47|0|55.98563007999999|37.28879337833333
1501235048730|44|-48|0|55.98563384166667|37.28877476666666
1501235048839|44|-51|0|55.98563766833332|37.28875612666667
1501235048948|44|-49|0|55.98564143166667|37.288737446666666
1501235049058|44|-56|0|55.98564536333333|37.28871885166667
1501235049167|44|-58|0|55.98564921833334|37.28870042166666
1501235049276|44|-57|0|55.98565303666666|37.288682005
1501235049386|44|-57|0|55.985656858333336|37.28866361666667
1501235049495|44|-56|0|55.985664451666665|37.288626613333335
1501235049605|44|-59|0|55.98566826666667|37.28860839166667
1501235049714|43|-54|0|55.98567198|37.28859017166667
1501235049823|43|-52|0|55.98567567|37.288571915000006
1501235049933|43|-50|0|55.985679315|37.28855369166667
1501235050042|43|-44|0|55.98568286833333|37.28853557666666
1501235050151|42|-41|0|55.985686339999994|37.28851758333334
1501235050261|42|-27|0|55.985689661666655|37.288499634999994
1501235050370|42|-33|0|55.985693014999995|37.288481723333334
1501235050480|41|-24|0|55.98569624666668|37.28846393
1501235050589|41|-16|0|55.98570264500001|37.28842893
1501235050698|41|-16|0|55.98570583666666|37.288411585000006
1501235050808|40|-27|0|55.98570906666667|37.28839447833333
1501235050917|40|-41|0|55.98571235833333|37.288377618333335
1501235051026|39|-52|0|55.98571569833332|37.28836097333334
1501235051136|39|-61|0|55.98571913833332|37.28834459666667
1501235051245|38|-75|0|55.985722661666664|37.288328633333336
1501235051355|37|-63|0|55.985726099999994|37.28831302666667
1501235051464|37|-78|0|55.98572945333334|37.28829762833334
1501235051573|35|-64|0|55.985732693333325|37.288282535
1501235051683|34|-58|0|55.98573575333333|37.288267743333336
1501235051792|33|-60|0|55.98574154999999|37.28823897499999
1501235051917|33|-65|0|55.98574428166666|37.288225028333336
1501235052027|32|-45|0|55.98574689833333|37.288211263333324
1501235052136|31|-36|0|55.98574938499999|37.28819772166667
1501235052245|30|-43|0|55.985751846666666|37.288184438333325
1501235052355|30|-26|0|55.98575418000001|37.28817134166667
1501235052464|30|-22|0|55.985756396666666|37.288158448333334
1501235052573|29|-15|0|55.98575861666666|37.288145793333335
1501235052683|29|-19|0|55.98576080833334|37.288133431666665
1501235052792|28|-34|0|55.985765171666664|37.288109715000004
1501235052901|27|-57|0|55.98576737499999|37.28809820833333
1501235053011|26|-74|0|55.98576964000001|37.288087055
1501235053120|26|-70|0|55.98577189166667|37.288076065000006
1501235053230|25|-74|0|55.98577418333333|37.28806531166667
1501235053339|25|-75|0|55.98577639333333|37.28805471333333
1501235053448|24|-73|0|55.98577846833333|37.28804435166666
1501235053558|24|-60|0|55.985780415|37.28803403833333
1501235053667|23|-37|0|55.985782245|37.28802385166667
1501235053776|22|-41|0|55.98578401666666|37.28801387333333
1501235053886|22|-44|0|55.98578743333334|37.28799453
1501235053995|22|-26|0|55.985789043333334|37.28798515333334
1501235054105|21|-33|0|55.98579059666667|37.287976066666666
1501235054214|20|-46|0|55.98579218166666|37.287967138333336
1501235054323|20|-33|0|55.985793681666664|37.28795843500001
1501235054433|20|-51|0|55.985795213333326|37.287949938333334
1501235054542|19|-61|0|55.985796745|37.287941659999994
1501235054651|19|-50|0|55.985798241666664|37.28793341833333
1501235054761|19|-59|0|55.98579973|37.28792532333334
1501235054870|19|-66|0|55.985801241666664|37.28791729833333
1501235054980|18|-61|0|55.98580271000001|37.28790938666667
1501235055089|18|-60|0|55.985805596666665|37.287893839999995
1501235055198|18|-48|0|55.985806971666676|37.287886146666665
1501235055308|17|-66|0|55.985808346666666|37.287878678333335
1501235055417|17|-46|0|55.985809655000004|37.287871281666675
1501235055527|17|-47|0|55.985810925|37.287864006666666
1501235055636|16|-34|0|55.985812104999994|37.28785687333334
1501235055745|16|-54|0|55.985813320000005|37.28784996
1501235055855|15|-37|0|55.985814448333336|37.28784323833334
1501235055969|15|-40|0|55.98581553833333|37.287836705
1501235056079|14|-57|0|55.98581765000001|37.287824185000005
1501235056204|14|-53|0|55.98581867666667|37.28781818499999
1501235056313|13|-57|0|55.98581968333333|37.28781228
1501235056423|13|-56|0|55.98582067666667|37.28780643666666
1501235056532|13|-63|0|55.98582165833333|37.287800788333335
1501235056647|13|-46|0|55.985822588333335|37.28779508333334
1501235056756|13|-77|0|55.985823595|37.28778950833333
1501235056866|13|-56|0|55.98582454499999|37.28778391333334
1501235056975|13|-55|0|55.985825505|37.287778271666674
1501235057084|12|-62|0|55.985827369999996|37.28776722333333
1501235057194|12|-50|0|55.985828264999995|37.287761708333335
1501235057303|12|-49|0|55.98582914166666|37.28775631166667
1501235057413|12|-51|0|55.98583004|37.287750856666676
1501235057522|12|-42|0|55.98583088333333|37.287745471666675
1501235057631|12|-44|0|55.985831733333335|37.28774014166667
1501235057741|12|-46|0|55.985832591666664|37.28773483166667
1501235057850|12|-36|0|55.98583338833334|37.287729549999995
1501235057960|12|-42|0|55.98583423333333|37.287724241666666
1501235058069|12|-53|0|55.98583510833334|37.28771900499999
1501235058178|12|-45|0|55.98583595499999|37.28771378
1501235058288|12|-37|0|55.985836763333324|37.287708546666664
1501235058397|12|-32|0|55.98583837166666|37.287698123333335
1501235058506|12|-34|0|55.98583917333334|37.28769293333333
1501235058616|12|-40|0|55.98583999666667|37.28768779833333
1501235058725|12|-45|0|55.985840843333335|37.287682636666666
1501235058835|12|-46|0|55.985841693333334|37.28767748666667
1501235058944|11|-45|0|55.98584251333333|37.28767234666667
1501235059053|11|-52|0|55.985843343333336|37.28766731499999
1501235059163|11|-48|0|55.98584416333333|37.287662256666664
1501235059272|11|-53|0|55.98584500666666|37.28765718833333
1501235059381|11|-56|0|55.98584583833334|37.28765224000001
1501235059506|11|-63|0|55.98584751499999|37.287642330000004
1501235059616|11|-49|0|55.98584832|37.287637415000006
1501235059725|11|-52|0|55.98584913|37.28763255833333
1501235059835|11|-38|0|55.98584988666667|37.28762764166667
1501235059944|11|-47|0|55.985850680000006|37.28762279
1501235060053|11|-43|0|55.98585145666666|37.28761796
1501235060163|11|-43|0|55.98585222499999|37.28761318666666
1501235060272|11|-45|0|55.985853008333336|37.287608391666666
1501235060381|11|-34|0|55.985853735000006|37.28760361333333
1501235060491|11|-35|0|55.9858552|37.28759420833333
1501235060600|10|-37|0|55.9858552|37.28759420833333
1501235060709|10|-39|0|55.98585664833332|37.28758485333333
1501235060819|10|-49|0|55.98585739166667|37.287580215
1501235060928|10|-58|0|55.98585816166666|37.287575604999994
1501235061038|10|-51|0|55.98585889999999|37.28757104666667
1501235061147|10|-45|0|55.985859614999995|37.287566506666664
1501235061256|10|-63|0|55.98586039666667|37.28756191666666
1501235061366|10|-56|0|55.985861143333345|37.28755744
1501235061475|10|-54|0|55.98586188999999|37.28755293
1501235061584|10|-54|0|55.985863341666665|37.287544015
1501235061694|10|-52|0|55.98586403666667|37.28753955999999
1501235061819|10|-43|0|55.98586473666666|37.28753516
1501235061928|10|-42|0|55.985865446666665|37.28753077499999
1501235062038|10|-49|0|55.985866168333324|37.28752638666667
1501235062147|10|-48|0|55.98586685833334|37.287522026666664
1501235062256|10|-41|0|55.985867539999994|37.28751765333334
1501235062366|10|-40|0|55.98586822833333|37.28751333166666
1501235062475|10|-39|0|55.985868885|37.287509060000005
1501235062584|10|-39|0|55.98586959666667|37.28750475333334
1501235062694|10|-38|0|55.98587092666667|37.287496221666665
1501235062803|10|-45|0|55.98587159833334|37.287492055
1501235062913|9|-54|0|55.98587226333334|37.28748788
1501235063022|9|-47|0|55.98587291833334|37.287483720000004
1501235063131|9|-46|0|55.985873595|37.28747955666667
1501235063241|9|-46|0|55.985874224999996|37.28747547333333
1501235063350|9|-46|0|55.985874886666664|37.2874714
1501235063460|9|-43|0|55.985875484999994|37.287467400000004
1501235063569|9|-43|0|55.98587617166666|37.28746335833334
1501235063678|9|-50|0|55.9858768|37.287459326666664
1501235063782|9|-50|0|55.985877439999996|37.28745533
1501235063891|9|-47|0|55.98587808|37.28745137666667
1501235064000|9|-42|0|55.98587930833334|37.28744358166667
1501235064110|9|-41|0|55.98587992166667|37.28743971666666
1501235064211|8|-61|0|55.985880568333336|37.287435933333335
1501235064320|8|-60|0|55.985881165|37.28743213166667
1501235064430|8|-49|0|55.985881739999996|37.28742836833333
1501235064539|8|-47|0|55.98588232666666|37.287424663333326
1501235064664|8|-46|0|55.98588288|37.287420965
1501235064769|8|-46|0|55.98588340833333|37.287417340000005
1501235064880|8|-16|0|55.985883785000006|37.287413635
1501235064989|8|44|0|55.98588442666667|37.287406465
1501235065114|8|49|0|55.98588465666667|37.28740289833333
1501235065224|8|90|0|55.985884815|37.287399333333326
1501235065333|8|92|0|55.98588492499999|37.287395905000004
1501235065442|8|146|0|55.98588497166668|37.28739240666667
1501235065552|7|136|0|55.98588488333333|37.287389020000006
1501235065661|7|221|0|55.985884755|37.28738567166666
1501235065771|7|225|0|55.98588448833334|37.28738244000001
1501235065880|7|310|0|55.98588419333334|37.28737929166667
1501235065989|7|381|0|55.985883353333335|37.287373128333336
1501235066099|7|386|0|55.98588283833333|37.287370108333334
1501235066208|7|448|0|55.98588227166667|37.28736721500001
1501235066317|7|454|0|55.98588163666667|37.287364435
1501235066427|7|462|0|55.985880978333334|37.28736169
1501235066536|7|462|0|55.98588022833333|37.28735909
1501235066677|7|462|0|55.985879483333335|37.28735651666667
1501235066802|7|462|0|55.98587777166667|37.287351615
1501235066911|7|462|0|55.98587681666666|37.28734928833334
1501235067021|7|462|0|55.98587589833334|37.287347038333344
1501235067130|6|462|0|55.985874921666664|37.287344874999995
1501235067239|6|462|0|55.985873898333324|37.287342805
1501235067349|6|462|0|55.98587284166667|37.28734078833333
1501235067458|6|462|0|55.98587174166667|37.28733886833334
1501235067567|6|462|0|55.98587053333334|37.287337048333335
1501235067677|6|462|0|55.985868100000005|37.287333528333335
1501235067786|6|462|0|55.98586678666667|37.28733184833333
1501235067896|7|462|0|55.985865540000006|37.28733019999999
1501235068005|7|462|0|55.98586417833334|37.28732860666666
1501235068114|7|462|0|55.98586276999999|37.28732711166666
1501235068224|7|462|0|55.98586128833334|37.28732582
1501235068333|7|462|0|55.985859745000006|37.28732458333332
1501235068442|7|462|0|55.9858582|37.28732334666666
