1498641063132|0|0|0|0.0|0.0
1498641063241|0|0|0|0.0|0.0
1498641063631|0|0|0|0.0|0.0
1498641065659|0|0|0|0.0|0.0
1498641067671|0|0|0|0.0|0.0
1498641069699|0|0|0|0.0|0.0
1498641071712|0|0|0|0.0|0.0
1498641073724|0|0|0|0.0|0.0
1498641075752|0|0|0|0.0|0.0
1498641077765|0|0|0|0.0|0.0
1498641079793|0|0|0|0.0|0.0
1498641081805|0|0|0|0.0|0.0
