1500885838905|0|462|0|55.80399434166667|37.529031565
1500885839114|0|462|0|55.80399426833333|37.529032169999994
1500885839329|0|462|0|55.80399418166666|37.52903112999999
1500885839500|0|462|0|55.80399420833334|37.52903085666667
1500885839630|0|462|0|55.80399413499999|37.52903028666666
1500885839778|0|462|0|55.803994194999994|37.52903093166666
1500885839937|0|462|0|55.80399414166667|37.529030608333336
1500885840229|0|462|0|55.803994378333336|37.52903678333333
1500885840422|0|462|0|55.80399447166666|37.52903698833333
1500885840601|0|462|0|55.803994391666656|37.529036821666665
1500885841169|0|462|0|55.80399445|37.529036643333335
1500885841736|0|462|0|55.80399407833333|37.52903105166667
1500885841893|0|462|0|55.803994023333345|37.529030586666664
1500885842110|0|462|0|55.80399396666666|37.52903035
1500885842304|0|462|0|55.80399399666666|37.52903020166667
1500885842522|0|462|0|55.80399397833334|37.52902938666667
1500885842722|0|462|0|55.80399404833333|37.529031015
1500885843047|0|462|0|55.80399400666666|37.529030873333326
1500885843193|0|462|0|55.80399398833334|37.52903090666666
1500885843395|0|462|0|55.80399397833334|37.52903113833333
1500885844514|0|462|0|55.80399405333333|37.529031028333335
1500885844649|0|462|0|55.80399394666666|37.52903078833333
1500885844838|0|462|0|55.80399385000001|37.52903022
1500885845014|0|462|0|55.803993808333345|37.529029348333324
1500885845154|0|462|0|55.803993825|37.52902906333333
1500885845306|0|462|0|55.803996306666676|37.52903243666666
1500885845465|0|462|0|55.803995675|37.52903164333333
1500885845617|0|462|0|55.80399762833334|37.529034625
1500885846068|0|462|0|55.80399703833333|37.529033753333344
1500885846254|0|462|0|55.80399754333333|37.52903374833333
1500885846447|0|462|0|55.803997443333344|37.52903293166666
1500885846646|0|462|0|55.803995815000015|37.529030575
1500885846780|0|462|0|55.80399890333334|37.529034208333336
1500885846963|0|462|0|55.80399890499999|37.529034100000004
1500885847077|0|462|0|55.80399794500001|37.52903310333333
1500885847247|0|462|0|55.80399842166667|37.529033270000006
1500885847412|0|462|0|55.80399824333334|37.52903207166666
1500885847566|0|462|0|55.80391173666667|37.528925826666665
1500885847749|0|462|0|55.80391179833333|37.528926025000004
1500885847964|0|462|0|55.803911985000006|37.528925951666665
1500885848130|0|462|0|55.80391204666667|37.52892595333334
1500885848284|0|462|0|55.80391202833333|37.52892600166667
1500885848449|0|462|0|55.80391202000001|37.52892610999999
1500885848621|0|462|0|55.80391215666667|37.52892605666667
1500885848845|0|462|0|55.80391229166666|37.52892632833333
1500885849293|0|462|0|55.803912336666656|37.52892637333334
1500885849461|0|462|0|55.80391234833334|37.528926425
1500885849604|0|462|0|55.803912353333324|37.52892636833333
1500885849769|0|462|0|55.80391245833333|37.52892644666667
1500885850138|0|462|0|55.80391244333333|37.52892644166666
1500885850504|0|462|0|55.803912485|37.52892648833333
1500885850706|0|462|0|55.803912451666676|37.528926641666665
1500885850900|0|462|0|55.80391256333334|37.528926695
1500885851348|0|462|0|55.80391255833334|37.528926751666674
1500885851630|0|462|0|55.803912585000006|37.52892679333334
1500885851789|0|462|0|55.803912765|37.528927016666664
1500885852067|0|462|0|55.80391284333333|37.52892695666667
1500885852297|0|462|0|55.803913089999995|37.528927153333335
1500885852688|0|462|0|55.80391311499999|37.52892699166667
1500885853033|0|462|0|55.803913124999994|37.52892710166667
1500885853178|0|462|0|55.803913183333336|37.528927268333334
1500885853332|0|462|0|55.803913255000005|37.52892724833333
1500885853495|0|462|0|55.80391325333333|37.528927296666666
1500885853676|0|462|0|55.803913376666664|37.528927464999995
1500885853870|0|462|0|55.80391337166668|37.52892755166667
1500885854039|0|462|0|55.80391343|37.528927530000004
1500885854195|0|462|0|55.803913453333344|37.52892754166667
1500885854595|0|462|0|55.80391347166666|37.52892756833334
1500885854794|0|462|0|55.80391365166667|37.528927751666664
1500885854985|0|462|0|55.80391371499999|37.52892797333333
1500885855568|0|462|0|55.80391368333333|37.52892790166666
1500885855955|0|462|0|55.80391367333333|37.52892798333333
1500885856183|0|462|0|55.80391369000001|37.52892793833333
1500885856344|0|462|0|55.80391368333333|37.528927966666664
1500885856546|0|462|0|55.80391371000001|37.52892792833333
1500885856695|0|462|0|55.80391373333333|37.528927968333335
1500885856830|0|462|0|55.80391375666667|37.528927985
1500885857019|0|462|0|55.80391378166668|37.52892805666667
1500885857181|0|462|0|55.80391381333334|37.52892799833334
1500885857337|0|462|0|55.803913821666654|37.52892812666666
1500885857571|0|462|0|55.80391396666668|37.52892817666667
1500885857821|0|462|0|55.80391397333333|37.528928109999995
1500885858059|0|462|0|55.80391405|37.52892847833333
1500885858214|0|462|0|55.80391410833332|37.528928375
1500885858363|0|462|0|55.803914128333325|37.52892848333334
1500885858525|0|462|0|55.80391414833333|37.528928603333334
1500885858686|0|462|0|55.80391416833333|37.528928535
1500885858835|0|462|0|55.80391419833333|37.528928623333336
1500885859081|0|462|0|55.803914313333344|37.52892878666667
1500885859280|0|462|0|55.80391433500001|37.52892874
1500885859449|0|462|0|55.80391433166666|37.52892871166667
1500885859600|0|462|0|55.80391433166666|37.52892871166667
1500885859746|0|462|0|55.80391432500001|37.52892873166666
1500885860158|0|462|0|55.8039144|37.52892886833334
1500885860298|0|462|0|55.803914418333335|37.52892892833333
1500885860487|0|462|0|55.803914515|37.52892915166666
1500885860717|0|462|0|55.803914528333344|37.528929245
1500885860878|0|462|0|55.803914555000006|37.528929240000004
1500885861045|0|462|0|55.80391462166668|37.52892930666667
1500885861227|0|462|0|55.80391461999999|37.528929426666664
1500885861500|0|462|0|55.80391460999999|37.528929405
1500885861648|0|462|0|55.80391465833333|37.52892958833334
1500885861810|0|462|0|55.803914688333336|37.528929706666666
1500885861936|0|462|0|55.803914786666674|37.528929839999996
1500885862295|0|462|0|55.80391476833333|37.52892999333333
1500885862449|0|462|0|55.80391487|37.52893020333334
1500885862632|0|462|0|55.803914885|37.528930191666674
1500885862795|0|462|0|55.803914915|37.52893017166667
1500885862965|0|462|0|55.80391494166667|37.52893021333334
1500885863115|0|462|0|55.80391496000001|37.528930273333344
1500885863282|0|462|0|55.80391502833333|37.52893035999999
1500885863658|0|462|0|55.803915006666664|37.52893023000001
1500885863899|0|462|0|55.80391499166667|37.528930415000005
1500885864222|0|462|0|55.80391502333333|37.528930654999996
1500885864452|0|462|0|55.803915034999996|37.52893072
1500885864641|0|462|0|55.80391507666666|37.528930869999996
1500885864792|0|462|0|55.80391512|37.528930968333334
1500885864996|0|462|0|55.80391517|37.528931091666664
1500885865181|0|462|0|55.803915193333324|37.52893123333334
1500885865360|0|462|0|55.803915216666674|37.52893121333334
1500885865722|0|462|0|55.803915294999996|37.52893148333334
1500885865900|0|462|0|55.80391529833334|37.52893155666666
1500885866093|0|462|0|55.80391531833334|37.528931658333335
1500885866330|0|462|0|55.80391528166667|37.52893164999999
1500885866832|0|462|0|55.803915370000006|37.528931678333336
1500885867080|0|462|0|55.80391541666666|37.52893165333334
1500885867266|0|462|0|55.803915456666665|37.52893171666666
1500885867481|0|462|0|55.80391549833333|37.528932075
1500885867706|0|462|0|55.80391550166668|37.52893215333333
1500885867897|0|462|0|55.80391554333334|37.528932250000004
1500885868223|0|462|0|55.803915623333324|37.52893231166667
1500885868802|0|462|0|55.80391573333333|37.528932758333326
1500885868963|0|462|0|55.80391584666666|37.52893287166667
1500885869206|0|462|0|55.80391585000001|37.52893291833333
1500885869372|0|462|0|55.80391587000001|37.52893316666667
1500885869551|0|462|0|55.80391590666667|37.52893318666667
1500885869787|0|462|0|55.803915965|37.52893329166667
1500885870323|0|462|0|55.80391603500001|37.528933341666665
1500885870489|0|462|0|55.803916111666666|37.528933388333336
1500885870642|0|462|0|55.803916193333336|37.52893349
1500885870851|0|462|0|55.803916324999996|37.52893375
1500885871061|0|462|0|55.80391648166666|37.528933914999996
1500885871275|0|462|0|55.803916506666674|37.52893386666666
1500885871459|0|462|0|55.80391652833333|37.52893400499999
1500885871626|0|462|0|55.80391661833334|37.52893427166667
1500885871797|0|462|0|55.80391666166667|37.52893427833334
1500885872133|0|462|0|55.80391672333333|37.52893435
1500885872254|0|462|0|55.80391678166668|37.52893444833334
1500885872445|0|462|0|55.80391684833334|37.52893432833334
1500885872609|0|462|0|55.80391688|37.52893446666667
1500885872852|0|462|0|55.80391690666667|37.52893476333333
1500885873058|0|462|0|55.803916936666674|37.52893476166666
1500885873244|0|462|0|55.80391695333333|37.52893481666667
1500885873420|0|462|0|55.803917036666654|37.528934709999994
1500885873643|0|462|0|55.80391714000001|37.528934920000005
1500885873828|0|462|0|55.803917295000005|37.528935006666664
1500885874084|0|462|0|55.803917285000004|37.52893513833334
1500885874570|0|462|0|55.80391748|37.528935374999996
1500885874802|0|462|0|55.803917586666664|37.52893547833333
1500885875039|0|462|0|55.80391760833333|37.52893558333333
1500885875204|0|462|0|55.803917668333334|37.52893563
1500885875535|0|462|0|55.80391775500001|37.528935589999996
1500885875745|0|462|0|55.80391778500001|37.52893562166666
1500885876282|0|462|0|55.803917844999994|37.52893578833333
1500885876434|0|462|0|55.80391786166667|37.528935770000004
1500885876716|0|462|0|55.80391796833332|37.52893581166666
1500885876888|0|462|0|55.80391801333333|37.528935675
1500885877087|0|462|0|55.80391804333333|37.52893579666666
1500885877286|0|462|0|55.80391817166666|37.52893567
1500885877469|0|462|0|55.80391825333333|37.52893576833333
1500885877682|0|462|0|55.803918241666665|37.52893588
1500885877854|0|462|0|55.80391840166667|37.52893588166667
1500885878180|0|462|0|55.80391839666666|37.52893589333333
1500885878365|0|462|0|55.803918489999994|37.528935901666664
1500885878534|0|462|0|55.803918608333326|37.52893586166667
1500885879028|0|462|0|55.80391862666667|37.52893603333333
1500885879250|0|462|0|55.80391865166666|37.52893596333334
1500885879578|0|462|0|55.80391875|37.528935901666664
1500885880017|0|462|0|55.803918776666656|37.528935901666664
1500885880236|0|462|0|55.80391880833334|37.52893604333333
1500885880427|0|462|0|55.803918904999996|37.52893604333333
1500885880621|0|462|0|55.803918968333335|37.52893611333333
1500885880830|0|462|0|55.80391903|37.52893618
1500885881083|0|462|0|55.80391909500001|37.52893624333334
1500885881362|0|462|0|55.80391913666668|37.52893619333334
1500885881612|0|462|0|55.80391920833334|37.52893629166667
1500885881804|0|462|0|55.80391919|37.528936419999994
1500885882331|0|462|0|55.80391921166667|37.52893644833334
1500885882448|0|462|0|55.80391926166667|37.528936419999994
1500885882636|0|462|0|55.803919306666664|37.52893647833334
1500885882850|0|462|0|55.80391939|37.528936343333335
1500885883137|0|462|0|55.80391942666667|37.52893629833333
1500885883350|0|462|0|55.803919470000004|37.52893625000001
1500885883559|0|462|0|55.803919531666665|37.52893622666666
1500885883796|0|462|0|55.803920659999996|37.528936955
1500885884024|0|462|0|55.803920725000005|37.52893690333333
1500885884206|0|462|0|55.803920748333326|37.52893702499999
1500885886788|0|462|0|55.80392079500001|37.528936990000005
1500885888136|0|462|0|55.80392084166667|37.52893688333333
1500885888350|0|462|0|55.803920916666655|37.528936795
1500885888557|0|462|0|55.80392100666666|37.528936775000005
1500885888731|0|462|0|55.803920975000004|37.52893681333334
1500885888926|0|462|0|55.803921046666666|37.52893688833334
1500885889120|0|462|0|55.80392108833333|37.528936976666664
1500885889328|0|462|0|55.80392115833334|37.52893689500001
1500885889500|0|462|0|55.803921095|37.52893683166667
1500885889714|0|462|0|55.80392118666667|37.528936634999994
1500885889914|0|462|0|55.803921210000006|37.528936716666664
1500885890241|0|462|0|55.803921210000006|37.52893652
1500885890541|0|462|0|55.803921210000006|37.528936548333334
1500885890909|0|462|0|55.80392126666668|37.528936705
1500885891160|0|462|0|55.80392126666668|37.528936681666664
1500885891531|0|462|0|55.8039213|37.52893662666667
1500885891744|0|462|0|55.80392129666668|37.52893654333333
1500885891969|0|462|0|55.803921298333336|37.528936315
1500885892183|0|462|0|55.80392131666668|37.528936220000006
1500885892386|0|462|0|55.80392136166667|37.528936136666665
1500885892791|0|462|0|55.80392139833332|37.52893609
1500885893118|0|462|0|55.803921393333326|37.52893603833334
1500885893291|0|462|0|55.803921466666665|37.528936046666665
1500885893479|0|462|0|55.803921545|37.52893617
1500885893684|0|462|0|55.80392155333334|37.528936118333334
1500885893874|0|462|0|55.803921565|37.52893616166667
1500885894167|0|462|0|55.80392158|37.52893615499999
1500885894401|0|462|0|55.80392157333334|37.52893612166667
1500885894641|0|462|0|55.80392157333334|37.52893615833334
1500885894802|0|462|0|55.80392165833333|37.52893623833333
1500885895003|0|462|0|55.80392164500001|37.52893617499999
1500885895187|0|462|0|55.803921656666674|37.52893623666666
1500885895382|0|462|0|55.803921653333326|37.52893622333334
1500885895583|0|462|0|55.803921640000006|37.52893616666667
1500885895761|0|462|0|55.80392157833334|37.52893608333333
1500885895950|0|462|0|55.803921595000006|37.528936125
1500885896155|0|462|0|55.80392160333334|37.52893625833333
1500885896429|0|462|0|55.80392162333332|37.52893619499999
1500885896583|0|462|0|55.803921633333324|37.528936251666664
1500885896767|0|462|0|55.80392054166667|37.52893505666667
1500885896956|0|462|0|55.80392055000001|37.52893504833333
1500885897176|0|462|0|55.803920614999996|37.52893507833333
1500885897390|0|462|0|55.80392066166668|37.52893531499999
1500885897607|0|462|0|55.8039207|37.52893533166667
