1496321670050|0|462|0|55.985108848333326|37.29132591
1496321670156|0|462|0|55.98510883333333|37.29132594833333
1496321670258|0|462|0|55.98510880166666|37.29132590333333
1496321670359|0|462|0|55.98510886166667|37.2913259
1496321670460|0|462|0|55.98510885833333|37.291325916666665
1496321670561|0|462|0|55.98510887166667|37.291325935
1496321670662|0|462|0|55.98510887833333|37.29132593
1496321670763|0|462|0|55.98510885666666|37.29132591
1496321670864|0|462|0|55.985108835|37.29132590166667
1496321670966|0|462|0|55.985108851666666|37.291325926666666
1496321671068|0|462|0|55.98510884666666|37.291325928333336
1496321671169|0|462|0|55.985108841666666|37.29132592333333
1496321671270|0|462|0|55.985108838333325|37.291325935
1496321671371|0|462|0|55.98510883666666|37.291325945000004
1496321671472|0|462|0|55.98510882333334|37.29132594833333
1496321671573|0|462|0|55.98510882666666|37.291325943333334
1496321671674|0|462|0|55.98510883666666|37.29132596833333
1496321671775|0|462|0|55.98510883333333|37.29132595
1496321671876|0|462|0|55.985108835|37.291325943333334
1496321671977|0|462|0|55.985108876666665|37.29132594166666
1496321672077|0|462|0|55.98510885833333|37.29132593
1496321672179|0|462|0|55.98510887333333|37.29132593833333
1496321672280|0|462|0|55.98510887166667|37.29132593833333
1496321672381|0|462|0|55.98510887166667|37.29132593833333
1496321672482|0|462|0|55.98510887000001|37.291325943333334
1496321672584|0|462|0|55.98510886833333|37.291325951666664
1496321672685|0|462|0|55.98510886833333|37.291325951666664
1496321672786|0|462|0|55.98510887000001|37.29132593
1496321672887|0|462|0|55.985108855|37.29132590166667
1496321673013|0|462|0|55.98510885833333|37.291325895
1496321673114|0|462|0|55.98510885833333|37.29132590166667
1496321673215|0|462|0|55.98510885666666|37.29132586833333
1496321673317|0|462|0|55.98510887166667|37.29132585833333
1496321673418|0|462|0|55.98510885666666|37.29132584666667
1496321673519|0|462|0|55.98510884666666|37.291325840000006
1496321673620|0|462|0|55.98510885333333|37.291325840000006
1496321673721|0|462|0|55.985108838333325|37.29132583166666
1496321673822|0|462|0|55.98510884666666|37.29132584666667
1496321673935|0|462|0|55.985108841666666|37.291325834999995
1496321674035|0|462|0|55.98510885000001|37.29132583833333
1496321674153|0|462|0|55.98510886833333|37.29132585333334
1496321674253|0|462|0|55.985108866666664|37.29132584333334
1496321674354|0|462|0|55.985108875|37.29132584333334
1496321674454|0|462|0|55.985108851666666|37.291325844999996
1496321674554|0|462|0|55.98510885333333|37.291325844999996
1496321674654|0|462|0|55.98510885666666|37.29132585166666
1496321674754|0|462|0|55.98510886000001|37.29132586666666
1496321674854|0|462|0|55.98510886833333|37.291325856666674
1496321674954|0|462|0|55.985108895|37.29132585166666
1496321675054|0|462|0|55.98510888166667|37.29132584166666
1496321675154|0|462|0|55.985108895|37.291325856666674
1496321675254|0|462|0|55.985108899999986|37.291325865
1496321675354|0|462|0|55.98510889166667|37.291325865
1496321675454|0|462|0|55.985108886666666|37.29132586333334
1496321675554|0|462|0|55.98510888333333|37.29132586833333
1496321675654|0|462|0|55.985108890000014|37.291325861666664
1496321675754|0|462|0|55.98510888333333|37.29132586333334
1496321675854|0|462|0|55.985108876666665|37.29132584666667
1496321675954|0|462|0|55.98510888833333|37.291325834999995
1496321676054|0|462|0|55.985108885|37.29132582666667
1496321676154|0|462|0|55.98510888833333|37.29132583166666
1496321676254|0|462|0|55.985108890000014|37.29132582666667
1496321676354|0|462|0|55.985108890000014|37.29132583333334
1496321676454|0|462|0|55.985108885|37.29132584166666
1496321676554|0|462|0|55.98510889166667|37.29132583833333
1496321676654|0|462|0|55.98510888833333|37.29132585333334
1496321676754|0|462|0|55.985108895|37.29132584166666
1496321676854|0|462|0|55.985108875|37.291325821666675
1496321676954|0|462|0|55.98510885833333|37.29132582833333
1496321677054|0|462|0|55.98510885833333|37.291325844999996
1496321677154|0|462|0|55.985108855|37.29132583833333
1496321677254|0|462|0|55.985108851666666|37.29132583666667
1496321677354|0|462|0|55.98510886166667|37.29132584999999
1496321677454|0|462|0|55.98510884333333|37.29132585166666
1496321677554|0|462|0|55.98510884000001|37.291325844999996
1496321677654|0|462|0|55.98510885833333|37.29132584833333
1496321677754|0|462|0|55.98510885333333|37.291325861666664
1496321677854|0|462|0|55.98510887333333|37.29132587833333
1496321677954|0|462|0|55.985108866666664|37.29132588333334
1496321678054|0|462|0|55.98510886166667|37.291325875
1496321678154|0|462|0|55.98510886333333|37.29132586333334
1496321678254|0|462|0|55.98510886000001|37.29132586666666
1496321678354|0|462|0|55.98510888166667|37.29132585833333
1496321678454|0|462|0|55.985108885|37.29132587333334
1496321678554|0|462|0|55.98510888000001|37.29132587333334
1496321678654|0|462|0|55.98510887833333|37.291325881666666
1496321678757|0|462|0|55.98510887833333|37.291325881666666
1496321678857|0|462|0|55.985108875|37.291325875
1496321678957|0|462|0|55.98510889166667|37.29132582333334
1496321679057|0|462|0|55.985108890000014|37.291325808333326
1496321679157|0|462|0|55.985108885|37.29132581499999
1496321679257|0|462|0|55.98510888166667|37.29132581666667
1496321679357|0|462|0|55.98510888333333|37.29132582833333
1496321679457|0|462|0|55.98510890166667|37.29132584333334
1496321679557|0|462|0|55.98510889166667|37.291325844999996
1496321679657|0|462|0|55.98510890166667|37.291325844999996
1496321679757|0|462|0|55.98510892166667|37.29132584333334
1496321679857|0|462|0|55.985108899999986|37.291325824999994
1496321679957|0|462|0|55.985108890000014|37.291325824999994
1496321680057|0|462|0|55.985108885|37.29132581333334
1496321680157|0|462|0|55.98510889333333|37.29132580666667
1496321680257|0|462|0|55.98510888833333|37.29132576833334
1496321680357|0|462|0|55.985108905|37.291325674999996
1496321680457|0|462|0|55.985108915|37.291325498333336
1496321680557|0|462|0|55.98510893166667|37.291325281666666
1496321680657|0|462|0|55.98510895999999|37.29132501333334
1496321680757|0|462|0|55.98510903|37.291324671666665
1496321680857|0|462|0|55.985109118333334|37.29132429666667
1496321680957|0|462|0|55.985109196666656|37.29132389333333
1496321681057|0|462|0|55.985109271666666|37.291323445
1496321681157|1|462|0|55.98510935833333|37.29132291
1496321681257|1|462|0|55.98510941999999|37.29132231333333
1496321681357|1|462|0|55.98510950166666|37.291321651666664
1496321681457|1|462|0|55.98510960499999|37.291320975
1496321681557|1|462|0|55.98510971000001|37.29132025833333
1496321681657|1|462|0|55.98510984666666|37.29131946333333
1496321681757|1|462|0|55.98511|37.29131863
1496321681857|2|360|0|55.98511014666666|37.291317721666665
1496321681958|2|358|0|55.98511029833334|37.291316728333335
1496321682058|2|358|0|55.98511041499999|37.29131559333333
1496321682158|3|246|0|55.98511059166667|37.291314285
1496321682258|3|245|0|55.985110773333325|37.291313035
1496321682358|3|244|0|55.98511101833333|37.291311560000004
1496321682458|3|243|0|55.98511122333333|37.29131002333333
1496321682558|3|241|0|55.98511149666667|37.29130832
1496321682658|3|240|0|55.98511176|37.29130652333334
1496321682758|4|185|0|55.98511198666666|37.291304645
1496321682859|4|179|0|55.985112288333326|37.29130265333334
1496321682959|4|178|0|55.98511258666667|37.291300635
1496321683059|5|142|0|55.98511291500001|37.291298386666675
1496321683159|5|141|0|55.98511320999999|37.291296128333336
1496321683259|5|140|0|55.985113586666664|37.29129378666667
1496321683359|5|142|0|55.98511394666666|37.29129139
1496321683459|5|141|0|55.985114251666666|37.291288853333334
1496321683559|5|137|0|55.98511468333333|37.291286273333334
1496321683659|6|113|0|55.985115066666665|37.29128363833333
1496321683759|6|111|0|55.98511542999999|37.291280863333334
1496321683859|6|110|0|55.985115803333336|37.29127803833333
1496321683959|6|108|0|55.985116213333335|37.29127512
1496321684059|6|107|0|55.98511668666667|37.291272185
1496321684159|7|93|0|55.985117093333336|37.29126916833333
1496321684259|7|92|0|55.985117535|37.29126611166666
1496321684359|7|90|0|55.985118001666656|37.291262956666664
1496321684459|7|89|0|55.98511842999999|37.29125973166666
1496321684559|7|89|0|55.98511899166667|37.291256479999994
1496321684659|7|88|0|55.98511937|37.29125316333333
1496321684759|7|84|0|55.985119931666674|37.29124984166666
1496321684859|8|73|0|55.985120415|37.291246445
1496321684959|8|75|0|55.98512099666667|37.29124299666666
1496321685059|8|74|0|55.985121469999996|37.29123949666667
1496321685159|8|72|0|55.98512205|37.291236033333334
1496321685260|8|71|0|55.98512258666666|37.29123241166667
1496321685360|8|70|0|55.98512313666667|37.29122881000001
1496321685460|8|68|0|55.98512371666667|37.29122518
1496321685560|8|68|0|55.985124291666665|37.29122147666667
1496321685660|8|67|0|55.985124885000005|37.291217716666665
1496321685760|8|65|0|55.98512551833334|37.29121399166667
1496321685860|8|64|0|55.98512610833333|37.291210109999994
1496321685960|9|56|0|55.98512670333333|37.291206321666664
1496321686060|9|54|0|55.985127375000005|37.291202455
1496321686160|9|53|0|55.98512798|37.291198625
1496321686260|9|51|0|55.98512863166667|37.291194745
1496321686360|9|50|0|55.98512928|37.291190875
1496321686460|9|49|0|55.98512991833333|37.291187003333334
1496321686560|9|48|0|55.98513055833333|37.29118313666667
1496321686660|9|46|0|55.98513123833333|37.29117923
1496321686760|9|43|0|55.98513191166667|37.29117539
1496321686860|9|41|0|55.98513258333334|37.291171524999996
1496321686960|9|41|0|55.98513322833334|37.29116775833334
1496321687060|9|39|0|55.985133919999996|37.29116393166666
1496321687160|9|39|0|55.98513452833334|37.29116010666667
1496321687260|9|37|0|55.985135256666666|37.291156385
1496321687360|8|36|0|55.98513591833333|37.291152503333336
1496321687460|8|35|0|55.98513656833333|37.29114871333334
1496321687560|8|36|0|55.98513723333333|37.29114497
1496321687660|8|35|0|55.985137933333334|37.29114121833333
1496321687760|8|31|0|55.985138588333335|37.29113743833333
1496321687860|8|30|0|55.98513924833334|37.29113365666666
1496321687960|8|31|0|55.98513989833334|37.29112985833334
1496321688060|8|29|0|55.985140615|37.29112606166667
1496321688160|8|24|0|55.985141291666665|37.29112230333334
1496321688260|8|22|0|55.98514198666667|37.291118536666666
1496321688360|8|20|0|55.985142683333336|37.291114775000004
1496321688460|8|19|0|55.985143359999995|37.291111011666665
1496321688560|8|16|0|55.985144113333334|37.291107271666675
1496321688660|8|15|0|55.98514483166667|37.291103606666674
1496321688760|8|13|0|55.98514553833334|37.29109985666666
1496321688860|8|11|0|55.98514624166667|37.29109616666666
1496321688961|8|11|0|55.98514703666666|37.29109244000001
1496321689061|8|9|0|55.985147725|37.291088671666664
1496321689161|8|7|0|55.985148496666675|37.291084996666676
1496321689261|8|240|0|55.985149189999994|37.291081238333334
1496321689361|8|-7|0|55.98515000666666|37.291077575
1496321689461|8|-8|0|55.98515073666667|37.29107377166666
1496321689561|8|-8|0|55.98515144666667|37.291069979999996
1496321689661|8|-8|0|55.98515221833333|37.29106632
1496321689761|9|-7|0|55.98515297499999|37.291062573333335
1496321689861|9|-6|0|55.985153765|37.29105886
1496321689961|9|-7|0|55.98515452833334|37.29105506166667
1496321690061|9|-15|0|55.98515539333333|37.29105127333333
1496321690161|9|-63|0|55.98515619166667|37.29104749166667
1496321690261|9|-63|0|55.985156956666664|37.2910437
1496321690361|9|-43|0|55.985157708333325|37.29103987833333
1496321690461|9|-43|0|55.98515848833335|37.29103609333333
1496321690561|9|-49|0|55.98515926499999|37.29103226833333
1496321690661|9|-49|0|55.98516001|37.29102846333334
1496321690761|9|-31|0|55.98516071000001|37.29102465333333
1496321690861|9|-31|0|55.98516144|37.29102081166666
1496321690961|9|-16|0|55.985162093333344|37.29101698666667
1496321691061|9|-16|0|55.98516273166666|37.29101313333333
1496321691161|9|-11|0|55.985163451666665|37.29100932166667
1496321691261|9|-11|0|55.98516412499999|37.291005483333336
1496321691361|9|0|0|55.985164815000005|37.29100157333333
1496321691461|9|0|0|55.98516547333334|37.290997680000004
1496321691561|9|9|0|55.98516614333333|37.29099376
1496321691661|9|9|0|55.985166764999995|37.29098984666666
1496321691761|9|18|0|55.98516742166666|37.29098595999999
1496321691861|9|18|0|55.985168125|37.290982146666664
1496321691961|9|-13|0|55.98516883166667|37.29097831666666
1496321692061|9|-13|0|55.98516951166667|37.29097439166667
1496321692161|9|1|0|55.98517018666667|37.29097058333333
1496321692261|9|1|0|55.985170813333326|37.29096669333333
1496321692361|9|8|0|55.98517151666666|37.29096280500001
1496321692461|9|8|0|55.98517217833334|37.29095891166667
1496321692561|9|-1|0|55.985172901666665|37.290954975
1496321692661|9|-1|0|55.98517359166667|37.29095109
1496321692761|9|4|0|55.98517426333333|37.290947133333326
1496321692861|9|4|0|55.98517492833333|37.290943178333336
1496321692961|9|30|0|55.98517548333332|37.29093922833333
1496321693061|9|30|0|55.98517616666667|37.290935245
1496321693161|9|3|0|55.98517688|37.29093120833334
1496321693261|9|4|0|55.98517748999999|37.29092722
1496321693361|9|42|0|55.985178164999994|37.290923230000004
1496321693461|9|42|0|55.98517885|37.29091918166666
1496321693561|9|24|0|55.98517956166667|37.290915195
1496321693661|9|24|0|55.985180358333345|37.29091112833333
1496321693761|9|-5|0|55.985181139999995|37.29090702166666
1496321693861|9|-5|0|55.98518183166666|37.29090290333334
1496321693961|9|31|0|55.985182531666666|37.29089879833334
1496321694061|9|31|0|55.985183286666675|37.29089474166666
1496321694161|9|14|0|55.985184013333345|37.290890590000004
1496321694261|9|14|0|55.985184791666676|37.290886506666666
1496321694361|9|7|0|55.98518553|37.29088237333333
1496321694461|9|7|0|55.98518626166667|37.29087820166667
1496321694561|10|7|0|55.98518707333332|37.29087405333333
1496321694661|10|7|0|55.985187925000005|37.290869953333335
1496321694761|10|-11|0|55.98518871833333|37.290865791666675
1496321694861|10|21|0|55.98518946999999|37.29086153666666
1496321694961|10|21|0|55.98519016833334|37.290857278333334
1496321695061|10|29|0|55.98519093833333|37.290852978333334
1496321695161|10|29|0|55.98519172166666|37.29084863
1496321695261|10|19|0|55.985192475000005|37.29084434833333
1496321695361|10|19|0|55.98519331333333|37.29083995666666
1496321695461|10|-1|0|55.98519417333333|37.290835506666674
1496321695561|10|-1|0|55.985194958333345|37.29083103666667
1496321695661|10|31|0|55.985195821666665|37.290826548333335
1496321695761|10|31|0|55.985196683333335|37.290821939999994
1496321695861|10|25|0|55.985197535|37.29081742499999
1496321695961|11|35|0|55.98519837666666|37.29081279333333
1496321696061|11|40|0|55.98519921|37.290808141666666
1496321696161|11|49|0|55.985200026666675|37.290803448333335
1496321696261|11|26|0|55.985200909999996|37.290798738333336
1496321696361|11|19|0|55.985201825|37.29079397999999
1496321696461|11|3|0|55.98520279999999|37.290789235000005
1496321696561|11|12|0|55.98520375|37.290784439999996
1496321696661|11|16|0|55.98520469166667|37.290779613333335
1496321696761|11|21|0|55.98520562499999|37.290774739999996
1496321696861|11|1|0|55.985206648333325|37.290769829999995
1496321696961|11|29|0|55.98520756833333|37.290764886666665
1496321697061|11|20|0|55.98520853|37.29075988333334
1496321697161|11|4|0|55.98520956666666|37.290754845
1496321697261|12|18|0|55.98521054333334|37.290749815000005
1496321697361|12|6|0|55.98521158166667|37.29074473833333
1496321697461|12|23|0|55.98521258|37.29073950833334
1496321697561|12|9|0|55.98521361833333|37.29073436833334
1496321697661|12|19|0|55.98521463166667|37.290729131666666
1496321697761|12|33|0|55.98521568999999|37.29072386000001
1496321697861|12|42|0|55.98521671666667|37.290718561666665
1496321697961|12|33|0|55.98521777833332|37.290713278333335
1496321698061|12|44|0|55.98521881833334|37.29070788333333
1496321698161|13|38|0|55.98521987833333|37.290702525
1496321698261|13|33|0|55.985220971666664|37.29069711333333
1496321698361|13|23|0|55.985222098333324|37.29069178
1496321698461|13|26|0|55.98522322833334|37.290686375
1496321698561|13|8|0|55.985224463333324|37.29068093666666
1496321698661|13|26|0|55.985225606666674|37.290675465
1496321698761|13|13|0|55.985226828333325|37.29066997500001
1496321698861|13|5|0|55.98522810666667|37.29066442166666
1496321698961|13|16|0|55.985229315|37.29065892166667
1496321699061|13|17|0|55.98523053333333|37.29065335666667
1496321699161|13|2|0|55.985231844999994|37.29064772666666
1496321699261|13|4|0|55.985233141666676|37.29064212666666
1496321699361|13|7|0|55.985234424999994|37.290636525
1496321699461|13|17|0|55.98523567166667|37.29063082666667
1496321699561|13|8|0|55.985236978333326|37.290625084999995
1496321699661|13|50|0|55.98523826499999|37.29061933833333
1496321699761|14|51|0|55.98523954666666|37.290613603333334
1496321699861|14|45|0|55.98524087833333|37.290607793333336
1496321699961|14|43|0|55.985242226666664|37.290601966666664
1496321700061|14|50|0|55.985243545|37.29059611500001
1496321700161|14|55|0|55.985244855000005|37.290590171666665
1496321700261|14|53|0|55.98524617500001|37.29058424666667
1496321700361|14|37|0|55.98524756333333|37.29057839166667
1496321700461|14|23|0|55.98524903833333|37.290572411666666
1496321700561|14|25|0|55.985250483333324|37.29056653
1496321700661|14|11|0|55.98525200333333|37.290560580000005
1496321700761|14|-15|0|55.985253625|37.290554723333344
1496321700861|14|4|0|55.98525517166666|37.29054878
1496321700961|15|-5|0|55.98525675999999|37.29054282666667
1496321701061|15|11|0|55.98525831166667|37.29053674666667
1496321701161|15|3|0|55.98525989833334|37.29053065833333
1496321701261|15|32|0|55.985261496666666|37.29052458500001
1496321701361|15|50|0|55.98526302|37.29051852166667
1496321701461|15|49|0|55.98526458833334|37.29051231166667
1496321701561|15|54|0|55.98526613666666|37.290506093333335
1496321701661|15|49|0|55.98526770833333|37.29049987333334
1496321701761|15|39|0|55.98526932666667|37.29049363833334
1496321701861|15|42|0|55.98527093500001|37.29048739166667
1496321701961|15|18|0|55.985272656666666|37.290481165
1496321702061|15|13|0|55.985274419999996|37.290474925
1496321702161|15|11|0|55.98527617333333|37.29046876666667
1496321702261|15|13|0|55.98527792166666|37.290462569999995
1496321702361|15|1|0|55.98527977166667|37.29045633833333
1496321702461|15|18|0|55.98528151|37.290450073333325
1496321702561|15|4|0|55.98528335666666|37.290443798333335
1496321702661|16|11|0|55.98528514666667|37.29043753166666
1496321702762|16|8|0|55.98528697666667|37.29043118999999
1496321702862|16|13|0|55.98528879|37.29042477833334
1496321702962|16|12|0|55.985290570000004|37.290418458333335
1496321703062|16|15|0|55.985292355000006|37.29041203333334
1496321703162|16|8|0|55.985294185|37.29040562666667
1496321703262|16|14|0|55.98529597666667|37.29039921166666
1496321703362|16|12|0|55.98529778499999|37.29039278833333
1496321703462|16|4|0|55.985299648333324|37.290386386666675
1496321703562|16|19|0|55.98530143999999|37.29037985666667
1496321703663|16|14|0|55.98530324|37.29037341666667
1496321703763|16|11|0|55.98530508000001|37.29036691833333
1496321703863|16|12|0|55.98530689999999|37.290360471666666
1496321703963|16|-1|0|55.985308833333335|37.29035399666667
1496321704063|16|9|0|55.985310694999995|37.290347485000005
1496321704163|16|11|0|55.98531252166667|37.290341023333326
1496321704263|16|4|0|55.98531442499999|37.29033449833333
1496321704363|16|12|0|55.98531626166667|37.29032798833333
1496321704463|16|3|0|55.98531816500001|37.29032148666667
1496321704563|16|-10|0|55.98531997833334|37.29031498333333
1496321704663|16|-23|0|55.98532191333334|37.290308380000006
1496321704763|16|-23|0|55.98532381499999|37.2903019
1496321704863|16|-29|0|55.98532576166667|37.290295406666665
1496321704963|16|-23|0|55.98532765333333|37.29028894333333
1496321705063|16|-20|0|55.98532959000001|37.290282241666674
1496321705163|16|12|0|55.985331325|37.29027553833334
1496321705263|16|-7|0|55.985333135000005|37.29026894500001
1496321705363|16|-6|0|55.98533494833333|37.29026232166667
1496321705463|16|-3|0|55.98533677|37.29025559333334
1496321705563|16|2|0|55.985338561666666|37.29024884333333
1496321705663|16|5|0|55.985340335000004|37.29024211333334
1496321705763|16|30|0|55.98534202000001|37.29023528166667
1496321705863|16|24|0|55.98534372666666|37.29022848166667
1496321705963|16|-3|0|55.985345438333326|37.290221706666664
1496321706063|16|-17|0|55.98534719|37.29021502333334
1496321706163|16|-3|0|55.98534888833333|37.290208293333336
1496321706263|16|-30|0|55.98535074333333|37.290201485000004
1496321706363|16|-23|0|55.98535252500001|37.29019479166667
1496321706463|16|-37|0|55.98535439333334|37.29018808166666
1496321706563|16|-18|0|55.98535615333334|37.290181376666666
1496321706663|16|-19|0|55.98535791333333|37.29017467833333
1496321706763|16|-18|0|55.98535968833333|37.29016789666667
1496321706864|17|-1|0|55.985361385000004|37.290161115000004
1496321706964|16|3|0|55.98536309|37.29015421166667
1496321707064|17|10|0|55.985364759999996|37.29014733
1496321707164|17|18|0|55.98536641666666|37.29014033000001
1496321707264|17|8|0|55.985368108333326|37.290133393333335
1496321707364|17|28|0|55.985369725|37.29012631999999
1496321707464|17|12|0|55.98537144|37.29011920166667
1496321707564|17|7|0|55.985373168333346|37.29011214166667
1496321707664|17|-26|0|55.985374906666664|37.29010507499999
1496321707764|17|-26|0|55.98537665833334|37.29009795666667
1496321707864|17|-22|0|55.98537840666667|37.29009078166666
1496321707964|18|-30|0|55.985380189999994|37.290083603333336
1496321708064|18|-32|0|55.98538199|37.29007638666668
1496321708164|18|-24|0|55.98538377999999|37.29006906833333
1496321708264|18|-5|0|55.98538550833334|37.290061574999996
1496321708364|18|-2|0|55.985387236666675|37.29005399166666
1496321708464|18|-1|0|55.985388969999995|37.29004635
1496321708564|19|2|0|55.98539071333333|37.29003850166666
1496321708664|19|7|0|55.98539242833334|37.29003059833334
1496321708764|19|10|0|55.98539414|37.29002260666667
1496321708864|19|16|0|55.98539581333333|37.29001452333334
1496321708964|19|8|0|55.98539758666668|37.29000630166667
1496321709064|20|14|0|55.98539929333333|37.289998133333334
1496321709164|20|12|0|55.985401068333346|37.289989745
1496321709264|20|11|0|55.98540286166667|37.28998132
1496321709364|20|-9|0|55.98540466833333|37.28997278
1496321709464|21|-17|0|55.985406579999996|37.28996407833333
1496321709564|21|-11|0|55.985408448333324|37.28995530833333
1496321709664|21|-13|0|55.98541037166667|37.28994638333334
1496321709764|22|-17|0|55.985412351666675|37.289937365
1496321709864|22|-17|0|55.985414371666664|37.28992817499999
1496321709964|23|-14|0|55.985416385|37.28991883833333
1496321710064|23|-10|0|55.985418396666674|37.289909314999996
1496321710164|23|-6|0|55.98542039|37.28989967500001
1496321710264|23|-3|0|55.985422390000004|37.289889886666664
1496321710364|24|-6|0|55.98542446333333|37.289879879999994
1496321710464|25|-6|0|55.985426556666674|37.289869780000004
1496321710564|25|-3|0|55.98542866666667|37.289859426666666
1496321710664|25|-10|0|55.98543075833332|37.289848989999996
1496321710764|25|-5|0|55.985432841666665|37.28983835666667
1496321710864|26|-9|0|55.98543500833333|37.289827465
1496321710964|26|-5|0|55.985437166666664|37.289816425
1496321711064|27|8|0|55.98543927666666|37.28980506833333
1496321711164|27|11|0|55.985441394999995|37.28979358333333
1496321711264|28|8|0|55.98544355|37.28978201833334
1496321711364|28|-6|0|55.98544585166666|37.28977031666667
1496321711464|28|34|0|55.98544789166667|37.28975832166667
1496321711564|29|30|0|55.98544999833333|37.28974615833333
1496321711664|29|10|0|55.98545227833333|37.28973382
1496321711764|30|-4|0|55.98545463000001|37.28972137
1496321711864|30|29|0|55.985456775|37.2897086
1496321711964|31|-12|0|55.985459215|37.28969604833333
1496321712064|31|0|0|55.98546162166668|37.289683106666665
1496321712164|31|-14|0|55.98546419666666|37.28966994833334
1496321712264|32|-24|0|55.985466931666664|37.289656563333324
1496321712364|32|-17|0|55.985469574999996|37.289643235
1496321712464|32|-20|0|55.985472233333326|37.289629945
1496321712564|32|-34|0|55.985475124999994|37.289616454999994
1496321712664|33|-11|0|55.98547780333334|37.28960255
1496321712764|33|-18|0|55.98548048666667|37.28958872666666
1496321712864|33|-19|0|55.98548317833334|37.28957493833333
1496321712964|33|-1|0|55.985485770000004|37.289560783333336
1496321713064|33|19|0|55.98548819999999|37.289546575
1496321713164|33|12|0|55.985490695|37.28953230166666
1496321713264|33|26|0|55.98549306166666|37.289518048333335
1496321713364|34|35|0|55.985495363333335|37.289503614999994
1496321713464|34|35|0|55.985497695|37.289489044999996
1496321713564|34|36|0|55.98550000499999|37.28947448666667
1496321713664|34|20|0|55.98550249166666|37.289459905
1496321713764|34|18|0|55.98550498666667|37.289445283333336
1496321713864|35|0|0|55.985507615|37.28943080333333
1496321713964|35|4|0|55.98551024166666|37.28941614166667
1496321714064|35|-11|0|55.98551302666666|37.28940141333333
1496321714164|35|-11|0|55.985515840000005|37.28938652166667
1496321714264|36|-21|0|55.98551876333333|37.28937160833333
1496321714364|36|-20|0|55.985521696666666|37.289356588333334
1496321714464|36|-15|0|55.985524608333336|37.28934136833333
1496321714564|36|-12|0|55.985527514999994|37.28932600499999
1496321714664|37|-13|0|55.98553046666666|37.28931075833333
1496321714764|37|-8|0|55.98553337|37.28929545333334
1496321714864|37|15|0|55.98553612166667|37.289279795000006
1496321714964|38|12|0|55.98553895333333|37.28926383833333
1496321715064|38|19|0|55.98554174666667|37.28924770333333
1496321715164|38|34|0|55.98554439333334|37.289231505000004
1496321715264|38|42|0|55.98554697166666|37.289215115000005
1496321715364|39|37|0|55.98554963|37.289198615000004
1496321715464|39|38|0|55.98555229499999|37.289182036666666
1496321715564|39|39|0|55.985554975|37.28916523833333
1496321715664|40|20|0|55.98555785833334|37.28914844166666
1496321715764|40|8|0|55.98556086166667|37.28913164833334
1496321715864|40|-7|0|55.985564053333334|37.28911470666667
1496321715964|40|-11|0|55.98556731666667|37.28909761333333
1496321716064|41|-24|0|55.985570753333334|37.289080545000004
1496321716164|41|-25|0|55.98557422499999|37.289063338333335
1496321716264|42|-30|0|55.985577776666666|37.28904611666667
1496321716364|42|-26|0|55.98558128333334|37.289028808333335
1496321716464|42|-16|0|55.98558470166667|37.28901131
1496321716564|42|-2|0|55.98558800000001|37.288993553333334
1496321716664|42|13|0|55.98559114666667|37.28897568666666
1496321716764|42|29|0|55.98559413666667|37.28895766666667
1496321716864|42|44|0|55.98559693333333|37.28893954333333
1496321716964|42|48|0|55.98559967|37.288921365
1496321717064|42|50|0|55.98560235333333|37.28890329000001
1496321717164|42|47|0|55.985605086666666|37.288885315
1496321717264|41|42|0|55.985607898333335|37.28886744333333
1496321717364|41|26|0|55.985610875000006|37.2888497
1496321717464|41|12|0|55.98561398333333|37.28883208166667
1496321717564|41|-13|0|55.98561733166667|37.288814738333336
1496321717664|41|-29|0|55.985620839999996|37.288797691666666
1496321717764|41|-41|0|55.98562456|37.28878077833333
1496321717864|40|-48|0|55.985628344999995|37.288764065
1496321717964|40|-49|0|55.985632135|37.28874739500001
1496321718064|39|-46|0|55.98563582166667|37.28873092
1496321718164|39|-35|0|55.985639250000006|37.28871458
1496321718264|39|-27|0|55.985642535|37.28869826333333
1496321718364|38|-8|0|55.985645606666665|37.28868186666667
1496321718464|38|20|0|55.985648403333336|37.288665421666664
1496321718564|37|41|0|55.98565092333333|37.28864906333334
1496321718664|37|54|0|55.98565318333333|37.28863302
1496321718764|36|72|0|55.98565517000001|37.28861727833333
1496321718864|36|82|0|55.98565702833332|37.28860182499999
1496321718964|34|68|0|55.985658995|37.288586671666664
1496321719064|33|74|0|55.985660876666664|37.28857174
1496321719164|33|60|0|55.985662853333324|37.28855731
1496321719264|31|51|0|55.98566490166666|37.288543375
1496321719364|31|39|0|55.98566705666668|37.28852977166667
1496321719464|30|24|0|55.98566929333332|37.288516575
1496321719564|30|-7|0|55.98567169166666|37.288503866666666
1496321719664|28|-28|0|55.98567424|37.28849154666666
1496321719765|27|-39|0|55.985676825000006|37.28847974
1496321719865|27|-43|0|55.98567938|37.28846825666667
1496321719965|26|-44|0|55.98568184833333|37.28845720166667
1496321720065|26|-40|0|55.98568422333333|37.288446358333324
1496321720166|24|-37|0|55.98568649666666|37.28843582166667
1496321720266|24|-30|0|55.98568862666666|37.28842554166667
1496321720366|23|-14|0|55.98569059833333|37.28841559666667
1496321720466|23|-4|0|55.985692475|37.288405753333336
1496321720566|23|15|0|55.98569419333334|37.28839612166666
1496321720666|22|34|0|55.98569578333333|37.288386581666664
1496321720766|22|49|0|55.985697265000006|37.28837700166667
1496321720866|22|50|0|55.98569872666667|37.28836751
1496321720966|22|44|0|55.985700233333326|37.28835806666667
1496321721066|22|40|0|55.98570174666667|37.28834878666667
1496321721166|22|34|0|55.98570329833333|37.288339515
1496321721266|21|26|0|55.98570489|37.288330286666664
1496321721366|21|25|0|55.985706483333324|37.28832109333333
1496321721466|21|-9|0|55.985708251666665|37.28831203833333
1496321721566|21|-6|0|55.98570999666668|37.288303026666675
1496321721666|21|-15|0|55.985711775|37.28829414166667
1496321721766|21|-10|0|55.98571351166667|37.28828528166667
1496321721866|21|-18|0|55.985715299999995|37.28827647
1496321721966|21|-27|0|55.98571715333333|37.28826772666667
1496321722066|21|-13|0|55.985718943333325|37.28825897166667
1496321722166|20|-7|0|55.985720686666674|37.28825023333333
1496321722266|20|-5|0|55.98572241000001|37.28824150333333
1496321722366|20|10|0|55.985724031666656|37.28823282
1496321722466|20|11|0|55.98572564333333|37.28822414666667
1496321722566|20|8|0|55.985727268333335|37.288215496666666
1496321722666|20|13|0|55.985728861666665|37.28820687666666
1496321722766|20|14|0|55.98573043666667|37.28819831
1496321722866|20|21|0|55.985731976666656|37.28818974833334
1496321722966|20|22|0|55.98573350166666|37.288181259999995
1496321723066|20|6|0|55.98573510500001|37.288172795
1496321723166|20|9|0|55.985736696666656|37.288164310000006
1496321723266|20|8|0|55.98573828000001|37.28815589999999
1496321723366|19|23|0|55.985739841666664|37.28814749833334
1496321723466|19|19|0|55.985741421666674|37.28813912666667
1496321723566|19|17|0|55.98574300166666|37.288130814999995
1496321723666|19|11|0|55.98574460666667|37.28812253833333
1496321723766|19|5|0|55.985746233333344|37.288114353333334
1496321723866|19|0|0|55.98574789999999|37.288106174999996
1496321723966|19|19|0|55.98574944666666|37.288097981666674
1496321724066|19|5|0|55.98575107166667|37.28808980333333
1496321724166|19|3|0|55.98575271500001|37.28808162666666
1496321724266|19|1|0|55.98575435166667|37.28807354333333
1496321724366|19|1|0|55.985755983333334|37.28806547333333
1496321724466|19|4|0|55.98575759333334|37.288057394999996
1496321724566|19|-3|0|55.98575924166667|37.28804943166667
1496321724666|19|0|0|55.98576087666667|37.28804142
1496321724766|19|-2|0|55.98576252666666|37.28803341
1496321724866|19|0|0|55.98576414666667|37.28802543166666
1496321724966|19|36|0|55.985765750000006|37.288017413333336
1496321725066|19|37|0|55.98576733833333|37.288009425000006
1496321725166|19|38|0|55.98576892999999|37.28800139
1496321725266|19|32|0|55.98577054000001|37.28799349
1496321725366|19|44|0|55.98577209166667|37.287985496666664
1496321725466|19|38|0|55.98577367166666|37.28797755833333
1496321725566|18|35|0|55.985775266666664|37.287969655
1496321725666|18|28|0|55.98577690833334|37.287961790000004
1496321725766|18|23|0|55.98577857|37.28795403833333
1496321725866|18|9|0|55.98578032833334|37.28794637833334
1496321725966|18|12|0|55.985782064999995|37.287938731666664
1496321726066|18|10|0|55.98578380833332|37.287931095000005
1496321726166|18|4|0|55.985785565|37.28792358666667
1496321726266|18|5|0|55.98578733666667|37.28791599
1496321726366|18|132|0|55.98578909166667|37.287908535
1496321726466|18|135|0|55.985790825|37.287901100000006
1496321726566|18|136|0|55.98579254666667|37.287893716666666
1496321726666|18|141|0|55.985794245|37.28788631333333
1496321726768|17|148|0|55.985795875|37.28787899499999
1496321726868|17|138|0|55.98579757333334|37.287871721666676
1496321726968|17|127|0|55.98579930166667|37.28786458166666
1496321727068|17|105|0|55.98580110999999|37.287857556666665
1496321727168|17|87|0|55.98580298833333|37.287850625000004
1496321727268|17|78|0|55.985804905|37.28784377166667
1496321727368|17|66|0|55.985806876666665|37.28783707
1496321727468|17|47|0|55.98580894|37.28783049500001
1496321727568|17|143|0|55.985811103333326|37.28782414166667
1496321727668|16|129|0|55.985813336666666|37.28781781833333
1496321727768|16|120|0|55.985815605|37.287811569999995
1496321727868|16|117|0|55.98581788999999|37.28780536000001
1496321727968|16|126|0|55.985820116666666|37.28779914333333
1496321728068|16|119|0|55.98582237000001|37.287793005000005
1496321728168|16|87|0|55.985824763333326|37.28778711500001
1496321728268|16|65|0|55.98582723|37.28778132833333
1496321728368|16|39|0|55.985829759999994|37.287775739999994
1496321728468|16|17|0|55.985832386666665|37.28777034166667
1496321728568|16|-5|0|55.98583511666668|37.28776504166667
1496321728668|16|-13|0|55.985837871666675|37.28775976666667
1496321728768|16|-3|0|55.98584055333335|37.287754531666664
1496321728868|16|0|0|55.98584320500001|37.28774931166667
1496321728968|16|27|0|55.985845936666664|37.287744135000004
1496321729068|16|46|0|55.985848588333326|37.28773891833334
1496321729168|16|47|0|55.985851225|37.287733718333335
1496321729268|15|49|0|55.985853845|37.287728535
1496321729368|15|55|0|55.985856436666666|37.287723334999995
1496321729468|15|53|0|55.98585904333332|37.28771814499999
1496321729568|15|43|0|55.98586163333332|37.28771310333333
1496321729668|15|40|0|55.985864263333326|37.287708015
1496321729768|15|21|0|55.98586691333333|37.28770307166667
1496321729868|15|7|0|55.985869575|37.28769824333333
1496321729968|15|-2|0|55.98587223833333|37.287693536666666
1496321730068|14|10|0|55.98587483166666|37.28768882166666
1496321730168|14|4|0|55.985877445|37.28768414
1496321730268|14|-4|0|55.98588003333333|37.287679606666664
1496321730368|14|-11|0|55.98588262166666|37.28767517000001
1496321730468|14|-103|0|55.98588519666668|37.28767073333333
1496321730568|14|-81|0|55.985887648333325|37.28766624666666
1496321730668|14|-81|0|55.98589009333333|37.287661768333344
1496321730768|13|-73|0|55.98589249166666|37.287657298333336
1496321730868|13|-60|0|55.98589484|37.287652806666664
1496321730968|13|-73|0|55.985897191666666|37.28764841666666
1496321731068|13|-69|0|55.98589953000001|37.28764401
1496321731168|13|-68|0|55.985901886666674|37.28763956
1496321731268|13|-54|0|55.985904145|37.28763516666667
1496321731368|13|-29|0|55.985906335|37.287630635
1496321731468|13|-19|0|55.98590850333333|37.28762598666667
1496321731568|13|-8|0|55.985910575|37.287621394999995
1496321731668|13|3|0|55.98591260833333|37.287616748333335
1496321731768|13|-188|0|55.985914551666674|37.28761204
1496321731868|13|-209|0|55.985916576666654|37.28760732666667
1496321731968|13|-221|0|55.98591859500001|37.28760275
1496321732068|13|-226|0|55.985920629999995|37.287598178333326
1496321732168|13|-230|0|55.98592264666666|37.28759368833333
1496321732268|13|-215|0|55.98592464000001|37.28758905666667
1496321732368|12|-186|0|55.985926535000004|37.28758437666667
1496321732468|12|-162|0|55.98592833833333|37.28757961666667
1496321732571|12|-164|0|55.98593013833334|37.28757487666667
1496321732671|12|-149|0|55.985931865000005|37.28757006166666
1496321732771|12|-142|0|55.98593354333334|37.28756526666667
1496321732871|12|-134|0|55.98593518500001|37.28756046333333
1496321732971|12|-388|0|55.985936773333336|37.28755558
1496321733071|12|-357|0|55.985938229999995|37.28755071333334
1496321733171|12|-334|0|55.98593958666667|37.28754570833333
1496321733271|12|-329|0|55.98594091833334|37.287540676666666
1496321733374|12|-299|0|55.985942128333335|37.28753568666667
1496321733474|12|-272|0|55.98594324333334|37.28753062166666
1496321733574|12|-251|0|55.985944255|37.28752549166666
1496321733674|12|-228|0|55.985945173333334|37.28752039166667
1496321733774|12|-179|0|55.98594591500001|37.287515205
1496321733874|12|-179|0|55.98594664833333|37.287510043333334
1496321733974|12|-164|0|55.985947311666656|37.28750485333333
1496321734074|12|-99|0|55.985947753333335|37.28749963666667
1496321734174|12|-78|0|55.985948093333334|37.28749444333334
1496321734274|11|-86|0|55.98594846166667|37.28748929499999
1496321734374|11|-347|0|55.98594874|37.28748407666667
1496321734474|11|-342|0|55.98594899333334|37.28747892
1496321734574|11|-317|0|55.985949166666664|37.28747384333334
1496321734674|11|-314|0|55.98594932333333|37.28746885166667
1496321734774|11|-329|0|55.985949514999994|37.28746399166666
1496321734874|10|-296|0|55.98594958333333|37.28745921499999
1496321734974|10|-271|0|55.985949551666664|37.28745448499999
1496321735074|10|-272|0|55.98594948166666|37.28745005166666
1496321735174|9|-240|0|55.98594932333333|37.28744573833334
1496321735274|9|-241|0|55.98594918166667|37.2874416
1496321735374|9|-215|0|55.98594893833333|37.287437501666666
1496321735474|9|-216|0|55.985948660000005|37.28743354666666
1496321735574|9|-462|0|55.98594836|37.28742971333333
1496321735674|9|-462|0|55.985947960000004|37.28742598333333
1496321735774|8|-404|0|55.98594749166667|37.28742234833333
1496321735874|8|-406|0|55.98594700000001|37.287418753333334
1496321735974|8|-370|0|55.98594644833334|37.28741517
1496321736074|8|-372|0|55.98594597333334|37.287411641666665
1496321736174|8|-344|0|55.98594531333333|37.287408285
1496321736274|8|-345|0|55.98594461|37.28740496500001
1496321736374|8|-272|0|55.98594385333334|37.28740176333333
1496321736474|8|-273|0|55.985943083333325|37.287398605
1496321736574|8|-243|0|55.98594141499999|37.28739246000001
1496321736674|8|-244|0|55.98594141499999|37.28739246000001
1496321736774|8|-187|0|55.98594048333332|37.287389551666664
1496321736874|7|-190|0|55.98593955|37.28738669833333
1496321736974|7|-152|0|55.985938565000005|37.28738389166667
1496321737074|7|-153|0|55.98593653166665|37.28737829999999
1496321737174|7|-127|0|55.98593653166665|37.28737829999999
1496321737274|7|-417|0|55.985935496666656|37.28737552166666
1496321737374|7|-412|0|55.985934500000006|37.287372811666664
1496321737474|7|-415|0|55.98593345500001|37.287370055
1496321737574|7|-395|0|55.98593237499999|37.28736736166666
1496321737675|7|-397|0|55.985931311666675|37.28736475166667
1496321737775|7|-379|0|55.985930236666675|37.28736216499999
1496321737875|7|-381|0|55.98592909333334|37.287359736666666
1496321737975|7|-317|0|55.98592787833333|37.28735731166666
1496321738075|7|-319|0|55.985925460000004|37.287352668333334
1496321738175|7|-293|0|55.985925460000004|37.287352668333334
1496321738275|7|-295|0|55.985923065|37.287348136666665
1496321738375|7|-292|0|55.985923065|37.287348136666665
1496321738475|7|-293|0|55.985921770000004|37.287345985
1496321738575|7|-221|0|55.985920441666664|37.287343979999996
1496321738675|7|-222|0|55.98591911|37.287342125
1496321738775|7|-159|0|55.985916365|37.287338629999994
1496321738875|7|-160|0|55.985916365|37.287338629999994
1496321738975|7|-116|0|55.985914905|37.28733697166667
1496321739075|7|-117|0|55.985913453333325|37.28733525166667
1496321739175|7|-119|0|55.985910555|37.28733195833334
1496321739275|7|-120|0|55.98590905166668|37.287330340000004
1496321739375|7|-374|0|55.98590905166668|37.287330340000004
1496321739475|7|-376|0|55.98590752666668|37.28732880333333
1496321739575|7|-364|0|55.985906075|37.287327264999995
1496321739675|7|-366|0|55.98590456|37.287325678333325
1496321739775|7|-355|0|55.98590301833333|37.287324209999994
1496321739875|7|-357|0|55.985901479999995|37.287322798333335
1496321739975|7|-311|0|55.98589833166667|37.287320305
1496321740075|7|-313|0|55.98589670500001|37.28731915833333
1496321740175|7|-270|0|55.98589670500001|37.28731915833333
1496321740275|7|-272|0|55.98589513|37.287317968333326
1496321740375|7|-260|0|55.985893531666676|37.28731690166667
1496321740475|7|-261|0|55.98589023500001|37.28731515666667
1496321740575|7|-188|0|55.98589023500001|37.28731515666667
1496321740675|7|-188|0|55.985888581666664|37.28731440666666
1496321740775|7|-152|0|55.985885225|37.28731314
1496321740875|7|-153|0|55.985885225|37.28731314
1496321740975|7|-117|0|55.98588349833334|37.28731251833334
1496321741075|7|-118|0|55.985880006666676|37.28731137333333
1496321741175|7|-106|0|55.985880006666676|37.28731137333333
1496321741275|7|-107|0|55.98587823166666|37.287310788333336
1496321741375|7|-91|0|55.985876465000004|37.28731035166666
1496321741475|7|-91|0|55.98587467666666|37.28730994833334
1496321741575|7|-388|0|55.985872843333325|37.287309565
1496321741675|7|-390|0|55.985871015|37.28730917333333
1496321741775|7|-394|0|55.98586738|37.287308401666664
1496321741875|7|-396|0|55.98586738|37.287308401666664
1496321741975|7|-405|0|55.98586551166667|37.28730788166667
1496321742075|7|-407|0|55.98586179666666|37.28730737
1496321742175|7|-362|0|55.98585996833334|37.28730719333333
1496321742275|7|-364|0|55.98585996833334|37.28730719333333
1496321742375|7|-328|0|55.98585810833333|37.287307186666666
1496321742475|7|-330|0|55.985856265|37.28730711166668
1496321742575|7|-318|0|55.98585440499999|37.28730712833333
1496321742675|7|-319|0|55.985850705000004|37.28730741333332
1496321742775|7|-275|0|55.985850705000004|37.28730741333332
1496321742875|7|-276|0|55.98584878500001|37.28730766666667
1496321742975|7|-244|0|55.98584503166666|37.287308401666664
1496321743075|7|-245|0|55.98584503166666|37.287308401666664
1496321743175|7|-216|0|55.985843155000005|37.287308875
1496321743275|8|-215|0|55.98584125166667|37.28730942166666
1496321743375|8|-159|0|55.98583941666668|37.28731021166667
1496321743475|8|-160|0|55.98583570499999|37.28731195166666
1496321743575|8|-108|0|55.98583382833334|37.28731286166666
1496321743675|8|-108|0|55.98583382833334|37.28731286166666
1496321743775|8|-449|0|55.985830031666666|37.28731492
1496321743875|8|-451|0|55.985830031666666|37.28731492
1496321743975|8|-419|0|55.98582626833333|37.28731705333333
1496321744075|8|-422|0|55.98582626833333|37.28731705333333
1496321744175|8|-426|0|55.98582252|37.28731920333333
1496321744275|8|-428|0|55.985820678333326|37.287320455
1496321744375|8|-404|0|55.985820678333326|37.287320455
1496321744475|8|-406|0|55.98581887833333|37.28732172833333
1496321744575|8|-353|0|55.98581532166667|37.287324684999994
1496321744675|8|-355|0|55.98581532166667|37.287324684999994
1496321744775|8|-317|0|55.98581360166667|37.28732628666667
1496321744875|8|-318|0|55.985811875|37.28732791666666
1496321744975|8|-275|0|55.98581020166666|37.28732967333333
1496321745075|8|-276|0|55.98580694499999|37.28733348666666
1496321745175|8|-223|0|55.98580536999999|37.28733553666667
1496321745275|8|-223|0|55.98580385333333|37.28733769
1496321745375|8|-171|0|55.98580385333333|37.28733769
1496321745475|8|-172|0|55.985802365000005|37.28733990333334
1496321745575|8|-128|0|55.98579938999999|37.28734443833334
1496321745675|8|-128|0|55.98579938999999|37.28734443833334
1496321745775|8|-112|0|55.98579790833334|37.28734679333334
1496321745875|8|-112|0|55.985796435000005|37.28734928666667
1496321745975|8|-83|0|55.985793593333334|37.28735423166667
1496321746075|8|-83|0|55.98579220500001|37.287356808333335
1496321746175|8|-62|0|55.985790846666674|37.28735939833334
1496321746275|8|-350|0|55.985790846666674|37.28735939833334
1496321746375|8|-330|0|55.98578945166667|37.28736198833334
1496321746475|8|-331|0|55.985788108333324|37.28736462500001
1496321746575|8|-321|0|55.98578534666667|37.28736987166667
1496321746675|8|-322|0|55.98578534666667|37.28736987166667
1496321746775|8|-321|0|55.98578400166666|37.28737253833333
1496321746875|8|-323|0|55.98578269333334|37.28737529333334
1496321746975|8|-292|0|55.985780163333324|37.287380835
1496321747075|8|-293|0|55.985778941666666|37.28738368833333
1496321747175|8|-273|0|55.985778941666666|37.28738368833333
1496321747275|8|-274|0|55.985776605|37.287389526666665
1496321747375|8|-231|0|55.985776605|37.287389526666665
1496321747475|8|-232|0|55.98577446833333|37.287395605
1496321747575|8|-191|0|55.98577345|37.28739873000001
1496321747675|8|-192|0|55.98577345|37.28739873000001
1496321747775|8|-141|0|55.98577251|37.287401948333326
1496321747875|8|-142|0|55.98577157|37.28740519333333
1496321747975|8|-116|0|55.98577066833334|37.28740854
1496321748075|8|-116|0|55.985768860000015|37.28741544333334
1496321748175|8|-92|0|55.98576792333333|37.287418914999996
1496321748275|8|-93|0|55.985767095|37.287422539999994
1496321748375|8|-74|0|55.985767095|37.287422539999994
1496321748475|8|-74|0|55.98576618333334|37.28742614166667
1496321748575|8|-66|0|55.98576447333334|37.287433515
1496321748675|9|-140|0|55.98576447333334|37.287433515
1496321748775|9|-127|0|55.98576278666666|37.287441044999994
1496321748875|9|-127|0|55.98576278666666|37.287441044999994
1496321748975|9|-118|0|55.98576100166666|37.28744877333333
1496321749075|9|-119|0|55.985760154999994|37.287452710000004
1496321749175|9|-129|0|55.98575937333333|37.28745675
1496321749275|9|-129|0|55.985758546666666|37.287460870000004
1496321749375|9|-93|0|55.985758546666666|37.287460870000004
1496321749475|9|-94|0|55.98575780166666|37.28746498333334
1496321749575|10|-66|0|55.98575705|37.287469124999994
1496321749675|10|-66|0|55.985755645000005|37.28747779
1496321749775|10|-41|0|55.98575499499999|37.28748217999999
1496321749875|10|-41|0|55.98575499499999|37.28748217999999
1496321749975|10|-15|0|55.98575366166666|37.28749143333334
1496321750075|10|-37|0|55.98575301333334|37.287496078333334
1496321750175|10|-16|0|55.98575301333334|37.287496078333334
1496321750275|11|11|0|55.98575180666666|37.287505425000006
1496321750375|11|-9|0|55.98575180666666|37.287505425000006
1496321750475|11|-7|0|55.985750505000006|37.28751498333334
1496321750575|11|-12|0|55.98574982666667|37.287519841666665
1496321750675|11|-14|0|55.98574982666667|37.287519841666665
1496321750775|11|-22|0|55.98574836666666|37.28752953166668
1496321750875|11|-37|0|55.98574836666666|37.28752953166668
1496321750975|11|-19|0|55.98574769333334|37.287534394999994
1496321751075|11|-28|0|55.98574630666667|37.28754455666667
1496321751175|11|-1|0|55.98574557666667|37.28754965333333
1496321751275|11|-25|0|55.98574490333334|37.287554730000004
1496321751375|12|-8|0|55.98574490333334|37.287554730000004
1496321751475|12|31|0|55.98574366500001|37.287565236666666
1496321751575|12|1|0|55.98574306333333|37.28757053833333
1496321751675|12|24|0|55.98574306333333|37.28757053833333
1496321751775|12|27|0|55.98574180166667|37.287581368333335
1496321751875|12|11|0|55.98574180166667|37.287581368333335
1496321751975|12|17|0|55.985741141666665|37.28758696333334
1496321752075|12|13|0|55.985739683333335|37.287598016666664
1496321752175|12|-22|0|55.98573894333333|37.28760362166667
1496321752275|13|-4|0|55.985738058333325|37.28760929666666
1496321752375|13|-33|0|55.985738058333325|37.28760929666666
1496321752475|13|-29|0|55.985736461666654|37.28762067500001
1496321752575|13|8|0|55.98573573833333|37.287626450000005
1496321752675|13|15|0|55.98573573833333|37.287626450000005
1496321752775|13|0|0|55.985734226666665|37.287638124999994
1496321752875|13|17|0|55.985734226666665|37.287638124999994
1496321752975|13|42|0|55.985732835|37.287650013333334
1496321753075|13|16|0|55.985732111666664|37.287656093333325
1496321753175|14|28|0|55.98573144000001|37.28766220833333
1496321753275|14|43|0|55.98573069333334|37.28766838333334
1496321753375|14|25|0|55.98573069333334|37.28766838333334
1496321753475|14|5|0|55.98572900833332|37.287680871666666
1496321753575|14|3|0|55.985728155000004|37.28768720833334
1496321753675|14|3|0|55.98572726166667|37.287693595
1496321753775|14|-3|0|55.98572633|37.28769999833333
1496321753875|15|-10|0|55.98572633|37.28769999833333
1496321753975|15|12|0|55.98572453166666|37.28771317333334
1496321754075|15|-8|0|55.985723585|37.287719798333335
1496321754175|15|27|0|55.985722705|37.28772643833334
1496321754275|15|24|0|55.985721813333335|37.28773318666667
1496321754375|15|28|0|55.985721813333335|37.28773318666667
1496321754475|15|19|0|55.98572000333334|37.28774679166668
1496321754575|16|37|0|55.985719073333335|37.28775368666666
1496321754675|16|26|0|55.98571813000001|37.28776060166667
1496321754775|16|24|0|55.985717103333336|37.28776753833333
1496321754875|16|10|0|55.985717103333336|37.28776753833333
1496321754975|16|18|0|55.985715080000006|37.28778155333333
1496321755075|16|10|0|55.98571397333334|37.28778864333334
1496321755176|16|2|0|55.985712944999996|37.28779570500001
1496321755276|16|-1|0|55.98571180166667|37.287802825
1496321755376|16|0|0|55.98571180166667|37.287802825
1496321755476|16|11|0|55.985709650000004|37.28781720333333
1496321755576|16|7|0|55.985708484999996|37.287824449999995
1496321755676|17|19|0|55.98570734500001|37.28783176166667
1496321755776|17|34|0|55.985706268333324|37.28783913833333
1496321755876|17|31|0|55.985706268333324|37.28783913833333
1496321755976|17|27|0|55.98570403|37.28785399833334
1496321756076|17|34|0|55.985702939999996|37.28786141833333
1496321756176|17|31|0|55.98570182333333|37.28786887833333
1496321756276|17|11|0|55.98570057|37.287876278333336
1496321756376|17|14|0|55.98570057|37.287876278333336
1496321756476|17|17|0|55.98569812000001|37.287891138333336
1496321756576|17|16|0|55.98569679666666|37.28789848666667
1496321756676|17|-3|0|55.98569679666666|37.28789848666667
1496321756776|17|7|0|55.98569423666666|37.287913325000005
1496321756876|17|8|0|55.98569423666666|37.287913325000005
1496321756976|17|18|0|55.985691711666675|37.28792811833334
1496321757076|17|20|0|55.985690444999996|37.287935585
1496321757176|17|6|0|55.985689098333324|37.28794308
1496321757276|17|10|0|55.985687788333344|37.287950486666674
1496321757376|17|14|0|55.985687788333344|37.287950486666674
1496321757476|17|22|0|55.98568522333333|37.28796548666667
1496321757576|17|18|0|55.985683955000006|37.28797290333333
1496321757676|17|22|0|55.985683955000006|37.28797290333333
1496321757776|17|14|0|55.98568139833333|37.28798773166667
1496321757876|17|18|0|55.98568139833333|37.28798773166667
1496321757976|17|17|0|55.985678795000005|37.28800245833333
1496321758076|17|14|0|55.98567752333333|37.288009724999995
1496321758176|17|10|0|55.985676241666674|37.288016926666664
1496321758276|16|13|0|55.985674981666676|37.288024025
1496321758376|16|10|0|55.985674981666676|37.288024025
1496321758476|16|13|0|55.98567247166667|37.28803797333333
1496321758576|16|-22|0|55.98567123|37.28804492666667
1496321758676|16|-19|0|55.98566997166666|37.28805184666666
1496321758776|16|-21|0|55.98566874333333|37.28805876166667
1496321758876|16|-18|0|55.98566874333333|37.28805876166667
1496321758976|16|-16|0|55.98566619333333|37.28807268333333
1496321759076|16|-12|0|55.985664981666666|37.288079626666665
1496321759176|16|-4|0|55.985663835|37.28808661333334
1496321759276|16|-9|0|55.98566266|37.28809360333332
1496321759376|16|-5|0|55.98566266|37.28809360333332
1496321759476|16|3|0|55.985660456666665|37.288107598333326
1496321759576|16|-4|0|55.985659306666676|37.28811463500001
1496321759676|16|2|0|55.985658214999994|37.28812159833334
1496321759776|16|5|0|55.985657139999994|37.288128566666664
1496321759876|16|4|0|55.985657139999994|37.288128566666664
1496321759976|16|0|0|55.985654918333324|37.288142543333336
1496321760076|16|8|0|55.98565386166667|37.28814956833333
1496321760176|16|7|0|55.985652846666675|37.28815660833333
1496321760276|16|0|0|55.98565173000001|37.28816359166667
1496321760376|16|1|0|55.98565173000001|37.28816359166667
1496321760476|16|-79|0|55.98564957166667|37.28817752166667
1496321760576|16|-62|0|55.98564852833333|37.28818454666668
1496321760676|16|-64|0|55.98564741166667|37.288191518333335
1496321760776|16|-63|0|55.98564636333334|37.28819855166667
1496321760876|16|-65|0|55.98564636333334|37.28819855166667
1496321760976|16|-60|0|55.985644335|37.28821267833333
1496321761076|16|-46|0|55.98564339166666|37.288219681666675
1496321761176|16|-28|0|55.98564251666667|37.28822675833334
1496321761276|16|-9|0|55.985641709999996|37.288233923333344
1496321761376|16|-6|0|55.985641709999996|37.288233923333344
1496321761476|16|20|0|55.985640286666666|37.28824826500001
1496321761576|16|14|0|55.985639606666666|37.288255453333335
1496321761676|16|15|0|55.985639606666666|37.288255453333335
1496321761776|16|15|0|55.985638288333334|37.28826991333334
1496321761876|16|16|0|55.985638288333334|37.28826991333334
1496321761976|16|8|0|55.98563689166667|37.28828429833334
1496321762076|16|16|0|55.98563621333332|37.288291568333335
1496321762176|16|-51|0|55.98563546833334|37.288298815
1496321762276|16|-50|0|55.98563472999999|37.288306113333334
1496321762376|16|-46|0|55.98563472999999|37.288306113333334
1496321762476|16|-49|0|55.985633243333325|37.28832068
1496321762576|16|-68|0|55.98563241833334|37.288327985
1496321762676|16|-51|0|55.985631685|37.288335253333344
1496321762776|16|-25|0|55.98563111833334|37.288342623333335
1496321762876|16|-28|0|55.98563111833334|37.288342623333335
1496321762976|16|-10|0|55.98563005833333|37.28835733333333
1496321763076|16|-7|0|55.98562957666667|37.28836473
1496321763176|16|7|0|55.985629155000005|37.28837213666667
1496321763276|16|14|0|55.98562875666667|37.28837959999999
1496321763376|16|15|0|55.98562875666667|37.28837959999999
1496321763476|16|12|0|55.98562789333334|37.288394481666664
1496321763576|16|7|0|55.98562746833333|37.28840194000001
1496321763676|17|3|0|55.985627023333336|37.28840940833334
1496321763776|17|-41|0|55.985626550000006|37.28841691
1496321763876|17|-43|0|55.985626550000006|37.28841691
1496321763976|17|-49|0|55.98562553499999|37.288431814999996
1496321764076|17|-53|0|55.98562503333332|37.28843927166667
1496321764176|17|-49|0|55.98562458333335|37.28844682666667
1496321764276|17|-22|0|55.98562419333332|37.28845431999999
1496321764376|17|-20|0|55.98562419333332|37.28845431999999
1496321764476|17|-2|0|55.98562348666666|37.288469365000005
1496321764576|17|7|0|55.985623258333334|37.288477013333335
1496321764676|17|14|0|55.98562308333333|37.28848454166667
1496321764776|17|33|0|55.98562301333333|37.28849219666667
1496321764876|17|29|0|55.98562301333333|37.28849219666667
1496321764976|17|13|0|55.98562267166667|37.288507425
1496321765076|17|8|0|55.98562244|37.28851510166666
1496321765176|17|6|0|55.98562219666666|37.28852268
1496321765276|17|4|0|55.985621945|37.28853019666668
1496321765376|17|7|0|55.985621945|37.28853019666668
1496321765476|17|-6|0|55.985621335|37.288545436666666
1496321765576|17|-7|0|55.98562102499999|37.28855305666667
1496321765676|17|-12|0|55.985620685|37.288560716666666
1496321765776|17|-8|0|55.985620396666675|37.28856836166666
1496321765876|17|-3|0|55.985620396666675|37.28856836166666
1496321765976|17|2|0|55.98561987833333|37.28858381166666
1496321766076|17|13|0|55.98561970666667|37.288591473333334
1496321766176|17|2|0|55.98561945333332|37.28859922
1496321766276|17|5|0|55.98561922166667|37.28860693666667
1496321766376|17|6|0|55.98561922166667|37.28860693666667
1496321766476|17|4|0|55.98561881833332|37.28862242666667
1496321766576|17|15|0|55.985618653333326|37.288630143333336
1496321766676|17|13|0|55.985618464999995|37.28863801666667
1496321766776|17|19|0|55.985618328333345|37.28864579166667
1496321766876|17|16|0|55.985618328333345|37.28864579166667
1496321766976|17|13|0|55.98561795333333|37.28866136333333
1496321767076|17|7|0|55.985617725000004|37.288669193333334
1496321767176|17|59|0|55.98561747|37.28867697666667
1496321767276|17|67|0|55.98561727166666|37.28868471666666
1496321767376|17|66|0|55.98561727166666|37.28868471666666
1496321767476|17|60|0|55.985616751666676|37.28870039333333
1496321767576|17|59|0|55.98561648999999|37.28870819833333
1496321767676|17|61|0|55.98561613166666|37.28871603166666
1496321767776|17|29|0|55.98561570666668|37.28872386333333
1496321767876|17|31|0|55.98561518666667|37.28873166166667
1496321767976|17|0|0|55.98561463333334|37.288739413333325
1496321768076|17|-12|0|55.985613994999994|37.28874724166668
1496321768176|17|-14|0|55.985613349999994|37.28875501833333
1496321768276|17|-12|0|55.98561271833334|37.28876279166667
1496321768376|17|-15|0|55.98561271833334|37.28876279166667
1496321768476|17|-4|0|55.985611468333346|37.288778301666675
1496321768576|17|-8|0|55.98561085666667|37.28878612833333
1496321768676|17|91|0|55.98561028666667|37.28879397666666
1496321768776|17|110|0|55.985609806666666|37.28880178166666
1496321768876|17|109|0|55.985609356666664|37.28880969333333
1496321768976|17|116|0|55.985608895|37.288817550000005
1496321769076|17|113|0|55.98560841666668|37.288825386666666
1496321769176|17|95|0|55.985607851666664|37.288833213333334
1496321769276|17|99|0|55.985607300000005|37.28884108333333
1496321769386|17|95|0|55.985607300000005|37.28884108333333
1496321769486|17|79|0|55.985606011666675|37.288856726666666
1496321769586|17|67|0|55.98560525166666|37.28886452
1496321769686|17|53|0|55.985604411666664|37.28887223833333
1496321769786|17|33|0|55.985603479999995|37.28887993
1496321769886|17|12|0|55.98560245333333|37.28888761499999
1496321769986|17|0|0|55.985601365|37.288895221666664
1496321770086|17|0|0|55.98560026333333|37.28890291
1496321770186|18|-4|0|55.98559913666667|37.28891060833333
1496321770286|18|-10|0|55.98559796333333|37.28891831166666
1496321770386|18|-11|0|55.98559678166666|37.28892599666667
1496321770486|18|87|0|55.98559568499999|37.28893373333334
1496321770586|18|96|0|55.985594636666676|37.288941473333324
1496321770686|18|115|0|55.985593656666666|37.288949333333335
1496321770786|18|119|0|55.985592694999994|37.28895713666666
1496321770886|18|113|0|55.98559170666667|37.28896494
1496321770986|18|124|0|55.98559076333333|37.28897273333334
1496321771086|18|100|0|55.98558971833333|37.288980475
1496321771186|18|105|0|55.98558869333333|37.288988233333335
1496321771286|18|91|0|55.98558758833333|37.288995991666674
1496321771386|18|84|0|55.985586448333336|37.28900364333333
1496321771486|18|80|0|55.98558526333333|37.28901135
1496321771586|18|65|0|55.98558398|37.28901891666667
1496321771686|18|42|0|55.98558259833334|37.28902637666667
1496321771786|18|30|0|55.985581161666666|37.28903385000001
1496321771886|18|17|0|55.98557967|37.28904128666666
1496321771986|18|2|0|55.98557811166666|37.28904864
1496321772086|17|133|0|55.98557649166667|37.28905597333333
1496321772186|17|148|0|55.985574943333326|37.28906340666667
1496321772286|17|154|0|55.98557343000001|37.289070826666666
1496321772386|17|155|0|55.985571913333324|37.28907826
1496321772486|17|153|0|55.98557040166666|37.28908560166668
1496321772586|17|126|0|55.98556871000001|37.28909285333333
1496321772687|17|115|0|55.98556695333334|37.289100045000005
1496321772787|17|121|0|55.98556522666666|37.289107259999994
1496321772887|17|74|0|55.98556328166666|37.289114356666666
1496321772987|17|68|0|55.98556134833334|37.289121295
1496321773087|17|58|0|55.98555939666667|37.28912805833334
1496321773187|17|28|0|55.985557285000006|37.289134615
1496321773287|17|-10|0|55.98555508333334|37.28914086166667
1496321773387|16|-10|0|55.98555289166667|37.28914707166667
1496321773487|16|-2|0|55.985550781666674|37.28915315666667
1496321773587|15|12|0|55.98554877500001|37.289159123333334
1496321773687|15|195|0|55.985546774999996|37.28916499333333
1496321773787|15|190|0|55.98554480333334|37.289170695
1496321773887|14|205|0|55.985542931666664|37.28917628333333
1496321773987|14|222|0|55.985541133333335|37.28918189166666
1496321774087|14|194|0|55.985539263333344|37.28918730333333
1496321774187|14|183|0|55.98553740333333|37.289192553333336
1496321774287|13|172|0|55.98553553166667|37.28919767666666
1496321774387|13|167|0|55.98553366333334|37.289202705
1496321774487|13|158|0|55.985531806666664|37.28920754166666
1496321774587|13|160|0|55.985530004999994|37.289212256666666
1496321774687|13|148|0|55.98552816500001|37.28921686333334
1496321774787|12|142|0|55.985526293333336|37.289221430000005
1496321774887|12|120|0|55.98552438833334|37.28922584166666
1496321774987|12|91|0|55.985522441666674|37.28923008666666
1496321775087|12|73|0|55.98552045666667|37.289234181666664
1496321775187|12|54|0|55.985518424999995|37.28923813166667
1496321775287|12|28|0|55.98551632833333|37.28924198666667
1496321775387|12|46|0|55.985514281666674|37.28924588833334
1496321775487|12|49|0|55.98551224500001|37.289249794999996
1496321775587|12|49|0|55.98551023666667|37.28925364666667
1496321775687|11|46|0|55.98550821166667|37.28925748666667
1496321775787|11|43|0|55.985506188333325|37.28926129333333
1496321775887|11|239|0|55.985504148333334|37.28926503666666
1496321775987|11|250|0|55.98550217000001|37.28926874000001
1496321776087|11|221|0|55.985500155000004|37.28927229166667
1496321776187|11|279|0|55.985498353333334|37.28927590833334
1496321776287|11|236|0|55.985496446666666|37.28927935166666
1496321776387|10|234|0|55.98549458666666|37.28928268
1496321776487|10|217|0|55.98549269499999|37.28928593
1496321776587|10|223|0|55.98549088|37.289289081666674
1496321776687|10|224|0|55.98548902166667|37.289292159999995
1496321776787|10|202|0|55.98548714333333|37.289295163333335
1496321776887|10|203|0|55.985485223333335|37.289298030000005
1496321776987|9|177|0|55.98548335|37.289300860000004
1496321777087|9|178|0|55.985481408333335|37.289303518333334
1496321777187|9|139|0|55.985479471666665|37.28930621666666
1496321777287|9|140|0|55.98547765333333|37.28930904333334
1496321777387|9|141|0|55.98547564833334|37.28931150166667
1496321777487|9|142|0|55.985473773333325|37.28931395333333
1496321777587|9|121|0|55.98547192833333|37.28931632999999
1496321777687|9|121|0|55.98546992166666|37.289318306666665
1496321777787|9|44|0|55.98546802000001|37.28932047666667
1496321777887|9|45|0|55.98546604166666|37.28932269333333
1496321777987|9|57|0|55.98546408000001|37.28932480833333
1496321778087|9|57|0|55.98546207166668|37.28932688
1496321778187|9|38|0|55.985460141666664|37.28932889
1496321778287|9|39|0|55.985458185|37.289331108333336
1496321778387|9|47|0|55.98545617666667|37.28933312666666
1496321778487|9|47|0|55.985454248333326|37.28933518666667
1496321778587|9|60|0|55.98545227666667|37.28933744
1496321778687|9|358|0|55.985450265|37.28933939333333
1496321778787|9|337|0|55.985448355|37.28934150166666
1496321778887|9|339|0|55.985446554999996|37.28934355666667
1496321778987|9|345|0|55.98544462333333|37.28934542333333
1496321779087|9|346|0|55.98544267833333|37.289347325
1496321779187|9|325|0|55.98544068666667|37.289349226666666
1496321779287|9|327|0|55.985438806666664|37.28935113333334
1496321779387|9|329|0|55.98543683166666|37.28935296666667
1496321779487|8|335|0|55.98543486666667|37.28935487166667
1496321779587|8|321|0|55.98543290166667|37.289356595
1496321779687|8|322|0|55.98543094833334|37.28935833333333
1496321779787|8|305|0|55.985429036666666|37.28936
1496321779887|8|307|0|55.98542705|37.289361656666664
1496321779987|8|273|0|55.98542507333333|37.28936314833333
1496321780087|8|274|0|55.98542309999999|37.28936444333334
1496321780187|8|235|0|55.985421179999996|37.289365775
1496321780287|8|236|0|55.98541919666667|37.28936706000001
1496321780387|8|219|0|55.985417258333335|37.28936828166666
1496321780488|8|220|0|55.98541523666666|37.28936937666666
1496321780588|8|173|0|55.985413231666676|37.289370345
1496321780688|8|173|0|55.985411279999994|37.28937112
1496321780788|8|114|0|55.98540929666667|37.289371865
1496321780888|8|114|0|55.98540729166666|37.28937247166667
1496321780988|8|93|0|55.98540524999999|37.28937317999999
1496321781088|8|93|0|55.985403266666665|37.28937384333334
1496321781188|8|103|0|55.98540125166666|37.289374601666665
1496321781288|8|103|0|55.98539923166667|37.289375305
1496321781388|8|100|0|55.985397285000005|37.28937597
1496321781488|8|100|0|55.98539528|37.289376598333334
1496321781588|8|79|0|55.98539332|37.289377089999995
1496321781688|8|79|0|55.985391408333335|37.28937766666667
1496321781788|8|67|0|55.985389399999995|37.2893781
1496321781888|8|67|0|55.98538745666667|37.28937859833333
1496321781988|7|72|0|55.985385515000004|37.289379088333334
1496321782088|7|72|0|55.985383696666666|37.28937955
1496321782188|7|74|0|55.98538183166667|37.28938004333334
1496321782288|7|74|0|55.98538006333333|37.289380423333334
1496321782388|7|53|0|55.985378178333335|37.28938084
1496321782488|7|53|0|55.985376366666664|37.289381355
1496321782588|7|68|0|55.985374609999994|37.289381723333335
1496321782688|7|68|0|55.98537281666667|37.28938218166667
1496321782788|7|369|0|55.98537107666667|37.28938247000001
1496321782888|7|371|0|55.98536937000001|37.289382655000004
1496321782988|7|328|0|55.98536773166666|37.28938284
1496321783088|6|339|0|55.98536605166667|37.28938306999999
1496321783188|6|366|0|55.98536435833333|37.28938342166667
1496321783288|6|367|0|55.985362738333336|37.28938369666667
1496321783388|6|359|0|55.98536103333333|37.289383920000006
1496321783488|6|361|0|55.98535944666667|37.289384193333326
1496321783588|6|359|0|55.98535783833333|37.28938437166667
1496321783688|6|361|0|55.98535625666667|37.28938444
1496321783788|6|328|0|55.985354746666665|37.289384545000004
1496321783888|6|330|0|55.985353243333336|37.289384686666665
1496321783988|6|338|0|55.98535171|37.28938476333334
1496321784088|6|339|0|55.985350196666666|37.28938473166667
1496321784188|6|296|0|55.98534880666666|37.28938471833333
1496321784288|5|314|0|55.98534737500001|37.289384563333336
1496321784388|5|262|0|55.98534596666667|37.28938430666667
1496321784488|5|263|0|55.98534463833333|37.289383959999995
1496321784588|5|263|0|55.985343291666666|37.28938371
1496321784688|5|209|0|55.985342045|37.28938328833334
1496321784788|5|209|0|55.985340749999985|37.289382823333334
1496321784888|5|189|0|55.98533946833333|37.28938247000001
1496321784988|5|189|0|55.985338185|37.289381985000006
1496321785088|5|184|0|55.985336866666664|37.28938160833333
1496321785188|5|185|0|55.985335535|37.289381266666666
1496321785288|5|187|0|55.98533430000001|37.289380771666664
1496321785388|5|187|0|55.985333029999985|37.28938024
1496321785488|5|147|0|55.98533173333333|37.28937972666667
1496321785588|5|147|0|55.98533051666667|37.289379185
1496321785688|5|148|0|55.98532928666666|37.28937873833333
1496321785788|5|172|0|55.985327965|37.28937836333334
1496321785888|5|172|0|55.98532680666667|37.28937777666666
1496321785988|5|172|0|55.98532567666666|37.28937729333334
1496321786088|4|164|0|55.98532442000001|37.289376833333336
1496321786188|4|164|0|55.985323316666666|37.28937628
1496321786288|4|164|0|55.98532216|37.28937563333333
1496321786388|4|131|0|55.985321101666656|37.28937508166667
1496321786488|4|131|0|55.98532002833334|37.28937443833333
1496321786588|4|131|0|55.98531904666667|37.28937392000001
1496321786688|4|144|0|55.98531797833333|37.28937354833333
1496321786788|4|144|0|55.98531698499999|37.28937295666667
1496321786888|4|143|0|55.98531604333333|37.28937237166667
1496321786988|4|102|0|55.98531504333334|37.28937182
1496321787088|4|101|0|55.985314163333335|37.28937118166667
1496321787188|4|101|0|55.98531320333333|37.28937079833334
1496321787288|4|56|0|55.98531235666666|37.28936993666667
1496321787388|3|99|0|55.985311491666664|37.28936942333333
1496321787488|3|99|0|55.98531053|37.28936885
1496321787588|3|124|0|55.98530972333334|37.28936826
1496321787688|3|124|0|55.98530885666667|37.289367786666666
1496321787788|3|123|0|55.98530809333333|37.28936718999999
1496321787888|3|107|0|55.985307345|37.28936665333333
1496321787988|3|106|0|55.98530653500001|37.289365995
1496321788088|3|106|0|55.98530588166666|37.28936554166666
1496321788188|2|188|0|55.98530523666666|37.289365079999996
1496321788288|2|174|0|55.98530467000001|37.28936475166667
1496321788388|2|173|0|55.985304170000006|37.28936438
1496321788488|2|173|0|55.985303676666675|37.28936402666666
1496321788588|2|172|0|55.98530320166667|37.289363664999996
1496321788688|2|172|0|55.98530275666667|37.28936329666667
1496321788788|2|171|0|55.985302329999996|37.28936298666667
1496321788888|2|168|0|55.985301869999994|37.289362741666665
1496321788988|2|168|0|55.98530142833333|37.28936235166667
1496321789088|2|167|0|55.98530094666666|37.28936202999999
1496321789188|2|167|0|55.985300450000004|37.289361639999996
1496321789288|2|166|0|55.985300015|37.28936125833333
1496321789388|2|165|0|55.98529953833333|37.289360871666666
1496321789488|2|135|0|55.98529904666666|37.28936049499999
1496321789588|2|135|0|55.98529851833334|37.28936011333334
1496321789688|2|134|0|55.98529805666667|37.28935972000001
1496321789788|2|133|0|55.98529752666666|37.289359260000005
1496321789888|2|132|0|55.98529704166667|37.28935877499999
1496321789988|2|118|0|55.985296506666664|37.28935837833334
1496321790088|2|117|0|55.98529598666667|37.28935800333334
1496321790189|2|116|0|55.98529541333333|37.28935747333333
1496321790289|2|115|0|55.98529492333334|37.289357036666665
1496321790389|2|115|0|55.98529438|37.289356561666665
1496321790489|2|99|0|55.98529383333334|37.289356045000005
1496321790589|2|98|0|55.985293283333334|37.28935561666666
1496321790689|2|98|0|55.985292693333335|37.28935521500001
1496321790789|2|97|0|55.985292120000004|37.28935476666666
1496321790889|2|96|0|55.985291579999995|37.28935429166667
1496321790989|2|134|0|55.98529098166667|37.28935385166667
1496321791089|2|133|0|55.98529037666667|37.28935329833333
1496321791189|2|132|0|55.98528981833333|37.28935284166666
1496321791289|2|131|0|55.98528921000001|37.289352281666666
1496321791389|2|130|0|55.985288621666655|37.289351655000004
1496321791489|2|96|0|55.98528795666667|37.28935124999999
1496321791589|2|94|0|55.98528730333334|37.28935063666667
1496321791689|2|93|0|55.985286708333334|37.28934998666667
1496321791789|3|18|0|55.985286063333334|37.28934939833333
1496321791889|3|-33|0|55.985285450000006|37.28934873833334
1496321791989|3|-34|0|55.985284771666656|37.28934808333334
1496321792089|3|-35|0|55.98528409833334|37.289347425
1496321792189|3|-35|0|55.98528336833333|37.28934676666667
1496321792289|3|-27|0|55.98528275499999|37.28934611333334
1496321792389|3|-28|0|55.98528200666666|37.28934550166667
1496321792489|3|-29|0|55.985281311666654|37.289344838333335
1496321792589|3|-30|0|55.985280638333336|37.28934416333333
1496321792689|3|-15|0|55.985279991666665|37.28934354333334
1496321792789|3|-16|0|55.98527934333333|37.28934291
1496321792889|2|52|0|55.98527868833333|37.28934241166667
1496321792989|2|52|0|55.985278135|37.289341971666666
1496321793089|2|51|0|55.985277686666656|37.289341603333334
1496321793189|2|67|0|55.985277405|37.28934126000001
1496321793289|1|253|0|55.98527720333333|37.289341064999995
1496321793389|0|252|0|55.985277104999994|37.28934095333334
1496321793489|0|252|0|55.985277035|37.289340895
1496321793589|0|252|0|55.98527696833333|37.289340841666665
1496321793689|0|252|0|55.98527683333334|37.28934072333333
1496321793789|0|251|0|55.98527670000001|37.28934060833334
1496321793889|0|251|0|55.9852766|37.289340501666665
1496321793989|0|251|0|55.98527644666666|37.289340370000005
1496321794089|0|250|0|55.98527627833333|37.289340214999996
1496321794189|0|250|0|55.98527607999999|37.289340045
1496321794289|0|249|0|55.985275888333334|37.289339856666665
1496321794389|0|248|0|55.985275675|37.28933966
1496321794489|1|247|0|55.985275451666666|37.289339410000004
1496321794589|1|246|0|55.98527520333333|37.28933916833333
1496321794689|1|221|0|55.98527493333332|37.289338906666664
1496321794789|1|220|0|55.985274656666654|37.289338661666676
1496321794889|1|219|0|55.98527431000001|37.289338341666664
1496321794989|1|218|0|55.985273979999995|37.289337983333326
1496321795089|1|216|0|55.98527362166666|37.28933760166666
1496321795189|1|214|0|55.98527329000001|37.289337206666666
1496321795289|1|213|0|55.985272914999996|37.28933681833333
1496321795389|1|177|0|55.985272540000004|37.28933638666667
1496321795489|1|175|0|55.985272095|37.289335986666664
1496321795589|2|-4|0|55.985271676666656|37.28933552
1496321795689|2|-5|0|55.985271225|37.28933501333333
1496321795789|2|-6|0|55.98527075|37.28933452999999
1496321795891|2|-8|0|55.98527030166667|37.28933396833333
1496321795991|2|-26|0|55.98526982833333|37.28933339
1496321796091|2|-28|0|55.98526923666667|37.289332771666665
1496321796191|2|-30|0|55.985268690000005|37.289332091666665
1496321796291|2|-31|0|55.98526798666667|37.28933141666666
1496321796391|2|-35|0|55.98526736833334|37.28933065333334
1496321796491|3|-98|0|55.98526669333334|37.28932990166666
1496321796591|3|-100|0|55.985265971666664|37.28932908666666
1496321796691|3|-101|0|55.98526526833332|37.289328233333336
1496321796791|3|-115|0|55.985264539999996|37.289327396666664
1496321796891|3|-116|0|55.98526374|37.289326548333335
1496321796991|3|-118|0|55.98526301666668|37.28932565666666
1496321797091|3|-112|0|55.985262193333334|37.28932475333333
1496321797191|3|-113|0|55.98526138833332|37.289323874999994
1496321797291|3|-115|0|55.98526061833333|37.28932292166667
1496321797391|3|-106|0|55.98525974833333|37.289322075
1496321797491|3|-107|0|55.98525889999999|37.289321213333324
1496321797591|3|-109|0|55.98525818333332|37.289320386666674
1496321797691|3|-82|0|55.98525742166667|37.28931972
1496321797791|3|-83|0|55.98525687666667|37.289319109999994
1496321797891|1|113|0|55.985256594999996|37.28931859833333
1496321797991|1|110|0|55.98525655499999|37.28931823166667
1496321798091|0|111|0|55.985256598333336|37.28931834
1496321798191|0|114|0|55.985256665|37.28931869166667
1496321798291|0|116|0|55.98525669000001|37.28931891333334
1496321798396|0|116|0|55.98525665666666|37.28931891666667
1496321798497|0|115|0|55.985256621666665|37.28931881333333
1496321798597|0|114|0|55.985256631666665|37.28931874166666
1496321798697|0|115|0|55.985256625|37.28931876
1496321798797|0|115|0|55.985256621666665|37.28931882
1496321798897|0|115|0|55.985256623333335|37.289318858333324
1496321798997|0|116|0|55.98525665166667|37.289318900000005
1496321799097|0|115|0|55.98525665666666|37.289318881666674
1496321799197|0|116|0|55.98525664833334|37.28931888666667
1496321799297|0|115|0|55.985256650000004|37.289318881666674
1496321799397|0|115|0|55.985256655|37.289318878333326
1496321799497|0|115|0|55.98525664333334|37.28931887166667
1496321799597|0|115|0|55.98525664833334|37.28931888
1496321799697|0|115|0|55.98525664833334|37.28931886666667
1496321799797|0|115|0|55.985256645|37.28931887
1496321799897|0|115|0|55.985256626666654|37.289318818333335
1496321799997|0|115|0|55.985256626666654|37.28931880166667
1496321800097|0|115|0|55.985256605|37.289318795
1496321800197|0|115|0|55.98525655666668|37.289318734999995
1496321800297|0|114|0|55.985256500000006|37.289318675000004
1496321800397|0|114|0|55.985256408333335|37.28931860833333
1496321800497|0|114|0|55.985256324999995|37.289318496666674
1496321800597|0|113|0|55.98525622833334|37.289318385
1496321800697|0|112|0|55.985256121666666|37.289318236666674
1496321800797|0|111|0|55.98525599333334|37.28931803166666
1496321800897|0|110|0|55.98525586333333|37.28931783499999
1496321800997|0|109|0|55.98525566000001|37.28931763166666
1496321801097|0|108|0|55.98525545833333|37.289317375
1496321801197|0|49|0|55.98525528|37.289317168333326
1496321801297|1|47|0|55.98525502500001|37.28931688833333
1496321801397|1|47|0|55.98525477833333|37.28931664833333
1496321801497|1|45|0|55.985254510000004|37.289316361666664
1496321801597|1|44|0|55.985254219999995|37.28931602
1496321801697|1|42|0|55.985253913333324|37.289315724999994
1496321801797|1|41|0|55.9852536|37.28931544166667
1496321801897|1|40|0|55.985253278333325|37.289315069999994
1496321801997|1|83|0|55.98525296166665|37.28931473
1496321802097|1|81|0|55.98525263833333|37.289314360000006
1496321802197|1|79|0|55.985252236666675|37.28931390666667
1496321802297|1|77|0|55.985251891666664|37.289313455
1496321802397|1|76|0|55.985251591666675|37.28931313
1496321802497|1|74|0|55.985251251666654|37.289312835000004
1496321802597|1|73|0|55.98525089333332|37.28931245333334
1496321802697|1|53|0|55.985250541666666|37.28931205333334
1496321802797|1|51|0|55.985250185|37.28931161999999
1496321802897|1|49|0|55.985249766666655|37.289311135000005
1496321802997|1|46|0|55.985249393333326|37.289310658333335
1496321803097|1|43|0|55.985249024999995|37.289310073333326
1496321803197|1|40|0|55.985248639999995|37.28930960333332
1496321803297|1|-12|0|55.98524824166668|37.289309135
1496321803397|1|-14|0|55.98524776666667|37.28930860166666
1496321803497|2|-141|0|55.98524734833333|37.28930808
1496321803597|2|-142|0|55.98524689833333|37.28930763
1496321803697|2|-144|0|55.985246538333335|37.28930712333333
1496321803797|1|-24|0|55.98524619166666|37.28930665833334
1496321803897|1|-20|0|55.9852459|37.289306215
1496321803997|1|-22|0|55.985245586666665|37.28930583833334
1496321804097|1|-23|0|55.985245343333325|37.28930554166667
1496321804197|1|-25|0|55.98524516833333|37.289305330000005
1496321804297|1|-25|0|55.985245023333334|37.28930516333334
1496321804397|0|-26|0|55.98524492000001|37.289305065
1496321804497|0|-26|0|55.98524490666667|37.289305045
1496321804597|0|-25|0|55.98524496666668|37.28930512666667
1496321804697|0|-25|0|55.98524500166666|37.289305201666664
1496321804797|0|-25|0|55.98524499|37.28930523333333
1496321804897|0|-25|0|55.985244946666676|37.28930518833333
1496321804997|0|-25|0|55.98524494333333|37.28930514
1496321805097|0|-25|0|55.98524492833333|37.28930516333334
1496321805197|0|-25|0|55.98524494333333|37.28930516999999
1496321805297|0|-25|0|55.985244949999995|37.289305184999996
1496321805397|0|-25|0|55.98524493500001|37.28930518166666
1496321805497|0|-25|0|55.98524494500001|37.28930516833333
1496321805597|0|-25|0|55.98524495500001|37.28930516500001
1496321805697|0|-25|0|55.98524494500001|37.289305221666666
1496321805797|0|-25|0|55.98524492833333|37.289305209999995
1496321805897|0|-24|0|55.985244868333325|37.28930520333333
1496321805997|0|-24|0|55.98524487|37.289305199999994
1496321806097|0|-24|0|55.985244836666666|37.28930517999999
1496321806197|0|-25|0|55.98524477666667|37.28930513166666
1496321806297|0|-25|0|55.98524467333333|37.289305041666665
1496321806397|0|-26|0|55.98524450833333|37.28930488
1496321806497|0|-27|0|55.985244245000004|37.28930462666666
1496321806597|0|-28|0|55.985243886666666|37.289304278333326
1496321806697|1|42|0|55.98524353333334|37.289303806666666
1496321806797|1|39|0|55.985243155000006|37.289303303333334
1496321806897|2|-75|0|55.985242645|37.28930266333333
1496321806997|2|-77|0|55.985242156666665|37.289302078333336
1496321807097|2|-79|0|55.98524158833334|37.289301355
1496321807197|3|-206|0|55.985241020000004|37.28930055
1496321807297|3|-208|0|55.985240335|37.28929971666667
1496321807397|3|-210|0|55.98523962666666|37.28929870833333
1496321807497|3|-232|0|55.98523889500001|37.28929765166667
1496321807598|4|-252|0|55.985238091666666|37.28929652166667
1496321807698|4|-254|0|55.98523720500001|37.28929520333334
1496321807798|4|-282|0|55.98523626166666|37.289293834999995
1496321807898|5|-292|0|55.985235335|37.28929241
1496321807998|5|-318|0|55.98523429833334|37.28929076666666
1496321808098|6|-326|0|55.98523321166667|37.289289155
1496321808198|6|-306|0|55.98523202166666|37.289287433333335
1496321808298|6|-308|0|55.98523083833334|37.289285541666665
1496321808398|6|-342|0|55.985229573333335|37.28928350833333
1496321808498|7|-347|0|55.98522837166667|37.28928127333334
1496321808598|7|-378|0|55.985226919999995|37.28927897166666
1496321808698|8|-382|0|55.98522531333332|37.28927644333333
1496321808798|9|-351|0|55.98522366333333|37.28927380166666
1496321808898|9|-353|0|55.98522188666667|37.28927103166667
1496321808998|10|-357|0|55.98522002833333|37.28926799833334
1496321809098|10|-360|0|55.98521813|37.28926481166666
1496321809198|10|-376|0|55.985216105000006|37.289261535
1496321809298|10|-356|0|55.98521399999999|37.28925824666667
1496321809398|11|-364|0|55.98521185166666|37.28925482166667
1496321809498|11|-362|0|55.98520960333334|37.28925127833334
1496321809598|11|-363|0|55.985207361666674|37.28924775166667
1496321809698|12|-355|0|55.98520502166666|37.28924417833333
1496321809798|12|-340|0|55.985202641666675|37.28924073666667
1496321809898|11|-346|0|55.98520034333333|37.289237388333326
1496321809998|11|-346|0|55.98519805166667|37.289234073333326
1496321810098|11|-325|0|55.98519573333333|37.289230890000006
1496321810198|11|-332|0|55.985193465|37.28922774333333
1496321810298|11|-315|0|55.985191193333335|37.28922470833334
1496321810399|11|-306|0|55.985188995|37.28922183
1496321810499|11|-300|0|55.985186716666675|37.289218901666665
1496321810599|10|-280|0|55.985184436666664|37.289216190000005
1496321810699|10|-275|0|55.98518218499999|37.28921356666667
1496321810799|10|-277|0|55.98517998833332|37.289211198333334
1496321810899|10|-251|0|55.98517792666667|37.28920895
1496321810999|9|-256|0|55.985175989999995|37.28920689666666
1496321811099|9|-244|0|55.98517413|37.28920495833333
1496321811199|8|-250|0|55.98517239833333|37.289203153333325
1496321811299|7|-261|0|55.98517082833334|37.28920146499999
1496321811399|7|-262|0|55.985169403333344|37.289199984999996
1496321811499|6|-289|0|55.98516815666667|37.28919851833333
1496321811599|6|-291|0|55.985166966666675|37.28919714166667
1496321811699|5|-301|0|55.98516574333333|37.289195885000005
1496321811799|5|-303|0|55.985164590000004|37.289194626666664
1496321811899|5|-308|0|55.985163403333345|37.28919330833334
1496321811999|5|-309|0|55.985162208333335|37.28919202333333
1496321812099|5|-315|0|55.98516108166667|37.28919072166667
1496321812199|5|-317|0|55.985159955|37.289189351666664
1496321812299|5|-339|0|55.98515886166666|37.289188085
1496321812399|5|-341|0|55.98515775666666|37.28918675
1496321812499|5|-355|0|55.98515666166667|37.28918535666667
1496321812599|5|-357|0|55.98515557833333|37.2891839
1496321812699|5|-395|0|55.985154435000005|37.289182338333326
1496321812799|6|-381|0|55.98515316999999|37.28918075833334
1496321812899|6|-381|0|55.98515184666667|37.28917884333334
1496321812999|7|-371|0|55.985150393333335|37.28917669333334
1496321813099|8|-401|0|55.98514883833333|37.289174393333326
1496321813199|8|-403|0|55.98514722166666|37.28917208333333
1496321813299|8|-396|0|55.985145563333326|37.28916967000001
1496321813399|8|-398|0|55.98514383333333|37.289167105000004
1496321813499|9|-404|0|55.98514208166666|37.28916445
1496321813599|9|-407|0|55.98514037166666|37.28916155500001
1496321813699|9|-431|0|55.985138495|37.28915869833334
1496321813803|10|-435|0|55.98513660333333|37.289155605
1496321813903|10|-437|0|55.98513468999999|37.289152396666665
1496321814003|11|-453|0|55.985132756666665|37.28914904666666
1496321814103|11|-428|0|55.98513071333334|37.28914574833333
1496321814203|11|-462|0|55.985128626666665|37.28914208
1496321814303|11|-462|0|55.98512647166667|37.28913836333333
1496321814403|12|-442|0|55.98512418333333|37.28913456666667
1496321814503|12|-431|0|55.985121795000005|37.28913071666667
1496321814603|13|-454|0|55.98511946|37.28912673999999
1496321814703|13|-458|0|55.98511699333334|37.28912253
1496321814803|13|-430|0|55.98511438166666|37.289118343333335
1496321814903|14|-462|0|55.985111876666664|37.289113985
1496321815003|14|-437|0|55.98510921666666|37.289109644999996
1496321815103|15|-462|0|55.98510658166667|37.289104955
1496321815203|15|-448|0|55.98510380333334|37.289100308333325
1496321815303|15|-462|0|55.98510102|37.28909548833333
1496321815403|15|-460|0|55.98509820333334|37.28909070833334
1496321815503|16|-448|0|55.98509525166667|37.289085789999994
1496321815603|16|-462|0|55.985092349999995|37.28908079000001
1496321815703|16|-452|0|55.98508929500001|37.28907569833333
1496321815803|17|-462|0|55.98508629833333|37.289070546666665
1496321815903|17|-452|0|55.98508318333334|37.289065359999995
1496321816003|17|-462|0|55.985080163333336|37.289060041666666
1496321816103|17|-460|0|55.98507696166666|37.289054666666665
1496321816203|17|-462|0|55.985073826666664|37.289049336666665
1496321816303|17|-462|0|55.98507063499999|37.289043895000006
1496321816403|17|-462|0|55.98506741333333|37.289038510000005
1496321816503|17|-462|0|55.98506417333333|37.289033118333336
1496321816603|17|-462|0|55.98506096500001|37.28902782833333
1496321816703|17|-461|0|55.98505778|37.2890226
1496321816803|17|-460|0|55.98505459666667|37.289017406666666
1496321816903|17|-462|0|55.98505135|37.289012031666665
1496321817003|17|-462|0|55.98504817333334|37.28900685166666
1496321817103|17|-450|0|55.98504490333333|37.289001733333336
1496321817206|17|-449|0|55.98504166666667|37.28899671
1496321817306|17|-456|0|55.98503845|37.288991646666666
1496321817406|17|-461|0|55.98503535666667|37.288986733333324
1496321817506|17|-459|0|55.98503213666666|37.28898167
1496321817606|16|-461|0|55.985029004999994|37.28897683666667
1496321817706|16|-462|0|55.98502585666667|37.28897199166666
1496321817806|16|-453|0|55.985022613333335|37.28896718
1496321817906|16|-453|0|55.98501947166666|37.288962551666664
1496321818006|16|-455|0|55.98501629000001|37.288957868333334
1496321818106|16|-457|0|55.98501309666668|37.288953156666665
1496321818206|16|-457|0|55.98500988|37.28894844
1496321818306|16|-449|0|55.98500666166667|37.288943845000006
1496321818406|16|-433|0|55.985003434999996|37.288939416666665
1496321818506|16|-434|0|55.98500018166666|37.288934958333336
1496321818606|16|-412|0|55.98499692000001|37.28893071
1496321818706|16|-420|0|55.98499364166667|37.288926378333336
1496321818806|16|-403|0|55.98499033666668|37.288922195
1496321818906|16|-406|0|55.984987015|37.28891796833333
1496321819006|16|-400|0|55.984983723333336|37.28891386833333
1496321819106|16|-396|0|55.984980404999995|37.28890982
1496321819206|16|-399|0|55.984977143333325|37.288905820000004
1496321819306|16|-365|0|55.984973825|37.28890217166667
1496321819406|15|-402|0|55.98497053833333|37.288898265
1496321819506|15|-382|0|55.984967248333334|37.288894605
1496321819606|15|-381|0|55.984963961666665|37.288890965
1496321819706|15|-387|0|55.984960723333344|37.288887338333325
1496321819806|15|-397|0|55.98495748166666|37.28888361333333
1496321819906|15|-409|0|55.98495438999999|37.288879933333334
1496321820006|15|-415|0|55.98495130166666|37.28887618500001
1496321820106|15|-436|0|55.984948278333334|37.28887228666667
1496321820206|15|-426|0|55.98494519666667|37.28886844
1496321820306|15|-412|0|55.98494210333333|37.28886479166667
1496321820406|15|-444|0|55.984939115|37.28886090333332
1496321820506|14|-441|0|55.98493610333333|37.28885716333333
1496321820606|14|-448|0|55.98493316333334|37.288853450000005
1496321820706|14|-462|0|55.98493020666666|37.28884956666667
1496321820806|14|-462|0|55.98492727833333|37.288845720000005
1496321820906|14|-462|0|55.984924426666666|37.28884182
1496321821006|14|-462|0|55.984921548333325|37.288838036666675
1496321821106|14|-462|0|55.984918755|37.28883426833333
1496321821206|14|-462|0|55.98491593166667|37.288830489999995
1496321821306|14|-462|0|55.98491315333334|37.28882660833334
1496321821406|14|-462|0|55.98491039|37.288822831666664
1496321821506|14|-462|0|55.98490763333333|37.28881884166667
1496321821606|14|-462|0|55.98490482333334|37.28881507833333
1496321821706|14|-462|0|55.984902154999986|37.28881113166667
1496321821806|14|-462|0|55.98489933166667|37.28880719833333
1496321821906|14|-462|0|55.98489657166667|37.28880325666666
1496321822006|14|-462|0|55.98489381166667|37.288799088333334
1496321822106|14|-462|0|55.984890906666664|37.28879525166667
1496321822206|14|-462|0|55.98488807333334|37.28879104
1496321822306|14|-462|0|55.98488530166666|37.288786806666664
1496321822406|14|-462|0|55.98488243833334|37.288782295000004
1496321822506|14|-462|0|55.98487959166667|37.288777995000004
1496321822606|15|-462|0|55.98487674|37.288773856666666
1496321822706|15|-462|0|55.98487379333333|37.28876949833334
1496321822806|15|-462|0|55.98487097000001|37.288765004999995
1496321822906|15|-462|0|55.984868014999996|37.288760855
1496321823006|15|-462|0|55.98486514|37.288756234999994
1496321823106|15|-462|0|55.98486228166666|37.28875187666666
1496321823206|15|-462|0|55.984859351666664|37.28874694666667
1496321823306|15|-462|0|55.98485631666667|37.28874249
1496321823406|15|-462|0|55.98485340333333|37.288737758333326
1496321823506|16|-462|0|55.98485041833333|37.288732970000005
1496321823606|16|-462|0|55.98484728166666|37.28872821833333
1496321823706|16|-462|0|55.984844253333335|37.28872320333333
1496321823806|16|-462|0|55.98484126666667|37.288718115
1496321823906|16|-462|0|55.984838198333335|37.28871310000001
1496321824006|16|-462|0|55.98483510833333|37.28870801833333
1496321824106|17|-462|0|55.98483218333334|37.28870280666666
1496321824206|17|-462|0|55.98482900333334|37.288697594999995
1496321824306|17|-462|0|55.98482601833332|37.28869227500001
1496321824406|17|-462|0|55.98482271333334|37.288687065000005
1496321824506|17|-462|0|55.984819641666675|37.28868157333333
1496321824606|17|-462|0|55.98481647|37.28867615333334
1496321824706|17|-462|0|55.98481337833333|37.28867067833333
1496321824806|17|-462|0|55.98481048166666|37.288664964999995
1496321824909|17|-462|0|55.98480731166666|37.28865945333333
1496321825009|17|-462|0|55.98480430166666|37.28865382833333
1496321825110|17|-462|0|55.98480117333333|37.28864829
1496321825210|17|-462|0|55.984798135000005|37.288642429999996
1496321825310|17|-462|0|55.984794946666675|37.28863682000001
1496321825410|17|-462|0|55.98479184666667|37.288631065
1496321825510|18|-462|0|55.98478870499999|37.28862532666667
1496321825610|18|-462|0|55.98478559666667|37.28861954166667
1496321825710|18|-462|0|55.98478245166666|37.288613805000004
1496321825810|18|-462|0|55.98477932666666|37.288608143333335
1496321825910|18|-462|0|55.98477611333333|37.28860254333333
1496321826010|18|-462|0|55.98477301166666|37.288596835
1496321826110|18|-462|0|55.98476978000001|37.288591255
1496321826210|18|-462|0|55.984766615|37.28858574166667
1496321826310|18|-462|0|55.98476335666666|37.288580225
1496321826410|17|-462|0|55.984760134999995|37.28857474166667
1496321826510|17|-462|0|55.98475688166667|37.288569275
1496321826610|17|-462|0|55.98475366500001|37.28856388833334
1496321826710|17|-462|0|55.98475036833334|37.28855849999999
1496321826810|17|-462|0|55.98474709|37.28855316333333
1496321826910|17|-462|0|55.984743804999994|37.288547825
1496321827010|17|-462|0|55.98474051|37.28854260333334
1496321827110|17|-462|0|55.984737233333334|37.288537456666674
1496321827210|17|-462|0|55.98473392833333|37.28853229999999
1496321827310|17|-462|0|55.984730559999996|37.288527175
1496321827410|17|-462|0|55.98472725999999|37.28852207833334
1496321827510|17|-462|0|55.984723955|37.288516906666665
1496321827610|17|-462|0|55.98472063999999|37.28851184333334
1496321827710|17|-462|0|55.98471727|37.28850688
1496321827810|17|-462|0|55.98471392666667|37.288501866666664
1496321827910|17|-462|0|55.98471059166666|37.288496891666675
1496321828010|17|-462|0|55.984707228333335|37.28849188
1496321828110|17|-462|0|55.98470382166667|37.28848678166666
1496321828210|17|-462|0|55.98470037499999|37.288482115
1496321828310|17|-462|0|55.98469703833333|37.288477095000005
1496321828410|17|-462|0|55.984693735|37.288472238333334
1496321828510|16|-462|0|55.9846904|37.28846762666667
1496321828610|16|-462|0|55.98468709166667|37.288462935000005
1496321828710|16|-462|0|55.984683878333335|37.28845821333333
1496321828810|16|-462|0|55.98468063166667|37.288453775
1496321828910|16|-462|0|55.98467745333334|37.28844933166667
1496321829010|16|-462|0|55.98467423499999|37.28844510333334
1496321829110|15|-462|0|55.984671066666664|37.28844109166666
1496321829210|15|-462|0|55.98466791833333|37.288437143333326
1496321829310|15|-462|0|55.984664848333324|37.28843341
1496321829410|14|-462|0|55.98466172333333|37.288429830000005
1496321829510|14|-462|0|55.9846587|37.2884263
1496321829610|14|-462|0|55.98465563|37.28842306
1496321829710|14|-462|0|55.984652613333346|37.288419963333325
1496321829810|13|-462|0|55.98464954166668|37.288417153333334
1496321829910|13|-462|0|55.98464654833334|37.28841455
1496321830010|13|-462|0|55.98464353333334|37.28841215166666
1496321830110|13|-445|0|55.98464047|37.288410141666674
1496321830210|13|-444|0|55.98463745666667|37.28840817666667
1496321830310|13|-401|0|55.984634404999994|37.28840647833333
1496321830410|13|-369|0|55.98463135000001|37.288405035
1496321830510|13|-325|0|55.98462828833334|37.28840389166666
1496321830610|13|-294|0|55.98462529666667|37.28840297166667
1496321830710|12|-280|0|55.98462229166666|37.288402355
1496321830810|12|-232|0|55.984619255000005|37.28840202166668
1496321830910|12|-214|0|55.984616233333334|37.288401834999995
1496321831010|12|-183|0|55.98461332833333|37.28840185
1496321831110|12|-142|0|55.984610425|37.288402095
1496321831210|12|-108|0|55.98460755999999|37.28840258833333
1496321831310|12|-49|0|55.98460474000001|37.28840340166667
1496321831410|12|-9|0|55.98460197166668|37.28840448166667
1496321831510|12|44|0|55.98459934000001|37.288405805000004
1496321831610|12|68|0|55.984596690000004|37.28840731333334
1496321831710|12|116|0|55.98459410833334|37.28840904333334
1496321831810|12|148|0|55.98459156333334|37.28841097333333
1496321831910|11|168|0|55.984589095|37.28841314166667
1496321832010|11|227|0|55.98458673499999|37.288415631666666
1496321832110|11|229|0|55.98458448666667|37.28841826833334
1496321832210|11|298|0|55.98458235166666|37.288421111666665
1496321832310|11|387|0|55.98458037166667|37.28842419833334
1496321832410|11|407|0|55.984578458333324|37.28842734833333
1496321832510|11|458|0|55.984576634999996|37.288430685
1496321832610|11|462|0|55.98457491|37.288434115
1496321832710|11|462|0|55.9845733|37.288437695
1496321832810|11|462|0|55.984571786666656|37.2884414
1496321832910|11|462|0|55.984570444999996|37.28844520166667
1496321833012|10|462|0|55.98456921333332|37.288449093333334
1496321833112|10|462|0|55.984568055|37.28845296833333
1496321833212|10|462|0|55.98456705833334|37.288456905000004
1496321833312|10|462|0|55.984566138333335|37.28846095
1496321833412|10|462|0|55.98456531666667|37.28846507833334
1496321833512|10|462|0|55.98456461333333|37.28846928166667
1496321833612|10|462|0|55.984564090000006|37.28847351833333
1496321833712|10|462|0|55.98456360833334|37.28847782
1496321833812|10|462|0|55.98456326333333|37.28848215
1496321833912|10|462|0|55.98456304500001|37.28848660166666
1496321834012|10|462|0|55.98456284833334|37.28849104333334
1496321834112|10|462|0|55.98456284000001|37.28849554166667
1496321834212|10|462|0|55.9845629|37.288500033333335
1496321834312|10|462|0|55.984563076666674|37.288504503333336
1496321834412|11|462|0|55.98456331|37.28850903833334
1496321834512|11|462|0|55.984563724999994|37.28851358333333
1496321834612|11|462|0|55.984564266666666|37.28851811166666
1496321834712|11|462|0|55.984564965000004|37.28852262833334
1496321834812|11|462|0|55.984565803333325|37.28852713166666
1496321834912|11|462|0|55.98456677666666|37.28853163666666
1496321835012|11|462|0|55.98456785|37.28853603
1496321835112|11|462|0|55.98456905333334|37.28854045166666
1496321835212|12|462|0|55.98457040833333|37.28854483166666
1496321835312|12|462|0|55.98457187833333|37.28854913666667
1496321835412|12|462|0|55.984573525|37.28855336333334
1496321835512|12|462|0|55.98457530666666|37.288557436666665
1496321835612|12|462|0|55.98457720500001|37.288561423333334
1496321835712|12|462|0|55.98457923666667|37.288565256666665
1496321835812|12|462|0|55.98458140666666|37.28856888333333
1496321835912|12|462|0|55.98458375666668|37.28857237333334
1496321836012|13|462|0|55.984586198333325|37.288575664999996
1496321836112|13|462|0|55.98458873|37.28857880666667
1496321836212|13|462|0|55.98459135|37.28858164833333
1496321836312|13|462|0|55.98459414166667|37.288584254999996
1496321836412|13|462|0|55.98459699333333|37.28858672
1496321836512|13|462|0|55.98459998166666|37.28858895333334
1496321836612|13|462|0|55.98460311|37.28859107
1496321836712|13|462|0|55.98460624999999|37.28859288000001
1496321836812|13|-462|0|55.98460950166667|37.28859450833334
1496321836912|13|-462|0|55.984612771666654|37.28859593833333
1496321837012|13|-462|0|55.984616089999996|37.28859720166667
1496321837112|13|-462|0|55.98461936000001|37.288598325
1496321837212|13|-462|0|55.984622666666674|37.28859937
1496321837312|13|-462|0|55.98462596666666|37.288600305
1496321837412|13|-462|0|55.98462923666666|37.28860118333334
1496321837512|13|-462|0|55.98463252166667|37.28860207500001
1496321837612|13|-462|0|55.98463578666666|37.28860288166667
1496321837712|13|-462|0|55.98463904333334|37.28860349666667
1496321837812|13|-462|0|55.98464229833333|37.28860422500001
1496321837912|13|-462|0|55.98464551166666|37.28860497833333
1496321838012|13|-462|0|55.984648709999995|37.28860578166667
1496321838112|13|-462|0|55.98465189499999|37.28860657666667
1496321838212|13|-462|0|55.98465513666666|37.28860736833334
1496321838312|13|-462|0|55.98465828499999|37.288608116666666
1496321838412|12|-462|0|55.98466146833333|37.28860877166667
1496321838512|12|-462|0|55.98466460333334|37.288609465
1496321838612|12|-462|0|55.98466771166667|37.28861023666666
1496321838712|12|-462|0|55.98467082833334|37.28861103166667
1496321838812|12|-462|0|55.98467392833333|37.28861184666667
1496321838912|12|-462|0|55.98467706166666|37.288612664999995
1496321839012|12|-462|0|55.98468009833334|37.28861350166667
1496321839112|12|-462|0|55.98468313|37.288614368333334
1496321839212|12|-462|0|55.984686135|37.28861533833334
1496321839312|12|-462|0|55.98468909500001|37.288616430000005
1496321839415|12|-462|0|55.98469205999999|37.28861759833333
1496321839515|12|-462|0|55.98469503333334|37.28861886166666
1496321839615|12|-462|0|55.984697995000005|37.288620171666665
1496321839715|12|-462|0|55.98470097166667|37.28862149333334
1496321839815|12|-462|0|55.98470395166667|37.288622968333335
1496321839915|12|462|0|55.98470695666666|37.28862456166666
1496321840015|12|462|0|55.98470995333334|37.28862626666667
1496321840115|12|462|0|55.984712996666666|37.28862796
1496321840215|12|462|0|55.984716031666665|37.288629785
1496321840315|13|462|0|55.98471911166667|37.28863172833333
1496321840415|13|462|0|55.98472216166666|37.28863372166666
1496321840515|13|462|0|55.984725260000005|37.288635883333335
1496321840615|13|462|0|55.98472834499999|37.288638085
1496321840715|13|462|0|55.98473148666667|37.28864036833333
1496321840815|13|462|0|55.98473468|37.28864283166667
1496321840915|14|462|0|55.984737906666666|37.288645251666665
1496321841015|14|462|0|55.984741156666665|37.28864769333334
1496321841115|14|462|0|55.98474442499999|37.28865037999999
1496321841215|15|462|0|55.9847478|37.28865304666667
1496321841315|15|462|0|55.984751193333345|37.288655821666666
1496321841415|15|462|0|55.98475466833334|37.28865863833333
1496321841515|15|462|0|55.98475818166667|37.28866149499999
1496321841615|16|462|0|55.98476179166667|37.28866439666667
1496321841715|16|462|0|55.98476546166667|37.28866747
1496321841815|16|462|0|55.98476915333334|37.28867062833333
1496321841915|16|462|0|55.984772915|37.28867382333333
1496321842015|17|462|0|55.984776701666675|37.288677095000004
1496321842115|17|462|0|55.984780515000004|37.288680543333335
1496321842215|17|462|0|55.98478444833333|37.288684046666674
1496321842315|18|462|0|55.98478845166666|37.28868748833334
1496321842415|18|462|0|55.98479239333333|37.28869133333334
1496321842515|18|462|0|55.98479654|37.28869501833333
1496321842616|18|462|0|55.98480067666666|37.288698966666665
1496321842716|19|462|0|55.984804831666665|37.28870289
