1496147717190|0|0|0|55.985132888333325|37.29109641
1496147717290|0|0|0|55.985132888333325|37.29109641
1496147717390|0|0|0|55.985132888333325|37.29109641
1496147717490|0|0|0|55.985132766666666|37.29109633499999
1496147717590|0|0|0|55.985132766666666|37.29109633499999
1496147717690|0|0|0|55.985132766666666|37.29109633499999
1496147717790|0|0|0|55.985132766666666|37.29109633499999
1496147717890|0|0|0|55.985132766666666|37.29109633499999
1496147717990|0|0|0|55.985132766666666|37.29109633499999
1496147718090|0|0|0|55.985132766666666|37.29109633499999
1496147718190|0|0|0|55.985132766666666|37.29109633499999
1496147718290|0|0|0|55.985132766666666|37.29109633499999
1496147718390|0|0|0|55.985132766666666|37.29109633499999
1496147718490|0|0|0|55.98513243166666|37.291096720000006
1496147718590|0|0|0|55.98513243166666|37.291096720000006
1496147718690|0|0|0|55.98513243166666|37.291096720000006
1496147718790|0|0|0|55.98513243166666|37.291096720000006
1496147718890|0|0|0|55.98513243166666|37.291096720000006
1496147718990|0|0|0|55.98513243166666|37.291096720000006
1496147719090|0|0|0|55.98513243166666|37.291096720000006
1496147719190|0|0|0|55.98513243166666|37.291096720000006
1496147719290|0|0|0|55.98513243166666|37.291096720000006
1496147719390|0|0|0|55.98513243166666|37.291096720000006
1496147719490|0|0|0|55.98513201333334|37.29109655666667
1496147719590|0|0|0|55.98513201333334|37.29109655666667
1496147719690|1|0|0|55.98513201333334|37.29109655666667
1496147719790|1|0|0|55.98513201333334|37.29109655666667
1496147719890|1|0|0|55.98513201333334|37.29109655666667
1496147719990|1|0|0|55.98513201333334|37.29109655666667
1496147720090|2|0|0|55.98513201333334|37.29109655666667
1496147720190|3|0|0|55.98513201333334|37.29109655666667
1496147720290|3|0|0|55.98513201333334|37.29109655666667
1496147720390|4|0|0|55.98513201333334|37.29109655666667
1496147720490|4|0|0|55.985149323333324|37.29108419
1496147720590|4|0|0|55.985149323333324|37.29108419
1496147720690|4|0|0|55.985149323333324|37.29108419
1496147720790|4|0|0|55.985149323333324|37.29108419
1496147720890|4|0|0|55.985149323333324|37.29108419
1496147720990|4|0|0|55.985149323333324|37.29108419
1496147721090|5|0|0|55.985149323333324|37.29108419
1496147721190|5|0|0|55.985149323333324|37.29108419
1496147721290|5|0|0|55.985149323333324|37.29108419
1496147721390|5|0|0|55.985149323333324|37.29108419
1496147721490|5|0|0|55.98515242166666|37.29106545833333
1496147721590|5|0|0|55.98515242166666|37.29106545833333
1496147721690|5|0|0|55.98515242166666|37.29106545833333
1496147721790|5|0|0|55.98515242166666|37.29106545833333
1496147721890|5|0|0|55.98515242166666|37.29106545833333
1496147721990|5|0|0|55.98515242166666|37.29106545833333
1496147722090|5|0|0|55.98515242166666|37.29106545833333
1496147722190|5|0|0|55.98515242166666|37.29106545833333
1496147722290|5|0|0|55.98515242166666|37.29106545833333
1496147722390|5|0|0|55.98515242166666|37.29106545833333
1496147722490|5|0|0|55.985156059999994|37.29104292333333
1496147722590|5|0|0|55.985156059999994|37.29104292333333
1496147722690|5|0|0|55.985156059999994|37.29104292333333
1496147722790|5|0|0|55.985156059999994|37.29104292333333
1496147722890|5|0|0|55.985156059999994|37.29104292333333
1496147722990|5|0|0|55.985156059999994|37.29104292333333
1496147723090|5|0|0|55.985156059999994|37.29104292333333
1496147723190|5|0|0|55.985156059999994|37.29104292333333
1496147723290|5|0|0|55.985156059999994|37.29104292333333
1496147723390|5|0|0|55.985156059999994|37.29104292333333
1496147723490|6|0|0|55.98515999833333|37.29101913666667
1496147723590|6|0|0|55.98515999833333|37.29101913666667
1496147723690|6|0|0|55.98515999833333|37.29101913666667
1496147723790|6|0|0|55.98515999833333|37.29101913666667
1496147723890|6|0|0|55.98515999833333|37.29101913666667
1496147723990|6|0|0|55.98515999833333|37.29101913666667
1496147724090|6|0|0|55.98515999833333|37.29101913666667
1496147724190|6|0|0|55.98515999833333|37.29101913666667
1496147724290|6|0|0|55.98515999833333|37.29101913666667
1496147724390|6|0|0|55.98515999833333|37.29101913666667
1496147724491|6|-9|0|55.98516417833333|37.29099359166666
1496147724591|6|0|0|55.98516417833333|37.29099359166666
1496147724691|6|0|0|55.98516417833333|37.29099359166666
1496147724791|6|0|0|55.98516417833333|37.29099359166666
1496147724891|6|0|0|55.98516417833333|37.29099359166666
1496147724991|6|0|0|55.98516417833333|37.29099359166666
1496147725091|6|0|0|55.98516417833333|37.29099359166666
1496147725191|6|0|0|55.98516417833333|37.29099359166666
1496147725291|6|0|0|55.98516417833333|37.29099359166666
1496147725391|6|0|0|55.98516417833333|37.29099359166666
1496147725491|6|0|0|55.98516866166667|37.290967053333326
1496147725591|6|0|0|55.98516866166667|37.290967053333326
1496147725691|6|0|0|55.98516866166667|37.290967053333326
1496147725791|6|0|0|55.98516866166667|37.290967053333326
1496147725891|6|0|0|55.98516866166667|37.290967053333326
1496147725991|6|0|0|55.98516866166667|37.290967053333326
1496147726091|7|0|0|55.98516866166667|37.290967053333326
1496147726191|7|0|0|55.98516866166667|37.290967053333326
1496147726291|7|0|0|55.98516866166667|37.290967053333326
1496147726391|7|0|0|55.98516866166667|37.290967053333326
1496147726491|7|0|0|55.98517333333332|37.290938725000004
1496147726591|7|0|0|55.98517333333332|37.290938725000004
1496147726691|7|0|0|55.98517333333332|37.290938725000004
1496147726791|7|0|0|55.98517333333332|37.290938725000004
1496147726891|7|0|0|55.98517333333332|37.290938725000004
1496147726991|8|0|0|55.98517333333332|37.290938725000004
1496147727091|8|0|0|55.98517333333332|37.290938725000004
1496147727191|8|0|0|55.98517333333332|37.290938725000004
1496147727291|8|0|0|55.98517333333332|37.290938725000004
1496147727394|8|0|0|55.98517333333332|37.290938725000004
1496147727494|8|0|0|55.985178556666675|37.29090655333333
1496147727594|8|0|0|55.985178556666675|37.29090655333333
1496147727694|8|0|0|55.985178556666675|37.29090655333333
1496147727794|8|0|0|55.985178556666675|37.29090655333333
1496147727894|8|0|0|55.985178556666675|37.29090655333333
1496147727994|8|0|0|55.985178556666675|37.29090655333333
1496147728094|9|0|0|55.985178556666675|37.29090655333333
1496147728194|9|0|0|55.985178556666675|37.29090655333333
1496147728294|9|0|0|55.985178556666675|37.29090655333333
1496147728394|9|0|0|55.985178556666675|37.29090655333333
1496147728494|9|0|0|55.985184576666676|37.29086959166667
1496147728594|9|0|0|55.985184576666676|37.29086959166667
1496147728694|9|0|0|55.985184576666676|37.29086959166667
1496147728794|9|0|0|55.985184576666676|37.29086959166667
1496147728894|9|0|0|55.985184576666676|37.29086959166667
1496147728994|9|0|0|55.985184576666676|37.29086959166667
1496147729094|9|0|0|55.985184576666676|37.29086959166667
1496147729194|10|0|0|55.985184576666676|37.29086959166667
1496147729294|10|0|0|55.985184576666676|37.29086959166667
1496147729394|10|0|0|55.985184576666676|37.29086959166667
1496147729494|10|0|0|55.985191305|37.290829091666666
1496147729594|10|0|0|55.985191305|37.290829091666666
1496147729694|10|0|0|55.985191305|37.290829091666666
1496147729794|10|0|0|55.985191305|37.290829091666666
1496147729894|10|0|0|55.985191305|37.290829091666666
1496147729994|10|0|0|55.985191305|37.290829091666666
1496147730094|10|0|0|55.985191305|37.290829091666666
1496147730194|10|0|0|55.985191305|37.290829091666666
1496147730294|10|0|0|55.985191305|37.290829091666666
1496147730394|10|0|0|55.985191305|37.290829091666666
1496147730494|10|0|0|55.98519833666666|37.290785066666665
1496147730594|10|0|0|55.98519833666666|37.290785066666665
1496147730694|10|0|0|55.98519833666666|37.290785066666665
1496147730794|10|0|0|55.98519833666666|37.290785066666665
1496147730894|10|0|0|55.98519833666666|37.290785066666665
1496147730994|11|0|0|55.98519833666666|37.290785066666665
1496147731094|11|0|0|55.98519833666666|37.290785066666665
1496147731194|11|0|0|55.98519833666666|37.290785066666665
1496147731294|11|0|0|55.98519833666666|37.290785066666665
1496147731394|11|0|0|55.98519833666666|37.290785066666665
1496147731494|11|0|0|55.98520567666666|37.29073874666666
1496147731594|11|0|0|55.98520567666666|37.29073874666666
1496147731694|11|0|0|55.98520567666666|37.29073874666666
1496147731794|11|0|0|55.98520567666666|37.29073874666666
1496147731894|11|0|0|55.98520567666666|37.29073874666666
1496147731995|11|0|0|55.98520567666666|37.29073874666666
1496147732095|11|0|0|55.98520567666666|37.29073874666666
1496147732195|11|0|0|55.98520567666666|37.29073874666666
1496147732295|11|0|0|55.98520567666666|37.29073874666666
1496147732395|11|0|0|55.98520567666666|37.29073874666666
1496147732495|11|0|0|55.98521307666667|37.290690481666665
1496147732595|11|0|0|55.98521307666667|37.290690481666665
1496147732695|11|0|0|55.98521307666667|37.290690481666665
1496147732795|11|0|0|55.98521307666667|37.290690481666665
1496147732895|11|0|0|55.98521307666667|37.290690481666665
1496147732995|11|0|0|55.98521307666667|37.290690481666665
1496147733095|11|0|0|55.98521307666667|37.290690481666665
1496147733195|11|0|0|55.98521307666667|37.290690481666665
1496147733295|11|0|0|55.98521307666667|37.290690481666665
1496147733395|11|0|0|55.98521307666667|37.290690481666665
1496147733495|11|0|0|55.98522086333334|37.290640925000005
1496147733595|11|0|0|55.98522086333334|37.290640925000005
1496147733695|11|0|0|55.98522086333334|37.290640925000005
1496147733795|11|0|0|55.98522086333334|37.290640925000005
1496147733895|11|0|0|55.98522086333334|37.290640925000005
1496147733995|11|0|0|55.98522086333334|37.290640925000005
1496147734095|11|0|0|55.98522086333334|37.290640925000005
1496147734195|11|0|0|55.98522086333334|37.290640925000005
1496147734295|11|0|0|55.98522086333334|37.290640925000005
1496147734395|11|0|0|55.98522086333334|37.290640925000005
1496147734495|11|0|0|55.98522828833334|37.29059130166667
1496147734595|11|0|0|55.98522828833334|37.29059130166667
1496147734695|11|0|0|55.98522828833334|37.29059130166667
1496147734795|11|0|0|55.98522828833334|37.29059130166667
1496147734895|11|0|0|55.98522828833334|37.29059130166667
1496147734995|11|0|0|55.98522828833334|37.29059130166667
1496147735095|11|0|0|55.98522828833334|37.29059130166667
1496147735195|11|0|0|55.98522828833334|37.29059130166667
1496147735295|11|0|0|55.98522828833334|37.29059130166667
1496147735395|11|0|0|55.98522828833334|37.29059130166667
1496147735495|11|0|0|55.985235601666666|37.290542204999994
1496147735596|11|87|0|55.985235601666666|37.290542204999994
1496147735696|11|87|0|55.985235601666666|37.290542204999994
1496147735796|11|87|0|55.985235601666666|37.290542204999994
1496147735896|11|87|0|55.985235601666666|37.290542204999994
1496147735996|11|87|0|55.985235601666666|37.290542204999994
1496147736096|11|87|0|55.985235601666666|37.290542204999994
1496147736196|11|87|0|55.985235601666666|37.290542204999994
1496147736296|10|87|0|55.985235601666666|37.290542204999994
1496147736396|10|87|0|55.985235601666666|37.290542204999994
1496147736496|10|83|0|55.985242896666655|37.290494278333334
1496147736596|10|83|0|55.985242896666655|37.290494278333334
1496147736696|10|83|0|55.985242896666655|37.290494278333334
1496147736796|10|83|0|55.985242896666655|37.290494278333334
1496147736896|10|83|0|55.985242896666655|37.290494278333334
1496147736996|10|83|0|55.985242896666655|37.290494278333334
1496147737096|10|83|0|55.985242896666655|37.290494278333334
1496147737196|10|83|0|55.985242896666655|37.290494278333334
1496147737296|10|83|0|55.985242896666655|37.290494278333334
1496147737396|10|83|0|55.985242896666655|37.290494278333334
1496147737496|10|64|0|55.98525048666667|37.29044858166667
1496147737596|10|64|0|55.98525048666667|37.29044858166667
1496147737696|10|65|0|55.98525048666667|37.29044858166667
1496147737796|10|65|0|55.98525048666667|37.29044858166667
1496147737896|10|65|0|55.98525048666667|37.29044858166667
1496147737996|10|65|0|55.98525048666667|37.29044858166667
1496147738096|10|65|0|55.98525048666667|37.29044858166667
1496147738196|10|65|0|55.98525048666667|37.29044858166667
1496147738296|10|65|0|55.98525048666667|37.29044858166667
1496147738396|10|65|0|55.98525048666667|37.29044858166667
1496147738496|10|1|0|55.98525991833333|37.290404895
1496147738596|10|1|0|55.98525991833333|37.290404895
1496147738696|10|1|0|55.98525991833333|37.290404895
1496147738796|10|1|0|55.98525991833333|37.290404895
1496147738896|10|1|0|55.98525991833333|37.290404895
1496147738996|10|1|0|55.98525991833333|37.290404895
1496147739096|10|1|0|55.98525991833333|37.290404895
1496147739196|10|1|0|55.98525991833333|37.290404895
1496147739296|10|1|0|55.98525991833333|37.290404895
1496147739396|10|1|0|55.98525991833333|37.290404895
1496147739496|10|-62|0|55.985271461666656|37.29036184833334
1496147739596|10|-62|0|55.985271461666656|37.29036184833334
1496147739696|11|-62|0|55.985271461666656|37.29036184833334
1496147739796|11|-62|0|55.985271461666656|37.29036184833334
1496147739896|11|-62|0|55.985271461666656|37.29036184833334
1496147739996|11|-62|0|55.985271461666656|37.29036184833334
1496147740096|11|-62|0|55.985271461666656|37.29036184833334
1496147740196|11|-62|0|55.985271461666656|37.29036184833334
1496147740296|11|-62|0|55.985271461666656|37.29036184833334
1496147740396|11|-62|0|55.985271461666656|37.29036184833334
1496147740496|11|-67|0|55.98528334333333|37.29031831833334
1496147740596|11|-67|0|55.98528334333333|37.29031831833334
1496147740696|11|-67|0|55.98528334333333|37.29031831833334
1496147740796|11|-67|0|55.98528334333333|37.29031831833334
1496147740896|11|-68|0|55.98528334333333|37.29031831833334
1496147740996|11|-68|0|55.98528334333333|37.29031831833334
1496147741096|11|-68|0|55.98528334333333|37.29031831833334
1496147741196|11|-68|0|55.98528334333333|37.29031831833334
1496147741296|11|-68|0|55.98528334333333|37.29031831833334
1496147741396|11|-68|0|55.98528334333333|37.29031831833334
1496147741496|11|-22|0|55.985293944999995|37.29027310666667
1496147741596|11|-21|0|55.985293944999995|37.29027310666667
1496147741696|11|-21|0|55.985293944999995|37.29027310666667
1496147741796|11|-21|0|55.985293944999995|37.29027310666667
1496147742206|11|-21|0|55.985293944999995|37.29027310666667
1496147742306|11|-21|0|55.985293944999995|37.29027310666667
1496147742406|11|53|0|55.98530220166667|37.290225915
1496147742506|11|53|0|55.98530220166667|37.290225915
1496147742606|11|53|0|55.98530220166667|37.290225915
1496147742706|11|53|0|55.98530220166667|37.290225915
1496147742806|11|53|0|55.98530220166667|37.290225915
1496147742906|11|53|0|55.98530220166667|37.290225915
1496147743006|11|53|0|55.98530220166667|37.290225915
1496147743106|11|53|0|55.98530220166667|37.290225915
1496147743206|11|53|0|55.98530220166667|37.290225915
1496147743306|11|53|0|55.98530220166667|37.290225915
1496147743406|11|53|0|55.98530220166667|37.290225915
1496147743506|11|73|0|55.98530980333333|37.290178381666664
1496147743606|11|73|0|55.98530980333333|37.290178381666664
1496147743706|11|73|0|55.98530980333333|37.290178381666664
1496147743806|11|73|0|55.98530980333333|37.290178381666664
1496147743906|11|73|0|55.98530980333333|37.290178381666664
1496147744006|11|73|0|55.98530980333333|37.290178381666664
1496147744106|11|73|0|55.98530980333333|37.290178381666664
1496147744206|11|73|0|55.98530980333333|37.290178381666664
1496147744306|11|73|0|55.98530980333333|37.290178381666664
1496147744406|11|47|0|55.98531823166667|37.29013141166667
1496147744506|11|47|0|55.98531823166667|37.29013141166667
1496147744606|11|47|0|55.98531823166667|37.29013141166667
1496147744706|11|47|0|55.98531823166667|37.29013141166667
1496147744806|11|47|0|55.98531823166667|37.29013141166667
1496147744906|10|47|0|55.98531823166667|37.29013141166667
1496147745006|10|47|0|55.98531823166667|37.29013141166667
1496147745106|10|47|0|55.98531823166667|37.29013141166667
1496147745206|10|47|0|55.98531823166667|37.29013141166667
1496147745306|10|47|0|55.98531823166667|37.29013141166667
1496147745406|10|47|0|55.98531823166667|37.29013141166667
1496147745506|10|-19|0|55.98532868333333|37.29008649833333
1496147745606|10|-19|0|55.98532868333333|37.29008649833333
1496147745706|10|-19|0|55.98532868333333|37.29008649833333
1496147745806|11|-19|0|55.98532868333333|37.29008649833333
1496147745906|11|-19|0|55.98532868333333|37.29008649833333
1496147746006|11|-19|0|55.98532868333333|37.29008649833333
1496147746106|11|-19|0|55.98532868333333|37.29008649833333
1496147746206|11|-19|0|55.98532868333333|37.29008649833333
1496147746306|11|-19|0|55.98532868333333|37.29008649833333
1496147746406|11|-58|0|55.98534022833334|37.29004289833333
1496147746506|11|-58|0|55.98534022833334|37.29004289833333
1496147746606|11|-58|0|55.98534022833334|37.29004289833333
1496147746706|11|-58|0|55.98534022833334|37.29004289833333
1496147746806|11|-58|0|55.98534022833334|37.29004289833333
1496147746906|11|-58|0|55.98534022833334|37.29004289833333
1496147747006|11|-58|0|55.98534022833334|37.29004289833333
1496147747106|11|-58|0|55.98534022833334|37.29004289833333
1496147747206|11|-58|0|55.98534022833334|37.29004289833333
1496147747306|11|-79|0|55.98534022833334|37.29004289833333
1496147747406|11|-75|0|55.985352158333335|37.289997298333326
1496147747506|11|-75|0|55.985352158333335|37.289997298333326
1496147747606|12|-75|0|55.985352158333335|37.289997298333326
1496147747706|12|-75|0|55.985352158333335|37.289997298333326
1496147747806|12|-75|0|55.985352158333335|37.289997298333326
1496147747906|12|-75|0|55.985352158333335|37.289997298333326
1496147748006|12|-75|0|55.985352158333335|37.289997298333326
1496147748106|12|-75|0|55.985352158333335|37.289997298333326
1496147748206|12|-75|0|55.985352158333335|37.289997298333326
1496147748306|12|-75|0|55.985352158333335|37.289997298333326
1496147748406|12|-75|0|55.985352158333335|37.289997298333326
1496147748506|12|-9|0|55.98536249000001|37.28994750666667
1496147748606|12|-9|0|55.98536249000001|37.28994750666667
1496147748706|12|-9|0|55.98536249000001|37.28994750666667
1496147748806|12|-9|0|55.98536249000001|37.28994750666667
1496147748906|12|-9|0|55.98536249000001|37.28994750666667
1496147749006|12|-9|0|55.98536249000001|37.28994750666667
1496147749106|12|-9|0|55.98536249000001|37.28994750666667
1496147749206|12|-9|0|55.98536249000001|37.28994750666667
1496147749306|12|-9|0|55.98536249000001|37.28994750666667
1496147749407|12|83|0|55.985369881666664|37.289893318333334
1496147749507|12|83|0|55.985369881666664|37.289893318333334
1496147749607|12|83|0|55.985369881666664|37.289893318333334
1496147749707|12|83|0|55.985369881666664|37.289893318333334
1496147749807|12|83|0|55.985369881666664|37.289893318333334
1496147749907|12|83|0|55.985369881666664|37.289893318333334
1496147750007|12|83|0|55.985369881666664|37.289893318333334
1496147750107|12|83|0|55.985369881666664|37.289893318333334
1496147750207|12|83|0|55.985369881666664|37.289893318333334
1496147750307|12|83|0|55.985369881666664|37.289893318333334
1496147750407|12|83|0|55.985369881666664|37.289893318333334
1496147750507|12|106|0|55.98537642833333|37.289838581666665
1496147750607|12|106|0|55.98537642833333|37.289838581666665
1496147750707|12|106|0|55.98537642833333|37.289838581666665
1496147750807|12|106|0|55.98537642833333|37.289838581666665
1496147750907|12|106|0|55.98537642833333|37.289838581666665
1496147751007|12|106|0|55.98537642833333|37.289838581666665
1496147751107|12|106|0|55.98537642833333|37.289838581666665
1496147751207|12|106|0|55.98537642833333|37.289838581666665
1496147751307|12|106|0|55.98537642833333|37.289838581666665
1496147751407|12|106|0|55.98537642833333|37.289838581666665
1496147751507|12|67|0|55.98538433333333|37.28978546833334
1496147751607|12|67|0|55.98538433333333|37.28978546833334
1496147751707|12|67|0|55.98538433333333|37.28978546833334
1496147751807|12|67|0|55.98538433333333|37.28978546833334
1496147751907|12|67|0|55.98538433333333|37.28978546833334
1496147752007|12|67|0|55.98538433333333|37.28978546833334
1496147752110|12|67|0|55.98538433333333|37.28978546833334
1496147752210|12|67|0|55.98538433333333|37.28978546833334
1496147752310|13|67|0|55.98538433333333|37.28978546833334
1496147752410|13|67|0|55.98538433333333|37.28978546833334
1496147752510|13|-12|0|55.985395305000004|37.289733195000004
1496147752610|13|-12|0|55.985395305000004|37.289733195000004
1496147752710|13|-12|0|55.985395305000004|37.289733195000004
1496147752810|13|-12|0|55.985395305000004|37.289733195000004
1496147752910|13|-12|0|55.985395305000004|37.289733195000004
1496147753010|13|-12|0|55.985395305000004|37.289733195000004
1496147753110|13|-12|0|55.985395305000004|37.289733195000004
1496147753210|14|-12|0|55.985395305000004|37.289733195000004
1496147753310|13|-12|0|55.985395305000004|37.289733195000004
1496147753410|13|-91|0|55.98540984666666|37.28968045333334
1496147753510|13|-91|0|55.98540984666666|37.28968045333334
1496147753610|13|-91|0|55.98540984666666|37.28968045333334
1496147753710|14|-91|0|55.98540984666666|37.28968045333334
1496147753810|14|-91|0|55.98540984666666|37.28968045333334
1496147753910|14|-91|0|55.98540984666666|37.28968045333334
1496147754010|14|-91|0|55.98540984666666|37.28968045333334
1496147754110|14|-91|0|55.98540984666666|37.28968045333334
1496147754210|14|-91|0|55.98540984666666|37.28968045333334
1496147754310|14|-91|0|55.98540984666666|37.28968045333334
1496147754410|14|-95|0|55.98542549833334|37.28962434
1496147754510|14|-95|0|55.98542549833334|37.28962434
1496147754610|14|-95|0|55.98542549833334|37.28962434
1496147754710|14|-95|0|55.98542549833334|37.28962434
1496147754810|15|-95|0|55.98542549833334|37.28962434
1496147754910|15|-95|0|55.98542549833334|37.28962434
1496147755010|15|-95|0|55.98542549833334|37.28962434
1496147755110|15|-95|0|55.98542549833334|37.28962434
1496147755210|15|-95|0|55.98542549833334|37.28962434
1496147755310|15|-95|0|55.98542549833334|37.28962434
1496147755410|15|-95|0|55.98542549833334|37.28962434
1496147755510|15|-30|0|55.98543909166666|37.28956377
1496147755610|15|-30|0|55.98543909166666|37.28956377
1496147755710|15|-30|0|55.98543909166666|37.28956377
1496147755811|15|-30|0|55.98543909166666|37.28956377
1496147755911|15|-30|0|55.98543909166666|37.28956377
1496147756011|15|-30|0|55.98543909166666|37.28956377
1496147756111|15|-30|0|55.98543909166666|37.28956377
1496147756211|15|-30|0|55.98543909166666|37.28956377
1496147756311|15|-30|0|55.98543909166666|37.28956377
1496147756411|15|90|0|55.98544772166667|37.28949806833334
1496147756511|15|90|0|55.98544772166667|37.28949806833334
1496147756611|15|90|0|55.98544772166667|37.28949806833334
1496147756711|15|90|0|55.98544772166667|37.28949806833334
1496147756811|15|90|0|55.98544772166667|37.28949806833334
1496147756911|14|90|0|55.98544772166667|37.28949806833334
1496147757011|14|90|0|55.98544772166667|37.28949806833334
1496147757111|14|90|0|55.98544772166667|37.28949806833334
1496147757211|14|90|0|55.98544772166667|37.28949806833334
1496147757311|14|90|0|55.98544772166667|37.28949806833334
1496147757411|14|149|0|55.985453625|37.28943163666666
1496147757511|14|149|0|55.985453625|37.28943163666666
1496147757611|14|149|0|55.985453625|37.28943163666666
1496147757711|14|149|0|55.985453625|37.28943163666666
1496147757811|14|149|0|55.985453625|37.28943163666666
1496147757911|14|149|0|55.985453625|37.28943163666666
1496147758011|14|149|0|55.985453625|37.28943163666666
1496147758111|14|149|0|55.985453625|37.28943163666666
1496147758211|14|149|0|55.985453625|37.28943163666666
1496147758311|14|149|0|55.985453625|37.28943163666666
1496147758411|14|118|0|55.985460706666665|37.28936781666667
1496147758511|14|118|0|55.985460706666665|37.28936781666667
1496147758611|14|113|0|55.985460706666665|37.28936781666667
1496147758711|14|113|0|55.985460706666665|37.28936781666667
1496147758811|14|113|0|55.985460706666665|37.28936781666667
1496147758911|14|113|0|55.985460706666665|37.28936781666667
1496147759011|14|113|0|55.985460706666665|37.28936781666667
1496147759111|14|113|0|55.985460706666665|37.28936781666667
1496147759211|14|113|0|55.985460706666665|37.28936781666667
1496147759311|14|113|0|55.985460706666665|37.28936781666667
1496147759411|15|21|0|55.98547178666666|37.2893061
1496147759511|15|21|0|55.98547178666666|37.2893061
1496147759611|15|21|0|55.98547178666666|37.2893061
1496147759711|15|21|0|55.98547178666666|37.2893061
1496147759811|15|21|0|55.98547178666666|37.2893061
1496147759911|15|21|0|55.98547178666666|37.2893061
1496147760011|15|21|0|55.98547178666666|37.2893061
1496147760113|15|21|0|55.98547178666666|37.2893061
1496147760213|15|21|0|55.98547178666666|37.2893061
1496147760313|15|21|0|55.98547178666666|37.2893061
1496147760413|15|-123|0|55.985489461666674|37.28924711333333
1496147760513|16|-123|0|55.985489461666674|37.28924711333333
1496147760613|16|-123|0|55.985489461666674|37.28924711333333
1496147760713|16|-123|0|55.985489461666674|37.28924711333333
1496147760813|16|-123|0|55.985489461666674|37.28924711333333
1496147760913|16|-123|0|55.985489461666674|37.28924711333333
1496147761013|16|-123|0|55.985489461666674|37.28924711333333
1496147761113|16|-123|0|55.985489461666674|37.28924711333333
1496147761213|16|-123|0|55.985489461666674|37.28924711333333
1496147761313|16|-123|0|55.985489461666674|37.28924711333333
1496147761413|16|-162|0|55.985510005|37.28918585333333
1496147761513|16|-162|0|55.985510005|37.28918585333333
1496147761613|16|-162|0|55.985510005|37.28918585333333
1496147761713|16|-162|0|55.985510005|37.28918585333333
1496147761813|17|-162|0|55.985510005|37.28918585333333
1496147761913|17|-162|0|55.985510005|37.28918585333333
1496147762013|17|-162|0|55.985510005|37.28918585333333
1496147762113|17|-162|0|55.985510005|37.28918585333333
1496147762213|17|-162|0|55.985510005|37.28918585333333
1496147762313|17|-162|0|55.985510005|37.28918585333333
1496147762413|17|-107|0|55.98552895500001|37.28911942666667
1496147762513|17|-107|0|55.98552895500001|37.28911942666667
1496147762613|17|-107|0|55.98552895500001|37.28911942666667
1496147762713|17|-107|0|55.98552895500001|37.28911942666667
1496147762813|17|-107|0|55.98552895500001|37.28911942666667
1496147762913|17|-107|0|55.98552895500001|37.28911942666667
1496147763013|18|-107|0|55.98552895500001|37.28911942666667
1496147763113|18|-107|0|55.98552895500001|37.28911942666667
1496147763213|18|-107|0|55.98552895500001|37.28911942666667
1496147763313|18|-107|0|55.98552895500001|37.28911942666667
1496147763413|18|13|0|55.985542546666665|37.28904607500001
1496147763513|18|13|0|55.985542546666665|37.28904607500001
1496147763613|18|13|0|55.985542546666665|37.28904607500001
1496147763713|18|13|0|55.985542546666665|37.28904607500001
1496147763813|18|13|0|55.985542546666665|37.28904607500001
1496147763913|18|13|0|55.985542546666665|37.28904607500001
1496147764013|18|13|0|55.985542546666665|37.28904607500001
1496147764113|18|13|0|55.985542546666665|37.28904607500001
1496147764213|18|13|0|55.985542546666665|37.28904607500001
1496147764313|18|13|0|55.985542546666665|37.28904607500001
1496147764413|18|183|0|55.98554742500001|37.28896614000001
1496147764513|18|183|0|55.98554742500001|37.28896614000001
1496147764613|19|183|0|55.98554742500001|37.28896614000001
1496147764713|19|183|0|55.98554742500001|37.28896614000001
1496147764813|19|183|0|55.98554742500001|37.28896614000001
1496147764913|19|183|0|55.98554742500001|37.28896614000001
1496147765013|19|183|0|55.98554742500001|37.28896614000001
1496147765113|19|183|0|55.98554742500001|37.28896614000001
1496147765213|19|182|0|55.98554742500001|37.28896614000001
1496147765313|19|182|0|55.98554742500001|37.28896614000001
1496147765413|19|238|0|55.98554928833334|37.288882269999995
1496147765513|19|238|0|55.98554928833334|37.288882269999995
1496147765613|19|238|0|55.98554928833334|37.288882269999995
1496147765713|19|238|0|55.98554928833334|37.288882269999995
1496147765813|19|238|0|55.98554928833334|37.288882269999995
1496147765913|19|238|0|55.98554928833334|37.288882269999995
1496147766013|19|238|0|55.98554928833334|37.288882269999995
1496147766113|20|238|0|55.98554928833334|37.288882269999995
1496147766213|20|238|0|55.98554928833334|37.288882269999995
1496147766313|20|238|0|55.98554928833334|37.288882269999995
1496147766413|20|238|0|55.98554928833334|37.288882269999995
1496147766513|20|238|0|55.98554928833334|37.288882269999995
1496147766613|20|238|0|55.98554928833334|37.288882269999995
1496147766713|20|238|0|55.98554928833334|37.288882269999995
1496147766813|20|238|0|55.98554928833334|37.288882269999995
1496147766914|20|238|0|55.98554928833334|37.288882269999995
1496147767014|20|238|0|55.98554928833334|37.288882269999995
1496147767114|20|238|0|55.98554928833334|37.288882269999995
1496147767214|20|238|0|55.98554928833334|37.288882269999995
1496147767314|20|238|0|55.98554928833334|37.288882269999995
1496147767414|20|238|0|55.98554928833334|37.288882269999995
1496147767514|21|238|0|55.98554928833334|37.288882269999995
1496147767614|21|238|0|55.98554928833334|37.288882269999995
1496147767714|21|238|0|55.98554928833334|37.288882269999995
1496147767814|21|238|0|55.98554928833334|37.288882269999995
1496147767914|21|238|0|55.98554928833334|37.288882269999995
1496147768014|21|238|0|55.98554928833334|37.288882269999995
1496147768114|21|238|0|55.98554928833334|37.288882269999995
1496147768214|21|238|0|55.98554928833334|37.288882269999995
1496147768314|21|238|0|55.98554928833334|37.288882269999995
1496147768414|22|39|0|55.98559478833334|37.28863058666667
1496147768514|22|39|0|55.98559478833334|37.28863058666667
1496147768614|21|39|0|55.98559478833334|37.28863058666667
1496147768714|21|39|0|55.98559478833334|37.28863058666667
1496147768814|21|39|0|55.98559478833334|37.28863058666667
1496147768914|20|39|0|55.98559478833334|37.28863058666667
1496147769014|20|39|0|55.98559478833334|37.28863058666667
1496147769114|20|39|0|55.98559478833334|37.28863058666667
1496147769214|20|39|0|55.98559478833334|37.28863058666667
1496147769314|19|39|0|55.98559478833334|37.28863058666667
1496147769414|19|-359|0|55.98563324166667|37.288565098333336
1496147769514|18|-359|0|55.98563324166667|37.288565098333336
1496147769614|18|-359|0|55.98563324166667|37.288565098333336
1496147769714|18|-359|0|55.98563324166667|37.288565098333336
1496147769814|17|-359|0|55.98563324166667|37.288565098333336
1496147769914|17|-359|0|55.98563324166667|37.288565098333336
1496147770014|16|-359|0|55.98563324166667|37.288565098333336
1496147770114|16|-359|0|55.98563324166667|37.288565098333336
1496147770214|16|-359|0|55.98563324166667|37.288565098333336
1496147770314|16|-359|0|55.98563324166667|37.288565098333336
1496147770414|15|-451|0|55.98566964|37.288515928333325
1496147770514|14|-451|0|55.98566964|37.288515928333325
1496147770614|14|-450|0|55.98566964|37.288515928333325
1496147770714|14|-450|0|55.98566964|37.288515928333325
1496147770814|14|-450|0|55.98566964|37.288515928333325
1496147770914|13|-450|0|55.98566964|37.288515928333325
1496147771014|13|-450|0|55.98566964|37.288515928333325
1496147771114|12|-450|0|55.98566964|37.288515928333325
1496147771214|12|-450|0|55.98566964|37.288515928333325
1496147771314|12|-450|0|55.98566964|37.288515928333325
1496147771414|11|-417|0|55.98569793500001|37.28847428
1496147771514|11|-417|0|55.98569793500001|37.28847428
1496147771614|11|-418|0|55.98569793500001|37.28847428
1496147771714|11|-418|0|55.98569793500001|37.28847428
1496147771814|11|-418|0|55.98569793500001|37.28847428
1496147771914|11|-418|0|55.98569793500001|37.28847428
1496147772014|11|-418|0|55.98569793500001|37.28847428
1496147772114|11|-418|0|55.98569793500001|37.28847428
1496147772214|11|-418|0|55.98569793500001|37.28847428
1496147772314|11|-418|0|55.98569793500001|37.28847428
1496147772414|11|-301|0|55.98571738333334|37.288435971666665
1496147772514|11|-301|0|55.98571738333334|37.288435971666665
1496147772614|11|-301|0|55.98571738333334|37.288435971666665
1496147772714|11|-301|0|55.98571738333334|37.288435971666665
1496147772814|11|-301|0|55.98571738333334|37.288435971666665
1496147772914|10|-301|0|55.98571738333334|37.288435971666665
1496147773014|10|-301|0|55.98571738333334|37.288435971666665
1496147773114|10|-301|0|55.98571738333334|37.288435971666665
1496147773214|10|-301|0|55.98571738333334|37.288435971666665
1496147773314|10|-301|0|55.98571738333334|37.288435971666665
1496147773414|10|-6|0|55.98572673666666|37.288392753333326
1496147773514|10|-6|0|55.98572673666666|37.288392753333326
1496147773614|9|-6|0|55.98572673666666|37.288392753333326
1496147773714|9|-6|0|55.98572673666666|37.288392753333326
1496147773814|9|-6|0|55.98572673666666|37.288392753333326
1496147773914|9|-6|0|55.98572673666666|37.288392753333326
1496147774014|9|-6|0|55.98572673666666|37.288392753333326
1496147774199|9|-6|0|55.98572673666666|37.288392753333326
1496147774299|9|-6|0|55.98572673666666|37.288392753333326
1496147774399|9|-6|0|55.98572673666666|37.288392753333326
1496147774499|9|255|0|55.985727759999996|37.28835010833333
1496147774599|9|255|0|55.985727759999996|37.28835010833333
1496147774699|9|255|0|55.985727759999996|37.28835010833333
1496147774799|9|255|0|55.985727759999996|37.28835010833333
1496147774899|9|255|0|55.985727759999996|37.28835010833333
1496147774999|9|255|0|55.985727759999996|37.28835010833333
1496147775099|9|255|0|55.985727759999996|37.28835010833333
1496147775199|9|255|0|55.985727759999996|37.28835010833333
1496147775299|9|255|0|55.985727759999996|37.28835010833333
1496147775399|9|255|0|55.985727759999996|37.28835010833333
1496147775499|9|380|0|55.985725211666676|37.288310025
1496147775599|9|380|0|55.985725211666676|37.288310025
1496147775699|9|380|0|55.985725211666676|37.288310025
1496147775799|9|380|0|55.985725211666676|37.288310025
1496147775899|10|380|0|55.985725211666676|37.288310025
1496147775999|10|380|0|55.985725211666676|37.288310025
1496147776099|10|380|0|55.985725211666676|37.288310025
1496147776199|10|380|0|55.985725211666676|37.288310025
1496147776299|10|380|0|55.985725211666676|37.288310025
1496147776399|10|380|0|55.985725211666676|37.288310025
1496147776499|10|346|0|55.98572352833333|37.28826770333333
1496147776599|11|346|0|55.98572352833333|37.28826770333333
1496147776699|11|346|0|55.98572352833333|37.28826770333333
1496147776799|11|346|0|55.98572352833333|37.28826770333333
1496147776899|11|346|0|55.98572352833333|37.28826770333333
1496147776999|12|346|0|55.98572352833333|37.28826770333333
1496147777099|12|346|0|55.98572352833333|37.28826770333333
1496147777199|12|346|0|55.98572352833333|37.28826770333333
1496147777299|12|346|0|55.98572352833333|37.28826770333333
1496147777399|12|346|0|55.98572352833333|37.28826770333333
1496147777499|12|197|0|55.985726664999994|37.288219445
1496147777599|12|197|0|55.985726664999994|37.288219445
1496147777699|12|197|0|55.985726664999994|37.288219445
1496147777799|12|196|0|55.985726664999994|37.288219445
1496147777899|12|196|0|55.985726664999994|37.288219445
1496147777999|12|196|0|55.985726664999994|37.288219445
1496147778099|12|196|0|55.985726664999994|37.288219445
1496147778199|12|196|0|55.985726664999994|37.288219445
1496147778299|12|196|0|55.985726664999994|37.288219445
1496147778399|12|196|0|55.985726664999994|37.288219445
1496147778499|12|-29|0|55.985738485000006|37.288169266666664
1496147778599|11|-29|0|55.985738485000006|37.288169266666664
1496147778699|11|-29|0|55.985738485000006|37.288169266666664
1496147778799|11|-29|0|55.985738485000006|37.288169266666664
1496147778899|11|-29|0|55.985738485000006|37.288169266666664
1496147778999|11|-29|0|55.985738485000006|37.288169266666664
1496147779099|10|-29|0|55.985738485000006|37.288169266666664
1496147779199|10|-29|0|55.985738485000006|37.288169266666664
1496147779299|10|-29|0|55.985738485000006|37.288169266666664
1496147779399|10|-29|0|55.985738485000006|37.288169266666664
1496147779499|10|-29|0|55.985738485000006|37.288169266666664
1496147779599|10|-29|0|55.985738485000006|37.288169266666664
1496147779699|9|-29|0|55.985738485000006|37.288169266666664
1496147779799|9|-29|0|55.985738485000006|37.288169266666664
1496147779899|9|-29|0|55.985738485000006|37.288169266666664
1496147779999|9|-29|0|55.985738485000006|37.288169266666664
1496147780099|9|-29|0|55.985738485000006|37.288169266666664
1496147780199|8|-28|0|55.985738485000006|37.288169266666664
1496147780299|8|-28|0|55.985738485000006|37.288169266666664
1496147780399|8|-28|0|55.985738485000006|37.288169266666664
1496147780499|8|-324|0|55.98577327666666|37.28810447833333
1496147780599|8|-324|0|55.98577327666666|37.28810447833333
1496147780699|8|-324|0|55.98577327666666|37.28810447833333
1496147780799|8|-324|0|55.98577327666666|37.28810447833333
1496147780899|7|-324|0|55.98577327666666|37.28810447833333
1496147780999|7|-324|0|55.98577327666666|37.28810447833333
1496147781099|7|-324|0|55.98577327666666|37.28810447833333
1496147781199|7|-324|0|55.98577327666666|37.28810447833333
1496147781299|7|-324|0|55.98577327666666|37.28810447833333
1496147781399|7|-324|0|55.98577327666666|37.28810447833333
1496147781499|7|-324|0|55.98577327666666|37.28810447833333
1496147781599|7|-324|0|55.98577327666666|37.28810447833333
1496147781699|6|-324|0|55.98577327666666|37.28810447833333
1496147781799|6|-324|0|55.98577327666666|37.28810447833333
1496147781899|6|-324|0|55.98577327666666|37.28810447833333
1496147781999|6|-324|0|55.98577327666666|37.28810447833333
1496147782099|6|-324|0|55.98577327666666|37.28810447833333
1496147782199|6|-324|0|55.98577327666666|37.28810447833333
1496147782299|6|-324|0|55.98577327666666|37.28810447833333
1496147782399|6|-324|0|55.98577327666666|37.28810447833333
1496147782499|6|-239|0|55.985796521666664|37.28805089
1496147782599|5|-240|0|55.985796521666664|37.28805089
1496147782699|5|-240|0|55.985796521666664|37.28805089
1496147782799|5|-240|0|55.985796521666664|37.28805089
1496147782899|5|-240|0|55.985796521666664|37.28805089
1496147782999|5|-240|0|55.985796521666664|37.28805089
1496147783099|5|-240|0|55.985796521666664|37.28805089
1496147783199|5|-240|0|55.985796521666664|37.28805089
1496147783299|5|-240|0|55.985796521666664|37.28805089
1496147783399|5|-240|0|55.985796521666664|37.28805089
1496147783499|5|-116|0|55.985803561666664|37.288028170000004
1496147783599|5|-116|0|55.985803561666664|37.288028170000004
1496147783699|5|-116|0|55.985803561666664|37.288028170000004
1496147783799|5|-116|0|55.985803561666664|37.288028170000004
1496147783899|5|-116|0|55.985803561666664|37.288028170000004
1496147783999|5|-116|0|55.985803561666664|37.288028170000004
1496147784099|5|-116|0|55.985803561666664|37.288028170000004
1496147784199|5|-116|0|55.985803561666664|37.288028170000004
1496147784299|5|-116|0|55.985803561666664|37.288028170000004
1496147784400|5|-116|0|55.985803561666664|37.288028170000004
1496147784500|5|-3|0|55.98580856666667|37.28800474166667
1496147784600|5|-3|0|55.98580856666667|37.28800474166667
1496147784700|5|-3|0|55.98580856666667|37.28800474166667
1496147784800|5|-3|0|55.98580856666667|37.28800474166667
1496147784900|5|-3|0|55.98580856666667|37.28800474166667
1496147785000|5|-3|0|55.98580856666667|37.28800474166667
1496147785100|5|-3|0|55.98580856666667|37.28800474166667
1496147785200|5|-3|0|55.98580856666667|37.28800474166667
1496147785300|5|-3|0|55.98580856666667|37.28800474166667
1496147785400|5|-3|0|55.98580856666667|37.28800474166667
1496147785500|5|72|0|55.98581232333333|37.28798040666666
1496147785600|5|72|0|55.98581232333333|37.28798040666666
1496147785700|5|73|0|55.98581232333333|37.28798040666666
1496147785800|5|73|0|55.98581232333333|37.28798040666666
1496147785900|5|73|0|55.98581232333333|37.28798040666666
1496147786000|5|73|0|55.98581232333333|37.28798040666666
1496147786100|5|73|0|55.98581232333333|37.28798040666666
1496147786200|5|73|0|55.98581232333333|37.28798040666666
1496147786300|6|73|0|55.98581232333333|37.28798040666666
1496147786400|6|73|0|55.98581232333333|37.28798040666666
1496147786500|6|419|0|55.98581590333333|37.287955464999996
1496147786600|6|419|0|55.98581590333333|37.287955464999996
1496147786700|6|419|0|55.98581590333333|37.287955464999996
1496147786800|6|419|0|55.98581590333333|37.287955464999996
1496147786900|6|419|0|55.98581590333333|37.287955464999996
1496147787000|6|419|0|55.98581590333333|37.287955464999996
1496147787100|6|419|0|55.98581590333333|37.287955464999996
1496147787200|6|419|0|55.98581590333333|37.287955464999996
1496147787300|6|419|0|55.98581590333333|37.287955464999996
1496147787400|7|419|0|55.98581590333333|37.287955464999996
1496147787500|7|400|0|55.98582016|37.28792856833334
1496147787600|7|400|0|55.98582016|37.28792856833334
1496147787700|7|400|0|55.98582016|37.28792856833334
1496147787800|7|400|0|55.98582016|37.28792856833334
1496147787900|7|400|0|55.98582016|37.28792856833334
1496147788000|7|400|0|55.98582016|37.28792856833334
1496147788100|7|400|0|55.98582016|37.28792856833334
1496147788200|7|400|0|55.98582016|37.28792856833334
1496147788300|6|400|0|55.98582016|37.28792856833334
1496147788400|6|400|0|55.98582016|37.28792856833334
1496147788500|5|338|0|55.985826188333334|37.28789934
1496147788600|5|338|0|55.985826188333334|37.28789934
1496147788700|5|337|0|55.985826188333334|37.28789934
1496147788800|4|337|0|55.985826188333334|37.28789934
1496147788900|4|337|0|55.985826188333334|37.28789934
1496147789000|4|337|0|55.985826188333334|37.28789934
1496147789100|4|337|0|55.985826188333334|37.28789934
1496147789200|4|337|0|55.985826188333334|37.28789934
1496147789300|4|337|0|55.985826188333334|37.28789934
1496147789400|4|337|0|55.985826188333334|37.28789934
1496147789500|4|251|0|55.98583209166667|37.287878080000006
1496147789600|4|251|0|55.98583209166667|37.287878080000006
1496147789700|4|251|0|55.98583209166667|37.287878080000006
1496147789800|4|251|0|55.98583209166667|37.287878080000006
1496147789900|4|251|0|55.98583209166667|37.287878080000006
1496147790000|4|251|0|55.98583209166667|37.287878080000006
1496147790100|4|251|0|55.98583209166667|37.287878080000006
1496147790200|4|251|0|55.98583209166667|37.287878080000006
1496147790300|4|251|0|55.98583209166667|37.287878080000006
1496147790400|4|251|0|55.98583209166667|37.287878080000006
1496147790500|4|235|0|55.98583687666666|37.287861666666664
1496147790600|5|236|0|55.98583687666666|37.287861666666664
1496147790700|5|236|0|55.98583687666666|37.287861666666664
1496147790800|6|236|0|55.98583687666666|37.287861666666664
1496147790900|6|236|0|55.98583687666666|37.287861666666664
1496147791000|6|236|0|55.98583687666666|37.287861666666664
1496147791100|7|236|0|55.98583687666666|37.287861666666664
1496147791200|7|236|0|55.98583687666666|37.287861666666664
1496147791300|8|236|0|55.98583687666666|37.287861666666664
1496147791400|8|236|0|55.98584238333333|37.287839119999994
1496147791500|8|292|0|55.98584238333333|37.287839119999994
1496147791600|8|292|0|55.98584238333333|37.287839119999994
1496147791700|8|292|0|55.98584238333333|37.287839119999994
1496147791800|8|292|0|55.98584238333333|37.287839119999994
1496147791900|9|292|0|55.98584238333333|37.287839119999994
1496147792000|9|292|0|55.98584238333333|37.287839119999994
1496147792100|9|292|0|55.98584238333333|37.287839119999994
1496147792200|9|292|0|55.98584238333333|37.287839119999994
1496147792300|9|292|0|55.98584238333333|37.287839119999994
1496147792400|10|292|0|55.985851095|37.28780372333333
1496147792500|10|290|0|55.985851095|37.28780372333333
1496147792600|10|290|0|55.985851095|37.28780372333333
1496147792700|10|290|0|55.985851095|37.28780372333333
1496147792800|11|290|0|55.985851095|37.28780372333333
1496147792900|11|290|0|55.985851095|37.28780372333333
1496147793000|11|290|0|55.985851095|37.28780372333333
1496147793100|12|290|0|55.985851095|37.28780372333333
1496147793200|12|290|0|55.985851095|37.28780372333333
1496147793300|12|290|0|55.985851095|37.28780372333333
1496147793400|12|290|0|55.985851095|37.28780372333333
1496147793500|12|238|0|55.98586323166666|37.287761974999995
1496147793600|12|238|0|55.98586323166666|37.287761974999995
1496147793700|13|238|0|55.98586323166666|37.287761974999995
1496147793800|13|238|0|55.98586323166666|37.287761974999995
1496147793900|13|238|0|55.98586323166666|37.287761974999995
1496147794000|14|238|0|55.98586323166666|37.287761974999995
1496147794100|14|238|0|55.98586323166666|37.287761974999995
1496147794200|15|238|0|55.98586323166666|37.287761974999995
1496147794300|15|238|0|55.98586323166666|37.287761974999995
1496147794400|15|119|0|55.98588202333334|37.28771565666666
1496147794500|15|119|0|55.98588202333334|37.28771565666666
1496147794600|15|119|0|55.98588202333334|37.28771565666666
1496147794700|15|119|0|55.98588202333334|37.28771565666666
1496147794800|15|119|0|55.98588202333334|37.28771565666666
1496147794900|15|119|0|55.98588202333334|37.28771565666666
1496147795000|15|119|0|55.98588202333334|37.28771565666666
1496147795100|15|119|0|55.98588202333334|37.28771565666666
1496147795200|15|119|0|55.98588202333334|37.28771565666666
1496147795300|14|119|0|55.98588202333334|37.28771565666666
1496147795400|14|120|0|55.98588202333334|37.28771565666666
1496147795500|14|-116|0|55.985911293333324|37.287675955
1496147795600|14|-116|0|55.985911293333324|37.287675955
1496147795700|14|-116|0|55.985911293333324|37.287675955
1496147795800|14|-116|0|55.985911293333324|37.287675955
1496147795900|14|-116|0|55.985911293333324|37.287675955
1496147796000|14|-116|0|55.985911293333324|37.287675955
1496147796100|14|-116|0|55.985911293333324|37.287675955
1496147796200|14|-116|0|55.985911293333324|37.287675955
1496147796300|13|-116|0|55.985911293333324|37.287675955
1496147796400|13|-116|0|55.985943799999994|37.28764926166667
1496147796500|13|462|0|55.985943799999994|37.28764926166667
