1498640567812|0|0|0|0.0|0.0
1498640567922|0|0|0|0.0|0.0
1498640568031|0|0|0|0.0|0.0
1498640568140|0|0|0|0.0|0.0
1498640568249|0|0|0|0.0|0.0
1498640568358|0|0|0|0.0|0.0
1498640568468|0|0|0|0.0|0.0
1498640568577|0|0|0|0.0|0.0
1498640568686|0|0|0|0.0|0.0
1498640568795|0|0|0|0.0|0.0
1498640568904|0|0|0|0.0|0.0
1498640569014|0|0|0|0.0|0.0
1498640569123|0|0|0|0.0|0.0
1498640569232|0|0|0|0.0|0.0
1498640569341|0|0|0|0.0|0.0
1498640569450|0|0|0|0.0|0.0
1498640569560|0|0|0|0.0|0.0
1498640569669|0|0|0|0.0|0.0
1498640569778|0|0|0|0.0|0.0
1498640569887|0|0|0|0.0|0.0
1498640569996|0|0|0|0.0|0.0
1498640570106|0|0|0|0.0|0.0
1498640570215|0|0|0|0.0|0.0
1498640570324|0|0|0|0.0|0.0
1498640570433|0|0|0|0.0|0.0
1498640570542|0|0|0|0.0|0.0
1498640570652|0|0|0|0.0|0.0
1498640570761|0|0|0|0.0|0.0
1498640570870|0|0|0|0.0|0.0
1498640570979|0|0|0|0.0|0.0
1498640571088|0|0|0|0.0|0.0
1498640571198|0|0|0|0.0|0.0
1498640571307|0|0|0|0.0|0.0
1498640571416|0|0|0|0.0|0.0
1498640571525|0|0|0|0.0|0.0
1498640571634|0|0|0|0.0|0.0
1498640571744|0|0|0|0.0|0.0
1498640571853|0|0|0|0.0|0.0
1498640571962|0|0|0|0.0|0.0
1498640572071|0|0|0|0.0|0.0
1498640572180|0|0|0|0.0|0.0
1498640572290|0|0|0|0.0|0.0
1498640572399|0|0|0|0.0|0.0
1498640572508|0|0|0|0.0|0.0
1498640572617|0|0|0|0.0|0.0
1498640572726|0|0|0|0.0|0.0
1498640572836|0|0|0|0.0|0.0
1498640572945|0|0|0|0.0|0.0
1498640573054|0|0|0|0.0|0.0
1498640573163|0|0|0|0.0|0.0
1498640573272|0|0|0|0.0|0.0
1498640573382|0|0|0|0.0|0.0
1498640573491|0|0|0|0.0|0.0
1498640573600|0|0|0|0.0|0.0
1498640573709|0|0|0|0.0|0.0
1498640573818|0|0|0|0.0|0.0
1498640573928|0|0|0|0.0|0.0
1498640574037|0|0|0|0.0|0.0
1498640574146|0|0|0|0.0|0.0
1498640574255|0|0|0|0.0|0.0
1498640574364|0|0|0|0.0|0.0
1498640574474|0|0|0|0.0|0.0
1498640574583|0|0|0|0.0|0.0
1498640574692|0|0|0|0.0|0.0
1498640574801|0|0|0|0.0|0.0
1498640574910|0|0|0|0.0|0.0
1498640575020|0|0|0|0.0|0.0
1498640575129|0|0|0|0.0|0.0
1498640575238|0|0|0|0.0|0.0
1498640575347|0|0|0|0.0|0.0
1498640575456|0|0|0|0.0|0.0
1498640575566|0|0|0|0.0|0.0
1498640575675|0|0|0|0.0|0.0
1498640575784|0|0|0|0.0|0.0
1498640575893|0|0|0|0.0|0.0
1498640576002|0|0|0|0.0|0.0
1498640576112|0|0|0|0.0|0.0
1498640576221|0|0|0|0.0|0.0
1498640576330|0|0|0|0.0|0.0
1498640576439|0|0|0|0.0|0.0
1498640576548|0|0|0|0.0|0.0
1498640576658|0|0|0|0.0|0.0
1498640576767|0|0|0|0.0|0.0
1498640576876|0|0|0|0.0|0.0
1498640576985|0|0|0|0.0|0.0
1498640577094|0|0|0|0.0|0.0
1498640577204|0|0|0|0.0|0.0
1498640577313|0|0|0|0.0|0.0
1498640577422|0|0|0|0.0|0.0
1498640577531|0|0|0|0.0|0.0
1498640577640|0|0|0|0.0|0.0
1498640577750|0|0|0|0.0|0.0
1498640577859|0|0|0|0.0|0.0
1498640577968|0|0|0|0.0|0.0
1498640578077|0|0|0|0.0|0.0
1498640578186|0|0|0|0.0|0.0
1498640578296|0|0|0|0.0|0.0
1498640578405|0|0|0|0.0|0.0
1498640578514|0|0|0|0.0|0.0
1498640578623|0|0|0|0.0|0.0
1498640578732|0|0|0|0.0|0.0
1498640578842|0|0|0|0.0|0.0
1498640578951|0|0|0|0.0|0.0
1498640579060|0|0|0|0.0|0.0
1498640579169|0|0|0|0.0|0.0
1498640579278|0|0|0|0.0|0.0
1498640579388|0|0|0|0.0|0.0
1498640579497|0|0|0|0.0|0.0
1498640579606|0|0|0|0.0|0.0
1498640579715|0|0|0|0.0|0.0
1498640579824|0|0|0|0.0|0.0
1498640579934|0|0|0|0.0|0.0
1498640580043|0|0|0|0.0|0.0
1498640580152|0|0|0|0.0|0.0
1498640580261|0|0|0|0.0|0.0
1498640580370|0|0|0|0.0|0.0
1498640580480|0|0|0|0.0|0.0
1498640580589|0|0|0|0.0|0.0
1498640580698|0|0|0|0.0|0.0
1498640580807|0|0|0|0.0|0.0
1498640580916|0|0|0|0.0|0.0
1498640581026|0|0|0|0.0|0.0
1498640581135|0|0|0|0.0|0.0
1498640581244|0|0|0|0.0|0.0
1498640581353|0|0|0|0.0|0.0
1498640581462|0|0|0|0.0|0.0
1498640581572|0|0|0|0.0|0.0
1498640581681|0|0|0|0.0|0.0
1498640581790|0|0|0|0.0|0.0
1498640581899|0|0|0|0.0|0.0
1498640582008|0|0|0|0.0|0.0
1498640582118|0|0|0|0.0|0.0
1498640582227|0|0|0|0.0|0.0
1498640582336|0|0|0|0.0|0.0
1498640582445|0|0|0|0.0|0.0
1498640582554|0|0|0|0.0|0.0
1498640582664|0|0|0|0.0|0.0
1498640582773|0|0|0|0.0|0.0
1498640582882|0|0|0|0.0|0.0
1498640582991|0|0|0|0.0|0.0
1498640583100|0|0|0|0.0|0.0
1498640583210|0|0|0|0.0|0.0
1498640583319|0|0|0|0.0|0.0
1498640583428|0|0|0|0.0|0.0
1498640583568|0|0|0|0.0|0.0
1498640583678|0|0|0|0.0|0.0
1498640583787|0|0|0|0.0|0.0
1498640583896|0|0|0|0.0|0.0
1498640584005|0|0|0|0.0|0.0
1498640584114|0|0|0|0.0|0.0
1498640584224|0|0|0|0.0|0.0
1498640584333|0|0|0|0.0|0.0
1498640584442|0|0|0|0.0|0.0
1498640584551|0|0|0|0.0|0.0
1498640584660|0|0|0|0.0|0.0
1498640584770|0|0|0|0.0|0.0
1498640584879|0|0|0|0.0|0.0
1498640584988|0|0|0|0.0|0.0
1498640585097|0|0|0|0.0|0.0
1498640585206|0|0|0|0.0|0.0
1498640585316|0|0|0|0.0|0.0
1498640585425|0|0|0|0.0|0.0
1498640585534|0|0|0|0.0|0.0
1498640585643|0|0|0|0.0|0.0
1498640585752|0|0|0|0.0|0.0
1498640585862|0|0|0|0.0|0.0
1498640585971|0|0|0|0.0|0.0
1498640586080|0|0|0|0.0|0.0
1498640586189|0|0|0|0.0|0.0
1498640586298|0|0|0|0.0|0.0
1498640586408|0|0|0|0.0|0.0
1498640586517|0|0|0|0.0|0.0
1498640586626|0|0|0|0.0|0.0
1498640586735|0|0|0|0.0|0.0
1498640586844|0|0|0|0.0|0.0
1498640586954|0|0|0|0.0|0.0
1498640587063|0|0|0|0.0|0.0
1498640587172|0|0|0|0.0|0.0
1498640587281|0|0|0|0.0|0.0
1498640587390|0|0|0|0.0|0.0
1498640587500|0|0|0|0.0|0.0
1498640587609|0|0|0|0.0|0.0
1498640587718|0|0|0|0.0|0.0
1498640587827|0|0|0|0.0|0.0
1498640587936|0|0|0|0.0|0.0
1498640588046|0|0|0|0.0|0.0
1498640588155|0|0|0|0.0|0.0
1498640588264|0|0|0|0.0|0.0
1498640588373|0|0|0|0.0|0.0
1498640588482|0|0|0|0.0|0.0
1498640588592|0|0|0|0.0|0.0
1498640588701|0|0|0|0.0|0.0
1498640588810|0|0|0|0.0|0.0
1498640588919|0|0|0|0.0|0.0
1498640589028|0|0|0|0.0|0.0
1498640589138|0|0|0|0.0|0.0
1498640589247|0|0|0|0.0|0.0
1498640589356|0|0|0|0.0|0.0
1498640589465|0|0|0|0.0|0.0
1498640589574|0|0|0|0.0|0.0
1498640589684|0|0|0|0.0|0.0
1498640589793|0|0|0|0.0|0.0
1498640589902|0|0|0|0.0|0.0
1498640590011|0|0|0|0.0|0.0
1498640590120|0|0|0|0.0|0.0
1498640590230|0|0|0|0.0|0.0
1498640590339|0|0|0|0.0|0.0
1498640590448|0|0|0|0.0|0.0
1498640590557|0|0|0|0.0|0.0
1498640590666|0|0|0|0.0|0.0
1498640590776|0|0|0|0.0|0.0
1498640590885|0|0|0|0.0|0.0
1498640590994|0|0|0|0.0|0.0
1498640591103|0|0|0|0.0|0.0
1498640591212|0|0|0|0.0|0.0
1498640591322|0|0|0|0.0|0.0
1498640591431|0|0|0|0.0|0.0
1498640591540|0|0|0|0.0|0.0
1498640591649|0|0|0|0.0|0.0
1498640591758|0|0|0|0.0|0.0
1498640591868|0|0|0|0.0|0.0
1498640591977|0|0|0|0.0|0.0
1498640592086|0|0|0|0.0|0.0
1498640592195|0|0|0|0.0|0.0
1498640592304|0|0|0|0.0|0.0
1498640592414|0|0|0|0.0|0.0
1498640592523|0|0|0|0.0|0.0
1498640592632|0|0|0|0.0|0.0
1498640592741|0|0|0|0.0|0.0
1498640592850|0|0|0|0.0|0.0
1498640592960|0|0|0|0.0|0.0
1498640593069|0|0|0|0.0|0.0
1498640593178|0|0|0|0.0|0.0
1498640593287|0|0|0|0.0|0.0
1498640593396|0|1|0|0.0|0.0
1498640593506|0|6|0|0.0|0.0
1498640593615|0|7|0|0.0|0.0
1498640593724|0|13|0|0.0|0.0
1498640593833|0|17|0|0.0|0.0
1498640593942|0|17|0|0.0|0.0
1498640594052|0|17|0|0.0|0.0
1498640594161|0|17|0|0.0|0.0
1498640594270|0|13|0|0.0|0.0
1498640594379|0|10|0|0.0|0.0
1498640594488|0|9|0|0.0|0.0
1498640594598|0|7|0|0.0|0.0
1498640594707|0|6|0|0.0|0.0
1498640594816|0|2|0|0.0|0.0
1498640594925|0|2|0|0.0|0.0
1498640595034|0|1|0|0.0|0.0
1498640595144|0|1|0|0.0|0.0
1498640595253|0|1|0|0.0|0.0
1498640595362|0|-2|0|0.0|0.0
1498640595487|0|-7|0|0.0|0.0
1498640595596|0|-8|0|0.0|0.0
1498640595705|0|-8|0|0.0|0.0
1498640595814|0|-8|0|0.0|0.0
1498640595924|0|-8|0|0.0|0.0
1498640596033|0|-8|0|0.0|0.0
1498640596142|0|-1|0|0.0|0.0
1498640596251|0|5|0|0.0|0.0
1498640596360|0|6|0|0.0|0.0
1498640596470|0|8|0|0.0|0.0
1498640596579|0|9|0|0.0|0.0
1498640596688|0|9|0|0.0|0.0
1498640596797|0|9|0|0.0|0.0
1498640596906|0|9|0|0.0|0.0
1498640597016|0|9|0|0.0|0.0
1498640597125|0|8|0|0.0|0.0
1498640597234|0|4|0|0.0|0.0
1498640597343|0|2|0|0.0|0.0
1498640597452|0|0|0|0.0|0.0
1498640597562|0|0|0|0.0|0.0
1498640597671|0|0|0|0.0|0.0
1498640597780|0|-1|0|0.0|0.0
1498640597889|0|-1|0|0.0|0.0
1498640597998|0|-2|0|0.0|0.0
1498640598108|0|-2|0|0.0|0.0
1498640598217|0|-2|0|0.0|0.0
1498640598326|0|-2|0|0.0|0.0
1498640598435|0|-2|0|0.0|0.0
1498640598544|0|-2|0|0.0|0.0
1498640598654|0|-2|0|0.0|0.0
1498640598763|0|-2|0|0.0|0.0
1498640598872|0|-2|0|0.0|0.0
1498640598981|0|-2|0|0.0|0.0
1498640599090|0|-2|0|0.0|0.0
1498640599200|0|-2|0|0.0|0.0
1498640599309|0|-2|0|0.0|0.0
1498640599418|0|-2|0|0.0|0.0
1498640599527|0|-2|0|0.0|0.0
1498640599636|0|-2|0|0.0|0.0
1498640599995|0|-2|0|0.0|0.0
1498640600104|0|-2|0|0.0|0.0
1498640600214|0|-2|0|0.0|0.0
1498640600323|0|-2|0|0.0|0.0
1498640600432|0|-2|0|0.0|0.0
1498640600541|0|-2|0|0.0|0.0
1498640600650|0|-2|0|0.0|0.0
1498640600760|0|-2|0|0.0|0.0
1498640600869|0|-2|0|0.0|0.0
1498640600978|0|-2|0|0.0|0.0
1498640601087|0|-2|0|0.0|0.0
1498640601196|0|-2|0|0.0|0.0
1498640601306|0|-2|0|0.0|0.0
1498640601415|0|-2|0|0.0|0.0
1498640601524|0|-2|0|0.0|0.0
1498640601633|0|-2|0|0.0|0.0
1498640601742|0|-2|0|0.0|0.0
1498640601852|0|-2|0|0.0|0.0
1498640601961|0|-2|0|0.0|0.0
1498640602070|0|-2|0|0.0|0.0
1498640602179|0|-2|0|0.0|0.0
1498640602288|0|-2|0|0.0|0.0
1498640602398|0|-2|0|0.0|0.0
1498640602507|0|-2|0|0.0|0.0
1498640602616|0|-2|0|0.0|0.0
1498640602725|0|-2|0|0.0|0.0
1498640602834|0|-2|0|0.0|0.0
1498640602944|0|-2|0|0.0|0.0
1498640603053|0|-2|0|0.0|0.0
1498640603162|0|-2|0|0.0|0.0
1498640603271|0|-2|0|0.0|0.0
1498640603380|0|-2|0|0.0|0.0
1498640603490|0|-2|0|0.0|0.0
1498640603599|0|-2|0|0.0|0.0
1498640603708|0|-2|0|0.0|0.0
1498640603817|0|-2|0|0.0|0.0
1498640603926|0|-2|0|0.0|0.0
1498640604036|0|-2|0|0.0|0.0
1498640604145|0|-2|0|0.0|0.0
1498640604254|0|-2|0|0.0|0.0
1498640604363|0|-2|0|0.0|0.0
1498640604472|0|-2|0|0.0|0.0
1498640604582|0|-2|0|0.0|0.0
1498640604691|0|-2|0|0.0|0.0
1498640604800|0|-2|0|0.0|0.0
1498640604909|0|-2|0|0.0|0.0
1498640605018|0|-2|0|0.0|0.0
1498640605128|0|-2|0|0.0|0.0
1498640605237|0|-2|0|0.0|0.0
1498640605346|0|-2|0|0.0|0.0
1498640605455|0|-2|0|0.0|0.0
1498640605564|0|-2|0|0.0|0.0
1498640605674|0|-2|0|0.0|0.0
1498640605783|0|-2|0|0.0|0.0
1498640605892|0|-2|0|0.0|0.0
1498640606001|0|-2|0|0.0|0.0
1498640606110|0|-2|0|0.0|0.0
1498640606220|0|-2|0|0.0|0.0
1498640606329|0|-2|0|0.0|0.0
1498640606438|0|-2|0|0.0|0.0
1498640606547|0|-2|0|0.0|0.0
1498640606656|0|-2|0|0.0|0.0
1498640606766|0|-2|0|0.0|0.0
1498640606875|0|-2|0|0.0|0.0
1498640606984|0|-2|0|0.0|0.0
1498640607093|0|-2|0|0.0|0.0
1498640607202|0|-2|0|0.0|0.0
1498640607312|0|-2|0|0.0|0.0
1498640607421|0|-2|0|0.0|0.0
1498640607530|0|-2|0|0.0|0.0
1498640607639|0|-2|0|0.0|0.0
1498640607748|0|-2|0|0.0|0.0
1498640607858|0|-2|0|0.0|0.0
1498640607967|0|-2|0|0.0|0.0
1498640608076|0|-2|0|0.0|0.0
1498640608185|0|-2|0|0.0|0.0
1498640608294|0|-2|0|0.0|0.0
1498640608404|0|-2|0|0.0|0.0
1498640608513|0|-2|0|0.0|0.0
1498640608622|0|-2|0|0.0|0.0
1498640608731|0|-2|0|0.0|0.0
1498640608840|0|-2|0|0.0|0.0
1498640608950|0|-2|0|0.0|0.0
1498640609059|0|-2|0|0.0|0.0
1498640609168|0|-2|0|0.0|0.0
1498640609277|0|-2|0|0.0|0.0
1498640609386|0|-2|0|0.0|0.0
1498640609496|0|-2|0|0.0|0.0
1498640609605|0|-2|0|0.0|0.0
1498640609714|0|-2|0|0.0|0.0
1498640609823|0|-2|0|0.0|0.0
1498640609932|0|-2|0|0.0|0.0
1498640610042|0|-2|0|0.0|0.0
1498640610151|0|-2|0|0.0|0.0
1498640610260|0|-2|0|0.0|0.0
1498640610369|0|-2|0|0.0|0.0
1498640610478|0|-2|0|0.0|0.0
1498640610588|0|-2|0|0.0|0.0
1498640610697|0|-2|0|0.0|0.0
1498640610806|0|-2|0|0.0|0.0
1498640610915|0|-2|0|0.0|0.0
1498640611024|0|-2|0|0.0|0.0
1498640611134|0|-2|0|0.0|0.0
1498640611243|0|-2|0|0.0|0.0
1498640611352|0|-2|0|0.0|0.0
1498640611461|0|-2|0|0.0|0.0
1498640611570|0|-2|0|0.0|0.0
1498640611680|0|-2|0|0.0|0.0
1498640611789|0|-2|0|0.0|0.0
1498640611898|0|-2|0|0.0|0.0
1498640612007|0|-2|0|0.0|0.0
1498640612116|0|-2|0|0.0|0.0
1498640612226|0|-2|0|0.0|0.0
1498640612335|0|-2|0|0.0|0.0
1498640612444|0|-2|0|0.0|0.0
1498640612553|0|-2|0|0.0|0.0
1498640612662|0|-2|0|0.0|0.0
1498640612772|0|-2|0|0.0|0.0
1498640612881|0|-2|0|0.0|0.0
1498640612990|0|-2|0|0.0|0.0
1498640613099|0|-2|0|0.0|0.0
1498640613208|0|-2|0|0.0|0.0
1498640613318|0|-2|0|0.0|0.0
1498640613427|0|-2|0|0.0|0.0
1498640613536|0|-2|0|0.0|0.0
1498640613645|0|-2|0|0.0|0.0
1498640613754|0|-2|0|0.0|0.0
1498640613864|0|-2|0|0.0|0.0
1498640613973|0|-2|0|0.0|0.0
1498640614082|0|-2|0|0.0|0.0
1498640614191|0|-2|0|0.0|0.0
1498640614300|0|-2|0|0.0|0.0
1498640614410|0|-2|0|0.0|0.0
1498640614519|0|-2|0|0.0|0.0
1498640614628|0|-2|0|0.0|0.0
1498640614737|0|-2|0|0.0|0.0
1498640614846|0|-2|0|0.0|0.0
1498640614956|0|-2|0|0.0|0.0
1498640615065|0|-2|0|0.0|0.0
1498640615174|0|-2|0|0.0|0.0
1498640615283|0|-2|0|0.0|0.0
1498640615392|0|-2|0|0.0|0.0
1498640615502|0|-2|0|0.0|0.0
1498640615611|0|-2|0|0.0|0.0
1498640615720|0|-2|0|0.0|0.0
1498640615829|0|-2|0|0.0|0.0
1498640615938|0|-2|0|0.0|0.0
1498640616048|0|-2|0|0.0|0.0
1498640616157|0|-2|0|0.0|0.0
1498640616266|0|-2|0|0.0|0.0
1498640616375|0|-2|0|0.0|0.0
1498640616484|0|-2|0|0.0|0.0
1498640616594|0|-2|0|0.0|0.0
1498640616703|0|-2|0|0.0|0.0
1498640616812|0|-2|0|0.0|0.0
1498640616921|0|-2|0|0.0|0.0
1498640617030|0|-2|0|0.0|0.0
1498640617140|0|-2|0|0.0|0.0
1498640617249|0|-2|0|0.0|0.0
1498640617358|0|-2|0|0.0|0.0
1498640617467|0|-2|0|0.0|0.0
1498640617576|0|-2|0|0.0|0.0
1498640617686|0|-2|0|0.0|0.0
1498640617795|0|-2|0|0.0|0.0
1498640617904|0|-2|0|0.0|0.0
1498640618013|0|-2|0|0.0|0.0
1498640618122|0|-2|0|0.0|0.0
1498640618232|0|-2|0|0.0|0.0
1498640618341|0|-2|0|0.0|0.0
1498640618450|0|-2|0|0.0|0.0
1498640618559|0|-2|0|0.0|0.0
1498640618668|0|-2|0|0.0|0.0
1498640618778|0|-2|0|0.0|0.0
1498640618887|0|-2|0|0.0|0.0
1498640618996|0|-2|0|0.0|0.0
1498640619105|0|-2|0|0.0|0.0
1498640619214|0|-2|0|0.0|0.0
1498640619324|0|-2|0|0.0|0.0
1498640619433|0|0|0|0.0|0.0
1498640619542|0|1|0|0.0|0.0
1498640619651|0|2|0|0.0|0.0
1498640619760|0|2|0|0.0|0.0
1498640619870|0|2|0|0.0|0.0
1498640619979|0|2|0|0.0|0.0
1498640620088|0|2|0|0.0|0.0
1498640620197|0|2|0|0.0|0.0
1498640620306|0|3|0|0.0|0.0
1498640620416|0|3|0|0.0|0.0
1498640620525|0|4|0|0.0|0.0
1498640620650|0|4|0|0.0|0.0
1498640620759|0|4|0|0.0|0.0
1498640620868|0|4|0|0.0|0.0
1498640620977|0|4|0|0.0|0.0
1498640621086|0|4|0|0.0|0.0
1498640621196|0|4|0|0.0|0.0
1498640621305|0|4|0|0.0|0.0
1498640621414|0|4|0|0.0|0.0
1498640621523|0|3|0|0.0|0.0
1498640621632|0|3|0|0.0|0.0
1498640621742|0|3|0|0.0|0.0
1498640621851|0|3|0|0.0|0.0
1498640621960|0|3|0|0.0|0.0
1498640622069|0|3|0|0.0|0.0
1498640622178|0|3|0|0.0|0.0
1498640622288|0|3|0|0.0|0.0
1498640622397|0|3|0|0.0|0.0
1498640622506|0|3|0|0.0|0.0
1498640622615|0|3|0|0.0|0.0
1498640622724|0|3|0|0.0|0.0
1498640622834|0|3|0|0.0|0.0
1498640622943|0|3|0|0.0|0.0
1498640623052|0|3|0|0.0|0.0
1498640623161|0|3|0|0.0|0.0
1498640623270|0|3|0|0.0|0.0
1498640623380|0|3|0|0.0|0.0
1498640623489|0|3|0|0.0|0.0
1498640623598|0|3|0|0.0|0.0
1498640623707|0|3|0|0.0|0.0
1498640623816|0|3|0|0.0|0.0
1498640623926|0|3|0|0.0|0.0
1498640624035|0|3|0|0.0|0.0
1498640624144|0|3|0|0.0|0.0
1498640624253|0|3|0|0.0|0.0
1498640624362|0|3|0|0.0|0.0
1498640624472|0|3|0|0.0|0.0
1498640624581|0|3|0|0.0|0.0
1498640624690|0|3|0|0.0|0.0
1498640624799|0|3|0|0.0|0.0
1498640624908|0|3|0|0.0|0.0
1498640625018|0|3|0|0.0|0.0
1498640625127|0|3|0|0.0|0.0
1498640625236|0|3|0|0.0|0.0
1498640625345|0|3|0|0.0|0.0
1498640625454|0|3|0|0.0|0.0
1498640625564|0|3|0|0.0|0.0
1498640625673|0|3|0|0.0|0.0
1498640625782|0|3|0|0.0|0.0
1498640625891|0|3|0|0.0|0.0
1498640626000|0|3|0|0.0|0.0
1498640626110|0|3|0|0.0|0.0
1498640626219|0|3|0|0.0|0.0
1498640626328|0|3|0|0.0|0.0
1498640626437|0|3|0|0.0|0.0
1498640626546|0|3|0|0.0|0.0
1498640626656|0|3|0|0.0|0.0
1498640626765|0|3|0|0.0|0.0
1498640626874|0|3|0|0.0|0.0
1498640626983|0|3|0|0.0|0.0
1498640627092|0|3|0|0.0|0.0
1498640627202|0|3|0|0.0|0.0
1498640627311|0|3|0|0.0|0.0
1498640627420|0|3|0|0.0|0.0
1498640627529|0|3|0|0.0|0.0
1498640627638|0|3|0|0.0|0.0
1498640627748|0|3|0|0.0|0.0
1498640627857|0|3|0|0.0|0.0
1498640627966|0|3|0|0.0|0.0
1498640628075|0|3|0|0.0|0.0
1498640628184|0|3|0|0.0|0.0
1498640628294|0|3|0|0.0|0.0
1498640628403|0|3|0|0.0|0.0
1498640628512|0|3|0|0.0|0.0
1498640628621|0|3|0|0.0|0.0
1498640628730|0|3|0|0.0|0.0
1498640628840|0|3|0|0.0|0.0
1498640628949|0|3|0|0.0|0.0
1498640629058|0|3|0|0.0|0.0
1498640629167|0|3|0|0.0|0.0
1498640629276|0|3|0|0.0|0.0
1498640629386|0|3|0|0.0|0.0
1498640629495|0|3|0|0.0|0.0
1498640629604|0|3|0|0.0|0.0
1498640629713|0|3|0|0.0|0.0
1498640629822|0|3|0|0.0|0.0
1498640629932|0|3|0|0.0|0.0
1498640630041|0|3|0|0.0|0.0
1498640630150|0|3|0|0.0|0.0
1498640630259|0|3|0|0.0|0.0
1498640630368|0|3|0|0.0|0.0
1498640630478|0|3|0|0.0|0.0
1498640630587|0|3|0|0.0|0.0
1498640630696|0|3|0|0.0|0.0
1498640630805|0|3|0|0.0|0.0
1498640630914|0|3|0|0.0|0.0
1498640631024|0|3|0|0.0|0.0
1498640631133|0|3|0|0.0|0.0
1498640631616|0|3|0|0.0|0.0
1498640631726|0|3|0|0.0|0.0
1498640631835|0|3|0|0.0|0.0
1498640631944|0|-33|0|0.0|0.0
1498640632053|0|-33|0|0.0|0.0
1498640632162|0|-35|0|0.0|0.0
1498640632272|0|-41|0|0.0|0.0
1498640632381|0|-43|0|0.0|0.0
1498640632490|0|-43|0|0.0|0.0
1498640632599|0|-43|0|0.0|0.0
1498640632708|0|-43|0|0.0|0.0
1498640633301|0|-43|0|0.0|0.0
1498640635626|0|-43|0|0.0|0.0
1498640638044|0|-43|0|0.0|0.0
1498640640477|0|-43|0|0.0|0.0
1498640642895|0|-43|0|0.0|0.0
1498640645313|0|-43|0|0.0|0.0
1498640647747|0|-43|0|0.0|0.0
1498640650165|0|-43|0|0.0|0.0
1498640652598|0|-43|0|0.0|0.0
1498640655016|0|-43|0|0.0|0.0
1498640657434|0|-43|0|0.0|0.0
1498640659868|0|-43|0|0.0|0.0
1498640662286|0|-43|0|0.0|0.0
1498640664720|0|-43|0|0.0|0.0
1498640667138|0|-43|0|0.0|0.0
1498640669556|0|-43|0|0.0|0.0
1498640671989|0|-43|0|0.0|0.0
1498640674407|0|-43|0|0.0|0.0
1498640676825|0|-43|0|0.0|0.0
1498640679259|0|-43|0|0.0|0.0
1498640681677|0|-43|0|0.0|0.0
1498640684111|0|-43|0|0.0|0.0
1498640686529|0|-43|0|0.0|0.0
1498640688947|0|-43|0|0.0|0.0
1498640691380|0|-43|0|0.0|0.0
1498640693798|0|-43|0|0.0|0.0
1498640696232|0|-43|0|0.0|0.0
1498640698650|0|-43|0|0.0|0.0
1498640701068|0|-43|0|0.0|0.0
1498640703501|0|-43|0|0.0|0.0
1498640705919|0|-43|0|0.0|0.0
1498640708337|0|-43|0|0.0|0.0
1498640710771|0|-43|0|0.0|0.0
1498640713189|0|-43|0|0.0|0.0
1498640715623|0|-43|0|0.0|0.0
1498640718041|0|-43|0|0.0|0.0
1498640720459|0|-43|0|0.0|0.0
1498640722892|0|-43|0|0.0|0.0
1498640725310|0|-43|0|0.0|0.0
1498640727744|0|-43|0|0.0|0.0
1498640730162|0|-43|0|0.0|0.0
1498640732580|0|-43|0|0.0|0.0
1498640735013|0|-43|0|0.0|0.0
1498640737431|0|-43|0|0.0|0.0
1498640739912|0|-43|0|0.0|0.0
1498640742283|0|-43|0|0.0|0.0
1498640744701|0|-43|0|0.0|0.0
1498640747135|0|-43|0|0.0|0.0
1498640749553|0|-43|0|0.0|0.0
1498640751971|0|-43|0|0.0|0.0
1498640754404|0|-43|0|0.0|0.0
1498640756822|0|-43|0|0.0|0.0
1498640759256|0|-43|0|0.0|0.0
1498640761674|0|-43|0|0.0|0.0
1498640764092|0|-43|0|0.0|0.0
1498640766525|0|-43|0|0.0|0.0
1498640768943|0|-43|0|0.0|0.0
1498640771361|0|-43|0|0.0|0.0
1498640773795|0|-43|0|0.0|0.0
1498640776213|0|-43|0|0.0|0.0
1498640778647|0|-43|0|0.0|0.0
1498640781065|0|-43|0|0.0|0.0
1498640783483|0|-43|0|0.0|0.0
1498640785916|0|-43|0|0.0|0.0
1498640788334|0|-43|0|0.0|0.0
1498640790752|0|-43|0|0.0|0.0
1498640793186|0|-43|0|0.0|0.0
1498640795604|0|-43|0|0.0|0.0
1498640798038|0|-43|0|0.0|0.0
1498640800456|0|-43|0|0.0|0.0
1498640802874|0|-43|0|0.0|0.0
1498640805307|0|-43|0|0.0|0.0
