1498213622412|0|-67|0|55.807220855|37.528313634999996
1498213622512|0|-246|0|55.80722085833333|37.52831367833333
1498213622612|0|-245|0|55.807220855|37.528313775
1498213622712|0|-246|0|55.80722081833333|37.52831388
1498213622812|0|-246|0|55.80722081333333|37.52831404833333
1498213622912|0|-248|0|55.80722077000001|37.52831421166667
1498213623012|0|-246|0|55.80722069833334|37.52831442166666
1498213623112|0|-246|0|55.80722067833334|37.52831469666666
1498213623212|0|-246|0|55.80722058166666|37.52831497166667
1498213623312|0|-249|0|55.807220523333335|37.528315256666666
1498213623412|0|-248|0|55.80722043833333|37.528315629999994
1498213623512|0|-462|0|55.80722035499999|37.52831607833333
1498213623612|1|-462|0|55.807220275|37.528316575000005
1498213623712|1|-462|0|55.807220166666674|37.528317081666664
1498213623812|1|-462|0|55.807220048333335|37.52831764666666
1498213623912|1|-206|0|55.80721993666666|37.528318283333334
1498213624012|1|-195|0|55.807219825|37.52831895166667
1498213624112|1|-193|0|55.80721972500001|37.52831969
1498213624212|1|-195|0|55.807219595|37.52832044
1498213624312|1|-193|0|55.80721941666667|37.52832119166666
1498213624412|1|-194|0|55.807219321666665|37.528322098333334
1498213624512|2|-26|0|55.80721913833333|37.528323040000004
1498213624612|2|-25|0|55.80721895166666|37.528324004999995
1498213624712|2|-24|0|55.807218745|37.52832500333333
1498213624812|2|-24|0|55.807218561666666|37.52832601666667
1498213624912|2|-23|0|55.80721835333334|37.528327053333335
1498213625012|2|-58|0|55.807218178333336|37.528328071666664
1498213625112|2|-57|0|55.80721798666667|37.52832909999999
1498213625212|2|-56|0|55.80721778666666|37.528330213333334
1498213625312|2|-55|0|55.80721760333333|37.52833140833334
1498213625412|2|-43|0|55.80721735333333|37.528332575
1498213625512|2|-42|0|55.80721714500001|37.52833387166667
1498213625612|3|-12|0|55.80721689000001|37.52833519833334
1498213625712|3|-10|0|55.807216645000004|37.52833668666666
1498213625812|3|-4|0|55.807216319999995|37.528338319999996
1498213625912|4|18|0|55.80721595166666|37.52834006333333
1498213626012|4|12|0|55.80721564166667|37.52834191
1498213626112|4|-19|0|55.807215234999994|37.528343850000006
1498213626212|4|-24|0|55.807214743333326|37.528345745
1498213626312|4|-22|0|55.807214381666675|37.52834784666666
1498213626412|4|-21|0|55.807213974999996|37.528350058333324
1498213626512|5|-462|0|55.8072136|37.528352238333326
1498213626612|5|41|0|55.80721325833333|37.528354583333325
1498213626712|5|0|0|55.80721296666667|37.52835692
1498213626813|5|41|0|55.80721253833334|37.528359035
1498213626915|5|41|0|55.80721208666667|37.528361225000005
1498213627016|5|37|0|55.80721168666667|37.528363424999995
1498213627116|5|-8|0|55.80721124833334|37.52836573999999
1498213627218|5|-8|0|55.80721079166666|37.52836811166667
1498213627319|5|8|0|55.80721039333332|37.52837043833333
1498213627420|5|9|0|55.80720985333334|37.528372728333345
1498213627520|5|-70|0|55.80720933|37.528374864999996
1498213627621|5|-70|0|55.807208833333334|37.52837714833333
1498213627721|5|-54|0|55.807208288333335|37.52837954500001
1498213627821|5|-58|0|55.80720788499999|37.52838202999999
1498213627921|5|26|0|55.80720746166667|37.52838445333334
1498213628022|5|28|0|55.807207125|37.528386874999995
1498213628122|6|33|0|55.80720665833334|37.52838936166667
1498213628222|6|35|0|55.80720617333333|37.52839190666667
1498213628322|6|5|0|55.80720570166667|37.52839459833333
1498213628423|6|6|0|55.80720520166666|37.52839727
1498213628524|6|47|0|55.807204868333336|37.52840013666666
1498213628624|6|45|0|55.807204433333325|37.52840314166667
1498213628724|6|49|0|55.80720395666667|37.528406268333335
1498213628824|7|49|0|55.80720339999999|37.52840934833334
1498213628924|7|-8|0|55.807202804999996|37.52841228166667
1498213629025|7|-13|0|55.80720209500001|37.52841547
1498213629125|7|-53|0|55.807201415|37.52841862500001
1498213629226|7|-52|0|55.80720070833332|37.52842180666667
1498213629326|7|-29|0|55.807200133333325|37.528425081666676
1498213629426|7|-28|0|55.807199593333344|37.52842838
1498213629526|8|15|0|55.807198985|37.528431735
1498213629626|8|13|0|55.807198345|37.52843507666667
1498213629727|8|-43|0|55.807197644999995|37.52843841833333
1498213629827|8|-43|0|55.80719712499999|37.52844183333333
1498213629927|8|28|0|55.80719656166666|37.52844537666667
1498213630027|8|22|0|55.807196125|37.52844885500001
1498213630127|8|29|0|55.807195523333334|37.52845245666667
1498213630228|8|462|0|55.80719492|37.528455991666675
1498213630328|8|18|0|55.807194374999995|37.528459500000004
1498213630429|8|107|0|55.807193825|37.52846321166667
1498213630530|8|23|0|55.807193215000005|37.52846690833333
1498213630630|8|6|0|55.807192613333335|37.52847054666666
1498213630730|8|-3|0|55.80719198833334|37.528474026666665
1498213630830|8|-2|0|55.80719136833333|37.528477575000004
1498213630930|8|-34|0|55.80719066|37.528481185000004
1498213631031|8|-33|0|55.807190038333324|37.52848489
1498213631131|8|-13|0|55.80718937500001|37.528488525
1498213631231|8|-26|0|55.80718859166667|37.52849224333334
1498213631331|8|-71|0|55.807187908333326|37.52849591333333
1498213631431|8|-86|0|55.80718739833332|37.52849968999999
1498213631532|8|-8|0|55.807186886666656|37.52850334166667
1498213631633|8|-5|0|55.807186390000005|37.52850692333333
1498213631733|8|-12|0|55.80718584333334|37.52851067499999
1498213631834|8|-29|0|55.807185243333336|37.528514584999996
1498213631935|8|-23|0|55.807184741666674|37.52851856166667
1498213632036|9|-32|0|55.80718421833333|37.52852235333333
1498213632136|9|-32|0|55.80718368166666|37.52852614666667
1498213632236|8|-43|0|55.80718319833333|37.528529879999994
1498213632336|9|-37|0|55.807182661666666|37.52853366666666
1498213632436|8|-38|0|55.807182045000005|37.528537498333336
1498213632537|8|-53|0|55.807181526666675|37.528541399999995
1498213632637|8|-54|0|55.807181038333326|37.528545279999996
1498213632738|8|14|0|55.80718064999999|37.528549148333326
1498213632839|8|14|0|55.80718014833332|37.528552985000005
1498213632939|8|-21|0|55.80717970833332|37.528556705
1498213633039|8|-22|0|55.80717922666666|37.528560458333324
1498213633140|8|-22|0|55.807178820000004|37.52856436666667
1498213633240|8|-462|0|55.80717838333333|37.52856820666667
1498213633340|8|18|0|55.80717801166667|37.52857213333334
1498213633440|8|-59|0|55.80717757166667|37.52857597666667
1498213633540|8|38|0|55.80717714166667|37.52857968833333
1498213633640|8|71|0|55.80717671000001|37.528583466666674
1498213633740|8|23|0|55.80717610999999|37.52858725833333
1498213633840|8|12|0|55.807175648333335|37.528591165
1498213633940|8|52|0|55.80717547333334|37.52859503666667
1498213634040|8|9|0|55.807175128333334|37.52859861333333
1498213634140|8|-41|0|55.80717473333335|37.528602236666664
1498213634240|8|-44|0|55.80717434|37.52860593166667
1498213634340|8|-105|0|55.807173774999995|37.52860936166667
1498213634440|8|-120|0|55.80717321666666|37.52861265333334
1498213634540|8|-149|0|55.807172853333334|37.52861609333334
1498213634640|8|-186|0|55.807172425000005|37.52861956333333
1498213634740|8|-104|0|55.80717217666667|37.528623126666666
1498213634840|8|-105|0|55.807171905|37.52862653333333
1498213634940|8|-162|0|55.80717154333333|37.52862991666667
1498213635040|7|-150|0|55.807171105|37.528633258333336
1498213635140|7|-217|0|55.80717090833333|37.52863675500001
1498213635240|7|-271|0|55.80717068333333|37.52864026833333
1498213635340|7|-277|0|55.80717048333332|37.528643820000006
1498213635440|7|-269|0|55.80717034833333|37.528647250000006
1498213635540|7|-227|0|55.80717024166667|37.52865076166667
1498213635640|7|-279|0|55.80717008500001|37.528654371666676
1498213635740|7|-273|0|55.80717000333335|37.52865782666667
1498213635840|7|-316|0|55.80716988999999|37.528661325
1498213635940|7|-275|0|55.807169973333345|37.528664705
1498213636040|7|-311|0|55.80717012499999|37.52866811
1498213636140|7|-225|0|55.80717030166667|37.52867160833333
1498213636240|7|-256|0|55.80717043833333|37.52867496499999
1498213636340|7|-240|0|55.80717074999999|37.528678345
1498213636440|7|-239|0|55.80717104166666|37.52868161833333
1498213636540|7|-202|0|55.80717150333333|37.52868481499999
1498213636641|7|-195|0|55.80717184166667|37.52868806333334
1498213636741|7|-220|0|55.80717237|37.52869134
1498213636841|7|-210|0|55.80717298166666|37.528694494999996
1498213636941|7|-168|0|55.807173389999996|37.52869756166667
1498213637041|7|-209|0|55.80717372000001|37.52870067166667
1498213637141|7|-308|0|55.80717399333333|37.52870397833333
1498213637241|7|-338|0|55.80717451|37.52870725333333
1498213637341|7|-224|0|55.80717521166667|37.528710575000005
1498213637441|7|-224|0|55.80717604|37.528713585000006
1498213637541|7|-137|0|55.80717667833332|37.528716429999996
1498213637641|7|-138|0|55.80717735166667|37.528719501666664
1498213637741|7|-183|0|55.80717795333333|37.528722525
1498213637841|7|-194|0|55.807178683333326|37.52872543666666
1498213637941|7|-143|0|55.807179425|37.52872835166667
1498213638041|7|-165|0|55.807180345000006|37.52873136
1498213638141|7|-77|0|55.80718133333333|37.52873433
1498213638241|7|-78|0|55.807182305000005|37.52873718333334
1498213638341|7|-112|0|55.807183034999994|37.52874003666666
1498213638441|7|-115|0|55.80718386499999|37.52874302000001
1498213638541|7|-152|0|55.807184595|37.52874584333333
1498213638641|7|-155|0|55.80718552500001|37.52874863833333
1498213638741|7|-71|0|55.807186436666676|37.52875128
1498213638841|7|-62|0|55.80718725166667|37.52875391833334
1498213638941|7|-94|0|55.807187975|37.52875668666667
1498213639041|7|-98|0|55.80718867666666|37.528759433333335
1498213639141|7|-103|0|55.807189474999994|37.528762136666664
1498213639241|7|-105|0|55.80719031166667|37.528764845000005
1498213639341|7|-63|0|55.80719111499999|37.528767566666666
1498213639441|7|-63|0|55.80719200833334|37.528770306666665
1498213639541|7|-26|0|55.807192945|37.528773073333326
1498213639641|7|-25|0|55.807193855|37.52877555333334
1498213639741|7|46|0|55.80719486333334|37.528778153333334
1498213639841|7|41|0|55.807195828333334|37.52878080999999
1498213639941|7|4|0|55.80719668166667|37.52878358166667
1498213640041|6|-2|0|55.80719753166667|37.528786315000005
1498213640141|6|-15|0|55.80719834|37.52878911166667
1498213640241|6|-18|0|55.80719927166667|37.52879195999999
1498213640341|6|0|0|55.807200045|37.528794776666665
1498213640441|7|2|0|55.80720083333334|37.52879760166666
1498213640541|7|-59|0|55.80720145833334|37.52880052333334
1498213640641|7|-63|0|55.807202155|37.52880355999999
1498213640741|7|2|0|55.80720305333333|37.52880625
1498213640841|7|19|0|55.80720397|37.528808833333336
1498213640941|7|124|0|55.80720492499999|37.528811315
1498213641041|7|122|0|55.80720581833333|37.528813928333335
1498213641141|6|109|0|55.80720677|37.528816595
1498213641241|6|107|0|55.807207736666676|37.52881921166667
1498213641341|7|165|0|55.807208811666676|37.528821826666665
1498213641441|7|179|0|55.80720981666667|37.528824478333334
1498213641541|7|148|0|55.80721074833333|37.52882734166667
1498213641641|7|144|0|55.807211261666666|37.52883023166667
1498213641741|7|-87|0|55.807211779999996|37.528833338333335
1498213641841|7|-75|0|55.807212459999995|37.528836335
1498213641941|7|-21|0|55.80721299333332|37.52883928333333
1498213642041|7|-22|0|55.807213553333334|37.528842315
1498213642141|7|-2|0|55.80721435000001|37.52884555833334
1498213642241|6|-462|0|55.807215251666676|37.52884828333333
1498213642341|6|239|0|55.807216233333335|37.528850248333335
1498213642441|5|191|0|55.80721708166667|37.52885180666666
1498213642541|4|191|0|55.80721783|37.52885347666667
1498213642641|4|239|0|55.807218368333324|37.52885536666667
1498213642741|4|256|0|55.80721894|37.52885736
1498213642841|4|130|0|55.80721948333333|37.52885919833333
1498213642941|3|112|0|55.807219860000004|37.528860849999994
1498213643041|3|132|0|55.80722026|37.52886234
1498213643141|3|85|0|55.80722057666667|37.52886348166666
1498213643241|3|84|0|55.80722068666667|37.52886474500001
1498213643341|2|61|0|55.807220896666664|37.52886592166667
1498213643441|2|59|0|55.80722097166666|37.52886698166667
1498213643541|2|60|0|55.807221163333324|37.528867825
1498213643641|1|-161|0|55.80722131666666|37.528868608333326
1498213643741|1|-155|0|55.80722147333333|37.52886930166667
1498213643841|1|-153|0|55.80722164499999|37.52886995833333
1498213643941|1|-156|0|55.807221696666666|37.52887050666667
1498213644041|1|-156|0|55.80722173|37.528870905000005
1498213644141|1|-157|0|55.807221758333334|37.52887121
1498213644241|0|-152|0|55.807221885|37.52887146166667
1498213644341|0|-151|0|55.80722194166666|37.528871665
1498213644441|0|-152|0|55.80722199833334|37.52887181833333
1498213644541|0|-152|0|55.80722198666667|37.528871824999996
1498213644641|0|-152|0|55.80722197833334|37.52887182666667
1498213644741|0|-152|0|55.80722198666667|37.52887178666667
1498213644841|0|-150|0|55.807221995|37.528871765000005
1498213644941|0|-150|0|55.807221983333335|37.528871800000005
1498213645041|0|-152|0|55.807222005|37.52887178333334
1498213645141|0|-150|0|55.80722201166667|37.52887180166666
1498213645241|0|-152|0|55.807221971666664|37.52887175
1498213645341|0|-150|0|55.807221958333336|37.528871755000004
1498213645441|0|-152|0|55.80722196666667|37.52887176666667
1498213645541|0|-152|0|55.80722198666667|37.52887175666667
1498213645641|0|-152|0|55.80722196833334|37.528871745000004
1498213645741|0|-150|0|55.807222028333335|37.52887176
1498213645841|0|-152|0|55.80722197666667|37.52887176666667
1498213645941|0|-152|0|55.807221981666665|37.528871755000004
1498213646041|0|-154|0|55.80722195166666|37.528871765000005
1498213646141|0|-152|0|55.807221955|37.52887177833334
1498213646241|0|-152|0|55.80722197|37.52887174666667
1498213646341|0|-152|0|55.807221955|37.52887175666667
1498213646441|0|-150|0|55.807221983333335|37.52887174666667
1498213646541|0|-152|0|55.807221971666664|37.528871753333334
1498213646641|0|-152|0|55.807221956666666|37.528871726666665
1498213646741|0|-152|0|55.807221971666664|37.528871741666656
1498213646841|0|-152|0|55.80722196666667|37.528871718333335
1498213646941|0|-151|0|55.80722198833334|37.528871693333336
1498213647041|0|-149|0|55.807221965|37.52887170666667
1498213647141|0|-150|0|55.80722198|37.528871725
1498213647241|0|-153|0|55.80722195333333|37.52887168666667
1498213647341|0|-153|0|55.807221928333334|37.52887170166667
1498213647441|0|-153|0|55.807221925|37.52887168666667
1498213647541|0|-153|0|55.80722193666668|37.528871681666665
1498213647641|0|-154|0|55.807221945|37.528871718333335
1498213647741|0|-150|0|55.80722196333333|37.52887178333334
1498213647841|0|-150|0|55.80722201666667|37.528871865
1498213647941|0|-149|0|55.80722208833334|37.52887193666667
1498213648041|0|-149|0|55.80722206833334|37.52887200833334
1498213648141|0|-147|0|55.807222106666664|37.52887207
1498213648241|0|-148|0|55.80722212333333|37.528872175000004
1498213648341|0|-144|0|55.80722219333334|37.52887234833334
1498213648441|0|-145|0|55.80722228666667|37.528872601666656
1498213648541|0|15|0|55.807222435|37.528872959999994
1498213648641|1|19|0|55.807222628333335|37.528873413333336
1498213648741|1|23|0|55.807222903333326|37.52887408833333
1498213648841|2|114|0|55.80722322666668|37.52887503333333
1498213648941|2|112|0|55.80722356833333|37.528876135
1498213649041|3|247|0|55.807223955000005|37.52887736666667
1498213649141|3|251|0|55.80722431833333|37.52887873333333
1498213649241|3|272|0|55.80722464499999|37.528880138333335
1498213649341|3|172|0|55.80722509333333|37.528881706666674
1498213649441|3|176|0|55.80722559666666|37.52888326666667
1498213649541|3|183|0|55.80722630833334|37.52888482
1498213649641|3|386|0|55.80722702833333|37.528886358333324
1498213649741|4|394|0|55.80722771833333|37.52888780166666
1498213649841|4|393|0|55.80722830333334|37.52888953833334
1498213649941|4|362|0|55.807228761666664|37.52889129666667
1498213650041|4|354|0|55.80722914500001|37.52889314833333
1498213650141|5|361|0|55.80722960833333|37.52889501166666
1498213650241|5|239|0|55.80723020833334|37.528897021666666
1498213650341|5|263|0|55.80723084666667|37.52889917666666
1498213650441|5|285|0|55.807231398333336|37.52890149333333
1498213650541|5|302|0|55.80723183666668|37.528904131666664
1498213650641|6|164|0|55.80723222333333|37.528906629999994
1498213650741|6|166|0|55.80723268333333|37.52890925166666
1498213650841|6|215|0|55.80723317833334|37.52891176166666
1498213650941|6|216|0|55.80723381333334|37.52891438666666
1498213651041|6|299|0|55.807234470000004|37.52891704333334
1498213651141|6|313|0|55.807234968333326|37.528919748333344
1498213651241|6|199|0|55.80723534166667|37.52892258333333
1498213651341|6|211|0|55.80723569|37.52892552666666
1498213651441|6|139|0|55.80723601166666|37.52892851666666
1498213651541|7|159|0|55.80723635166668|37.52893147666667
1498213651641|7|142|0|55.80723663166667|37.52893457833333
1498213651741|7|145|0|55.80723697|37.52893764833333
1498213651841|7|171|0|55.80723731166666|37.528940883333334
1498213651941|7|167|0|55.80723747833334|37.52894407833333
1498213652041|7|154|0|55.80723782333333|37.52894720833334
1498213652141|7|146|0|55.80723802999999|37.528950565
1498213652241|7|172|0|55.80723837000001|37.528953935
1498213652341|7|170|0|55.807238684999994|37.52895739
1498213652441|7|197|0|55.807239053333326|37.52896070333334
1498213652541|7|217|0|55.80723927833333|37.52896405666667
1498213652641|7|159|0|55.807239450000004|37.528967485
1498213652741|7|158|0|55.80723965000001|37.52897085
1498213652841|8|144|0|55.80723977666666|37.528974276666666
1498213652941|8|148|0|55.80723988500001|37.52897779
1498213653041|8|126|0|55.80723996333333|37.52898133000001
1498213653141|8|133|0|55.80723996166667|37.52898495666666
1498213653241|8|54|0|55.80723985333334|37.528988516666665
1498213653341|8|68|0|55.807239736666666|37.528992163333335
1498213653441|8|96|0|55.807239785|37.52899557833334
1498213653541|8|101|0|55.807239821666656|37.528999070000005
1498213653641|8|160|0|55.807239949999996|37.52900270666667
1498213653741|8|159|0|55.807240026666655|37.52900643333333
1498213653841|8|124|0|55.80723989166666|37.52901004166666
1498213653941|8|154|0|55.80723979|37.52901373666666
1498213654041|7|161|0|55.80723984|37.52901731666667
1498213654142|7|295|0|55.80723996666668|37.52902095333332
1498213654242|8|208|0|55.807239868333326|37.52902452
1498213654342|8|228|0|55.807239798333335|37.529028139999994
1498213654442|8|158|0|55.80723957|37.529031784999994
1498213654542|8|157|0|55.807239245000005|37.52903521499999
1498213654642|8|96|0|55.807238955|37.52903878833334
1498213654742|8|98|0|55.80723869|37.52904228833333
1498213654842|8|174|0|55.80723854833332|37.529045775
1498213654942|8|203|0|55.80723814500001|37.52904903833333
1498213655042|8|134|0|55.807237855|37.52905241166666
1498213655142|7|136|0|55.807237349999994|37.52905556666667
1498213655242|7|59|0|55.80723688666667|37.52905888666667
1498213655342|7|101|0|55.807236525|37.529061973333334
1498213655442|7|112|0|55.807236043333326|37.52906506000001
1498213655542|7|161|0|55.80723563833333|37.529068351666666
1498213655642|7|140|0|55.80723510333334|37.52907147833333
1498213655742|7|188|0|55.80723475666667|37.529074855000005
1498213655842|7|274|0|55.80723433333333|37.52907818833333
1498213655942|7|269|0|55.807233919999994|37.529081436666665
1498213656042|7|284|0|55.80723348333333|37.529084780000005
1498213656142|7|278|0|55.80723297666667|37.52908806833333
1498213656242|7|238|0|55.807232426666666|37.529091345
1498213656342|7|239|0|55.80723173999999|37.52909443666666
1498213656442|7|228|0|55.80723120333334|37.529097539999995
1498213656542|7|267|0|55.80723040666667|37.52910062666667
1498213656642|7|190|0|55.80722967|37.529103533333334
1498213656742|7|192|0|55.80722886833334|37.529106561666666
1498213656842|7|213|0|55.80722803666666|37.529109445
1498213656942|7|207|0|55.807227358333336|37.529112383333334
1498213657042|7|286|0|55.80722651|37.529115213333334
1498213657142|7|272|0|55.80722548000001|37.52911814833333
1498213657242|7|207|0|55.80722459666667|37.52912106499999
1498213657342|7|265|0|55.807223701666665|37.52912400333332
1498213657442|7|288|0|55.807222883333324|37.529126864999995
1498213657542|7|346|0|55.807221785|37.529129671666674
1498213657642|7|332|0|55.80722089166667|37.52913245999999
1498213657742|7|325|0|55.807219761666666|37.52913513666667
1498213657842|7|229|0|55.80721852|37.529137741666666
1498213657942|7|286|0|55.807217381666675|37.52914021666666
1498213658042|7|268|0|55.807216170000004|37.52914280833333
1498213658142|7|341|0|55.80721487666666|37.52914524333333
1498213658242|7|266|0|55.807213583333336|37.52914761
1498213658342|7|311|0|55.80721210333332|37.529149775
1498213658442|7|256|0|55.80721088166667|37.529152180000004
1498213658542|7|259|0|55.80720956666667|37.52915459166666
1498213658642|7|341|0|55.807208255|37.52915685833334
1498213658742|7|335|0|55.80720689166666|37.529158906666666
1498213658842|7|272|0|55.807205278333335|37.529160995000005
1498213658942|7|267|0|55.80720373333334|37.52916296833333
1498213659042|7|293|0|55.807202275|37.52916494666667
1498213659142|7|288|0|55.80720075|37.52916695333334
1498213659242|7|279|0|55.80719924|37.529168801666664
1498213659342|7|342|0|55.807197596666676|37.52917056
1498213659442|7|244|0|55.80719591833334|37.52917222166666
1498213659542|7|303|0|55.807194204999995|37.52917378166667
1498213659642|7|271|0|55.807192371666666|37.52917514833334
1498213659742|8|262|0|55.80719078666666|37.52917662166667
1498213659842|8|376|0|55.80718927166666|37.529178001666665
1498213659942|7|365|0|55.80718776666666|37.529179531666664
1498213660042|7|371|0|55.80718607666666|37.529180960000005
1498213660142|7|429|0|55.80718430499999|37.529182131666666
1498213660242|7|292|0|55.807182556666675|37.529183161666666
1498213660342|7|341|0|55.80718081499999|37.52918399000001
1498213660442|7|272|0|55.807179149999996|37.529184775000004
1498213660542|7|327|0|55.807177503333335|37.529185625000004
1498213660642|7|315|0|55.80717573|37.52918636
1498213660742|7|373|0|55.80717391666667|37.529186898333336
1498213660842|7|275|0|55.80717219833333|37.52918731
1498213660942|7|267|0|55.80717027666667|37.52918743666666
1498213661042|7|227|0|55.80716854666667|37.52918753833333
1498213661142|7|220|0|55.80716673166666|37.52918751
1498213661242|7|238|0|55.80716491999999|37.529187609999994
1498213661342|7|233|0|55.807163108333334|37.52918772333333
1498213661442|7|251|0|55.807161226666665|37.52918776833334
1498213661542|7|288|0|55.807159434999996|37.52918782166666
1498213661642|7|307|0|55.807157778333334|37.52918806500001
1498213661742|7|313|0|55.80715609499999|37.52918802999999
1498213661842|7|226|0|55.80715441666667|37.52918779
1498213661942|7|259|0|55.807152615|37.52918782333334
1498213662042|7|264|0|55.807150826666664|37.52918757999999
1498213662142|7|288|0|55.80714914666667|37.529187289999996
1498213662242|7|256|0|55.80714731666667|37.52918689166667
1498213662342|7|255|0|55.80714564333333|37.52918623
1498213662442|7|211|0|55.80714394500001|37.52918591333333
1498213662542|7|213|0|55.80714211999999|37.52918544833334
1498213662642|7|272|0|55.80714050500001|37.529185015
1498213662742|7|266|0|55.807138769999995|37.52918445000001
1498213662842|7|225|0|55.807137128333345|37.52918362
1498213662942|7|221|0|55.80713542|37.52918279166667
1498213663042|7|178|0|55.807133748333335|37.52918183333334
1498213663142|7|180|0|55.80713208166667|37.52918122166666
1498213663242|7|254|0|55.807130376666656|37.52918047666667
1498213663342|7|252|0|55.807128895000005|37.529179895000006
1498213663442|7|223|0|55.80712717666666|37.52917897166667
1498213663542|7|232|0|55.80712555833333|37.52917793
1498213663642|7|131|0|55.80712388|37.529176664999994
1498213663742|7|131|0|55.807122316666664|37.529175525
1498213663842|7|134|0|55.80712057333334|37.529174401666666
1498213663942|7|135|0|55.80711893666667|37.52917324333334
1498213664042|7|130|0|55.80711734833334|37.529172125
1498213664142|7|462|0|55.80711553999999|37.52917102
1498213664242|7|462|0|55.80711393|37.52916978333334
1498213664342|7|462|0|55.80711229|37.529168651666666
1498213664442|7|462|0|55.80711057166667|37.529167345000005
1498213664542|7|462|0|55.80710897000001|37.529166095
1498213664642|7|462|0|55.80710727000001|37.52916491833333
1498213664742|7|462|0|55.80710548166666|37.52916365666667
1498213664842|7|462|0|55.80710388666667|37.52916232500001
1498213664942|7|462|0|55.80710229166666|37.52916070333333
1498213665042|7|462|0|55.80710080000001|37.52915889333333
1498213665142|7|462|0|55.80709926166666|37.52915711833334
1498213665242|7|462|0|55.80709769499999|37.529155335000006
1498213665342|7|462|0|55.807096165|37.529153635
1498213665442|7|462|0|55.807094696666674|37.52915191333334
1498213665542|7|462|0|55.80709298166667|37.529150128333335
1498213665642|7|462|0|55.807091481666674|37.52914801833333
1498213665742|7|462|0|55.807090134999996|37.529146096666665
1498213665842|7|462|0|55.80708876166666|37.52914426333333
1498213665942|7|462|0|55.80708759833333|37.52914217666667
1498213666042|6|462|0|55.80708653833334|37.52914019833333
1498213666142|6|462|0|55.80708552333334|37.52913827333333
1498213666242|5|462|0|55.80708456333333|37.529136433333335
1498213666342|5|462|0|55.80708368833333|37.52913464833333
1498213666442|4|462|0|55.80708304500001|37.52913297333333
1498213666542|4|462|0|55.80708244666667|37.529131441666664
1498213666642|4|462|0|55.807082031666674|37.529129993333335
1498213666742|3|462|0|55.80708167333334|37.52912880666666
1498213666842|3|462|0|55.80708135333333|37.52912771833333
1498213666942|2|462|0|55.80708113833333|37.52912685166666
1498213667042|2|462|0|55.80708099666667|37.52912631
1498213667142|1|462|0|55.807080856666666|37.52912591166667
1498213667242|1|462|0|55.80708074999999|37.52912564333333
1498213667342|0|462|0|55.807080733333336|37.52912556666667
1498213667442|0|462|0|55.80708078833334|37.529125676666666
1498213667542|0|462|0|55.80708079666666|37.52912583
1498213667642|0|462|0|55.807080808333325|37.52912586
1498213667742|0|462|0|55.80708083166666|37.52912580666666
1498213667842|0|462|0|55.80708081166667|37.529125789999995
1498213667942|0|462|0|55.80708082500001|37.52912580833334
1498213668042|0|462|0|55.80708082666666|37.52912579499999
1498213668142|0|462|0|55.807080809999995|37.529125789999995
1498213668242|0|462|0|55.807080819999996|37.529125821666675
1498213668342|0|462|0|55.807080818333326|37.52912580666666
1498213668442|0|462|0|55.80708080666666|37.52912580333333
1498213668542|0|462|0|55.807080833333345|37.52912580166667
1498213668642|0|462|0|55.807080828333326|37.52912581499999
1498213668742|0|462|0|55.807080818333326|37.52912581499999
1498213668842|0|462|0|55.807080819999996|37.52912581333333
1498213668942|0|462|0|55.80708081666666|37.52912581833334
1498213669042|0|462|0|55.807080775|37.529125826666665
1498213669142|0|462|0|55.807080808333325|37.52912581833334
1498213669242|0|462|0|55.807080815000006|37.529125824999994
1498213669342|0|462|0|55.807080815000006|37.529125831666676
1498213669442|0|462|0|55.80708079833334|37.529125831666676
1498213669542|0|462|0|55.807080815000006|37.529125836666665
1498213669642|0|462|0|55.80708080333334|37.529125834999995
1498213669742|0|462|0|55.807080795000005|37.52912585
1498213669842|0|462|0|55.807080795000005|37.52912583333333
1498213669942|0|462|0|55.807080808333325|37.52912583333333
1498213670042|0|462|0|55.80708079666666|37.529125824999994
1498213670142|0|462|0|55.807080805000005|37.529125824999994
1498213670242|0|462|0|55.807080805000005|37.529125841666676
1498213670342|0|462|0|55.80708081166667|37.529125834999995
1498213670442|0|462|0|55.807080799999994|37.52912585333333
1498213670542|0|462|0|55.80708082500001|37.529125844999996
1498213670642|0|462|0|55.80708078833334|37.52912585
1498213670742|0|462|0|55.80708081333334|37.52912583833333
1498213670842|0|462|0|55.807080809999995|37.52912586666666
1498213670942|0|462|0|55.80708083166666|37.529125875
1498213671042|0|462|0|55.80708083166666|37.52912586666666
1498213671142|0|462|0|55.80708084166666|37.52912584333333
1498213671242|0|462|0|55.807080828333326|37.52912583833333
1498213671342|0|462|0|55.80708082500001|37.529125841666676
1498213671442|0|462|0|55.80708084|37.52912584833333
1498213671542|0|462|0|55.80708082500001|37.52912584
1498213671643|0|462|0|55.80708083|37.529125836666665
1498213671743|0|462|0|55.807080836666664|37.52912583333333
1498213671843|0|462|0|55.807080828333326|37.52912584
1498213671943|0|462|0|55.80708081666666|37.529125834999995
1498213672043|0|462|0|55.807080836666664|37.52912585333333
1498213672143|0|462|0|55.80708081166667|37.529125834999995
1498213672243|0|462|0|55.80708078666666|37.52912583333333
1498213672343|0|462|0|55.80708082166666|37.52912581499999
1498213672443|0|462|0|55.80708081333334|37.52912585
1498213672543|0|462|0|55.807080828333326|37.52912584833333
1498213672643|0|462|0|55.807080805000005|37.529125826666665
1498213672743|0|462|0|55.80708083833333|37.52912583
1498213672843|0|462|0|55.80708081333334|37.52912583833333
1498213672943|0|462|0|55.807080809999995|37.52912584
