1496317510263|0|0|0|55.98511734833334|37.29128466333333
1496317510372|0|0|0|55.98511734499999|37.291284685
1496317510481|0|0|0|55.985117343333336|37.291284704999995
1496317510591|0|0|0|55.98511731166667|37.291284793333325
1496317510700|0|0|0|55.985117274999986|37.29128481333333
1496317510809|0|0|0|55.985117254999984|37.29128478166667
1496317510918|0|0|0|55.98511729666667|37.29128479666666
1496317511027|0|0|0|55.98511729333333|37.29128478333334
1496317511137|0|0|0|55.98511730499999|37.291284798333336
1496317511246|0|0|0|55.98511728333333|37.291284819999994
1496317511355|0|0|0|55.98511724500001|37.291284706666666
1496317511464|0|0|0|55.98511721500001|37.29128466833333
1496317511573|0|0|0|55.98511719|37.29128472
1496317511683|0|0|0|55.98511716166666|37.29128473833334
1496317511792|0|0|0|55.98511713666667|37.291284785
1496317511901|0|0|0|55.98511715666666|37.29128481666666
1496317512010|0|0|0|55.98511713333334|37.291284778333335
1496317512119|0|0|0|55.98511716166666|37.29128480166667
1496317512229|0|0|0|55.98511715666666|37.29128481000001
1496317512338|0|0|0|55.985117216666666|37.29128489833333
1496317512447|0|0|0|55.98511719333332|37.291284876666666
1496317512556|0|0|0|55.98511719500001|37.29128499666667
1496317512665|0|0|0|55.98511718666666|37.291284985000004
1496317512775|0|0|0|55.98511719333332|37.29128497833334
1496317512884|0|0|0|55.98511715833334|37.29128498666667
1496317512993|0|0|0|55.98511713666667|37.29128502833333
1496317513102|0|0|0|55.985117108333334|37.291285138333336
1496317513211|0|0|0|55.98511706833333|37.29128517
1496317513321|0|0|0|55.985117073333335|37.291285171666665
1496317513430|0|0|0|55.98511708999999|37.29128518833333
1496317513539|0|0|0|55.98511703166667|37.29128522666666
1496317513648|0|0|0|55.98511704833333|37.29128523666666
1496317513757|0|0|0|55.98511709999999|37.291285249999994
1496317513867|0|0|0|55.985117105|37.291285225
1496317513976|0|0|0|55.985117035|37.29128522833334
1496317514085|0|0|0|55.98511702333333|37.29128525333333
1496317514194|0|0|0|55.98511699666666|37.29128531166668
1496317514303|0|0|0|55.98511689499999|37.29128535833333
1496317514413|0|0|0|55.98511692166667|37.291285333333335
1496317514522|0|0|0|55.98511692333334|37.291285349999995
1496317514631|0|0|0|55.9851169|37.29128540166667
1496317514740|0|0|0|55.98511690833334|37.29128540166667
1496317514849|0|0|0|55.985116878333336|37.29128541833334
1496317514959|0|0|0|55.98511687666667|37.29128547166666
1496317515068|0|0|0|55.98511688499999|37.291285464999994
1496317515177|0|0|0|55.98511682|37.291285405
1496317515286|0|0|0|55.98511683|37.291285398333336
1496317515395|0|0|0|55.98511680333333|37.291285349999995
1496317515505|0|0|0|55.98511683|37.291285395
1496317515614|0|0|0|55.985116821666665|37.291285375
1496317515723|0|0|0|55.98511684166667|37.29128545333334
1496317515832|0|0|0|55.98511681666667|37.291285484999996
1496317515941|0|0|0|55.98511679500001|37.291285546666664
1496317516051|0|0|0|55.98511680333333|37.291285501666664
1496317516160|0|0|0|55.98511681666667|37.29128555166667
1496317516269|0|0|0|55.98511675833334|37.29128557
1496317516378|0|0|0|55.985116711666656|37.291285548333335
1496317516487|0|0|0|55.985116691666654|37.29128555
1496317516597|0|0|0|55.985116663333336|37.291285470000005
1496317516706|0|0|0|55.98511658833333|37.291285548333335
1496317516815|0|0|0|55.985116568333325|37.291285535
1496317516924|0|0|0|55.98511658833333|37.29128549833333
1496317517033|0|0|0|55.98511658833333|37.291285515
1496317517143|0|0|0|55.98511647833334|37.29128545500001
1496317517252|0|0|0|55.985116456666674|37.291285460000005
1496317517361|0|0|0|55.98511643333333|37.29128537333334
1496317517470|0|0|0|55.98511644666667|37.291285353333336
1496317517579|0|0|0|55.98511647833334|37.29128528333333
1496317517689|0|0|0|55.98511645166667|37.29128527666666
1496317517798|0|0|0|55.98511645166667|37.29128532
1496317517907|0|0|0|55.98511645166667|37.29128528833333
1496317518016|0|0|0|55.985116448333336|37.291285259999995
1496317518125|0|0|0|55.985116456666674|37.29128528500001
1496317518235|0|0|0|55.98511650666666|37.29128531333333
1496317518344|0|0|0|55.985116514999994|37.291285353333336
1496317518453|0|0|0|55.985116483333336|37.291285349999995
1496317518562|0|0|0|55.985116483333336|37.291285349999995
1496317518671|0|0|0|55.985116483333336|37.291285349999995
1496317518781|0|0|0|55.985116483333336|37.291285349999995
1496317518890|0|0|0|55.985116483333336|37.291285349999995
1496317518999|0|0|0|55.985116483333336|37.291285349999995
1496317519108|0|0|0|55.985116483333336|37.291285349999995
1496317519217|0|0|0|55.985116483333336|37.291285349999995
1496317519327|0|0|0|55.985116483333336|37.291285349999995
1496317519436|0|0|0|55.985116483333336|37.291285349999995
1496317519545|0|0|0|55.985116483333336|37.291285349999995
1496317519654|0|0|0|55.985116483333336|37.291285349999995
1496317519763|0|0|0|55.985116483333336|37.291285349999995
1496317519873|0|0|0|55.985116483333336|37.291285349999995
1496317519982|0|0|0|55.985116483333336|37.291285349999995
1496317520091|0|0|0|55.985116483333336|37.291285349999995
1496317520200|0|0|0|55.985116483333336|37.291285349999995
1496317520309|0|0|0|55.985116483333336|37.291285349999995
1496317520419|0|0|0|55.985116483333336|37.291285349999995
