1496316220284|0|462|0|55.985113950000006|37.2912637
1496316220393|0|462|0|55.98511395166666|37.29126372
1496316220986|0|462|0|55.985113995|37.29126371833333
1496316223108|0|462|0|55.98511401166667|37.29126375999999
1496316225229|0|462|0|55.98511394833334|37.29126374166667
1496316227351|0|462|0|55.98511394666666|37.29126375333334
1496316227460|0|462|0|55.98511394666666|37.29126375333334
1496316227569|0|462|0|55.98511394666666|37.29126375333334
1496316227679|0|462|0|55.98511394666666|37.29126375333334
1496316227788|0|462|0|55.98511394666666|37.29126375333334
1496316227897|0|462|0|55.98511394666666|37.29126375333334
1496316228006|0|462|0|55.98511394666666|37.29126375333334
1496316228115|0|462|0|55.98511394666666|37.29126375333334
1496316228225|0|462|0|55.98511394666666|37.29126375333334
1496316228334|0|462|0|55.98511394666666|37.29126375333334
