1498641168955|0|0|0|0.0|0.0
1498641169064|0|0|0|0.0|0.0
1498641169173|0|0|0|0.0|0.0
1498641169282|0|0|0|0.0|0.0
1498641169391|0|0|0|0.0|0.0
1498641169501|0|0|0|0.0|0.0
1498641169610|0|0|0|0.0|0.0
1498641169719|0|0|0|0.0|0.0
1498641169828|0|0|0|0.0|0.0
1498641169937|0|0|0|0.0|0.0
1498641170047|0|0|0|0.0|0.0
1498641170156|0|0|0|0.0|0.0
1498641170265|0|0|0|0.0|0.0
1498641170374|0|0|0|0.0|0.0
1498641170483|0|0|0|0.0|0.0
1498641170593|0|0|0|0.0|0.0
1498641170702|0|0|0|0.0|0.0
1498641170811|0|0|0|0.0|0.0
1498641170920|0|0|0|0.0|0.0
1498641171029|0|0|0|0.0|0.0
1498641171139|0|0|0|0.0|0.0
1498641171248|0|0|0|0.0|0.0
1498641171357|0|0|0|0.0|0.0
1498641171466|0|0|0|0.0|0.0
1498641171575|0|0|0|0.0|0.0
1498641171685|0|0|0|0.0|0.0
1498641171794|0|0|0|0.0|0.0
1498641171903|0|0|0|0.0|0.0
1498641172012|0|0|0|0.0|0.0
1498641172121|0|0|0|0.0|0.0
1498641172231|0|0|0|0.0|0.0
1498641172340|0|0|0|0.0|0.0
1498641172449|0|0|0|0.0|0.0
1498641172558|0|0|0|0.0|0.0
1498641172667|0|0|0|0.0|0.0
1498641172777|0|0|0|0.0|0.0
1498641172886|0|0|0|0.0|0.0
1498641172995|0|0|0|0.0|0.0
1498641173104|0|0|0|0.0|0.0
1498641173213|0|0|0|0.0|0.0
1498641173323|0|0|0|0.0|0.0
1498641173432|0|0|0|0.0|0.0
1498641173541|0|0|0|0.0|0.0
1498641173650|0|0|0|0.0|0.0
1498641173759|0|0|0|0.0|0.0
1498641173869|0|0|0|0.0|0.0
1498641173978|0|0|0|0.0|0.0
1498641174087|0|0|0|0.0|0.0
1498641174196|0|0|0|0.0|0.0
1498641174305|0|0|0|0.0|0.0
1498641174415|0|0|0|0.0|0.0
1498641174524|0|0|0|0.0|0.0
1498641174633|0|0|0|0.0|0.0
1498641174742|0|0|0|0.0|0.0
1498641174851|0|0|0|0.0|0.0
1498641174961|0|0|0|0.0|0.0
1498641175070|0|0|0|0.0|0.0
1498641175179|0|0|0|0.0|0.0
1498641175288|0|0|0|0.0|0.0
1498641175397|0|0|0|0.0|0.0
1498641175507|0|0|0|0.0|0.0
1498641175616|0|0|0|0.0|0.0
1498641175725|0|0|0|0.0|0.0
1498641175834|0|0|0|0.0|0.0
1498641175943|0|0|0|0.0|0.0
1498641176053|0|0|0|0.0|0.0
1498641176162|0|0|0|0.0|0.0
1498641176271|0|0|0|0.0|0.0
1498641176380|0|0|0|0.0|0.0
1498641176489|0|0|0|0.0|0.0
1498641176599|0|0|0|0.0|0.0
1498641176708|0|0|0|0.0|0.0
1498641176817|0|0|0|0.0|0.0
1498641176926|0|0|0|0.0|0.0
1498641177035|0|0|0|0.0|0.0
1498641177145|0|0|0|0.0|0.0
1498641177254|0|0|0|0.0|0.0
1498641177363|0|0|0|0.0|0.0
1498641177472|0|0|0|0.0|0.0
1498641177581|0|0|0|0.0|0.0
1498641177691|0|0|0|0.0|0.0
1498641177800|0|0|0|0.0|0.0
1498641177909|0|0|0|0.0|0.0
1498641178018|0|0|0|0.0|0.0
1498641178127|0|0|0|0.0|0.0
1498641178237|0|0|0|0.0|0.0
1498641178346|0|0|0|0.0|0.0
1498641178455|0|0|0|0.0|0.0
1498641178564|0|0|0|0.0|0.0
1498641178673|0|0|0|0.0|0.0
1498641178783|0|0|0|0.0|0.0
1498641178892|0|0|0|0.0|0.0
1498641179001|0|0|0|0.0|0.0
1498641179110|0|0|0|0.0|0.0
1498641179219|0|0|0|0.0|0.0
1498641179329|0|0|0|0.0|0.0
1498641179438|0|0|0|0.0|0.0
1498641179547|0|0|0|0.0|0.0
1498641179656|0|0|0|0.0|0.0
1498641179765|0|0|0|0.0|0.0
1498641179875|0|0|0|0.0|0.0
1498641179984|0|0|0|0.0|0.0
1498641180093|0|0|0|0.0|0.0
1498641180202|0|0|0|0.0|0.0
1498641180311|0|0|0|0.0|0.0
1498641180421|0|0|0|0.0|0.0
1498641180530|0|0|0|0.0|0.0
1498641180639|0|0|0|0.0|0.0
1498641180748|0|0|0|0.0|0.0
1498641180857|0|0|0|0.0|0.0
1498641180967|0|0|0|0.0|0.0
1498641181076|0|0|0|0.0|0.0
1498641181185|0|0|0|0.0|0.0
1498641181294|0|0|0|0.0|0.0
1498641181403|0|0|0|0.0|0.0
1498641181513|0|0|0|0.0|0.0
1498641181622|0|0|0|0.0|0.0
1498641181731|0|0|0|0.0|0.0
1498641181840|0|0|0|0.0|0.0
1498641181949|0|0|0|0.0|0.0
1498641182059|0|0|0|0.0|0.0
1498641182168|0|0|0|0.0|0.0
1498641182277|0|0|0|0.0|0.0
1498641182386|0|0|0|0.0|0.0
1498641182495|0|0|0|0.0|0.0
1498641182605|0|0|0|0.0|0.0
1498641182714|0|0|0|0.0|0.0
1498641182823|0|0|0|0.0|0.0
1498641182932|0|0|0|0.0|0.0
1498641183041|0|0|0|0.0|0.0
1498641183151|0|0|0|0.0|0.0
1498641183307|0|0|0|0.0|0.0
1498641183416|0|0|0|0.0|0.0
1498641183525|0|0|0|0.0|0.0
1498641183634|0|0|0|0.0|0.0
1498641183743|0|0|0|0.0|0.0
1498641183853|0|0|0|0.0|0.0
1498641183962|0|0|0|0.0|0.0
1498641184071|0|0|0|0.0|0.0
1498641184180|0|0|0|0.0|0.0
1498641184289|0|0|0|0.0|0.0
1498641184399|0|0|0|0.0|0.0
1498641184508|0|0|0|0.0|0.0
1498641184617|0|0|0|0.0|0.0
1498641184726|0|0|0|0.0|0.0
1498641184835|0|0|0|0.0|0.0
1498641184945|0|0|0|0.0|0.0
1498641185054|0|0|0|0.0|0.0
1498641185163|0|0|0|0.0|0.0
1498641185272|0|0|0|0.0|0.0
1498641185381|0|0|0|0.0|0.0
1498641185491|0|0|0|0.0|0.0
1498641185600|0|0|0|0.0|0.0
1498641185709|0|0|0|0.0|0.0
1498641185818|0|0|0|0.0|0.0
1498641185927|0|0|0|0.0|0.0
1498641186037|0|0|0|0.0|0.0
1498641186146|0|0|0|0.0|0.0
1498641186255|0|0|0|0.0|0.0
1498641186364|0|0|0|0.0|0.0
1498641186473|0|0|0|0.0|0.0
1498641186583|0|0|0|0.0|0.0
1498641186692|0|0|0|0.0|0.0
1498641186801|0|0|0|0.0|0.0
1498641186910|0|0|0|0.0|0.0
1498641187019|0|0|0|0.0|0.0
1498641187129|0|0|0|0.0|0.0
1498641187238|0|0|0|0.0|0.0
1498641187347|0|0|0|0.0|0.0
1498641187456|0|0|0|0.0|0.0
1498641187565|0|0|0|0.0|0.0
1498641187675|0|0|0|0.0|0.0
1498641187784|0|0|0|0.0|0.0
1498641187893|0|0|0|0.0|0.0
1498641188002|0|0|0|0.0|0.0
1498641188111|0|0|0|0.0|0.0
1498641188221|0|0|0|0.0|0.0
1498641188330|0|0|0|0.0|0.0
1498641188439|0|0|0|0.0|0.0
1498641188548|0|0|0|0.0|0.0
1498641188657|0|0|0|0.0|0.0
1498641188767|0|0|0|0.0|0.0
1498641188876|0|0|0|0.0|0.0
1498641188985|0|0|0|0.0|0.0
1498641189094|0|0|0|0.0|0.0
1498641189203|0|0|0|0.0|0.0
1498641189313|0|0|0|0.0|0.0
1498641189422|0|0|0|0.0|0.0
1498641189531|0|0|0|0.0|0.0
1498641189640|0|0|0|0.0|0.0
1498641189749|0|0|0|0.0|0.0
1498641189859|0|0|0|0.0|0.0
1498641189968|0|0|0|0.0|0.0
1498641190077|0|0|0|0.0|0.0
1498641190186|0|0|0|0.0|0.0
1498641190295|0|0|0|0.0|0.0
1498641190405|0|0|0|0.0|0.0
1498641190514|0|0|0|0.0|0.0
1498641190623|0|0|0|0.0|0.0
1498641190732|0|0|0|0.0|0.0
1498641190841|0|0|0|0.0|0.0
1498641190997|0|0|0|0.0|0.0
1498641191107|0|0|0|0.0|0.0
1498641191216|0|0|0|0.0|0.0
1498641191325|0|0|0|0.0|0.0
1498641191434|0|0|0|0.0|0.0
1498641191543|0|0|0|0.0|0.0
1498641191653|0|0|0|0.0|0.0
1498641191762|0|0|0|0.0|0.0
1498641191871|0|0|0|0.0|0.0
1498641191980|0|0|0|0.0|0.0
1498641192089|0|0|0|0.0|0.0
1498641192199|0|0|0|0.0|0.0
1498641192308|0|0|0|0.0|0.0
1498641192417|0|0|0|0.0|0.0
1498641192526|0|0|0|0.0|0.0
1498641192635|0|0|0|0.0|0.0
1498641192745|0|3|0|0.0|0.0
1498641192854|0|13|0|0.0|0.0
1498641192963|0|18|0|0.0|0.0
1498641193072|0|24|0|0.0|0.0
1498641193181|0|24|0|0.0|0.0
1498641193291|0|24|0|0.0|0.0
1498641193400|0|24|0|0.0|0.0
1498641193509|0|20|0|0.0|0.0
1498641193618|0|14|0|0.0|0.0
1498641193727|0|9|0|0.0|0.0
1498641193837|0|8|0|0.0|0.0
1498641193946|0|7|0|0.0|0.0
1498641194055|0|6|0|0.0|0.0
1498641194164|0|4|0|0.0|0.0
1498641194273|0|3|0|0.0|0.0
1498641194383|0|0|0|0.0|0.0
1498641194492|0|0|0|0.0|0.0
1498641194601|0|0|0|0.0|0.0
1498641194710|0|4|0|0.0|0.0
1498641194820|0|11|0|0.0|0.0
1498641194929|0|15|0|0.0|0.0
1498641195038|0|19|0|0.0|0.0
1498641195147|0|23|0|0.0|0.0
1498641195256|0|27|0|0.0|0.0
1498641195366|0|28|0|0.0|0.0
1498641195475|0|28|0|0.0|0.0
1498641195584|0|28|0|0.0|0.0
1498641195693|0|23|0|0.0|0.0
1498641195802|0|18|0|0.0|0.0
1498641195912|0|15|0|0.0|0.0
1498641196021|0|11|0|0.0|0.0
1498641196130|0|10|0|0.0|0.0
1498641196239|0|9|0|0.0|0.0
1498641196348|0|9|0|0.0|0.0
1498641196458|0|8|0|0.0|0.0
1498641196567|0|8|0|0.0|0.0
1498641196676|0|13|0|0.0|0.0
1498641196785|0|20|0|0.0|0.0
1498641196894|0|20|0|0.0|0.0
1498641197004|0|20|0|0.0|0.0
1498641197113|0|20|0|0.0|0.0
1498641197222|0|16|0|0.0|0.0
1498641197331|0|14|0|0.0|0.0
1498641197440|0|15|0|0.0|0.0
1498641197550|0|17|0|0.0|0.0
1498641197659|0|17|0|0.0|0.0
1498641197768|0|16|0|0.0|0.0
1498641197877|0|16|0|0.0|0.0
1498641197986|0|16|0|0.0|0.0
1498641198096|0|17|0|0.0|0.0
1498641198205|0|18|0|0.0|0.0
1498641198314|0|18|0|0.0|0.0
1498641198423|0|17|0|0.0|0.0
1498641198532|0|17|0|0.0|0.0
1498641198642|0|17|0|0.0|0.0
1498641198751|0|17|0|0.0|0.0
1498641198860|0|16|0|0.0|0.0
1498641198969|0|16|0|0.0|0.0
1498641199125|0|15|0|0.0|0.0
1498641199234|0|15|0|0.0|0.0
1498641199344|0|15|0|0.0|0.0
1498641199453|0|15|0|0.0|0.0
1498641199562|0|15|0|0.0|0.0
1498641199671|0|14|0|0.0|0.0
1498641199780|0|8|0|0.0|0.0
1498641199890|0|6|0|0.0|0.0
1498641199999|0|5|0|0.0|0.0
1498641200108|0|3|0|0.0|0.0
1498641200217|0|2|0|0.0|0.0
1498641200326|0|1|0|0.0|0.0
1498641200436|0|1|0|0.0|0.0
1498641200545|0|1|0|0.0|0.0
1498641200654|0|1|0|0.0|0.0
1498641200763|0|1|0|0.0|0.0
1498641200872|0|1|0|0.0|0.0
1498641200982|0|0|0|0.0|0.0
1498641201091|0|0|0|0.0|0.0
1498641201200|0|1|0|0.0|0.0
1498641201309|0|1|0|0.0|0.0
1498641201418|0|1|0|0.0|0.0
1498641201528|0|1|0|0.0|0.0
1498641201637|0|1|0|0.0|0.0
1498641201746|0|1|0|0.0|0.0
1498641201855|0|1|0|0.0|0.0
1498641201964|0|1|0|0.0|0.0
1498641202074|0|1|0|0.0|0.0
1498641202183|0|1|0|0.0|0.0
1498641202292|0|1|0|0.0|0.0
1498641202401|0|1|0|0.0|0.0
1498641202510|0|1|0|0.0|0.0
1498641202620|0|1|0|0.0|0.0
1498641202729|0|1|0|0.0|0.0
1498641202838|0|1|0|0.0|0.0
1498641202947|0|1|0|0.0|0.0
1498641203056|0|1|0|0.0|0.0
1498641203166|0|1|0|0.0|0.0
1498641203275|0|1|0|0.0|0.0
1498641203384|0|1|0|0.0|0.0
1498641203493|0|1|0|0.0|0.0
1498641203602|0|1|0|0.0|0.0
1498641203712|0|1|0|0.0|0.0
1498641203821|0|1|0|0.0|0.0
1498641203930|0|1|0|0.0|0.0
1498641204039|0|1|0|0.0|0.0
1498641204148|0|1|0|0.0|0.0
1498641204258|0|1|0|0.0|0.0
1498641204367|0|1|0|0.0|0.0
1498641204476|0|1|0|0.0|0.0
1498641204585|0|1|0|0.0|0.0
1498641204694|0|1|0|0.0|0.0
1498641204804|0|1|0|0.0|0.0
1498641204913|0|1|0|0.0|0.0
1498641205022|0|1|0|0.0|0.0
1498641205131|0|1|0|0.0|0.0
1498641205240|0|1|0|0.0|0.0
1498641205350|0|1|0|0.0|0.0
1498641205459|0|1|0|0.0|0.0
1498641205568|0|1|0|0.0|0.0
1498641205677|0|1|0|0.0|0.0
1498641205786|0|1|0|0.0|0.0
1498641205896|0|1|0|0.0|0.0
1498641206005|0|1|0|0.0|0.0
1498641206114|0|1|0|0.0|0.0
1498641206223|0|1|0|0.0|0.0
1498641206332|0|1|0|0.0|0.0
1498641206442|0|1|0|0.0|0.0
1498641206551|0|1|0|0.0|0.0
1498641206660|0|1|0|0.0|0.0
1498641206769|0|1|0|0.0|0.0
1498641206878|0|1|0|0.0|0.0
1498641206988|0|1|0|0.0|0.0
1498641207097|0|1|0|0.0|0.0
1498641207206|0|1|0|0.0|0.0
1498641207315|0|1|0|0.0|0.0
1498641207424|0|1|0|0.0|0.0
1498641207534|0|0|0|0.0|0.0
1498641207643|0|0|0|0.0|0.0
1498641207752|0|-3|0|0.0|0.0
1498641207861|0|-5|0|0.0|0.0
1498641207970|0|-8|0|0.0|0.0
1498641208080|0|-10|0|0.0|0.0
1498641208189|0|-12|0|0.0|0.0
1498641208298|0|-13|0|0.0|0.0
1498641208407|0|-14|0|0.0|0.0
1498641208516|0|-14|0|0.0|0.0
1498641208626|0|-14|0|0.0|0.0
1498641208735|0|-15|0|0.0|0.0
1498641208844|0|-15|0|0.0|0.0
1498641208953|0|-20|0|0.0|0.0
1498641209062|0|-20|0|0.0|0.0
1498641209172|0|-21|0|0.0|0.0
1498641209281|0|-21|0|0.0|0.0
1498641209390|0|-21|0|0.0|0.0
1498641209499|0|-22|0|0.0|0.0
1498641209608|0|-23|0|0.0|0.0
1498641209718|0|-24|0|0.0|0.0
1498641209827|0|-24|0|0.0|0.0
1498641209936|0|-24|0|0.0|0.0
1498641210045|0|-25|0|0.0|0.0
1498641210154|0|-26|0|0.0|0.0
1498641210264|0|-26|0|0.0|0.0
1498641210373|0|-27|0|0.0|0.0
1498641210482|0|-28|0|0.0|0.0
1498641210591|0|-28|0|0.0|0.0
1498641210700|0|-28|0|0.0|0.0
1498641211356|0|-28|0|0.0|0.0
1498641211465|0|-28|0|0.0|0.0
1498641211574|0|-28|0|0.0|0.0
1498641211683|0|-28|0|0.0|0.0
1498641211792|0|-28|0|0.0|0.0
1498641211902|0|-28|0|0.0|0.0
1498641212011|0|-28|0|0.0|0.0
1498641212120|0|-28|0|0.0|0.0
1498641212229|0|-28|0|0.0|0.0
1498641212338|0|-28|0|0.0|0.0
1498641212448|0|-28|0|0.0|0.0
1498641212557|0|-28|0|0.0|0.0
1498641212666|0|-28|0|0.0|0.0
1498641212775|0|-28|0|0.0|0.0
1498641212884|0|-28|0|0.0|0.0
1498641212994|0|-28|0|0.0|0.0
1498641213103|0|-28|0|0.0|0.0
1498641213212|0|-28|0|0.0|0.0
1498641213321|0|-28|0|0.0|0.0
1498641213430|0|-28|0|0.0|0.0
1498641213540|0|-28|0|0.0|0.0
1498641213649|0|-28|0|0.0|0.0
1498641213758|0|-28|0|0.0|0.0
1498641213867|0|-28|0|0.0|0.0
1498641213976|0|-28|0|0.0|0.0
1498641214086|0|-28|0|0.0|0.0
1498641214195|0|-28|0|0.0|0.0
1498641214304|0|-28|0|0.0|0.0
1498641214413|0|-28|0|0.0|0.0
1498641214522|0|-28|0|0.0|0.0
1498641214632|0|-28|0|0.0|0.0
1498641214741|0|-28|0|0.0|0.0
1498641214850|0|-28|0|0.0|0.0
1498641214959|0|-28|0|0.0|0.0
1498641215068|0|-28|0|0.0|0.0
1498641215178|0|-28|0|0.0|0.0
1498641215287|0|-28|0|0.0|0.0
1498641215396|0|-28|0|0.0|0.0
1498641215505|0|-28|0|0.0|0.0
1498641215614|0|-28|0|0.0|0.0
1498641215724|0|-28|0|0.0|0.0
1498641215833|0|-28|0|0.0|0.0
1498641215942|0|-28|0|0.0|0.0
1498641216051|0|-28|0|0.0|0.0
1498641216160|0|-28|0|0.0|0.0
1498641216270|0|-28|0|0.0|0.0
1498641216379|0|-28|0|0.0|0.0
1498641216488|0|-28|0|0.0|0.0
1498641216597|0|-28|0|0.0|0.0
1498641216706|0|-28|0|0.0|0.0
1498641216816|0|-28|0|0.0|0.0
1498641216925|0|-28|0|0.0|0.0
1498641217034|0|-28|0|0.0|0.0
1498641217143|0|-28|0|0.0|0.0
1498641217252|0|-28|0|0.0|0.0
1498641217362|0|-28|0|0.0|0.0
1498641217471|0|-28|0|0.0|0.0
1498641217580|0|-28|0|0.0|0.0
1498641217689|0|-28|0|0.0|0.0
1498641217798|0|-28|0|0.0|0.0
1498641217908|0|-28|0|0.0|0.0
1498641218017|0|-28|0|0.0|0.0
1498641218126|0|-28|0|0.0|0.0
1498641218235|0|-28|0|0.0|0.0
1498641218344|0|-28|0|0.0|0.0
1498641218454|0|-28|0|0.0|0.0
1498641218563|0|-28|0|0.0|0.0
1498641218672|0|-28|0|0.0|0.0
1498641218781|0|-28|0|0.0|0.0
1498641218890|0|-28|0|0.0|0.0
1498641219000|0|-28|0|0.0|0.0
1498641219109|0|-28|0|0.0|0.0
1498641219218|0|-28|0|0.0|0.0
1498641219327|0|-28|0|0.0|0.0
1498641219436|0|-28|0|0.0|0.0
1498641219546|0|-28|0|0.0|0.0
1498641219655|0|-28|0|0.0|0.0
1498641219764|0|-28|0|0.0|0.0
1498641219873|0|-28|0|0.0|0.0
1498641219982|0|-28|0|0.0|0.0
1498641220092|0|-28|0|0.0|0.0
