1498653499501|0|-462|0|55.985089913333326|37.291261305
1498653499601|0|-462|0|55.98508990333334|37.291261301666665
1498653499701|0|-462|0|55.985089904999995|37.29126130833333
1498653499801|0|-462|0|55.985089910000006|37.29126131666667
1498653499901|0|-462|0|55.98508990333334|37.29126132
1498653500001|0|-462|0|55.985089900000006|37.291261299999995
1498653500101|0|-462|0|55.985089918333344|37.291261293333335
1498653500201|0|-462|0|55.985089910000006|37.29126127500001
1498653500301|0|-462|0|55.985089904999995|37.29126126833333
1498653500401|0|-462|0|55.98508990666666|37.29126126500001
1498653500501|0|-462|0|55.985089914999996|37.29126125333333
1498653500601|0|-462|0|55.98508991166666|37.29126124166666
1498653500701|0|-462|0|55.98508990333334|37.291261256666665
1498653500801|0|-462|0|55.985089904999995|37.29126121833334
1498653500901|0|-462|0|55.98508987333334|37.29126119666666
1498653501001|0|-462|0|55.98508988166666|37.29126121666666
1498653501101|0|-462|0|55.98508987333334|37.29126120333334
1498653501201|0|-462|0|55.98508986833334|37.29126116999999
1498653501301|0|-462|0|55.98508987833334|37.29126117666666
1498653501401|0|-462|0|55.98508986499999|37.291261145
1498653501501|0|-462|0|55.985089880000004|37.29126116333334
1498653501601|0|-462|0|55.985089880000004|37.291261160000005
1498653501701|0|-462|0|55.98508987499999|37.291261150000004
1498653501801|0|-462|0|55.98508987833334|37.29126116666666
1498653501901|0|-462|0|55.98508987833334|37.29126115333334
1498653502001|0|-462|0|55.98508989666666|37.291261148333334
1498653502101|0|-462|0|55.98508989666666|37.29126116999999
1498653502201|0|-462|0|55.985089910000006|37.29126115333334
1498653502301|0|-462|0|55.98508990833334|37.29126110333333
1498653502401|0|-462|0|55.985089938333346|37.29126100666667
1498653502501|0|-462|0|55.98508995000001|37.29126085666667
1498653502601|0|-462|0|55.985089984999995|37.291260648333335
1498653502701|0|-462|0|55.98509001666667|37.291260441666665
1498653502801|0|-462|0|55.985090068333335|37.291260134999995
1498653502901|0|-462|0|55.98509014500001|37.29125977000001
1498653503001|0|-462|0|55.98509023166667|37.29125934666666
1498653503101|0|-462|0|55.985090324999994|37.29125883833334
1498653503201|1|-462|0|55.98509044666667|37.29125823
1498653503301|1|-462|0|55.985090573333345|37.29125755166666
1498653503401|1|-462|0|55.98509069499999|37.29125683833333
1498653503501|1|-462|0|55.985090844999995|37.29125599666667
1498653503602|2|-377|0|55.98509096666666|37.291255125
1498653503702|2|-377|0|55.98509111166667|37.29125420333333
1498653503802|2|-377|0|55.98509125166667|37.291253145
1498653503902|2|-378|0|55.98509137833334|37.291252025
1498653504002|2|-378|0|55.985091566666675|37.29125089166667
1498653504102|2|-378|0|55.985091765|37.29124961166667
1498653504202|2|-378|0|55.985092006666676|37.29124838333333
1498653504302|3|-262|0|55.98509225166667|37.29124712666667
1498653504402|3|-263|0|55.98509241833334|37.29124571999999
1498653504502|3|-264|0|55.985092546666664|37.29124429333333
1498653504602|3|-264|0|55.98509275833333|37.29124289666667
1498653504703|3|-265|0|55.98509295000001|37.29124146166666
1498653504803|3|-265|0|55.98509314500001|37.29123993666667
1498653504903|3|-266|0|55.98509333166666|37.29123834833333
1498653505003|3|-267|0|55.985093508333335|37.29123676500001
1498653505103|3|-268|0|55.98509366666667|37.29123521499999
1498653505204|3|-269|0|55.98509386833333|37.29123358833333
1498653505304|3|-269|0|55.98509408333333|37.29123198999999
1498653505404|3|-270|0|55.985094303333334|37.29123032166666
1498653505504|3|-271|0|55.98509455333333|37.291228553333326
1498653505604|3|-272|0|55.98509470000001|37.29122689
1498653505704|4|-200|0|55.98509509333333|37.291225139999995
1498653505804|4|-201|0|55.98509524166668|37.29122329
1498653505904|4|-202|0|55.98509544833334|37.29122145666667
1498653506004|4|-203|0|55.98509576666667|37.291219690000005
1498653506104|4|-206|0|55.98509601333333|37.29121781833334
1498653506204|4|-208|0|55.98509626|37.29121586
1498653506304|4|-208|0|55.985096511666676|37.291213925
1498653506404|4|-205|0|55.985096808333346|37.291212021666674
1498653506504|4|-205|0|55.98509718166666|37.29121014833334
1498653506604|4|-205|0|55.985097535000016|37.29120817833333
1498653506704|4|-212|0|55.98509783166666|37.291206213333325
1498653506804|4|-212|0|55.985098136666664|37.291204226666665
1498653506904|4|-212|0|55.98509846499999|37.29120221833333
1498653507004|4|-206|0|55.98509893166666|37.291200239999995
1498653507104|4|-205|0|55.985099368333344|37.291198225
1498653507204|4|-204|0|55.985099798333344|37.291196150000005
1498653507304|5|-163|0|55.98510019833334|37.291194046666675
1498653507404|5|-163|0|55.98510060666668|37.29119197
1498653507504|5|-163|0|55.985101016666675|37.29118983
1498653507604|5|-161|0|55.98510147666666|37.2911877
1498653507704|5|-160|0|55.985101951666664|37.291185505
1498653507804|5|-165|0|55.98510243166667|37.29118322666667
1498653507904|5|-165|0|55.98510289666667|37.29118104
1498653508004|5|-158|0|55.985103320000015|37.29117868833334
1498653508104|5|-158|0|55.98510374833333|37.291176271666664
1498653508204|6|-131|0|55.98510428833334|37.29117380500001
1498653508304|6|-131|0|55.985104873333334|37.291171215000006
1498653508404|6|-132|0|55.985105374999996|37.29116856833333
1498653508504|6|-132|0|55.98510599833334|37.29116582333334
1498653508604|6|-137|0|55.98510662833334|37.291162963333335
1498653508704|7|-117|0|55.98510726333334|37.29116003666667
1498653508804|7|-110|0|55.98510784|37.291157
1498653508904|7|-108|0|55.98510848833333|37.29115386166667
1498653509004|7|-111|0|55.98510919499999|37.29115068333333
1498653509104|7|-113|0|55.98510985166666|37.29114743166667
1498653509204|7|-109|0|55.98511056000001|37.291144061666664
1498653509304|8|-89|0|55.98511130166667|37.291140655
1498653509404|8|-101|0|55.985112091666664|37.29113717333333
1498653509504|8|-100|0|55.98511289833334|37.291133625
1498653509604|8|-99|0|55.98511370999999|37.29112990833333
1498653509704|8|-98|0|55.98511448666667|37.291126295000005
1498653509804|9|-85|0|55.98511532000001|37.29112253500001
1498653509904|9|-84|0|55.985116145|37.291118770000004
1498653510004|9|-87|0|55.98511703833333|37.29111491333333
1498653510104|9|-86|0|55.985117896666665|37.291111055
1498653510204|9|-84|0|55.985118746666664|37.291107188333335
1498653510304|9|-82|0|55.985119745000006|37.29110324166666
1498653510404|9|-84|0|55.985120595000005|37.29109926833333
1498653510504|9|-83|0|55.98512155|37.29109522500001
1498653510604|9|-82|0|55.98512246333333|37.29109116833334
1498653510704|10|-73|0|55.98512349833333|37.29108709833333
1498653510804|10|-72|0|55.985124415|37.291082851666665
1498653510904|10|-69|0|55.98512534500001|37.291078598333335
1498653511004|10|-70|0|55.98512632166667|37.29107433833334
1498653511104|10|-58|0|55.985127415|37.29107010833334
1498653511204|10|-60|0|55.9851285|37.29106582666666
1498653511304|10|462|0|55.98512963666666|37.291061475
1498653511404|11|462|0|55.985130715|37.291057071666664
1498653511504|11|-43|0|55.98513177166666|37.291052603333334
1498653511604|11|-41|0|55.98513286666666|37.291048055
1498653511704|11|-88|0|55.98513405166667|37.29104344833333
1498653511804|11|-78|0|55.985135171666656|37.29103886833333
1498653511904|11|-106|0|55.98513637333333|37.29103427666667
1498653512004|11|-106|0|55.985137611666666|37.29102969833333
1498653512104|11|-94|0|55.98513883333334|37.291025131666665
1498653512204|11|-62|0|55.98514000333333|37.291020411666665
1498653512304|11|-70|0|55.985141205000005|37.29101565
1498653512404|11|-74|0|55.98514239166667|37.291010916666664
1498653512504|11|-56|0|55.98514352833334|37.291006216666666
1498653512604|11|-92|0|55.98514474|37.291001566666665
1498653512704|11|-55|0|55.98514587333334|37.29099686166667
1498653512804|11|-33|0|55.98514696499999|37.290992016666664
1498653512904|11|-22|0|55.98514796833333|37.290987213333324
1498653513004|11|-29|0|55.985148994999996|37.29098243333333
1498653513104|11|-23|0|55.985150001666675|37.290977688333335
1498653513204|11|-7|0|55.985150965|37.290972948333334
1498653513304|11|-18|0|55.985151908333336|37.29096826666667
1498653513404|11|-25|0|55.98515287|37.290963613333325
1498653513504|11|-26|0|55.985153881666676|37.290958935000006
1498653513605|11|-1|0|55.98515476333334|37.29095424
1498653513705|11|4|0|55.98515562666666|37.290949596666664
1498653513805|11|3|0|55.98515647999999|37.29094497833333
1498653513905|10|3|0|55.985157359999995|37.29094039833333
1498653514005|10|41|0|55.98515812666667|37.29093586166667
1498653514105|10|-10|0|55.985159024999994|37.29093130000001
1498653514205|10|-11|0|55.98515991333334|37.29092680666667
1498653514305|10|-5|0|55.98516077666666|37.29092233833333
1498653514406|10|-4|0|55.98516162666666|37.290917920000005
1498653514506|10|-2|0|55.98516246833333|37.29091346833333
1498653514606|10|0|0|55.98516330333334|37.290909055
1498653514706|10|-11|0|55.985164174999994|37.290904604999994
1498653514806|10|-11|0|55.985165020000004|37.29090027166667
1498653514906|10|-14|0|55.98516589833333|37.29089589833333
1498653515006|10|-14|0|55.98516677666666|37.290891591666664
1498653515106|10|-13|0|55.98516760333334|37.29088722833334
1498653515206|10|-12|0|55.98516839833332|37.290882916666675
1498653515306|10|-7|0|55.98516926666667|37.290878565
1498653515406|10|-6|0|55.985170038333344|37.29087434166667
1498653515506|10|10|0|55.98517081500001|37.29087006833334
1498653515606|10|10|0|55.985171615000006|37.29086580333333
1498653515706|10|-4|0|55.985172436666666|37.29086151166668
1498653515806|10|-5|0|55.98517317333334|37.290857201666675
1498653515906|10|21|0|55.98517395833335|37.290852879999996
1498653516006|10|12|0|55.98517472666668|37.290848553333326
1498653516106|10|40|0|55.98517545166666|37.29084417333333
1498653516206|10|39|0|55.98517620833333|37.29083980333333
1498653516306|10|19|0|55.98517700666667|37.29083539
1498653516406|10|17|0|55.985177791666665|37.29083097333333
1498653516506|10|25|0|55.985178543333326|37.290826521666666
1498653516606|10|24|0|55.985179308333336|37.290822078333335
1498653516706|10|23|0|55.985180109999995|37.29081762333334
1498653516806|10|33|0|55.98518094833333|37.29081313833334
1498653516906|10|18|0|55.985181700000005|37.29080866666666
1498653517006|10|20|0|55.985182484999996|37.29080419333333
1498653517106|10|-4|0|55.98518333833334|37.29079965333333
1498653517206|10|16|0|55.98518413833334|37.290795155
1498653517306|10|-2|0|55.985184996666675|37.290790565
1498653517406|10|-13|0|55.98518588833334|37.290785965
1498653517506|11|-5|0|55.985186761666675|37.290781290000005
1498653517606|11|-11|0|55.985187653333334|37.29077658166667
1498653517706|11|-10|0|55.98518854333334|37.290771875000004
1498653517806|11|20|0|55.98518937666666|37.290767106666664
1498653517906|11|-18|0|55.985190300000006|37.290762341666664
1498653518006|11|-3|0|55.98519119999999|37.290757515
1498653518106|11|13|0|55.98519207666667|37.29075257166667
1498653518206|11|-7|0|55.98519299333334|37.290747643333326
1498653518306|11|8|0|55.98519389333333|37.29074262666666
1498653518406|12|1|0|55.98519480833333|37.29073757833333
1498653518506|12|10|0|55.98519571166667|37.290732476666676
1498653518606|12|-4|0|55.98519666|37.29072731333333
1498653518706|12|8|0|55.985197585|37.29072212666667
1498653518806|12|-3|0|55.98519854166666|37.29071691166666
1498653518906|12|-8|0|55.98519952666667|37.29071160666666
1498653519006|12|1|0|55.985200494999994|37.29070626000001
1498653519106|12|43|0|55.98520134333333|37.29070088666666
1498653519206|12|-4|0|55.985202326666666|37.29069553000001
1498653519306|12|15|0|55.98520326666667|37.29069014166666
1498653519406|12|1|0|55.985204245000006|37.290684713333334
1498653519506|13|21|0|55.98520518333333|37.29067921333334
1498653519606|13|-1|0|55.985206160000004|37.29067370333333
1498653519706|13|-24|0|55.985207218333336|37.29066823333333
1498653519806|13|33|0|55.985208125|37.290662639999994
1498653519906|13|-12|0|55.98520917166667|37.29065704166667
1498653520006|13|5|0|55.985210179999996|37.29065138666667
1498653520106|13|-17|0|55.98521125|37.290645721666664
1498653520206|13|19|0|55.985212225000005|37.290640045
1498653520306|13|-18|0|55.98521330166667|37.29063433499999
1498653520406|13|-1|0|55.98521433166667|37.29062867666667
1498653520506|13|-6|0|55.985215391666664|37.290622893333335
1498653520606|13|9|0|55.98521641|37.29061710166667
1498653520706|13|-5|0|55.98521746333333|37.290611320000004
1498653520806|13|7|0|55.98521848333333|37.29060554166667
1498653520906|13|-8|0|55.98521955166666|37.29059972666667
1498653521006|13|8|0|55.98522057833334|37.29059388666667
1498653521106|13|9|0|55.985221601666666|37.29058803833333
1498653521206|13|-1|0|55.98522265166666|37.29058219666666
1498653521306|14|1|0|55.98522369833333|37.29057631999999
1498653521406|14|-3|0|55.98522476333333|37.29057042
1498653521506|14|9|0|55.98522580166667|37.29056446166667
1498653521606|14|7|0|55.98522684166666|37.290558508333326
1498653521706|14|12|0|55.98522787833334|37.290552488333326
1498653521806|14|22|0|55.985228885|37.29054645666667
1498653521906|14|-2|0|55.98522997|37.29054043833332
1498653522006|14|26|0|55.98523096499999|37.290534395
1498653522106|14|-11|0|55.985232081666666|37.29052837333334
1498653522206|14|31|0|55.98523306166667|37.290522296666666
1498653522306|14|4|0|55.985234138333325|37.290516205
1498653522406|14|19|0|55.98523516833334|37.290510096666665
1498653522506|14|-16|0|55.98523630166666|37.290503980000004
1498653522606|14|4|0|55.98523738333333|37.29049787333334
1498653522706|14|9|0|55.985238450000004|37.29049173166667
1498653522806|14|3|0|55.98523954166667|37.29048554166666
1498653522906|14|-1|0|55.985240651666665|37.29047933833333
1498653523006|14|-5|0|55.98524177666666|37.29047311666666
1498653523106|14|-21|0|55.98524295166667|37.29046689166666
1498653523206|15|-3|0|55.98524412666668|37.290460548333336
1498653523306|15|-21|0|55.98524532166666|37.29045417666667
1498653523406|15|9|0|55.98524643499999|37.290447728333326
1498653523506|15|3|0|55.98524756666668|37.29044127166667
1498653523606|15|5|0|55.985248705000004|37.290434765
1498653523706|15|16|0|55.985249823333326|37.290428175
1498653523806|15|16|0|55.985250936666674|37.29042158166666
1498653523906|15|36|0|55.985251978333324|37.29041495333333
1498653524006|15|18|0|55.985253096666675|37.290408325
1498653524106|15|27|0|55.98525419166668|37.29040158833334
1498653524206|15|33|0|55.985255259999995|37.29039479666667
1498653524306|16|11|0|55.98525642333334|37.29038804666667
1498653524406|16|11|0|55.98525759666666|37.290381200000006
1498653524506|16|5|0|55.985258786666655|37.290374371666665
1498653524606|16|5|0|55.985259991666666|37.29036745833333
1498653524706|16|-1|0|55.98526120833333|37.29036061000001
1498653524806|16|-7|0|55.98526246333332|37.29035365166667
1498653524906|16|-17|0|55.98526374666667|37.29034672833333
1498653525006|16|-22|0|55.985265055000006|37.29033979
1498653525106|16|13|0|55.98526626333334|37.29033269333334
1498653525206|16|-22|0|55.985267571666654|37.290325683333336
1498653525306|16|0|0|55.985268829999995|37.290318565
1498653525406|17|-5|0|55.985270103333335|37.29031144499999
1498653525506|17|6|0|55.98527135500001|37.290304225
1498653525606|17|1|0|55.98527261333333|37.290297044999996
1498653525706|17|7|0|55.98527386833332|37.290289776666675
1498653525806|17|12|0|55.98527511166667|37.29028246166666
1498653525906|17|6|0|55.98527636166667|37.29027520333333
1498653526006|17|-5|0|55.985277690000004|37.290267765
1498653526106|17|11|0|55.98527894166667|37.290260421666666
1498653526206|17|13|0|55.98528018499999|37.29025306
1498653526306|17|11|0|55.98528144833333|37.29024561833333
1498653526407|17|19|0|55.98528268166666|37.29023818333334
1498653526507|17|8|0|55.98528394833334|37.29023071333333
1498653526607|17|13|0|55.9852852|37.290223301666664
1498653526707|17|14|0|55.98528646333333|37.290215788333335
1498653526807|17|29|0|55.98528766|37.2902083
1498653526907|17|7|0|55.98528896999999|37.29020074666666
1498653527007|17|11|0|55.98529026333333|37.29019314166666
1498653527107|17|15|0|55.98529155166666|37.290185478333335
1498653527207|18|23|0|55.98529282500001|37.29017769833333
1498653527307|18|3|0|55.98529414500001|37.29016994833333
1498653527407|18|-5|0|55.985295515000004|37.29016225833333
1498653527507|18|1|0|55.985296878333344|37.290154494999996
1498653527607|18|-11|0|55.985298283333336|37.29014673499999
1498653527707|18|-12|0|55.98529969833333|37.290138973333335
1498653527807|18|4|0|55.98530107666667|37.29013107166667
1498653527907|18|-3|0|55.985302450000006|37.29012331333334
1498653528007|18|-10|0|55.985303873333336|37.29011542666666
1498653528107|18|-27|0|55.98530537|37.29010749
1498653528207|18|-12|0|55.98530678833333|37.29009956333334
1498653528307|19|19|0|55.98530811833333|37.29009151666667
1498653528407|19|9|0|55.985309466666656|37.290083476666666
1498653528507|19|28|0|55.985310771666676|37.29007527833334
1498653528607|19|20|0|55.98531211666666|37.29006710833334
1498653528707|19|9|0|55.98531346666667|37.29005897500001
1498653528807|19|27|0|55.985314781666666|37.29005078666666
1498653528907|19|24|0|55.98531610666667|37.290042585
1498653529007|19|9|0|55.98531751000001|37.29003445166667
1498653529107|19|13|0|55.985318883333335|37.29002629333334
1498653529207|19|15|0|55.98532025666666|37.290018073333336
1498653529307|19|12|0|55.98532163333333|37.290009903333335
1498653529407|19|3|0|55.985323060000006|37.290001669999995
1498653529507|19|14|0|55.985324435|37.28999348833333
1498653529607|19|-16|0|55.98532593|37.28998527500001
1498653529707|19|13|0|55.98532732333334|37.289977065
1498653529807|19|-11|0|55.985328788333334|37.28996890166667
1498653529907|19|-38|0|55.985330375|37.28996074166667
1498653530007|19|11|0|55.985331765|37.289952545
1498653530107|19|-8|0|55.98533323|37.289944326666664
1498653530207|19|-7|0|55.985334691666665|37.289936149999996
1498653530307|19|-14|0|55.985336183333324|37.28992795166667
1498653530407|19|-10|0|55.98533766666666|37.289919745
1498653530507|19|2|0|55.985339095|37.28991154333333
1498653530607|19|12|0|55.98534048833334|37.289903281666675
1498653530707|19|4|0|55.9853419|37.289895073333334
1498653530807|19|13|0|55.98534328666666|37.28988681833334
1498653530907|19|13|0|55.98534467166667|37.28987854333332
1498653531007|19|32|0|55.98534597333334|37.28987020666667
1498653531107|19|29|0|55.98534726999999|37.289861965
1498653531207|19|28|0|55.98534858333334|37.28985362833334
1498653531307|19|30|0|55.985349861666656|37.28984532333334
1498653531407|19|28|0|55.98535117833334|37.289837006666666
1498653531507|19|18|0|55.98535255|37.28982874666666
1498653531607|19|-4|0|55.98535398333334|37.28982054666667
1498653531707|19|-9|0|55.985355456666674|37.28981235333333
1498653531807|19|-2|0|55.985356900000006|37.289804185
1498653531908|19|14|0|55.985358274999996|37.28979601333333
1498653532008|19|12|0|55.98535965666667|37.28978780333334
1498653532108|19|-41|0|55.985361254999994|37.28977966333334
1498653532208|19|7|0|55.98536264166667|37.289771558333335
1498653532308|19|-20|0|55.98536412166666|37.28976350000001
1498653532408|19|-23|0|55.98536565166667|37.289755465
1498653532508|19|-16|0|55.98536712166666|37.289747430000006
1498653532608|18|9|0|55.98536849166667|37.289739443333325
1498653532708|18|29|0|55.98536977333333|37.289731329999995
1498653532808|18|28|0|55.98537102|37.28972336499999
1498653532908|18|25|0|55.98537228|37.28971547833333
1498653533008|18|28|0|55.98537347666667|37.289707576666665
1498653533108|18|-6|0|55.98537487|37.28969980833333
1498653533208|18|34|0|55.98537606166667|37.28969199833334
1498653533308|18|25|0|55.98537729833333|37.289684320000006
1498653533408|18|11|0|55.98537862166667|37.289676605
1498653533508|17|-14|0|55.985379996666666|37.28966902999999
1498653533608|17|8|0|55.98538129|37.28966148333333
1498653533708|17|-2|0|55.985382605|37.289653998333335
1498653533808|17|5|0|55.985383901666665|37.28964648166667
1498653533908|17|-28|0|55.985385304999994|37.289639031666674
1498653534008|17|30|0|55.98538648666666|37.289631514999996
1498653534108|17|9|0|55.985387745|37.289624153333335
1498653534208|17|1|0|55.98538902333333|37.2896168
1498653534308|17|7|0|55.98539026333333|37.289609543333334
1498653534408|17|8|0|55.98539149666667|37.28960231000001
1498653534508|16|21|0|55.985392669999996|37.289595133333336
1498653534608|16|-1|0|55.985393881666674|37.28958795166666
1498653534708|16|-10|0|55.985395168333326|37.2895808
1498653534808|16|4|0|55.985396405|37.28957365833333
1498653534908|16|25|0|55.98539755499999|37.28956652
1498653535008|16|31|0|55.98539755499999|37.28956652
1498653535108|16|35|0|55.98539755499999|37.28956652
1498653535208|16|39|0|55.98539755499999|37.28956652
1498653535308|16|42|0|55.98539755499999|37.28956652
1498653535408|16|46|0|55.98539755499999|37.28956652
1498653535508|16|49|0|55.98539755499999|37.28956652
1498653535608|16|53|0|55.98539755499999|37.28956652
1498653535708|16|57|0|55.98539755499999|37.28956652
1498653535808|15|67|0|55.98539755499999|37.28956652
1498653535908|15|59|0|55.98539755499999|37.28956652
1498653536008|15|52|0|55.98539755499999|37.28956652
1498653536109|15|45|0|55.98539755499999|37.28956652
1498653536209|15|39|0|55.98539755499999|37.28956652
1498653536309|15|32|0|55.98539755499999|37.28956652
1498653536409|15|24|0|55.98539755499999|37.28956652
1498653536509|15|17|0|55.98539755499999|37.28956652
1498653536609|15|9|0|55.98539755499999|37.28956652
1498653536709|15|0|0|55.98539755499999|37.28956652
1498653536809|15|-7|0|55.98539755499999|37.28956652
1498653536909|15|-16|0|55.98539755499999|37.28956652
1498653537009|15|-24|0|55.98539755499999|37.28956652
1498653537109|15|-31|0|55.98539755499999|37.28956652
1498653537209|15|-37|0|55.98539755499999|37.28956652
1498653537309|15|-42|0|55.98539755499999|37.28956652
1498653537409|14|-50|0|55.98539755499999|37.28956652
1498653537509|14|-55|0|55.98539755499999|37.28956652
1498653537609|15|-57|0|55.98539755499999|37.28956652
1498653537709|15|-65|0|55.98539755499999|37.28956652
1498653537809|15|-64|0|55.98539755499999|37.28956652
1498653537909|15|-56|0|55.98539755499999|37.28956652
1498653538009|15|-47|0|55.98539755499999|37.28956652
1498653538109|15|-39|0|55.98539755499999|37.28956652
1498653538209|15|-31|0|55.98539755499999|37.28956652
1498653538309|15|-23|0|55.98539755499999|37.28956652
1498653538409|15|-30|0|55.98539755499999|37.28956652
1498653538509|15|-38|0|55.98539755499999|37.28956652
1498653538609|15|-46|0|55.98539755499999|37.28956652
1498653538709|15|-54|0|55.98539755499999|37.28956652
1498653538809|15|-62|0|55.98539755499999|37.28956652
1498653538909|15|-67|0|55.98539755499999|37.28956652
1498653539009|15|-71|0|55.98539755499999|37.28956652
1498653539109|15|-71|0|55.98539755499999|37.28956652
1498653539209|15|-69|0|55.98539755499999|37.28956652
1498653539309|15|-62|0|55.98539755499999|37.28956652
1498653539409|14|-63|0|55.98539755499999|37.28956652
1498653539509|14|-62|0|55.98539755499999|37.28956652
1498653539609|14|-64|0|55.98539755499999|37.28956652
1498653539709|14|-70|0|55.98539755499999|37.28956652
1498653539809|14|-75|0|55.98539755499999|37.28956652
1498653539909|14|-78|0|55.98539755499999|37.28956652
1498653540009|14|-81|0|55.98539755499999|37.28956652
1498653540109|13|-91|0|55.98539755499999|37.28956652
1498653540209|13|-94|0|55.98539755499999|37.28956652
1498653540309|12|-107|0|55.98539755499999|37.28956652
1498653540409|11|-125|0|55.98539755499999|37.28956652
1498653540509|11|-132|0|55.98539755499999|37.28956652
1498653540609|10|-151|0|55.98539755499999|37.28956652
1498653540709|10|-157|0|55.98539755499999|37.28956652
1498653540809|8|-203|0|55.98539755499999|37.28956652
1498653540909|8|-208|0|55.98539755499999|37.28956652
