1499334836198|0|462|0|55.98509228500001|37.29162821833334
1499334836370|0|462|0|55.98509223833334|37.29162833166667
1499334837370|0|462|0|55.985092163333334|37.291628663333334
1499334837731|0|462|0|55.985092218333335|37.291628579999994
1499334839092|0|462|0|55.985092349999995|37.29162854166666
1499334839501|0|462|0|55.985092331666664|37.29162834333333
1499334839801|0|462|0|55.98509232500001|37.29162780666667
1499334839974|0|462|0|55.98509244|37.29162708833333
1499334840151|0|462|0|55.985092531666666|37.291626091666664
1499334840286|0|462|0|55.985092753333326|37.291625090000004
1499334840457|1|462|0|55.985092789999996|37.291624094999996
1499334840592|1|462|0|55.985092900000005|37.291623234999996
1499334840801|1|462|0|55.98509296666666|37.29162153
1499334841005|2|462|0|55.98509317166666|37.291619438333335
1499334841167|2|462|0|55.98509356166666|37.29161651166666
1499334841451|3|462|0|55.98509409333333|37.291612685
1499334841584|3|462|0|55.98509417166666|37.29161106666667
1499334841686|3|462|0|55.985094755|37.29160863166666
1499334841794|4|462|0|55.98509490166666|37.291607425
1499334841970|4|462|0|55.98509554000001|37.29160340833334
1499334842073|5|462|0|55.98509592666666|37.29160128166667
1499334842321|5|462|0|55.98509713166667|37.29159467833333
1499334842466|5|462|0|55.98509755666667|37.29159236666667
1499334842644|5|462|0|55.985098866666675|37.29158687333334
1499334842798|5|462|0|55.98509916166666|37.29158542833333
1499334843084|6|462|0|55.98510082999999|37.29157798166667
1499334843250|6|462|0|55.98510213333334|37.29157317000001
1499334843458|6|462|0|55.98510330333333|37.29156666166667
1499334843651|6|462|0|55.98510428833334|37.29156132999999
1499334843783|6|462|0|55.985105111666655|37.29155882
1499334843959|6|462|0|55.985107098333344|37.291553971666666
1499334844308|6|462|0|55.985098986666664|37.29154084166667
1499334844477|6|462|0|55.985099831666666|37.291538370000005
1499334844667|6|462|0|55.98510175|37.29153376666667
1499334844840|6|462|0|55.985103483333326|37.29152907833333
1499334844989|6|462|0|55.985104753333324|37.291527125
1499334845178|6|462|0|55.985107013333334|37.29152291833333
1499334845366|6|462|0|55.98510926666666|37.29151921333332
1499334845493|6|462|0|55.98511066666667|37.29151752833334
1499334845739|6|462|0|55.985114268333334|37.29151237000001
1499334845877|6|462|0|55.98511807500001|37.29151456666666
1499334846052|6|462|0|55.98511987666667|37.29151020166667
1499334846199|6|462|0|55.98512242166667|37.29151043
1499334846387|6|462|0|55.98512229333334|37.291502935000004
1499334846574|6|462|0|55.985125434999986|37.29150054166666
1499334846762|6|462|0|55.98512932333333|37.2914987
1499334847302|6|462|0|55.98514079833334|37.29149039166667
1499334847470|6|462|0|55.98514146666666|37.29148809833334
1499334847695|6|462|0|55.98514381|37.29148455
1499334847846|6|462|0|55.985152685|37.29148296499999
1499334848011|6|462|0|55.98514996000001|37.29147751666667
1499334848153|6|449|0|55.98515047833333|37.29147526666667
1499334848303|6|442|0|55.98515086666666|37.29147249833333
1499334848489|6|434|0|55.98515533500001|37.29146843000001
1499334848590|6|439|0|55.985155928333334|37.291466415
1499334848692|6|435|0|55.98515600833333|37.291463588333336
1499334848878|6|431|0|55.985164035|37.291461555
1499334849006|6|438|0|55.98516421666666|37.291459513333336
1499334849178|6|432|0|55.985165474999995|37.29145450666667
1499334849335|6|423|0|55.98516581166667|37.291449490000005
1499334849469|6|413|0|55.98516638833333|37.291445960000004
1499334849571|6|407|0|55.985166604999996|37.29144320166667
1499334849673|6|413|0|55.98516976999999|37.29144117166666
1499334849775|6|407|0|55.98516989666667|37.291438480000004
1499334849876|6|404|0|55.985172369999994|37.29143509166667
1499334850156|6|400|0|55.98517295500001|37.2914258
1499334850303|6|372|0|55.985170696666664|37.291418626666676
1499334850503|6|356|0|55.985169126666676|37.29141526666667
1499334850648|6|338|0|55.985166728333326|37.29141082500001
1499334850805|6|333|0|55.985166979999995|37.29140801666666
1499334851035|6|321|0|55.98516930499999|37.29139962666667
1499334851194|6|318|0|55.985169126666676|37.291397055000004
1499334851383|6|307|0|55.98516940166666|37.291391351666675
1499334851565|6|306|0|55.98516978666666|37.29138551166666
