1496317740176|0|0|0|55.98513067333334|37.29116921666667
1496317740276|0|0|0|55.98513068333334|37.291169206666666
1496317740376|0|0|0|55.985130670000004|37.291169223333334
1496317740476|0|0|0|55.98513066833334|37.29116921333333
1496317740576|0|0|0|55.98513064666667|37.29116918166667
1496317740676|0|0|0|55.985130656666655|37.29116919333333
1496317740776|0|0|0|55.98513064166667|37.291169184999994
1496317740876|0|0|0|55.985130653333336|37.291169175
1496317740976|0|0|0|55.98513064|37.29116917666666
1496317741076|0|0|0|55.98513064166667|37.29116919
1496317741176|0|0|0|55.98513063666667|37.291169194999995
1496317741276|0|0|0|55.98513064499999|37.29116919166667
1496317741376|0|0|0|55.98513063666667|37.29116919333333
1496317741476|0|0|0|55.98513062666667|37.29116920166667
1496317741576|0|0|0|55.98513064833334|37.291169231666665
1496317741676|0|0|0|55.98513066333334|37.291169245
1496317741776|0|0|0|55.98513065499999|37.29116921833334
1496317741883|0|0|0|55.98513065499999|37.29116923833333
1496317741983|0|0|0|55.985130653333336|37.29116926333334
1496317742083|0|0|0|55.98513064833334|37.29116925
1496317742183|0|0|0|55.98513064666667|37.291169260000004
1496317742283|0|0|0|55.98513066|37.291169241666665
1496317742383|0|0|0|55.98513066333334|37.291169241666665
1496317742483|0|0|0|55.98513067666666|37.29116922833334
1496317742583|0|0|0|55.98513065499999|37.291169223333334
1496317742683|0|0|0|55.98513066499999|37.29116921666667
1496317742783|0|0|0|55.98513065833334|37.29116922666667
1496317742883|0|0|0|55.98513066499999|37.29116921333333
1496317742983|0|0|0|55.98513065166667|37.29116922166667
1496317743083|0|0|0|55.98513064666667|37.291169235
1496317743183|0|0|0|55.98513063833334|37.291169208333336
1496317743283|0|0|0|55.985130656666655|37.29116921666667
1496317743383|0|0|0|55.98513065|37.29116923833333
1496317743483|0|0|0|55.985130656666655|37.29116922
1496317743583|0|0|0|55.98513064666667|37.29116921333333
1496317743683|0|0|0|55.98513065|37.291169241666665
1496317743783|0|0|0|55.98513066|37.29116921333333
1496317743883|0|0|0|55.98513065|37.291169235
1496317743983|0|0|0|55.98513065499999|37.291169215
1496317744083|0|0|0|55.985130653333336|37.291169251666666
1496317744183|0|0|0|55.98513065833334|37.291169231666665
1496317744283|0|0|0|55.985130653333336|37.291169233333335
1496317744383|0|0|0|55.985130653333336|37.291169243333336
1496317744483|0|0|0|55.98513064833334|37.29116922
1496317744583|0|0|0|55.98513066499999|37.29116925333334
1496317744683|0|0|0|55.98513066833334|37.29116923833333
1496317744783|0|0|0|55.985130670000004|37.291169256666656
1496317744883|0|0|0|55.985130666666656|37.291169243333336
1496317744983|0|0|0|55.98513065833334|37.291169255
1496317745083|0|0|0|55.985130671666674|37.291169243333336
1496317745183|0|0|0|55.985130671666674|37.29116924666667
1496317745283|0|0|0|55.985130680000005|37.29116921666667
1496317745383|0|0|0|55.985130671666674|37.29116921333333
1496317745483|0|0|0|55.98513066499999|37.29116921666667
1496317745583|0|0|0|55.98513062499999|37.291169175
1496317745683|0|0|0|55.98513062333333|37.29116917666666
1496317745783|0|0|0|55.98513062166667|37.291169198333336
1496317745883|0|0|0|55.98513062666667|37.29116918166667
1496317745983|0|0|0|55.98513063166667|37.29116919333333
1496317746083|0|0|0|55.98513063|37.291169198333336
1496317746183|0|0|0|55.985130643333335|37.291169196666665
1496317746283|0|0|0|55.98513063833334|37.291169194999995
1496317746383|0|0|0|55.98513062166667|37.291169194999995
1496317746483|0|0|0|55.98513062666667|37.29116921
1496317746583|0|0|0|55.98513062|37.29116919333333
1496317746683|0|0|0|55.98513063499999|37.291169188333335
1496317746783|0|0|0|55.98513063|37.291169186666664
1496317746883|0|0|0|55.98513062833334|37.29116917666666
1496317746983|0|0|0|55.985130618333336|37.29116920333333
1496317747083|0|0|0|55.985130616666666|37.29116919166667
1496317747183|0|0|0|55.98513062666667|37.29116922
1496317747283|0|0|0|55.98513063166667|37.29116921
1496317747383|0|0|0|55.98513062666667|37.291169231666665
1496317747483|0|0|0|55.98513063833334|37.291169235
1496317747583|0|0|0|55.98513062333333|37.29116917333333
1496317747683|0|0|0|55.98513061499999|37.29116916333333
1496317747783|0|0|0|55.985130610000006|37.29116917333333
1496317747883|0|0|0|55.98513062166667|37.29116917166667
1496317747983|0|0|0|55.98513061333333|37.29116919
1496317748083|0|0|0|55.985130618333336|37.291169175
1496317748183|0|0|0|55.98513062499999|37.29116914000001
1496317748283|0|0|0|55.98513062499999|37.29116914833333
1496317748383|0|0|0|55.98513062666667|37.291169178333334
1496317748483|0|0|0|55.98513062833334|37.291169156666676
1496317748583|0|0|0|55.98513062666667|37.291169155
1496317748683|0|0|0|55.985130608333336|37.291169114999995
1496317748783|0|0|0|55.98513061333333|37.291169124999996
1496317748883|0|0|0|55.98513061333333|37.291169110000006
1496317748983|0|0|0|55.985130608333336|37.291169104999994
1496317749083|0|0|0|55.98513060166667|37.29116912833333
1496317749183|0|0|0|55.985130608333336|37.291169136666674
1496317749283|0|0|0|55.985130608333336|37.29116913166666
1496317749383|0|0|0|55.98513060166667|37.29116913333333
1496317749483|0|0|0|55.985130600000005|37.29116916333333
1496317749583|0|0|0|55.98513063166667|37.29116915333333
1496317749683|0|0|0|55.985130633333334|37.291169141666664
1496317749783|0|0|0|55.98513062166667|37.291169136666674
1496317749883|0|0|0|55.98513062833334|37.29116914000001
1496317749983|0|0|0|55.98513062|37.291169159999995
1496317750083|0|0|0|55.98513061499999|37.291169135
1496317750183|0|0|0|55.98513062|37.29116913166666
1496317750283|0|0|0|55.985130608333336|37.29116914333333
1496317750383|0|0|0|55.98513060666667|37.291169145
1496317750483|0|0|0|55.98513060666667|37.291169155
1496317750583|0|0|0|55.98513060666667|37.291169141666664
1496317750683|0|0|0|55.98513060166667|37.291169135
1496317750783|0|0|0|55.985130600000005|37.291169151666665
1496317750883|0|0|0|55.98513062|37.29116915333333
1496317750983|0|0|0|55.98513060499999|37.291169146666675
1496317751083|0|0|0|55.985130633333334|37.291169165
1496317751183|0|0|0|55.98513063|37.29116915000001
1496317751283|0|0|0|55.98513062833334|37.29116913000001
1496317751383|0|0|0|55.98513062666667|37.29116914833333
1496317751483|0|0|0|55.98513061499999|37.29116916666666
1496317751583|0|0|0|55.98513060166667|37.291169155
1496317751683|0|0|0|55.985130598333335|37.291169146666675
1496317751783|0|0|0|55.985130598333335|37.29116915000001
1496317751883|0|0|0|55.98513060666667|37.29116915000001
1496317751983|0|0|0|55.985130598333335|37.29116917166667
1496317752083|0|0|0|55.98513060333333|37.291169175
1496317752183|0|0|0|55.985130610000006|37.29116916833333
1496317752283|0|0|0|55.98513061166667|37.29116914000001
1496317752383|0|0|0|55.985130608333336|37.29116916666666
1496317752483|0|0|0|55.985130600000005|37.29116915000001
1496317752583|0|0|0|55.98513059666667|37.291169161666666
1496317752683|0|0|0|55.98513060499999|37.291169159999995
1496317752783|0|0|0|55.98513059666667|37.29116913333333
1496317752883|0|0|0|55.98513060166667|37.29116913166666
1496317752983|0|0|0|55.985130584999986|37.291169169999996
1496317753083|0|0|0|55.985130598333335|37.291169155
1496317753183|0|0|0|55.98513059166667|37.29116915333333
1496317753283|0|0|0|55.98513060166667|37.291169169999996
1496317753383|0|0|0|55.98513060333333|37.291169188333335
1496317753483|0|0|0|55.98513062499999|37.29116917333333
1496317753583|0|0|0|55.985130608333336|37.291169136666674
1496317753683|0|0|0|55.985130610000006|37.29116912833333
1496317753783|0|0|0|55.98513062|37.29116914833333
1496317753883|0|0|0|55.98513060333333|37.29116913333333
1496317753983|0|0|0|55.985130610000006|37.291169146666675
1496317754083|0|0|0|55.98513061333333|37.291169145
1496317754183|0|0|0|55.98513061166667|37.291169126666674
1496317754283|0|0|0|55.98513061333333|37.291169120000006
1496317754383|0|0|0|55.985130610000006|37.29116912166666
1496317754483|0|0|0|55.98513059333333|37.291169100000005
1496317754583|0|0|0|55.985130590000004|37.291169141666664
1496317754683|0|0|0|55.98513059499999|37.291169141666664
1496317754783|0|0|0|55.985130588333334|37.291169135
1496317754883|0|0|0|55.98513059166667|37.291169094999994
1496317754983|0|0|0|55.985130584999986|37.29116910333334
1496317755084|0|0|0|55.98513058666667|37.29116910333334
1496317755184|0|0|0|55.985130588333334|37.29116909833333
1496317755284|0|0|0|55.98513059499999|37.291169090000004
1496317755384|0|0|0|55.98513057833333|37.29116910666667
1496317755484|0|0|0|55.98513058333333|37.29116910666667
1496317755584|0|0|0|55.98513059499999|37.29116909833333
1496317755684|0|0|0|55.98513060499999|37.29116908
1496317755784|0|0|0|55.985130600000005|37.29116907833334
1496317755884|0|0|0|55.98513060333333|37.29116908
1496317755984|0|0|0|55.98513060666667|37.291169104999994
1496317756084|0|0|0|55.98513059666667|37.29116907666667
1496317756184|0|0|0|55.985130618333336|37.29116908666667
1496317756285|0|0|0|55.98513062166667|37.29116910333334
1496317756385|0|0|0|55.98513061499999|37.291169120000006
1496317756485|0|0|0|55.98513060333333|37.291169100000005
1496317756585|0|0|0|55.985130616666666|37.29116909333334
1496317756685|0|0|0|55.98513061499999|37.291169090000004
1496317756785|0|0|0|55.98513062333333|37.29116908333334
1496317756885|0|0|0|55.98513061499999|37.29116907
1496317756985|0|0|0|55.985130618333336|37.29116907833334
1496317757085|0|0|0|55.985130616666666|37.29116908166666
1496317757185|0|0|0|55.98513062833334|37.29116907666667
1496317757285|0|0|0|55.98513062166667|37.29116907166666
1496317757385|0|0|0|55.98513063166667|37.291169073333336
1496317757485|0|0|0|55.98513062333333|37.291169090000004
1496317757585|0|0|0|55.98513064666667|37.29116910666667
1496317757685|0|0|0|55.98513060333333|37.291169063333335
1496317757785|0|0|0|55.985130598333335|37.29116905666667
1496317757885|0|0|0|55.98513059166667|37.291169036666666
1496317757985|0|0|0|55.98513058333333|37.29116904833334
1496317758085|0|0|0|55.985130590000004|37.291169053333334
1496317758185|0|0|0|55.985130590000004|37.29116904833334
1496317758285|0|0|0|55.985130584999986|37.29116903166667
1496317758385|0|0|0|55.98513060499999|37.291169035
1496317758485|0|0|0|55.985130584999986|37.29116906
1496317758585|0|0|0|55.98513061166667|37.291169104999994
1496317758685|0|0|0|55.98513061166667|37.291169088333326
1496317758785|0|0|0|55.98513062499999|37.291169088333326
1496317758885|0|0|0|55.98513062833334|37.29116910166666
1496317758985|0|0|0|55.98513062166667|37.291169094999994
1496317759085|0|0|0|55.98513063|37.29116910833333
1496317759185|0|0|0|55.985130618333336|37.291169100000005
1496317759285|0|0|0|55.98513061333333|37.29116909666667
1496317759385|0|0|0|55.98513061166667|37.291169104999994
1496317759485|0|0|0|55.98513061166667|37.29116906666667
1496317759585|0|0|0|55.98513060166667|37.29116904333333
1496317759685|0|0|0|55.985130598333335|37.291169036666666
1496317759785|0|0|0|55.98513059666667|37.291169025
1496317759885|0|0|0|55.98513060166667|37.291169008333334
1496317759985|0|0|0|55.98513060666667|37.29116901166667
1496317760085|0|0|0|55.98513059333333|37.29116902333333
1496317760185|0|0|0|55.985130571666666|37.291169025
1496317760285|0|0|0|55.98513059166667|37.29116903333333
1496317760385|0|0|0|55.98513058166667|37.29116905833334
1496317760485|0|0|0|55.985130584999986|37.29116904333333
1496317760585|0|0|0|55.985130590000004|37.29116907
1496317760685|0|0|0|55.98513060499999|37.29116906666667
1496317760785|0|0|0|55.98513059333333|37.291169073333336
1496317760885|0|0|0|55.98513059499999|37.29116908333334
1496317760985|0|0|0|55.985130590000004|37.291169088333326
1496317761085|0|0|0|55.98513059499999|37.29116907833334
1496317761185|0|0|0|55.98513061333333|37.291169075000006
1496317761285|0|0|0|55.98513060666667|37.29116905
1496317761385|0|0|0|55.985130608333336|37.29116909166666
1496317761485|0|0|0|55.98513060333333|37.291169075000006
1496317761585|0|0|0|55.98513058|37.291169124999996
1496317761685|0|0|0|55.98513059499999|37.291169126666674
1496317761785|0|0|0|55.985130584999986|37.29116912166666
1496317761885|0|0|0|55.98513057|37.291169135
1496317761985|0|0|0|55.98513056833333|37.291169145
1496317762085|0|0|0|55.98513057333333|37.291169136666674
1496317762185|0|0|0|55.985130571666666|37.29116911666667
1496317762285|0|0|0|55.98513058|37.291169136666674
1496317762385|0|0|0|55.98513058166667|37.291169146666675
1496317762485|0|0|0|55.985130575|37.291169151666665
1496317762585|0|0|0|55.98513062333333|37.29116910333334
1496317762685|0|0|0|55.98513062166667|37.291169088333326
1496317762785|0|0|0|55.98513061499999|37.291169094999994
1496317762885|0|0|0|55.98513062166667|37.29116908500001
1496317762985|0|0|0|55.98513061166667|37.29116910166666
1496317763085|0|0|0|55.98513060333333|37.29116909166666
1496317763185|0|0|0|55.98513062333333|37.29116909666667
1496317763285|0|0|0|55.98513062|37.291169094999994
1496317763385|0|0|0|55.98513061499999|37.29116910666667
1496317763485|0|0|0|55.98513060666667|37.29116909333334
1496317763585|0|0|0|55.98513061499999|37.29116910666667
1496317763685|0|0|0|55.98513062166667|37.29116912833333
1496317763785|0|0|0|55.985130633333334|37.29116913166666
1496317763885|0|0|0|55.98513063833334|37.29116913000001
1496317763985|0|0|0|55.98513062333333|37.29116913166666
1496317764085|0|0|0|55.98513064499999|37.29116916333333
1496317764185|0|0|0|55.98513064499999|37.29116914333333
1496317764285|0|0|0|55.985130653333336|37.291169146666675
1496317764385|0|0|0|55.985130653333336|37.29116915333333
1496317764485|0|0|0|55.98513064833334|37.291169161666666
1496317764585|0|0|0|55.98513061499999|37.291169156666676
1496317764685|0|0|0|55.98513062|37.291169151666665
1496317764785|0|0|0|55.98513062|37.29116915333333
1496317764885|0|0|0|55.98513062333333|37.291169165
1496317764985|0|0|0|55.98513060666667|37.29116915333333
1496317765085|0|0|0|55.98513063833334|37.29116916833333
1496317765185|0|0|0|55.98513062833334|37.291169156666676
1496317765285|0|0|0|55.98513063|37.291169159999995
1496317765385|0|0|0|55.98513063666667|37.29116917166667
1496317765485|0|0|0|55.98513062333333|37.29116919166667
1496317765585|0|0|0|55.98513061166667|37.29116913166666
1496317765685|0|0|0|55.985130598333335|37.29116910333334
1496317765785|0|0|0|55.98513060666667|37.29116910666667
1496317765885|0|0|0|55.98513060666667|37.29116910333334
1496317765985|0|0|0|55.98513059666667|37.291169114999995
1496317766085|0|0|0|55.985130584999986|37.291169113333325
1496317766185|0|0|0|55.985130616666666|37.291169126666674
1496317766285|0|0|0|55.98513062333333|37.291169120000006
1496317766385|0|0|0|55.985130610000006|37.291169145
1496317766485|0|0|0|55.985130616666666|37.29116912833333
1496317766585|0|0|0|55.98513061333333|37.29116916666666
1496317766685|0|0|0|55.985130618333336|37.29116913833333
1496317766785|0|0|0|55.98513060666667|37.291169126666674
1496317766885|0|0|0|55.98513060499999|37.291169124999996
1496317766985|0|0|0|55.985130608333336|37.291169100000005
1496317767085|0|0|0|55.985130608333336|37.29116911666667
1496317767185|0|0|0|55.98513059499999|37.291169114999995
1496317767285|0|0|0|55.98513060333333|37.29116910166666
1496317767385|0|0|0|55.985130598333335|37.29116913166666
1496317767485|0|0|0|55.985130600000005|37.291169123333326
1496317767585|0|0|0|55.985130584999986|37.291169151666665
1496317767685|0|0|0|55.985130598333335|37.291169151666665
1496317767785|0|0|0|55.98513059333333|37.29116911666667
1496317767885|0|0|0|55.985130590000004|37.291169120000006
1496317767985|0|0|0|55.985130584999986|37.29116913333333
1496317768085|0|0|0|55.98513058166667|37.29116913833333
1496317768185|0|0|0|55.985130588333334|37.291169135
1496317768285|0|0|0|55.985130588333334|37.29116914333333
1496317768385|0|0|0|55.98513059333333|37.29116916666666
1496317768485|0|0|0|55.985130588333334|37.291169155
1496317768585|0|0|0|55.985130590000004|37.291169136666674
1496317768685|0|0|0|55.985130590000004|37.291169135
1496317768785|0|0|0|55.985130584999986|37.29116911666667
1496317768885|0|0|0|55.985130590000004|37.291169110000006
1496317768985|0|0|0|55.985130584999986|37.291169110000006
1496317769085|0|0|0|55.98513057833333|37.29116912833333
1496317769185|0|0|0|55.985130590000004|37.291169114999995
1496317769285|0|0|0|55.98513058166667|37.29116911666667
1496317769385|0|0|0|55.985130571666666|37.291169124999996
1496317769485|0|0|0|55.985130551666664|37.291169141666664
1496317769585|0|0|0|55.98513058166667|37.291169146666675
1496317769685|0|0|0|55.98513056666