1496313965897|0|-462|0|55.98513577000001|37.291137811666665
1496313965998|0|8|0|55.98513578166667|37.291137815
1496313966098|0|-462|0|55.98513577333333|37.29113781000001
1496313966198|0|-462|0|55.98513577833334|37.29113781333333
1496313966298|0|-462|0|55.98513577333333|37.29113781333333
1496313966398|0|-462|0|55.98513577666667|37.291137811666665
1496313966498|0|-462|0|55.98513577166667|37.29113782000001
1496313966598|0|-462|0|55.98513577166667|37.291137821666666
1496313966698|0|-462|0|55.98513579|37.29113782666666
1496313966798|0|-462|0|55.98513577000001|37.29113781000001
1496313966898|0|-462|0|55.98513577833334|37.291137815
1496313966998|0|-462|0|55.985135766666666|37.291137801666665
1496313967098|0|-462|0|55.98513577499999|37.29113781000001
1496313967198|0|-462|0|55.985135768333336|37.291137811666665
1496313967298|0|-462|0|55.98513577166667|37.29113780833333
1496313967398|0|-462|0|55.985135748333335|37.29113778666666
1496313967498|0|-462|0|55.985135766666666|37.29113777666666
1496313967598|0|-462|0|55.98513578|37.291137774999996
1496313967698|0|-462|0|55.98513576333333|37.29113778000001
1496313967798|0|-462|0|55.985135748333335|37.29113779666666
1496313967898|0|-462|0|55.98513576166667|37.29113778666666
1496313967998|0|-462|0|55.985135750000005|37.29113779833333
1496313968098|0|-462|0|55.98513574166667|37.291137795
1496313968198|0|-462|0|55.98513575166667|37.29113779333334
1496313968298|0|-462|0|55.985135750000005|37.29113777666666
1496313968398|0|-462|0|55.985135740000004|37.291137785
1496313968498|0|-462|0|55.98513575499999|37.29113778833333
1496313968598|0|-462|0|55.985135748333335|37.291137774999996
1496313968698|0|-462|0|55.98513574499999|37.29113777333334
1496313968798|0|-462|0|55.985135738333334|37.29113776833333
1496313968898|0|-462|0|55.98513574333333|37.291137764999995
1496313968998|0|-462|0|55.98513574333333|37.291137764999995
1496313969098|0|-462|0|55.985135735|37.291137760000005
1496313969198|0|-462|0|55.985135750000005|37.29113776166666
1496313969298|0|-462|0|55.985135740000004|37.29113774833334
1496313969398|0|-462|0|55.98513574166667|37.291137733333336
1496313969498|0|-462|0|55.985135740000004|37.29113773499999
1496313969598|0|-462|0|55.985135740000004|37.29113772499999
1496313969698|0|-462|0|55.985135735|37.29113773166666
1496313969798|0|-462|0|55.98513574166667|37.291137750000004
1496313969898|0|-462|0|55.98513574499999|37.29113780000001
1496313969998|0|-462|0|55.98513576333333|37.29113780000001
1496313970098|0|-462|0|55.985135738333334|37.291137774999996
1496313970198|0|-462|0|55.98513574166667|37.29113778000001
1496313970298|0|-462|0|55.985135740000004|37.29113775833333
1496313970398|0|-462|0|55.985135738333334|37.29113775333334
1496313970498|0|-462|0|55.98513575499999|37.29113775166666
1496313970598|0|-462|0|55.98513572666667|37.29113773499999
1496313970698|0|-462|0|55.98513574166667|37.29113775166666
1496313970798|0|-462|0|55.985135750000005|37.29113771833334
1496313970898|0|-462|0|55.98513574499999|37.29113773499999
1496313970998|0|-462|0|55.98513575499999|37.29113772666667
1496313971098|0|-462|0|55.985135760000006|37.29113772666667
1496313971198|0|-462|0|55.98513576333333|37.29113772166667
1496313971298|0|-462|0|55.985135756666665|37.29113774666667
1496313971398|0|-462|0|55.98513576333333|37.29113772499999
1496313971498|0|-462|0|55.985135766666666|37.29113774333334
1496313971598|0|-462|0|55.98513577166667|37.29113773499999
1496313971698|0|-462|0|55.98513576499999|37.29113773666667
1496313971798|0|-462|0|55.98513577499999|37.29113774666667
1496313971898|0|-462|0|55.98513577499999|37.29113774166666
1496313971998|0|-462|0|55.98513577666667|37.29113773833334
1496313972098|0|-462|0|55.985135783333334|37.29113774
1496313972198|0|-462|0|55.98513578499999|37.291137733333336
1496313972299|0|-462|0|55.985135783333334|37.29113775333334
1496313972399|0|-462|0|55.98513578499999|37.29113776666667
1496313972499|0|-462|0|55.985135783333334|37.291137754999994
1496313972599|0|-462|0|55.98513578166667|37.29113774166666
1496313972699|0|-462|0|55.98513577499999|37.29113774666667
1496313972799|0|-462|0|55.98513576499999|37.29113777166666
1496313972899|0|-462|0|55.98513576333333|37.29113776666667
1496313972999|0|-462|0|55.985135766666666|37.29113777666666
1496313973099|0|-462|0|55.98513577000001|37.29113775666667
1496313973199|0|-462|0|55.985135766666666|37.291137770000006
1496313973299|0|-462|0|55.98513578166667|37.291137770000006
1496313973399|0|-462|0|55.98513576333333|37.29113776833333
1496313973499|0|-462|0|55.98513577000001|37.29113775833333
1496313973599|0|-462|0|55.98513577166667|37.291137770000006
1496313973699|0|-462|0|55.985135766666666|37.29113776166666
1496313973799|0|-462|0|55.98513574499999|37.29113776666667
1496313973899|0|-462|0|55.98513574666667|37.291137760000005
1496313973999|0|-462|0|55.98513574666667|37.29113774833334
1496313974099|0|-462|0|55.98513575499999|37.291137764999995
1496313974199|0|-462|0|55.98513575166667|37.29113775333334
1496313974299|0|-462|0|55.985135750000005|37.29113775666667
1496313974399|0|-462|0|55.98513574666667|37.29113774499999
1496313974499|0|-462|0|55.985135758333335|37.29113775166666
1496313974599|0|-462|0|55.985135750000005|37.29113775333334
1496313974699|0|-462|0|55.98513575333333|37.29113774499999
1496313974799|0|-462|0|55.985135748333335|37.29113776166666
1496313974899|0|-462|0|55.98513575499999|37.29113778666666
1496313974999|0|-462|0|55.985135760000006|37.29113778666666
1496313975099|0|-462|0|55.985135766666666|37.29113777333334
1496313975199|0|-462|0|55.98513574166667|37.291137801666665
1496313975299|0|-462|0|55.98513575333333|37.291137801666665
1496313975399|0|-462|0|55.98513574166667|37.29113780666666
1496313975499|0|-462|0|55.98513574166667|37.291137811666665
1496313975599|0|-462|0|55.98513574166667|37.29113779333334
1496313975699|0|-462|0|55.98513574666667|37.291137795
1496313975799|0|-462|0|55.985135748333335|37.29113778666666
1496313975899|0|-462|0|55.98513574666667|37.29113777666666
1496313975999|0|-462|0|55.98513575166667|37.29113780000001
1496313976099|0|-462|0|55.98513574666667|37.29113779666666
1496313976199|0|-462|0|55.985135756666665|37.291137791666664
1496313976299|0|-462|0|55.985135750000005|37.29113782666666
1496313976399|0|-462|0|55.98513575499999|37.29113781333333
