1498654015742|0|312|0|55.985109726666664|37.291445978333336
1498654015843|0|-155|0|55.985109715|37.29144596166667
1498654015943|0|-155|0|55.985109708333326|37.29144598166667
1498654016043|0|-155|0|55.98510970666666|37.29144598833334
1498654016143|0|-155|0|55.98510970333333|37.29144599333333
1498654016243|0|-155|0|55.98510969666666|37.29144598333333
1498654016343|0|-154|0|55.985109688333324|37.29144600166667
1498654016443|0|-154|0|55.985109701666666|37.29144599833334
1498654016543|0|-154|0|55.98510970000001|37.29144600666667
1498654016645|0|-154|0|55.985109701666666|37.291446003333334
1498654016745|0|-154|0|55.985109691666665|37.29144599333333
1498654016845|0|-155|0|55.98510970333333|37.291446003333334
1498654016945|0|-155|0|55.985109708333326|37.29144598166667
1498654017045|0|-155|0|55.985109715|37.29144599666667
1498654017145|0|-155|0|55.98510972166667|37.29144599333333
1498654017246|0|-155|0|55.985109705|37.29144599333333
1498654017346|0|-153|0|55.98510970000001|37.291445966666664
1498654017446|0|-155|0|55.98510970666666|37.291445960000004
1498654017546|0|-154|0|55.985109701666666|37.291445958333334
1498654017646|0|-155|0|55.985109715|37.29144597166667
1498654017746|0|-155|0|55.985109708333326|37.29144597333333
1498654017846|0|-155|0|55.985109708333326|37.291445955
1498654017946|0|-155|0|55.98510971166667|37.291445968333335
1498654018046|0|-154|0|55.98510969333333|37.291445968333335
1498654018146|0|-155|0|55.98510971166667|37.29144596333333
1498654018246|0|-153|0|55.98510968000001|37.291445960000004
1498654018346|0|-154|0|55.985109701666666|37.29144597333333
1498654018446|0|-153|0|55.98510970000001|37.291445976666665
1498654018546|0|-155|0|55.98510972000001|37.291445976666665
1498654018646|0|-155|0|55.98510971833333|37.29144598833334
1498654018746|0|-155|0|55.98510970333333|37.291445976666665
1498654018846|0|-153|0|55.985109695|37.291445956666664
1498654018946|0|-155|0|55.985109705|37.291445976666665
1498654019046|0|-155|0|55.98510969666666|37.29144597333333
1498654019148|0|-155|0|55.985109715|37.29144597333333
1498654019248|0|-153|0|55.98510970000001|37.291445976666665
1498654019348|0|-155|0|55.985109715|37.291445976666665
1498654019448|0|-155|0|55.985109715|37.291445966666664
1498654019548|0|-155|0|55.98510971833333|37.291445986666666
1498654019648|0|-155|0|55.98510972000001|37.291445970000005
1498654019748|0|-155|0|55.98510971166667|37.291445975
1498654019848|0|-155|0|55.985109725|37.29144599666667
1498654019948|0|-155|0|55.985109725|37.291446003333334
1498654020048|0|-155|0|55.98510973166667|37.291445980000006
1498654020149|0|-156|0|55.98510972833333|37.29144601666667
1498654020249|0|-155|0|55.985109708333326|37.29144601
1498654020349|0|-155|0|55.98510972000001|37.29144602666667
1498654020449|0|-155|0|55.98510971000001|37.29144600833334
1498654020549|0|-155|0|55.98510972000001|37.29144598333333
1498654020649|0|-155|0|55.98510971833333|37.29144594833333
1498654020749|0|-154|0|55.985109725|37.29144588
1498654020849|0|-154|0|55.98510974000001|37.29144575666667
1498654020949|0|-154|0|55.985109746666666|37.291445655
1498654021049|0|-155|0|55.98510979666667|37.291445485
1498654021149|0|-154|0|55.98510980333334|37.29144530333333
1498654021249|0|-153|0|55.98510983833334|37.29144505666667
1498654021349|0|-153|0|55.985109913333325|37.29144473499999
1498654021450|0|-154|0|55.98510999166667|37.29144433833333
1498654021550|0|-154|0|55.98511008833334|37.29144384666667
1498654021650|0|-154|0|55.98511019666667|37.29144325833334
1498654021750|1|-152|0|55.98511027833334|37.29144258
1498654021850|1|-149|0|55.98511038500001|37.29144168166667
1498654021950|2|-75|0|55.98511053166666|37.29144074333333
1498654022050|2|-74|0|55.98511069833334|37.29143959166667
1498654022150|2|-73|0|55.98511088833334|37.29143835833333
1498654022250|3|-49|0|55.985111165000006|37.291436956666665
1498654022350|3|-47|0|55.985111395|37.291435248333336
1498654022450|4|-28|0|55.98511171|37.291433483333336
1498654022550|4|-28|0|55.985111995000004|37.29143147166666
1498654022650|4|-28|0|55.98511233666667|37.29142941333333
1498654022750|4|-34|0|55.985112606666675|37.291427256666665
1498654022850|5|-26|0|55.985113008333336|37.29142500666667
1498654022950|5|-25|0|55.985113323333344|37.29142263833334
1498654023050|5|-19|0|55.985113685|37.291420195
1498654023150|5|-19|0|55.98511401833333|37.291417745
1498654023250|5|-28|0|55.985114364999994|37.291415215
1498654023350|5|-27|0|55.98511477499999|37.291412735
1498654023450|5|-15|0|55.98511519|37.29141020833334
1498654023550|5|-14|0|55.98511552666667|37.291407715
1498654023650|5|-25|0|55.98511587166666|37.29140504666666
1498654023750|6|-20|0|55.98511629833334|37.291402364999996
1498654023850|6|-11|0|55.985116691666654|37.29139979
1498654023950|6|-11|0|55.985117093333336|37.291397156666676
1498654024050|6|-12|0|55.98511749999999|37.29139438
1498654024150|6|-11|0|55.98511788833333|37.29139155833333
1498654024250|6|-14|0|55.985118306666664|37.291388708333336
1498654024350|6|-13|0|55.985118766666666|37.291385719999994
1498654024450|7|-8|0|55.98511918833333|37.29138271166667
1498654024550|7|-7|0|55.985119596666664|37.291379503333324
1498654024650|7|-11|0|55.985120018333326|37.291376265000004
1498654024750|7|-10|0|55.98512050666667|37.29137291500001
1498654024850|7|-7|0|55.98512096666667|37.29136948
1498654024950|8|-8|0|55.98512142666667|37.29136590833333
1498654025050|8|-9|0|55.985121946666666|37.291362265000004
1498654025150|8|-8|0|55.98512246333333|37.29135858666667
1498654025250|8|-4|0|55.985123001666665|37.29135480333333
1498654025350|8|-4|0|55.98512356666667|37.291350915
1498654025450|8|-1|0|55.985124131666666|37.291346983333334
1498654025550|9|0|0|55.98512469666666|37.29134297
1498654025650|9|0|0|55.985125206666666|37.29133890833334
1498654025750|9|2|0|55.985125745000005|37.29133480499999
1498654025850|9|93|0|55.98512627833333|37.291330725
1498654025950|9|91|0|55.98512684333334|37.291326595
1498654026050|9|85|0|55.98512738166667|37.291322476666664
1498654026150|9|82|0|55.98512791166666|37.29131834333333
1498654026250|9|80|0|55.98512846166667|37.29131417166667
1498654026350|9|79|0|55.985129033333344|37.291310091666666
1498654026450|9|74|0|55.98512956333334|37.291305975
1498654026550|9|73|0|55.98513022499999|37.291301958333335
1498654026650|9|51|0|55.985130865|37.291297865000004
1498654026750|9|58|0|55.98513146499999|37.291293761666665
1498654026850|9|63|0|55.98513216999999|37.291289623333334
1498654026950|9|65|0|55.98513290833333|37.291285525
1498654027050|9|33|0|55.98513362499999|37.291281355
1498654027150|9|18|0|55.985134359999996|37.291277171666664
1498654027250|10|24|0|55.98513515666667|37.291273020000006
1498654027350|10|23|0|55.985135881666665|37.29126871833334
1498654027450|10|27|0|55.98513673333334|37.29126453333333
1498654027550|10|-6|0|55.98513759333334|37.291260298333334
1498654027650|10|-3|0|55.98513834166667|37.29125597833333
1498654027750|10|15|0|55.98513922166667|37.29125168
1498654027850|10|15|0|55.98514008|37.291247383333335
1498654027950|10|13|0|55.985140881666666|37.29124293499999
1498654028050|10|40|0|55.98514166|37.291238506666666
1498654028150|10|30|0|55.985142489999994|37.29123389833334
1498654028250|10|15|0|55.985143335000004|37.291229415000004
1498654028350|10|12|0|55.985144193333326|37.29122485333333
1498654028450|10|6|0|55.985145075000005|37.29122022999999
1498654028550|11|-12|0|55.98514600666667|37.291215621666666
1498654028650|11|-6|0|55.985146905|37.291211034999996
1498654028750|11|2|0|55.98514781000001|37.29120626166667
1498654028850|11|-15|0|55.98514875666666|37.29120157
1498654028950|11|8|0|55.985149653333345|37.291196763333325
1498654029050|11|2|0|55.985150555000004|37.29119197333333
1498654029150|11|-9|0|55.98515150333333|37.29118711500001
1498654029250|11|-6|0|55.985152451666664|37.29118221666666
1498654029350|11|-13|0|55.98515341499999|37.29117733166667
1498654029450|11|-9|0|55.98515437|37.291172401666664
1498654029550|11|10|0|55.985155295000006|37.291167370000004
1498654029650|11|-15|0|55.985156276666665|37.291162418333336
1498654029750|11|-5|0|55.985157236666666|37.29115739833333
1498654029850|12|2|0|55.985158174999995|37.29115234666667
1498654029950|12|4|0|55.98515911833333|37.29114721166666
1498654030050|12|-5|0|55.985160085000004|37.29114209666666
1498654030150|12|1|0|55.985161045|37.291136894999994
1498654030250|12|0|0|55.985162003333336|37.29113172499999
1498654030350|12|-11|0|55.98516301666667|37.291126426666665
1498654030450|12|-27|0|55.98516407333333|37.29112119999999
1498654030550|12|20|0|55.98516501333334|37.29111583166667
1498654030650|12|-16|0|55.985166058333334|37.29111050833334
1498654030750|12|4|0|55.98516705666666|37.291105120000005
1498654030850|13|19|0|55.98516802499999|37.291099673333335
1498654030950|13|18|0|55.985169006666666|37.29109416166667
1498654031050|13|9|0|55.98517003166666|37.29108859833334
1498654031150|13|23|0|55.98517102000001|37.29108305333333
1498654031250|13|20|0|55.98517205500001|37.29107744333333
1498654031350|13|-2|0|55.98517313333333|37.291071833333326
1498654031450|13|-14|0|55.98517426333333|37.29106620666667
1498654031550|13|6|0|55.985175344999995|37.29106043166666
1498654031650|13|10|0|55.98517641166667|37.291054635
1498654031750|13|3|0|55.98517747833333|37.291048893333326
1498654031850|13|-17|0|55.98517862166666|37.291043163333335
1498654031950|13|-24|0|55.985179808333335|37.291037345
1498654032050|13|-15|0|55.98518096166668|37.29103159333333
1498654032150|14|-14|0|55.985182091666665|37.29102576
1498654032250|14|-26|0|55.98518324166667|37.29101997833333
1498654032350|14|-32|0|55.98518446166666|37.29101410833333
1498654032450|14|-5|0|55.98518556333333|37.29100811000001
1498654032550|14|-25|0|55.985186729999995|37.29100210833333
1498654032650|14|-1|0|55.98518781333334|37.29099606333334
1498654032750|14|-25|0|55.98518897666666|37.29099006166666
1498654032850|14|-1|0|55.98519004833334|37.29098408833333
1498654032950|14|-14|0|55.98519118999999|37.290978008333326
1498654033050|14|37|0|55.985192153333344|37.290971963333334
1498654033150|14|-4|0|55.985193275|37.29096586666667
1498654033250|14|20|0|55.98519434166666|37.29095970666667
1498654033350|14|3|0|55.98519544833332|37.290953554999994
1498654033450|14|8|0|55.98519655666667|37.290947386666666
1498654033550|14|-8|0|55.985197709999994|37.29094129333334
1498654033650|14|0|0|55.98519885666666|37.290935094999995
1498654033750|14|16|0|55.98519995333332|37.290928916666665
1498654033850|14|-1|0|55.98520109833333|37.29092273333333
1498654033950|14|-24|0|55.985202325|37.290916620000004
1498654034050|14|-15|0|55.98520352666666|37.29091045
1498654034150|14|-6|0|55.98520469666667|37.290904239999996
1498654034250|14|-26|0|55.985205926666666|37.29089813666667
1498654034350|14|-14|0|55.98520710666667|37.29089199333333
1498654034450|14|5|0|55.98520822333333|37.290885843333335
1498654034550|14|-1|0|55.985209356666665|37.290879665000006
1498654034650|14|-7|0|55.985210503333334|37.29087352333333
1498654034750|14|-28|0|55.98521171|37.29086743166667
1498654034850|14|-11|0|55.985212858333334|37.29086128833333
1498654034950|14|-30|0|55.985214075|37.29085520500001
1498654035050|14|-24|0|55.98521526166666|37.290849101666666
1498654035150|14|2|0|55.98521635166667|37.29084294166667
1498654035250|14|3|0|55.98521743833333|37.290836866666666
1498654035350|14|-13|0|55.985218573333334|37.29083079333333
1498654035450|14|-9|0|55.98521970666667|37.290824671666655
1498654035550|14|-7|0|55.985220828333325|37.290818576666666
1498654035650|14|-2|0|55.98522192333333|37.290812536666664
1498654035750|14|8|0|55.98522299166666|37.29080646333334
1498654035850|14|-8|0|55.98522410000001|37.290800425
1498654035950|14|15|0|55.98522514666667|37.290794346666665
1498654036050|14|-18|0|55.98522628|37.290788325
1498654036150|14|9|0|55.98522734333333|37.29078227833333
1498654036250|14|8|0|55.98522838333333|37.290776316666665
1498654036350|14|15|0|55.985229415000006|37.29077027833333
1498654036450|14|-16|0|55.98523052666666|37.29076429166666
1498654036550|14|12|0|55.98523155|37.290758355
1498654036650|14|-8|0|55.985232633333325|37.29075240333333
1498654036750|14|-20|0|55.98523374166666|37.29074650166667
1498654036850|14|4|0|55.98523480166667|37.29074054166666
1498654036950|14|3|0|55.98523584|37.29073464333333
1498654037050|14|-12|0|55.98523692166667|37.29072875000001
1498654037150|13|13|0|55.98523792833333|37.29072288333334
1498654037250|13|0|0|55.98523896333333|37.290717058333335
1498654037350|13|4|0|55.985239988333326|37.29071123666667
1498654037450|13|-17|0|55.98524107500001|37.29070543833333
1498654037550|13|12|0|55.98524207666666|37.29069966833333
1498654037650|13|18|0|55.985243063333336|37.29069385333333
1498654037750|13|9|0|55.98524407166666|37.29068807333333
1498654037850|13|8|0|55.98524509166667|37.29068229166667
1498654037950|13|16|0|55.98524608666666|37.290676518333335
1498654038050|13|8|0|55.985247081666664|37.29067086333333
1498654038150|13|-10|0|55.98524813666666|37.29066519666667
1498654038250|13|0|0|55.98524916166666|37.29065955
1498654038350|13|10|0|55.985250158333336|37.290653915
1498654038450|13|10|0|55.98525114666666|37.290648306666675
1498654038550|13|1|0|55.98525215166666|37.29064273833333
1498654038650|13|-2|0|55.98525317666665|37.290637149999995
1498654038750|13|5|0|55.98525417333333|37.290631608333335
1498654038850|13|-9|0|55.98525519833333|37.29062612666666
1498654038951|13|3|0|55.985256195|37.29062064166666
1498654039051|13|2|0|55.98525719333333|37.29061515
1498654039151|12|0|0|55.98525819833333|37.290609696666664
1498654039251|12|9|0|55.98525918166667|37.29060422333334
1498654039351|12|0|0|55.98526016666666|37.290598853333336
1498654039451|12|-1|0|55.98526116666667|37.290593468333334
1498654039551|12|-6|0|55.98526216|37.29058818333333
1498654039651|12|5|0|55.98526315166667|37.290582789999995
1498654039751|12|4|0|55.985264125|37.290577488333334
1498654039851|12|26|0|55.98526504|37.29057221
1498654039951|12|0|0|55.98526603333333|37.29056694833334
1498654040051|12|15|0|55.98526698666666|37.290561651666664
1498654040151|12|20|0|55.98526792999999|37.29055631833334
1498654040251|12|-10|0|55.985268953333325|37.29055103499999
1498654040351|12|10|0|55.98526991333333|37.29054581666667
1498654040451|12|-3|0|55.98527092500001|37.29054049333334
1498654040551|12|6|0|55.98527191166666|37.29053519833333
1498654040651|12|8|0|55.98527288499999|37.29052993666667
1498654040751|12|9|0|55.985273865|37.29052463333334
1498654040851|12|-5|0|55.98527488|37.290519366666665
1498654040951|12|-12|0|55.98527593166667|37.29051403166667
1498654041051|12|-7|0|55.985276973333335|37.29050866833334
1498654041151|12|-12|0|55.98527803499999|37.290503271666665
1498654041251|12|-12|0|55.98527909833333|37.290497869999996
1498654041351|12|-5|0|55.98528013833333|37.29049245666666
1498654041451|13|5|0|55.98528117166667|37.29048691
1498654041551|13|0|0|55.98528221166666|37.290481385
1498654041651|13|-19|0|55.985283328333324|37.29047584999999
1498654041751|13|-2|0|55.98528439333332|37.290470285000005
1498654041851|13|-12|0|55.98528549333333|37.29046468666666
1498654041951|13|-5|0|55.98528658000001|37.29045902666667
1498654042051|13|1|0|55.985287666666665|37.290453250000006
1498654042151|13|7|0|55.98528874000001|37.290447451666665
1498654042251|13|-6|0|55.985289859999995|37.290441636666664
1498654042351|14|7|0|55.98529094333333|37.29043580166667
1498654042451|14|12|0|55.98529203|37.290429843333335
1498654042551|14|18|0|55.98529310333333|37.290423883333325
1498654042652|14|13|0|55.985294198333335|37.290417848333334
1498654042752|14|11|0|55.98529531666666|37.29041178333333
1498654042852|14|0|0|55.98529646666666|37.29040573333333
1498654042952|14|16|0|55.985297579999994|37.29039964333334
1498654043052|14|-1|0|55.98529875999999|37.290393503333334
1498654043152|14|0|0|55.985299948333335|37.29038730166667
1498654043252|14|7|0|55.98530111833334|37.29038105666667
1498654043352|14|9|0|55.98530227500001|37.29037484333333
1498654043452|14|-10|0|55.985303518333325|37.29036858166666
1498654043552|15|13|0|55.98530469833333|37.2903622
1498654043652|15|-14|0|55.98530597333333|37.29035588000001
1498654043752|15|-13|0|55.98530726166667|37.29034943166666
1498654043852|15|-5|0|55.98530852333333|37.290342990000006
1498654043952|15|0|0|55.98530978000001|37.29033644166667
1498654044052|15|-13|0|55.985311105|37.29032987166667
1498654044153|16|12|0|55.985312361666665|37.29032319
1498654044253|16|7|0|55.98531365333333|37.29031645166666
1498654044353|16|11|0|55.985314951666666|37.290309586666666
1498654044454|16|18|0|55.98531625833333|37.29030263333334
1498654044554|16|2|0|55.985317645|37.29029565
1498654044654|17|6|0|55.98531904333333|37.29028861333334
1498654044754|17|13|0|55.985320426666675|37.29028145666667
1498654044854|17|16|0|55.98532184000001|37.29027422166666
1498654044954|17|15|0|55.98532327333334|37.29026686666667
1498654045054|17|21|0|55.98532470333333|37.29025949833333
1498654045154|17|30|0|55.98532615333333|37.29025200333333
1498654045254|17|7|0|55.98532770333333|37.29024449
1498654045354|18|9|0|55.98532925333334|37.290236900000004
1498654045454|18|13|0|55.98533077166666|37.29022930166666
1498654045554|18|16|0|55.985332289999995|37.29022161333334
1498654045654|18|3|0|55.98533392999999|37.29021396499999
1498654045754|18|-7|0|55.985335658333334|37.290206285
1498654045854|18|-2|0|55.985337296666664|37.290198521666674
1498654045954|19|-4|0|55.985338995|37.290190691666666
1498654046054|19|-9|0|55.98534076166667|37.29018276
1498654046154|19|-5|0|55.985342493333334|37.290174795
1498654046254|19|0|0|55.98534417833333|37.290166728333325
1498654046354|19|-8|0|55.98534595999999|37.290158659999996
1498654046454|19|-5|0|55.985347705|37.29015056
1498654046554|19|-4|0|55.985349428333336|37.2901424
1498654046654|19|-4|0|55.98535117666666|37.29013417833333
1498654046754|19|-10|0|55.98535296|37.29012592666666
1498654046854|20|-6|0|55.98535469333333|37.29011765
1498654046954|20|-26|0|55.985356591666665|37.29010935166667
1498654047054|20|-3|0|55.985358323333344|37.290101051666674
1498654047154|20|-16|0|55.985360095000004|37.29009266833333
1498654047254|20|-27|0|55.985361909999995|37.290084220000004
1498654047354|20|-14|0|55.98536367|37.29007579833333
1498654047454|20|-15|0|55.98536536166666|37.290067288333326
1498654047554|20|-28|0|55.98536712666667|37.29005873666667
1498654047654|20|-16|0|55.98536883166666|37.29005016166666
1498654047754|20|-15|0|55.98537052|37.29004152666667
1498654047854|20|-16|0|55.985372206666675|37.29003291166667
1498654047954|20|-18|0|55.98537391833334|37.29002422666667
1498654048054|20|9|0|55.985375523333346|37.290015503333336
1498654048154|20|0|0|55.985377164999996|37.290006738333325
1498654048254|20|1|0|55.985378796666666|37.28999800166666
1498654048354|20|23|0|55.985380328333335|37.289989313333336
1498654048454|20|21|0|55.98538188833333|37.28998056666667
1498654048554|20|11|0|55.98538346333333|37.289971871666665
1498654048654|20|-7|0|55.98538511833334|37.28996318333333
1498654048754|20|10|0|55.985386705|37.28995447166667
1498654048854|20|-3|0|55.98538833333334|37.289945823333326
1498654048954|20|-25|0|55.9853901|37.289937155000004
1498654049054|20|-5|0|55.985391728333326|37.289928525
1498654049154|20|-12|0|55.98539338833332|37.28991994166667
1498654049254|20|-19|0|55.985395090000004|37.289911365
1498654049354|20|19|0|55.98539662833333|37.28990283
1498654049454|20|0|0|55.98539821999999|37.28989423166667
1498654049554|20|6|0|55.98539979833335|37.28988562833334
1498654049654|20|13|0|55.98540134500001|37.28987702
1498654049754|20|21|0|55.98540285833332|37.2898684
1498654049854|20|1|0|55.985404498333345|37.28985988
1498654049954|20|-16|0|55.98540616333333|37.289851376666675
1498654050054|20|11|0|55.985407715|37.289842875
1498654050154|20|-3|0|55.985409318333325|37.28983432666666
1498654050254|20|-13|0|55.985410961666666|37.28982586833333
1498654050354|20|-8|0|55.9854126|37.289817325
1498654050454|20|-10|0|55.98541423666667|37.289808844999996
1498654050554|20|-17|0|55.98541591|37.28980035666667
1498654050654|20|-10|0|55.98541756333334|37.28979184999999
1498654050754|20|-9|0|55.98541921500001|37.28978328333333
1498654050854|20|1|0|55.985420803333334|37.289774806666664
1498654050954|20|-13|0|55.98542244833334|37.28976637666666
1498654051054|20|0|0|55.985424038333335|37.28975797333333
1498654051154|20|-5|0|55.985425661666675|37.28974946833333
1498654051254|20|3|0|55.985427251666664|37.28974096
1498654051354|20|0|0|55.985428853333325|37.289732431666664
1498654051454|20|10|0|55.98543042833333|37.28972383833333
1498654051554|20|16|0|55.98543197|37.289715275
1498654051654|20|7|0|55.98543354333332|37.28970671000001
1498654051754|20|13|0|55.98543509500001|37.289698165
1498654051854|20|21|0|55.98543661000001|37.28968963666667
1498654051954|20|13|0|55.98543820333333|37.28968090666666
1498654052054|20|0|0|55.98543990333333|37.28967188833333
1498654052154|21|-7|0|55.98544165166666|37.28966284333334
1498654052254|21|1|0|55.98544337166666|37.28965373333333
1498654052354|21|-7|0|55.985445131666665|37.28964463833333
1498654052454|21|-11|0|55.98544690000001|37.28963563666667
1498654052554|22|-7|0|55.985448696666666|37.28962636000001
1498654052654|22|-5|0|55.98545050833332|37.289616931666664
1498654052754|23|-19|0|55.98545248666666|37.289607135
1498654052854|23|-6|0|55.98545444500001|37.289597130000004
1498654052954|23|-4|0|55.98545636166667|37.289587145
1498654053054|24|14|0|55.98545821333334|37.289577005
1498654053154|24|-16|0|55.98546024333333|37.28956692
1498654053254|25|-4|0|55.985462254999995|37.289556508333334
1498654053354|25|19|0|55.985464193333335|37.289545798333336
1498654053454|25|4|0|55.985466215|37.289534936666676
1498654053554|25|-13|0|55.98546838000001|37.28952408166667
1498654053654|26|25|0|55.98547036833333|37.28951306
1498654053754|26|36|0|55.985472343333335|37.289501875
1498654053854|27|6|0|55.98547447666667|37.28949056166667
1498654053954|27|-7|0|55.985476725000005|37.28947907833333
1498654054054|27|11|0|55.98547890500001|37.28946728166666
1498654054154|28|-3|0|55.98548116666665|37.28945551833333
1498654054254|28|-19|0|55.98548361|37.289443635000005
1498654054354|28|-36|0|55.985486155000004|37.28943173166667
1498654054454|28|-35|0|55.98548879166666|37.28941975666667
1498654054554|29|-28|0|55.98549138666667|37.28940753666666
1498654054654|30|-26|0|55.98549399000001|37.28939501333333
1498654054754|30|-22|0|55.985496581666666|37.28938221166667
1498654054854|30|-23|0|55.985499114999996|37.28936928666667
1498654054954|30|6|0|55.985501545|37.28935624166666
1498654055054|31|0|0|55.985503956666655|37.289343025
1498654055154|31|18|0|55.9855063|37.28932957166667
1498654055254|32|7|0|55.98550867|37.289316068333335
1498654055354|32|19|0|55.985511009999996|37.289302424999995
1498654055454|32|23|0|55.98551324333334|37.289288793333334
1498654055554|32|2|0|55.98551563666666|37.28927504833334
1498654055654|32|3|0|55.985518086666666|37.28926128666667
1498654055754|32|0|0|55.985520588333344|37.28924744
1498654055854|32|-15|0|55.985523143333324|37.28923382499999
1498654055954|32|-11|0|55.985525743333326|37.28922013333334
1498654056054|32|-5|0|55.98552833333333|37.28920642333334
1498654056154|32|-5|0|55.98553097833333|37.28919263
1498654056254|32|1|0|55.985533618333335|37.28917882
1498654056354|32|17|0|55.985536178333334|37.289164978333325
1498654056455|32|14|0|55.98553870666667|37.28915115166667
1498654056555|32|26|0|55.98554122000001|37.289137294999996
1498654056655|33|36|0|55.98554377333334|37.28912338333333
1498654056755|33|35|0|55.98554629833334|37.289109419999996
1498654056855|33|35|0|55.98554885166667|37.2890953
1498654056955|33|19|0|55.98555151000001|37.28908117333334
1498654057055|33|15|0|55.98555421666667|37.28906702666666
1498654057155|33|-5|0|55.98555713166667|37.28905305833334
1498654057255|34|-15|0|55.985560169999985|37.28903909166667
1498654057355|34|-26|0|55.98556333833334|37.28902508833333
1498654057455|34|-42|0|55.98556666333334|37.289011065
1498654057555|34|-26|0|55.985569930000004|37.28899699833333
1498654057655|34|-18|0|55.985573108333334|37.28898285166667
1498654057755|34|-26|0|55.985576216666665|37.28896873333333
1498654057855|34|2|0|55.985579135|37.288954525
1498654057955|34|-2|0|55.985581984999996|37.28894024000001
1498654058055|34|-1|0|55.98558481|37.28892586833333
1498654058155|34|17|0|55.98558748666667|37.288911430000006
1498654058255|34|21|0|55.985590088333325|37.288897003333325
1498654058355|34|42|0|55.98559261166667|37.28888259
1498654058455|34|41|0|55.98559512|37.288868125
1498654058555|34|36|0|55.985597659999996|37.288853655000004
1498654058655|34|21|0|55.98560029666667|37.288839206666665
1498654058755|34|24|0|55.98560295499999|37.28882485666666
1498654058855|34|2|0|55.98560576166667|37.288810705
1498654058955|34|-28|0|55.98560885|37.28879672833334
1498654059055|34|-38|0|55.985612014999994|37.288782835000006
1498654059155|34|-46|0|55.985615239999994|37.288769
1498654059255|34|-51|0|55.98561852333334|37.28875506833332
1498654059355|33|-45|0|55.98562174|37.28874117000001
1498654059455|33|-40|0|55.985624914999995|37.28872719
1498654059555|33|-30|0|55.98562791833333|37.288713225
1498654059655|33|-19|0|55.98563075166666|37.28869927166666
1498654059755|34|6|0|55.985633443333334|37.28868516166666
1498654059855|33|17|0|55.98563601166667|37.288670890000006
1498654059955|33|33|0|55.98563846333333|37.28865647666667
1498654060055|33|48|0|55.98564086166666|37.288642044999996
1498654060155|33|49|0|55.985643223333334|37.288627741666666
1498654060255|33|51|0|55.985645536666674|37.288613600000005
1498654060355|33|44|0|55.98564788666666|37.288599536666666
1498654060455|33|29|0|55.98565034833334|37.288585438333335
1498654060555|33|1|0|55.985652990000006|37.28857142
1498654060655|33|-21|0|55.98565575833332|37.288557610000005
1498654060755|33|-33|0|55.98565873333334|37.288543968333336
1498654060855|33|-43|0|55.98566178666667|37.28853049166667
1498654060955|32|-55|0|55.98566491333333|37.28851706499999
1498654061055|32|-56|0|55.98566804000001|37.28850371833334
1498654061155|31|-49|0|55.98567109000001|37.288490438333326
1498654061255|31|-42|0|55.98567394333333|37.28847754333333
1498654061355|30|-28|0|55.985676603333324|37.2884648
1498654061455|30|-22|0|55.98567916166667|37.28845228666667
1498654061555|29|0|0|55.98568150333334|37.28843984833333
1498654061655|28|35|0|55.98568365333334|37.288427551666665
1498654061755|28|55|0|55.985685668333325|37.288415504999996
1498654061855|27|66|0|55.98568757500001|37.28840368666666
1498654061955|27|56|0|55.985689493333325|37.28839212833333
1498654062055|26|65|0|55.985691333333335|37.288380815
1498654062155|26|45|0|55.98569322333333|37.28836965333333
1498654062255|26|40|0|55.98569513500001|37.28835876666667
1498654062355|25|17|0|55.98569708499999|37.2883482
1498654062455|25|7|0|55.985699049999994|37.288337843333345
1498654062555|24|-3|0|55.98570101833334|37.288327640000006
1498654062655|24|-18|0|55.985703096666676|37.288317621666664
1498654062755|23|-50|0|55.985705380000006|37.288307929999995
1498654062855|23|-50|0|55.98570759833333|37.288298455
1498654062955|22|-38|0|55.98570968333334|37.28828915
1498654063055|22|-31|0|55.985711653333325|37.28828001333333
1498654063155|22|-34|0|55.98571360833333|37.28827100166667
1498654063255|21|-31|0|55.985715490000004|37.28826210333333
1498654063355|21|-26|0|55.98571726000001|37.28825336999999
1498654063455|20|-22|0|55.98571897499999|37.28824481666666
1498654063555|20|7|0|55.98572053833333|37.28823636166667
1498654063655|20|1|0|55.98572208|37.288227955
1498654063755|20|6|0|55.985723603333334|37.288219571666666
1498654063855|19|20|0|55.98572507|37.28821120333333
1498654063955|19|8|0|55.98572654666667|37.28820284166667
1498654064055|19|-1|0|55.98572807|37.28819461333333
1498654064155|19|19|0|55.98572951999999|37.288186370000005
1498654064255|19|11|0|55.985730970000006|37.288178144999996
1498654064355|19|-2|0|55.98573248333333|37.28816998333333
1498654064455|19|-9|0|55.98573401833333|37.288161865
1498654064555|19|-14|0|55.98573556833333|37.288153789999996
1498654064655|19|-17|0|55.985737128333334|37.28814572666667
1498654064755|19|-13|0|55.98573866499999|37.28813773833333
1498654064855|19|-12|0|55.985740185000004|37.28812976833334
1498654064955|19|-19|0|55.98574172333333|37.28812184333334
1498654065055|18|-8|0|55.98574323333333|37.28811392
1498654065155|18|-22|0|55.985744776666664|37.288106005
1498654065255|18|1|0|55.98574626833333|37.28809813166667
1498654065355|18|-17|0|55.985747778333334|37.28809026
1498654065455|18|-5|0|55.985749246666664|37.28808237166666
1498654065555|18|-17|0|55.98575073000001|37.28807459333333
1498654065655|18|-18|0|55.98575220833334|37.28806682333334
1498654065755|18|-12|0|55.985753656666674|37.288059141666665
1498654065855|18|0|0|55.98575505833333|37.28805136833333
1498654065955|18|-9|0|55.98575646333334|37.28804374166667
1498654066055|18|10|0|55.98575781333334|37.28803608999999
1498654066155|18|-2|0|55.985759198333334|37.28802843833334
1498654066255|18|5|0|55.98576055|37.28802086
1498654066355|17|8|0|55.985761905|37.288013255
1498654066455|17|18|0|55.985763211666665|37.288005708333344
1498654066555|17|24|0|55.98576451000001|37.28799816333334
1498654066655|17|33|0|55.985765771666664|37.287990676666666
1498654066755|17|29|0|55.98576705000001|37.287983195
1498654066855|17|39|0|55.98576831666666|37.28797575666667
1498654066955|17|24|0|55.98576959666666|37.28796833
1498654067055|17|-6|0|55.985770985|37.287961095
1498654067155|17|-11|0|55.98577233166667|37.28795377666667
1498654067255|17|-14|0|55.98577368166666|37.28794656666667
1498654067355|17|-24|0|55.98577507|37.287939361666666
1498654067455|17|-32|0|55.98577651000001|37.28793228833333
1498654067555|17|-32|0|55.98577793333334|37.28792515000001
1498654067655|17|-32|0|55.98577934333333|37.287918055000006
1498654067755|16|-2|0|55.98578069|37.287910970000006
1498654067855|16|46|0|55.98578197|37.28790391333333
1498654067955|16|60|0|55.98578317500001|37.28789685833333
1498654068055|16|112|0|55.985784368333334|37.28788986166667
1498654068155|16|93|0|55.98578560333333|37.28788290333333
1498654068255|16|154|0|55.98578678833334|37.28787607
1498654068355|15|130|0|55.985787980000005|37.287869425000004
1498654068455|15|164|0|55.98578915833334|37.28786306000001
1498654068555|15|169|0|55.98579026000001|37.28785690333333
1498654068655|14|189|0|55.985791404999986|37.28785087166666
1498654068755|14|161|0|55.98579261|37.287844926666665
1498654068855|14|162|0|55.98579379166667|37.287839113333334
1498654068955|14|154|0|55.98579501|37.28783336833333
1498654069055|13|188|0|55.985796288333326|37.28782769333333
1498654069155|13|161|0|55.985797633333334|37.28782212666666
1498654069255|13|184|0|55.98579903833334|37.28781663
1498654069355|13|164|0|55.98580045333333|37.28781120166666
1498654069455|13|135|0|55.98580197166667|37.28780587833333
1498654069555|13|168|0|55.98580358333334|37.287800645
1498654069655|13|144|0|55.98580522499999|37.28779550666666
1498654069755|13|163|0|55.98580692833334|37.28779047666667
1498654069855|13|145|0|55.98580864833334|37.287785486666664
1498654069955|13|126|0|55.98581042000001|37.287780598333335
1498654070055|13|112|0|55.98581226833333|37.287775788333335
1498654070155|13|134|0|55.98581419499999|37.287771076666665
1498654070255|13|122|0|55.985816246666666|37.287766551666664
1498654070355|13|96|0|55.98581834333333|37.28776215666667
1498654070455|13|101|0|55.98582043166667|37.28775772333333
1498654070555|13|178|0|55.98582245166668|37.28775327333334
1498654070655|13|146|0|55.98582456666667|37.28774893333333
1498654070755|13|174|0|55.985826724999995|37.28774473833334
1498654070855|12|173|0|55.985828854999994|37.28774054333333
1498654070955|12|186|0|55.98583102666666|37.28773643500001
1498654071055|12|152|0|55.985833226666664|37.287732446666666
1498654071155|12|142|0|55.98583548166667|37.287728531666666
1498654071255|12|110|0|55.98583784166667|37.287724798333336
1498654071355|12|114|0|55.985840213333326|37.28772109666667
1498654071455|12|104|0|55.98584259833333|37.28771749666666
1498654071555|12|68|0|55.98584505666666|37.28771400833333
1498654071655|12|49|0|55.985847549999995|37.28771063833334
1498654071755|12|67|0|55.98585004500001|37.287707229999995
1498654071855|12|60|0|55.985852548333334|37.287703816666664
1498654071955|12|64|0|55.98585509333334|37.287700396666665
1498654072055|12|54|0|55.985857656666674|37.28769706666667
1498654072155|12|84|0|55.98586023833333|37.28769376666666
1498654072255|12|64|0|55.98586286333333|37.28769050333333
1498654072355|12|85|0|55.985865525|37.28768734333333
1498654072455|12|89|0|55.985868181666675|37.28768414166667
1498654072555|12|113|0|55.985870821666666|37.287680824999995
1498654072655|13|103|0|55.98587347166667|37.28767757166667
1498654072755|13|103|0|55.98587614833333|37.28767439333334
1498654072855|13|74|0|55.98587886000001|37.287671323333335
1498654072955|13|57|0|55.98588165500001|37.28766832666667
1498654073055|13|40|0|55.98588446333333|37.28766545833333
1498654073155|13|35|0|55.985887355|37.28766256666666
1498654073255|13|-57|0|55.98589035166666|37.287659878333336
1498654073355|13|-53|0|55.98589341833334|37.28765716
1498654073455|13|-22|0|55.985896401666665|37.28765434333332
1498654073555|13|-21|0|55.98589935|37.28765148
1498654073655|13|-86|0|55.98590234666668|37.287648588333326
1498654073755|13|-74|0|55.98590535666668|37.28764570333333
1498654073856|13|-186|0|55.985908425|37.28764288166668
1498654073956|13|-218|0|55.98591148666666|37.28764005166666
1498654074056|14|-212|0|55.98591454166667|37.28763724000001
1498654074156|14|-176|0|55.985917595|37.287634205
1498654074256|14|-165|0|55.985920619999995|37.287631088333335
1498654074356|14|-189|0|55.98592360666667|37.28762783333333
1498654074456|14|-175|0|55.98592657500001|37.2876245
1498654074556|14|-223|0|55.98592950666666|37.28762117333333
1498654074656|14|-194|0|55.985932424999994|37.287617725
1498654074756|14|-170|0|55.98593531666667|37.28761416333334
1498654074856|14|-217|0|55.985938171666675|37.28761044833333
1498654074956|14|-187|0|55.985940933333325|37.287606645
1498654075056|14|-263|0|55.985943651666666|37.28760268166666
1498654075156|14|-220|0|55.98594631166667|37.28759864166666
1498654075256|14|-177|0|55.985948878333325|37.28759438666667
1498654075356|14|-159|0|55.98595134|37.28759000833334
1498654075456|14|-258|0|55.98595373333333|37.28758547499999
1498654075556|14|-192|0|55.98595603166667|37.287580835
1498654075656|14|-299|0|55.98595816499999|37.28757604666666
1498654075756|14|-279|0|55.98596035333333|37.28757129499999
1498654075856|14|-411|0|55.985962455|37.28756650333333
1498654075956|14|-342|0|55.98596447333333|37.287561583333336
1498654076056|13|-297|0|55.98596627833334|37.28755657
1498654076156|13|-393|0|55.98596794666667|37.28755143833333
1498654076256|13|-313|0|55.985969413333336|37.28754622499999
1498654076356|13|-398|0|55.98597074166667|37.287540995
1498654076456|13|-332|0|55.98597192833333|37.28753584166667
1498654076556|12|-307|0|55.98597297333333|37.28753080833333
1498654076656|12|-391|0|55.985973869999995|37.28752592166666
1498654076756|11|-327|0|55.985974653333344|37.28752111333333
1498654076856|11|-309|0|55.985975305|37.28751642666668
1498654076956|11|-374|0|55.985975823333334|37.28751180166667
1498654077056|10|-285|0|55.98597614166666|37.287507223333336
1498654077156|10|-402|0|55.985976378333326|37.28750275666667
1498654077256|10|-244|0|55.98597651|37.287498375
1498654077356|10|-367|0|55.98597649666667|37.28749402666667
1498654077456|10|-269|0|55.985976431666664|37.28748970833334
1498654077556|10|-269|0|55.98597637666666|37.28748541666667
1498654077656|10|-251|0|55.98597626166667|37.28748109833334
1498654077756|10|-374|0|55.98597604|37.287476854999994
1498654077856|9|-279|0|55.98597566|37.287472605
1498654077956|9|-390|0|55.98597521499999|37.28746842666667
1498654078056|9|-215|0|55.985974739999996|37.28746426666667
1498654078156|9|-363|0|55.98597427333333|37.28746017833333
1498654078256|9|-335|0|55.985973806666664|37.287456103333334
1498654078356|9|-336|0|55.98597325833333|37.28745215166667
1498654078456|9|-429|0|55.985972605|37.287448255
1498654078556|9|-407|0|55.985971863333326|37.287444550000004
1498654078656|9|-445|0|55.985971031666665|37.28744089
1498654078756|9|-424|0|55.98597015333333|37.28743740666666
1498654078856|9|-374|0|55.985969273333325|37.28743397666666
1498654078956|9|-374|0|55.98596831666667|37.28743063833333
1498654079056|9|-317|0|55.985967288333335|37.28742741
1498654079156|9|-462|0|55.985966203333334|37.28742428666666
1498654079256|8|-344|0|55.985965076666666|37.28742127166667
1498654079356|8|-435|0|55.98596388666666|37.28741838
1498654079456|8|-280|0|55.985962641666674|37.28741556666667
1498654079556|8|-283|0|55.98596127666666|37.28741295666668
1498654079656|8|-271|0|55.98595985000001|37.28741056833333
1498654079756|8|-249|0|55.98595845333333|37.287408105000004
1498654079856|8|-238|0|55.98595705500001|37.28740574166667
1498654079956|8|-241|0|55.985955675|37.28740329833333
1498654080056|8|-216|0|55.98595423833334|37.287401030000005
1498654080156|7|-308|0|55.98595281833333|37.28739881
1498654080256|7|-277|0|55.98595139333334|37.287396646666664
1498654080356|7|-280|0|55.985949940000005|37.287394514999995
1498654080456|7|-263|0|55.98594850833333|37.287392458333336
1498654080556|7|-366|0|55.985947038333336|37.28739042833333
1498654080656|7|-327|0|55.98594560166666|37.28738846333333
1498654080756|7|-328|0|55.98594406|37.287386700000006
1498654080856|7|-378|0|55.985942513333335|37.287384984999996
1498654080956|7|-355|0|55.985941006666664|37.287383354999996
1498654081056|7|-335|0|55.98593946500001|37.287381749999994
1498654081156|7|-339|0|55.985937933333325|37.287380178333336
1498654081256|7|-301|0|55.985936355|37.28737875666666
1498654081356|7|-441|0|55.98593476666667|37.28737746833334
1498654081456|7|-359|0|55.985933203333325|37.28737623
1498654081556|7|-362|0|55.98593159333333|37.28737512000001
1498654081656|7|-305|0|55.98592990833334|37.28737409666667
1498654081756|7|-307|0|55.98592824666666|37.28737311999999
1498654081856|7|-401|0|55.98592657999999|37.28737209666667
1498654081956|7|-385|0|55.985924886666666|37.28737119166666
1498654082056|7|-323|0|55.98592314000001|37.28737049666667
1498654082156|7|-327|0|55.98592141000001|37.287369913333336
1498654082256|7|-377|0|55.98591968166667|37.28736921833333
1498654082356|7|-362|0|55.985917871666665|37.287368775
1498654082456|7|-301|0|55.985916046666674|37.28736840166667
1498654082556|7|-303|0|55.98591417166668|37.28736807666667
1498654082656|8|-349|0|55.985912301666666|37.28736782666666
1498654082756|8|-338|0|55.98591039|37.28736764500001
1498654082856|8|-287|0|55.98590842666667|37.287367698333334
1498654082956|8|-284|0|55.98590645666666|37.28736785666666
1498654083056|8|-210|0|55.98590446333333|37.287368183333335
1498654083156|8|-203|0|55.985902470000006|37.28736847500001
1498654083256|8|-268|0|55.985900478333335|37.28736889333333
1498654083356|8|-259|0|55.98589846333333|37.28736956833333
1498654083456|8|-172|0|55.98589642333332|37.28737027333333
1498654083556|8|-175|0|55.98589436499999|37.28737091333333
1498654083656|8|-240|0|55.98589229166668|37.28737163499999
1498654083756|8|-235|0|55.985890175|37.287372405
1498654083856|8|-285|0|55.98588807166667|37.28737330666667
1498654083956|8|-265|0|55.98588595500001|37.28737422833334
1498654084056|9|-239|0|55.98588382999999|37.28737523666667
1498654084156|9|-326|0|55.985881719999995|37.28737633166666
1498654084256|9|-274|0|55.985879576666676|37.287377555
1498654084356|9|-273|0|55.98587743666668|37.287378974999996
1498654084456|9|-215|0|55.985875279999995|37.28738048166667
1498654084556|9|-293|0|55.98587314833333|37.287382175000005
1498654084656|9|-237|0|55.98587096833333|37.28738392833333
1498654084756|9|-242|0|55.98586880166666|37.287385855
1498654084856|9|-182|0|55.98586666999999|37.28738792666667
1498654084956|10|-351|0|55.985864465000006|37.28739008166666
1498654085056|10|-225|0|55.985862364999996|37.28739232666666
1498654085156|10|-180|0|55.98586018333334|37.287394785000004
1498654085256|10|-144|0|55.985858086666674|37.28739731666667
1498654085356|10|-204|0|55.98585593999999|37.28739997166666
1498654085456|10|-190|0|55.98585390833333|37.287402834999995
1498654085556|10|-113|0|55.98585194333334|37.287405963333335
1498654085656|11|-161|0|55.985849901666676|37.28740916666667
1498654085756|11|-161|0|55.985847826666664|37.287412339999996
1498654085856|11|-146|0|55.98584575333332|37.287415615
1498654085956|11|-130|0|55.98584376666666|37.287419005
1498654086056|11|-192|0|55.98584172333334|37.28742250666667
1498654086156|11|-250|0|55.98583970166666|37.28742610333334
1498654086256|11|-207|0|55.98583773666666|37.287429761666665
1498654086356|11|-200|0|55.98583573833333|37.28743353333334
1498654086456|11|-318|0|55.985833705000005|37.28743733499999
1498654086556|12|-259|0|55.985831738333346|37.287441259999994
1498654086656|12|-253|0|55.98582974999999|37.28744535
1498654086756|12|-309|0|55.98582782166666|37.28744963833334
1498654086856|12|-256|0|55.985825946666665|37.28745408
1498654086956|12|-230|0|55.98582410666667|37.287458715
1498654087056|12|-226|0|55.98582229666666|37.287463421666665
1498654087156|13|-258|0|55.985820568333345|37.28746826333334
1498654087256|13|-229|0|55.985818855|37.28747324500001
1498654087356|13|-180|0|55.98581729000001|37.28747836333333
1498654087456|13|-174|0|55.98581583666667|37.287483753333326
1498654087556|13|-120|0|55.98581451333333|37.287489228333335
1498654087656|14|-89|0|55.985813368333325|37.28749487166666
1498654087756|14|-52|0|55.98581229999999|37.287500658333336
1498654087856|14|-36|0|55.98581123333334|37.287506515
1498654087956|14|-37|0|55.98581015833334|37.28751247666667
1498654088056|14|-43|0|55.98580911833333|37.287518418333335
1498654088156|14|-13|0|55.985808193333334|37.28752455833333
1498654088256|14|-4|0|55.98580732666667|37.28753067666667
1498654088356|14|-26|0|55.98580650499999|37.28753695666667
1498654088456|14|-12|0|55.98580570166666|37.287543241666675
1498654088556|14|-36|0|55.98580489166667|37.28754953833333
1498654088656|14|-47|0|55.985804023333344|37.287555851666674
1498654088756|14|-48|0|55.985803149999995|37.28756219833333
1498654088856|14|-65|0|55.98580223333334|37.28756859166666
1498654088956|14|-38|0|55.98580135833334|37.28757499833334
1498654089056|15|-41|0|55.985800510000004|37.28758145166666
1498654089156|15|-32|0|55.98579968166666|37.28758796166667
1498654089256|15|-9|0|55.98579885000001|37.28759453166666
1498654089356|15|1|0|55.985798046666666|37.28760118500001
1498654089456|15|42|0|55.98579726166667|37.287607965
1498654089556|15|61|0|55.98579646666666|37.28761479166667
1498654089656|16|61|0|55.98579568833333|37.287621703333336
1498654089756|16|70|0|55.985794930000004|37.28762871666667
1498654089856|16|74|0|55.98579408333334|37.28763583
1498654089956|16|92|0|55.985793326666666|37.28764304333334
1498654090056|16|86|0|55.98579247833333|37.28765025333333
1498654090156|17|54|0|55.98579152166666|37.287657546666665
1498654090256|17|33|0|55.98579044666666|37.287664959999994
1498654090356|17|44|0|55.98578936333334|37.28767245166667
1498654090456|17|26|0|55.985788131666666|37.28767996833333
1498654090556|17|16|0|55.98578680000001|37.28768752833333
1498654090656|18|-14|0|55.98578535833333|37.28769511166667
1498654090756|18|6|0|55.98578396666667|37.28770277333333
1498654090856|18|8|0|55.98578258333333|37.28771047666666
1498654090956|18|-20|0|55.98578108333333|37.287718195
1498654091056|18|7|0|55.98577966333334|37.28772595833333
1498654091156|18|9|0|55.98577821333334|37.287733859999996
1498654091256|18|12|0|55.98577675833333|37.287741804999996
1498654091357|18|23|0|55.985775325|37.287749903333335
1498654091457|19|14|0|55.98577390666666|37.28775804
1498654091559|19|30|0|55.98577247333333|37.28776627833333
1498654091659|19|32|0|55.985771035|37.287774605
1498654091759|19|21|0|55.98576954166667|37.287782945000004
1498654091859|19|3|0|55.985768025|37.28779133166667
1498654091959|20|-4|0|55.98576643|37.28779977333334
1498654092059|20|-4|0|55.98576484166666|37.28780824166667
1498654092159|20|-25|0|55.98576313666668|37.28781685666667
1498654092259|20|-31|0|55.98576142166666|37.287825401666666
1498654092359|20|-45|0|55.985759648333335|37.28783404
1498654092459|21|-37|0|55.98575792|37.287842735
1498654092559|21|-39|0|55.98575615833333|37.28785153333333
1498654092659|21|-21|0|55.985754478333334|37.287860396666666
1498654092759|21|-8|0|55.98575286666666|37.287869386666664
1498654092859|21|3|0|55.98575124833333|37.287878495
1498654092959|21|24|0|55.98574976666667|37.287887708333336
1498654093059|21|7|0|55.985748195|37.287896915000005
1498654093159|21|22|0|55.985746649999996|37.28790625666666
1498654093259|22|28|0|55.985745175|37.28791565
1498654093359|22|22|0|55.985743628333324|37.28792495333333
1498654093459|22|24|0|55.98574206833334|37.287934375000006
1498654093559|22|20|0|55.98574054166667|37.28794377666666
1498654093659|22|33|0|55.985738989999994|37.287953228333336
1498654093759|22|12|0|55.985737291666666|37.287962633333336
1498654093859|22|-5|0|55.985735551666664|37.28797192500001
1498654093959|22|-7|0|55.985733778333326|37.28798123
1498654094059|22|-6|0|55.98573201833332|37.28799050166666
1498654094159|22|-7|0|55.98573024166667|37.28799980499999
1498654094259|22|-24|0|55.98572839666667|37.28800908166667
1498654094359|22|-26|0|55.98572654833333|37.28801826833334
1498654094459|22|-20|0|55.985724761666674|37.28802745833333
1498654094559|22|2|0|55.985723018333324|37.28803664
1498654094659|22|-12|0|55.985721245|37.28804582666666
1498654094759|22|-2|0|55.98571950166667|37.28805500833334
1498654094859|21|-3|0|55.98571776166667|37.2880642
1498654094959|21|21|0|55.98571612333334|37.28807342333334
1498654095059|21|0|0|55.98571444666666|37.288082573333334
1498654095159|21|29|0|55.98571286|37.28809177833333
1498654095259|21|31|0|55.98571127666668|37.288100965000005
1498654095359|21|25|0|55.98570966833332|37.28811006833333
1498654095459|21|26|0|55.985708063333334|37.28811916833334
1498654095559|21|26|0|55.98570645666667|37.28812825000001
1498654095659|21|28|0|55.98570486333333|37.28813735
1498654095759|21|5|0|55.98570316833334|37.288146335
1498654095859|21|-5|0|55.985701451666664|37.288155270000004
1498654095959|21|-27|0|55.98569964166666|37.28816414166666
1498654096059|21|-13|0|55.98569792000001|37.288173023333336
1498654096159|21|-17|0|55.98569616|37.28818190833333
1498654096259|21|-35|0|55.98569432833333|37.28819069666666
1498654096359|21|-32|0|55.98569252333333|37.288199536666674
1498654096459|21|-17|0|55.985690795000004|37.288208430000005
1498654096559|21|-3|0|55.985689108333325|37.28821730166667
1498654096659|21|-1|0|55.98568745833333|37.28822616333334
1498654096759|21|3|0|55.98568582|37.288235058333335
1498654096859|21|-1|0|55.98568418500001|37.28824385666667
1498654096959|21|7|0|55.98568258|37.288252678333336
1498654097059|21|18|0|55.985681015|37.288261586666664
1498654097159|20|7|0|55.98567942666667|37.288270425
1498654097259|20|5|0|55.985677824999996|37.288279206666665
1498654097359|20|26|0|55.98567630666666|37.28828809833333
1498654097459|20|18|0|55.985674756666675|37.28829685666666
1498654097559|20|10|0|55.985673183333326|37.288305611666665
1498654097659|20|-9|0|55.985671526666664|37.288314308333334
1498654097759|20|-5|0|55.985669863333335|37.28832301
1498654097859|20|-6|0|55.985668196666666|37.28833173666667
1498654097959|20|-14|0|55.98566649666667|37.28834040333334
1498654098059|20|2|0|55.985664865|37.28834905666667
1498654098159|20|3|0|55.985663251666665|37.288357645
1498654098259|20|-12|0|55.985661573333324|37.28836623666667
1498654098359|20|-7|0|55.98565990666666|37.288374835
1498654098459|20|-15|0|55.98565821833334|37.28838337166667
1498654098559|20|0|0|55.985656575|37.288391983333334
1498654098659|20|10|0|55.98565497333334|37.288400615
1498654098759|20|9|0|55.98565338|37.28840919833333
1498654098859|20|10|0|55.98565179|37.28841778666667
1498654098959|20|1|0|55.98565015833332|37.28842640166667
1498654099059|20|20|0|55.98564860166666|37.28843499833334
1498654099159|20|9|0|55.98564703833334|37.28844361166667
1498654099259|20|10|0|55.985645440000006|37.28845224
1498654099359|20|8|0|55.98564382333334|37.288460920000006
1498654099459|21|13|0|55.98564221833333|37.288469635
1498654099559|21|-3|0|55.98564052166667|37.28847849
1498654099659|21|-6|0|55.98563876666667|37.28848753166667
1498654099759|21|-5|0|55.985636993333344|37.28849669000001
1498654099859|22|-8|0|55.98563515000001|37.28850613333333
1498654099959|22|-29|0|55.98563317166666|37.28851573666666
1498654100059|23|-22|0|55.98563118666666|37.28852558666666
1498654100159|24|-10|0|55.98562921333334|37.28853567
1498654100259|24|-5|0|55.985627208333334|37.28854599333334
1498654100359|25|-4|0|55.98562514666668|37.288556650000004
1498654100459|25|8|0|55.98562310833332|37.28856751666666
1498654100559|26|14|0|55.98562102999999|37.28857882666667
1498654100659|26|32|0|55.98561901|37.28859036166667
1498654100759|27|23|0|55.98561688|37.28860210333333
1498654100859|27|11|0|55.98561475|37.28861400833333
1498654100959|28|14|0|55.98561254|37.288625984999996
1498654101059|28|12|0|55.985610311666676|37.288638035
1498654101159|28|3|0|55.985608035|37.28865003166666
1498654101259|28|-6|0|55.985605703333334|37.28866193499999
1498654101359|28|-3|0|55.98560338666667|37.28867381833334
1498654101459|28|-6|0|55.985601065000004|37.288685656666665
1498654101559|28|-12|0|55.98559869833333|37.28869753666667
1498654101659|28|-13|0|55.985596323333326|37.288709355
1498654101759|28|-10|0|55.98559395666667|37.288721245
1498654101859|28|-15|0|55.98559155833333|37.288733125
1498654101959|28|-9|0|55.98558919833334|37.288744941666664
1498654102059|28|0|0|55.98558689166666|37.28875678166667
1498654102159|28|-13|0|55.98558453666666|37.28876853
1498654102259|28|2|0|55.98558223166666|37.28878034666666
1498654102359|28|2|0|55.98557994999999|37.28879215333333
1498654102459|28|10|0|55.98557771000001|37.288803945
1498654102559|28|23|0|55.98557554333334|37.28881575333333
1498654102659|28|5|0|55.985573251666665|37.28882764833334
1498654102759|28|7|0|55.985570985|37.28883951333333
1498654102859|28|16|0|55.98556877999999|37.288851395
1498654102959|28|13|0|55.985566605|37.28886322333334
1498654103059|28|-12|0|55.98556427499999|37.288874969999995
1498654103159|28|-6|0|55.98556199833334|37.28888662666667
1498654103259|27|-30|0|55.98555964666666|37.28889821
1498654103359|27|-30|0|55.98555730333332|37.28890967666667
1498654103459|27|-34|0|55.985554975|37.288920901666664
1498654103559|26|-31|0|55.98555275166666|37.28893211333333
1498654103659|26|-29|0|55.98555056|37.28894331166667
1498654103759|26|-14|0|55.985548456666656|37.288954436666664
1498654103859|26|1|0|55.98554641166667|37.28896550333334
1498654103959|25|17|0|55.98554449333333|37.28897648833334
1498654104059|25|41|0|55.98554271833333|37.28898741666667
1498654104159|25|33|0|55.98554093166668|37.288998174999996
1498654104259|25|35|0|55.985539185|37.28900886666667
1498654104359|24|49|0|55.985537485|37.289019345
1498654104459|24|51|0|55.98553572833333|37.289029613333334
1498654104559|24|39|0|55.985533966666665|37.289039705
1498654104659|23|28|0|55.98553217666666|37.28904953
1498654104759|23|1|0|55.985530338333334|37.28905908666667
1498654104859|22|-22|0|55.98552843833333|37.28906841
1498654104959|22|-32|0|55.985526511666656|37.28907752833334
1498654105059|21|-34|0|55.98552455|37.289086373333326
1498654105159|21|-37|0|55.985522625|37.289095016666664
1498654105259|20|-6|0|55.985520861666664|37.289103445
1498654105359|19|33|0|55.985519185|37.28911174500001
1498654105459|19|26|0|55.98551755833334|37.289119835
1498654105559|18|108|0|55.985516068333325|37.28912772
1498654105659|18|81|0|55.98551462000001|37.28913540333333
1498654105759|17|97|0|55.98551323166666|37.289142870000006
1498654105859|17|137|0|55.98551182833333|37.28915010833334
1498654105959|16|122|0|55.98551046333334|37.289157124999996
1498654106059|16|160|0|55.98550912|37.28916390833333
1498654106159|15|141|0|55.98550779|37.28917045166667
1498654106259|15|129|0|55.98550644833333|37.289176793333326
1498654106359|15|126|0|55.98550511833333|37.28918298166667
1498654106459|14|153|0|55.985503763333334|37.28918888166667
1498654106559|14|175|0|55.98550237999999|37.28919460000001
1498654106659|13|154|0|55.985500968333334|37.28920015833334
1498654106759|13|147|0|55.98549956499999|37.28920554833333
1498654106859|13|109|0|55.985498109999995|37.28921072833333
1498654106959|12|107|0|55.98549663666665|37.289215715
1498654107059|12|147|0|55.98549514666667|37.28922056333334
1498654107159|12|99|0|55.98549359|37.289225198333334
1498654107259|12|157|0|55.985492029999996|37.28922976666667
1498654107359|12|109|0|55.985490383333335|37.289234273333335
1498654107459|12|115|0|55.98548877333332|37.28923864666666
1498654107559|11|207|0|55.98548724333334|37.28924299333333
1498654107659|11|159|0|55.985485665|37.289247180000004
1498654107759|11|146|0|55.98548404500001|37.28925121999999
1498654107859|11|153|0|55.98548233666667|37.28925495166666
1498654107959|11|90|0|55.98548063833333|37.28925879666667
1498654108059|11|154|0|55.98547892833333|37.289262545
1498654108159|11|212|0|55.98547721500001|37.289266285000004
1498654108259|11|172|0|55.985475385|37.289269985
1498654108359|11|164|0|55.985473523333326|37.289273609999995
1498654108459|11|125|0|55.98547161166666|37.28927707333333
1498654108559|11|212|0|55.98546962333334|37.289280726666675
1498654108659|11|150|0|55.985467596666666|37.289284155
1498654108759|10|179|0|55.98546571333333|37.28928751666667
1498654108860|10|125|0|55.98546369333333|37.289290619999996
1498654108960|11|158|0|55.98546163166668|37.289293570000005
1498654109060|11|143|0|55.98545949333334|37.289296615
1498654109160|11|149|0|55.985457323333335|37.28929935666666
1498654109260|11|99|0|55.985455121666675|37.28930206166667
1498654109360|11|199|0|55.98545303833333|37.28930494666666
1498654109460|11|152|0|55.98545079333333|37.28930781
1498654109560|11|153|0|55.98544852666668|37.2893106
1498654109660|10|232|0|55.985446325|37.28931335833333
1498654109760|10|122|0|55.98544394333333|37.28931569666666
1498654109860|10|121|0|55.98544171333332|37.289318003333335
1498654109960|10|122|0|55.98543937666667|37.28932015
1498654110060|10|174|0|55.985437018333336|37.289322305000006
1498654110160|10|162|0|55.98543467833333|37.28932450333334
1498654110260|10|161|0|55.98543234499999|37.28932656166667
1498654110360|10|-462|0|55.985430009999995|37.28932853666667
1498654110460|10|462|0|55.98542760499999|37.289330445000004
1498654110560|10|462|0|55.98542525666667|37.289332380000005
1498654110660|10|462|0|55.985422850000006|37.28933409999999
1498654110760|10|462|0|55.985420583333344|37.289335825
1498654110860|10|462|0|55.985418255|37.28933746333333
1498654110960|10|462|0|55.985415973333325|37.28933895666667
1498654111060|10|462|0|55.985413664999996|37.28933990166667
1498654111160|10|462|0|55.98541124666667|37.289341005000004
1498654111260|10|462|0|55.985408825|37.28934203833334
1498654111360|10|462|0|55.98540658166667|37.289343075000005
1498654111460|9|462|0|55.98540433|37.28934402666666
1498654111560|9|462|0|55.98540199666667|37.28934490333333
1498654111660|9|462|0|55.985399734999994|37.28934556833333
1498654111760|9|462|0|55.98539749166667|37.289345940000004
1498654111860|9|462|0|55.985395258333334|37.28934612166667
1498654111960|9|462|0|55.98539309333334|37.28934616166667
1498654112060|9|462|0|55.985390986666665|37.289346374999994
1498654112160|8|462|0|55.985388913333324|37.28934648333333
1498654112260|8|462|0|55.985386878333344|37.28934651833333
1498654112360|8|462|0|55.985384965|37.28934614833334
1498654112460|8|462|0|55.98538316999999|37.28934572833334
1498654112560|8|462|0|55.98538131333333|37.28934512166666
1498654112660|8|462|0|55.98537953833334|37.28934447833334
1498654112760|7|462|0|55.98537784166666|37.28934373166667
1498654112860|7|462|0|55.98537631666666|37.28934291
1498654112960|7|462|0|55.98537482333333|37.28934196
1498654113060|7|462|0|55.98537344333334|37.289340905
1498654113160|7|462|0|55.98537195166667|37.289339856666665
1498654113260|6|462|0|55.98537064833334|37.289338733333345
